xof 0303txt 0032
template ColorRGBA {
 <35ff44e0-6c7c-11cf-8f52-0040333594a3>
 FLOAT red;
 FLOAT green;
 FLOAT blue;
 FLOAT alpha;
}

template ColorRGB {
 <d3e16e81-7835-11cf-8f52-0040333594a3>
 FLOAT red;
 FLOAT green;
 FLOAT blue;
}

template Material {
 <3d82ab4d-62da-11cf-ab39-0020af71e433>
 ColorRGBA faceColor;
 FLOAT power;
 ColorRGB specularColor;
 ColorRGB emissiveColor;
 [...]
}

template TextureFilename {
 <a42790e1-7810-11cf-8f52-0040333594a3>
 STRING filename;
}

template Frame {
 <3d82ab46-62da-11cf-ab39-0020af71e433>
 [...]
}

template Matrix4x4 {
 <f6f23f45-7686-11cf-8f52-0040333594a3>
 array FLOAT matrix[16];
}

template FrameTransformMatrix {
 <f6f23f41-7686-11cf-8f52-0040333594a3>
 Matrix4x4 frameMatrix;
}

template Vector {
 <3d82ab5e-62da-11cf-ab39-0020af71e433>
 FLOAT x;
 FLOAT y;
 FLOAT z;
}

template MeshFace {
 <3d82ab5f-62da-11cf-ab39-0020af71e433>
 DWORD nFaceVertexIndices;
 array DWORD faceVertexIndices[nFaceVertexIndices];
}

template Mesh {
 <3d82ab44-62da-11cf-ab39-0020af71e433>
 DWORD nVertices;
 array Vector vertices[nVertices];
 DWORD nFaces;
 array MeshFace faces[nFaces];
 [...]
}

template MeshNormals {
 <f6f23f43-7686-11cf-8f52-0040333594a3>
 DWORD nNormals;
 array Vector normals[nNormals];
 DWORD nFaceNormals;
 array MeshFace faceNormals[nFaceNormals];
}

template MeshMaterialList {
 <f6f23f42-7686-11cf-8f52-0040333594a3>
 DWORD nMaterials;
 DWORD nFaceIndexes;
 array DWORD faceIndexes[nFaceIndexes];
 [Material <3d82ab4d-62da-11cf-ab39-0020af71e433>]
}

template Coords2d {
 <f6f23f44-7686-11cf-8f52-0040333594a3>
 FLOAT u;
 FLOAT v;
}

template MeshTextureCoords {
 <f6f23f40-7686-11cf-8f52-0040333594a3>
 DWORD nTextureCoords;
 array Coords2d textureCoords[nTextureCoords];
}


Material _03_-_Default {
 1.000000;1.000000;1.000000;1.000000;;
 10.000000;
 0.000000;0.000000;0.000000;;
 0.000000;0.000000;0.000000;;

 TextureFilename {
  "Objects_Knife.png";
 }
}

Frame Knife {
 

 FrameTransformMatrix {
  1.000000,0.000000,-0.000000,0.000000,0.000000,1.000000,0.000000,0.000000,0.000000,0.000000,1.000000,0.000000,0.000000,0.000000,0.000000,1.000000;;
 }

 Mesh Knife {
  144;
  0.002224;0.167708;0.004078;,
  0.000338;0.175941;-0.014696;,
  0.000338;0.205598;-0.002268;,
  0.001227;0.133225;-0.025148;,
  0.002224;0.071888;0.005286;,
  0.002224;0.073087;-0.030566;,
  -0.001548;0.167708;0.004078;,
  0.002224;0.167708;0.004078;,
  0.000338;0.205598;-0.002268;,
  0.000338;0.175941;-0.014696;,
  0.001227;0.133225;-0.025148;,
  -0.000551;0.133225;-0.025148;,
  0.002224;0.073087;-0.030566;,
  -0.001548;0.073087;-0.030566;,
  -0.001548;0.073087;-0.030566;,
  0.002224;0.071888;0.005286;,
  -0.001548;0.071888;0.005286;,
  0.002224;0.073087;-0.030566;,
  -0.001548;0.071888;0.005286;,
  0.002224;0.071888;0.005286;,
  -0.001548;0.071888;0.005286;,
  -0.000551;0.133225;-0.025148;,
  -0.001548;0.073087;-0.030566;,
  0.000338;0.205598;-0.002268;,
  0.000338;0.175941;-0.014696;,
  -0.001548;0.167708;0.004078;,
  0.004714;0.071500;0.006635;,
  0.004714;0.064953;-0.022919;,
  0.004714;0.071258;-0.022396;,
  0.004714;0.062602;-0.014003;,
  0.004714;0.059202;-0.011356;,
  0.004714;-0.015747;-0.014434;,
  0.004714;-0.023007;-0.012867;,
  0.004714;-0.018204;-0.017263;,
  0.004714;-0.025765;-0.001325;,
  0.004714;-0.022504;0.005377;,
  0.004714;-0.003070;-0.009196;,
  0.004714;0.025016;-0.013493;,
  0.004714;0.031743;0.007896;,
  0.004714;0.048297;-0.011326;,
  -0.004714;-0.015747;-0.014434;,
  0.004714;-0.018204;-0.017263;,
  -0.004714;-0.018204;-0.017263;,
  0.002829;-0.014511;-0.013010;,
  0.004714;-0.015747;-0.014434;,
  -0.002829;-0.014511;-0.013010;,
  -0.004714;-0.018204;-0.017263;,
  -0.002829;-0.024398;-0.011593;,
  -0.004714;-0.023007;-0.012867;,
  0.004714;-0.023007;-0.012867;,
  0.002829;-0.024398;-0.011593;,
  0.004714;-0.018204;-0.017263;,
  0.002829;-0.027794;-0.001185;,
  -0.002829;-0.027794;-0.001185;,
  0.002829;-0.023691;0.007247;,
  -0.002829;-0.023691;0.007247;,
  -0.002829;-0.023691;0.007247;,
  0.002829;0.029859;0.007956;,
  -0.002829;0.029859;0.007956;,
  0.002829;-0.023691;0.007247;,
  -0.002829;0.029859;0.007956;,
  -0.004714;0.071500;0.006635;,
  -0.004714;0.031743;0.007896;,
  -0.004714;0.071500;0.006635;,
  0.004714;0.071258;-0.022396;,
  -0.004714;0.071258;-0.022396;,
  0.004714;0.071500;0.006635;,
  -0.004714;0.071258;-0.022396;,
  0.004714;0.064953;-0.022919;,
  -0.004714;0.064953;-0.022919;,
  0.004714;0.071258;-0.022396;,
  -0.004714;0.064953;-0.022919;,
  0.004714;0.062602;-0.014003;,
  -0.004714;0.062602;-0.014003;,
  0.004714;0.064953;-0.022919;,
  -0.002829;0.057714;-0.010198;,
  -0.004714;0.059202;-0.011356;,
  0.004714;0.059202;-0.011356;,
  0.002829;0.057714;-0.010198;,
  0.002829;0.048686;-0.013184;,
  -0.002829;0.048686;-0.013184;,
  0.002829;0.024960;-0.015392;,
  -0.002829;0.024960;-0.015392;,
  0.002829;-0.003058;-0.011105;,
  -0.002829;-0.003058;-0.011105;,
  -0.004714;-0.003070;-0.009196;,
  -0.004714;0.048297;-0.011326;,
  -0.004714;0.025016;-0.013493;,
  -0.004714;0.059202;-0.011356;,
  -0.004714;0.062602;-0.014003;,
  -0.004714;0.071258;-0.022396;,
  -0.004714;0.064953;-0.022919;,
  -0.004714;0.071500;0.006635;,
  -0.004714;-0.022504;0.005377;,
  -0.004714;0.031743;0.007896;,
  -0.004714;-0.023007;-0.012867;,
  -0.004714;-0.025765;-0.001325;,
  -0.004714;-0.015747;-0.014434;,
  -0.004714;-0.018204;-0.017263;,
  -0.002829;0.057714;-0.010198;,
  -0.004714;0.048297;-0.011326;,
  -0.004714;0.059202;-0.011356;,
  -0.002829;0.048686;-0.013184;,
  -0.004714;0.025016;-0.013493;,
  -0.002829;0.024960;-0.015392;,
  -0.004714;-0.003070;-0.009196;,
  -0.002829;-0.003058;-0.011105;,
  -0.004714;-0.015747;-0.014434;,
  -0.002829;-0.014511;-0.013010;,
  0.004714;0.059202;-0.011356;,
  0.002829;0.048686;-0.013184;,
  0.002829;0.057714;-0.010198;,
  0.004714;0.048297;-0.011326;,
  0.002829;0.024960;-0.015392;,
  0.004714;0.025016;-0.013493;,
  0.002829;-0.003058;-0.011105;,
  0.004714;-0.003070;-0.009196;,
  0.002829;-0.014511;-0.013010;,
  0.004714;-0.015747;-0.014434;,
  -0.002829;-0.023691;0.007247;,
  -0.004714;0.031743;0.007896;,
  -0.004714;-0.022504;0.005377;,
  -0.002829;0.029859;0.007956;,
  -0.002829;-0.027794;-0.001185;,
  -0.004714;-0.022504;0.005377;,
  -0.004714;-0.025765;-0.001325;,
  -0.002829;-0.023691;0.007247;,
  -0.002829;-0.024398;-0.011593;,
  -0.004714;-0.023007;-0.012867;,
  0.004714;-0.023007;-0.012867;,
  0.002829;-0.027794;-0.001185;,
  0.002829;-0.024398;-0.011593;,
  0.004714;-0.025765;-0.001325;,
  0.002829;-0.023691;0.007247;,
  0.004714;-0.022504;0.005377;,
  0.004714;-0.022504;0.005377;,
  0.002829;0.029859;0.007956;,
  0.002829;-0.023691;0.007247;,
  0.004714;0.031743;0.007896;,
  0.004714;0.071500;0.006635;,
  0.002829;0.029859;0.007956;,
  0.004714;0.031743;0.007896;,
  0.004714;0.071500;0.006635;,
  -0.004714;0.071500;0.006635;;
  104;
  3;0,1,2;,
  3;0,3,1;,
  3;3,4,5;,
  3;0,4,3;,
  3;6,7,8;,
  3;9,10,11;,
  3;11,12,13;,
  3;12,11,10;,
  3;14,15,16;,
  3;15,14,17;,
  3;18,7,6;,
  3;7,18,19;,
  3;20,21,22;,
  3;21,23,24;,
  3;20,23,21;,
  3;25,23,20;,
  3;26,27,28;,
  3;26,29,27;,
  3;26,30,29;,
  3;31,32,33;,
  3;31,34,32;,
  3;31,35,34;,
  3;36,35,31;,
  3;37,35,36;,
  3;37,38,35;,
  3;39,38,37;,
  3;30,38,39;,
  3;26,38,30;,
  3;40,41,42;,
  3;41,43,44;,
  3;40,43,41;,
  3;45,43,40;,
  3;46,47,48;,
  3;47,49,50;,
  3;46,49,47;,
  3;46,51,49;,
  3;47,52,53;,
  3;52,47,50;,
  3;53,54,55;,
  3;54,53,52;,
  3;56,57,58;,
  3;57,56,59;,
  3;60,61,62;,
  3;63,64,65;,
  3;64,63,66;,
  3;67,68,69;,
  3;68,67,70;,
  3;71,72,73;,
  3;72,71,74;,
  3;73,75,76;,
  3;75,77,78;,
  3;73,77,75;,
  3;73,72,77;,
  3;75,79,80;,
  3;79,75,78;,
  3;80,81,82;,
  3;81,80,79;,
  3;82,83,84;,
  3;83,82,81;,
  3;84,43,45;,
  3;43,84,83;,
  3;85,86,87;,
  3;85,88,86;,
  3;89,90,91;,
  3;89,92,90;,
  3;88,92,89;,
  3;85,92,88;,
  3;92,93,94;,
  3;93,95,96;,
  3;92,95,93;,
  3;85,95,92;,
  3;97,95,85;,
  3;97,98,95;,
  3;99,100,101;,
  3;100,99,102;,
  3;102,103,100;,
  3;103,102,104;,
  3;104,105,103;,
  3;105,104,106;,
  3;106,107,105;,
  3;107,106,108;,
  3;109,110,111;,
  3;110,109,112;,
  3;112,113,110;,
  3;113,112,114;,
  3;114,115,113;,
  3;115,114,116;,
  3;116,117,115;,
  3;117,116,118;,
  3;119,120,121;,
  3;120,119,122;,
  3;123,124,125;,
  3;124,123,126;,
  3;127,125,128;,
  3;125,127,123;,
  3;129,130,131;,
  3;130,129,132;,
  3;132,133,130;,
  3;133,132,134;,
  3;135,136,137;,
  3;136,135,138;,
  3;139,140,141;,
  3;58,142,143;,
  3;142,58,57;;

  MeshNormals {
   144;
   0.997029;0.029147;-0.071295;,
   0.995795;0.037940;-0.083384;,
   0.995795;0.035406;-0.084495;,
   0.999351;0.009104;-0.034860;,
   0.999888;0.011543;-0.009481;,
   0.999863;0.016520;0.000553;,
   -0.000000;0.087947;0.996125;,
   -0.000000;0.087947;0.996125;,
   -0.000000;0.165183;0.986263;,
   0.000001;0.237677;-0.971344;,
   0.000001;0.163296;-0.986577;,
   0.000001;0.163297;-0.986577;,
   0.000000;0.089727;-0.995966;,
   0.000000;0.089727;-0.995966;,
   0.000000;-0.999441;-0.033418;,
   0.000000;-0.999441;-0.033418;,
   0.000000;-0.999441;-0.033418;,
   0.000000;-0.999441;-0.033418;,
   -0.000000;0.012614;0.999920;,
   -0.000000;0.012614;0.999920;,
   -0.999833;0.015214;-0.010139;,
   -0.999865;0.015122;-0.006414;,
   -0.999863;0.016520;0.000552;,
   -0.996290;0.016121;-0.084540;,
   -0.991726;0.049612;-0.118396;,
   -0.952043;-0.003860;-0.305940;,
   1.000000;0.000000;0.000000;,
   1.000000;0.000000;0.000000;,
   1.000000;0.000000;0.000000;,
   1.000000;0.000000;0.000000;,
   1.000000;0.000000;0.000000;,
   1.000000;0.000000;0.000000;,
   1.000000;0.000000;0.000000;,
   1.000000;0.000000;0.000000;,
   1.000000;0.000000;0.000000;,
   1.000000;0.000000;0.000000;,
   1.000000;0.000000;0.000000;,
   1.000000;0.000000;0.000000;,
   1.000000;0.000000;0.000000;,
   1.000000;0.000000;0.000000;,
   0.100401;0.632829;-0.767755;,
   0.000000;0.755122;-0.655584;,
   0.000000;0.755122;-0.655584;,
   -0.120569;0.483100;-0.867224;,
   -0.115967;0.668870;-0.734278;,
   0.208629;0.421928;-0.882299;,
   0.000001;-0.675226;-0.737611;,
   0.000001;-0.810965;-0.585095;,
   0.000007;-0.675225;-0.737612;,
   -0.000000;-0.675227;-0.737610;,
   0.000000;-0.810967;-0.585092;,
   0.000000;-0.675225;-0.737612;,
   0.000000;-0.997641;0.068650;,
   -0.000000;-0.997641;0.068651;,
   -0.000000;-0.899213;0.437510;,
   -0.000000;-0.899213;0.437510;,
   -0.000000;-0.013242;0.999912;,
   -0.000000;0.009560;0.999954;,
   -0.000000;0.009560;0.999954;,
   -0.000000;-0.013242;0.999912;,
   -0.034179;-0.002482;0.999413;,
   0.000002;0.031719;0.999497;,
   -0.021791;0.020117;0.999560;,
   0.000000;0.999965;-0.008348;,
   0.000000;0.999965;-0.008348;,
   0.000000;0.999965;-0.008348;,
   0.000000;0.999965;-0.008348;,
   0.000000;0.082692;-0.996575;,
   0.000000;0.082692;-0.996575;,
   0.000000;0.082692;-0.996575;,
   0.000000;0.082692;-0.996575;,
   0.000000;-0.966936;-0.255019;,
   0.000000;-0.834473;-0.551050;,
   -0.000000;-0.834473;-0.551050;,
   0.000000;-0.966936;-0.255019;,
   0.152404;-0.168318;-0.973880;,
   0.164557;-0.467517;-0.868533;,
   -0.141638;-0.405409;-0.903096;,
   -0.253512;-0.095802;-0.962577;,
   0.339419;0.137930;-0.930468;,
   -0.374692;0.189735;-0.907528;,
   0.000000;-0.029503;-0.999565;,
   0.000000;-0.029503;-0.999565;,
   0.400074;0.005934;-0.916464;,
   -0.372788;0.053895;-0.926350;,
   -1.000000;-0.000000;0.000000;,
   -1.000000;-0.000000;0.000001;,
   -1.000000;-0.000000;-0.000000;,
   -1.000000;-0.000000;-0.000000;,
   -1.000000;-0.000000;-0.000000;,
   -1.000000;-0.000000;-0.000000;,
   -1.000000;-0.000000;-0.000000;,
   -1.000000;-0.000000;-0.000000;,
   -1.000000;-0.000000;-0.000000;,
   -1.000000;-0.000000;-0.000000;,
   -1.000000;-0.000000;-0.000000;,
   -1.000000;-0.000000;-0.000000;,
   -1.000000;-0.000000;-0.000000;,
   -1.000000;-0.000000;-0.000000;,
   0.152404;-0.168318;-0.973880;,
   -0.656579;0.134179;-0.742227;,
   0.164557;-0.467517;-0.868533;,
   -0.374692;0.189735;-0.907528;,
   -0.709752;-0.020783;-0.704145;,
   -0.709752;-0.020783;-0.704145;,
   -0.709712;0.076133;-0.700366;,
   -0.372788;0.053895;-0.926350;,
   0.100401;0.632829;-0.767755;,
   0.208629;0.421928;-0.882299;,
   -0.141638;-0.405409;-0.903096;,
   0.339419;0.137930;-0.930468;,
   -0.253512;-0.095802;-0.962577;,
   0.704962;0.034296;-0.708415;,
   0.709753;-0.020783;-0.704144;,
   0.709753;-0.020783;-0.704144;,
   0.400074;0.005934;-0.916464;,
   0.671572;0.017151;-0.740741;,
   -0.120569;0.483100;-0.867224;,
   -0.115967;0.668870;-0.734278;,
   -0.699893;-0.032166;0.713523;,
   -0.021791;0.020117;0.999560;,
   -0.714036;-0.032481;0.699355;,
   -0.034179;-0.002482;0.999413;,
   -0.733320;-0.678280;0.046674;,
   -0.707107;-0.635840;0.309367;,
   -0.722080;-0.689893;0.051468;,
   -0.707108;-0.635839;0.309366;,
   -0.515853;-0.831673;-0.205465;,
   -0.488914;-0.848443;-0.202751;,
   0.508313;-0.822542;-0.255034;,
   0.719104;-0.691593;0.067744;,
   0.441283;-0.853098;-0.278377;,
   0.732917;-0.675633;0.079700;,
   0.707107;-0.635839;0.309368;,
   0.707108;-0.635838;0.309368;,
   0.698599;-0.010083;0.715442;,
   0.069944;-0.027222;0.997179;,
   0.707107;-0.009363;0.707044;,
   0.019532;0.012183;0.999735;,
   -0.000002;0.031719;0.999497;,
   0.069944;-0.027222;0.997179;,
   0.019532;0.012183;0.999735;,
   -0.000000;0.031719;0.999497;,
   -0.000000;0.031719;0.999497;;
   104;
   3;0,1,2;,
   3;0,3,1;,
   3;3,4,5;,
   3;0,4,3;,
   3;6,7,8;,
   3;9,10,11;,
   3;11,12,13;,
   3;12,11,10;,
   3;14,15,16;,
   3;15,14,17;,
   3;18,7,6;,
   3;7,18,19;,
   3;20,21,22;,
   3;21,23,24;,
   3;20,23,21;,
   3;25,23,20;,
   3;26,27,28;,
   3;26,29,27;,
   3;26,30,29;,
   3;31,32,33;,
   3;31,34,32;,
   3;31,35,34;,
   3;36,35,31;,
   3;37,35,36;,
   3;37,38,35;,
   3;39,38,37;,
   3;30,38,39;,
   3;26,38,30;,
   3;40,41,42;,
   3;41,43,44;,
   3;40,43,41;,
   3;45,43,40;,
   3;46,47,48;,
   3;47,49,50;,
   3;46,49,47;,
   3;46,51,49;,
   3;47,52,53;,
   3;52,47,50;,
   3;53,54,55;,
   3;54,53,52;,
   3;56,57,58;,
   3;57,56,59;,
   3;60,61,62;,
   3;63,64,65;,
   3;64,63,66;,
   3;67,68,69;,
   3;68,67,70;,
   3;71,72,73;,
   3;72,71,74;,
   3;73,75,76;,
   3;75,77,78;,
   3;73,77,75;,
   3;73,72,77;,
   3;75,79,80;,
   3;79,75,78;,
   3;80,81,82;,
   3;81,80,79;,
   3;82,83,84;,
   3;83,82,81;,
   3;84,43,45;,
   3;43,84,83;,
   3;85,86,87;,
   3;85,88,86;,
   3;89,90,91;,
   3;89,92,90;,
   3;88,92,89;,
   3;85,92,88;,
   3;92,93,94;,
   3;93,95,96;,
   3;92,95,93;,
   3;85,95,92;,
   3;97,95,85;,
   3;97,98,95;,
   3;99,100,101;,
   3;100,99,102;,
   3;102,103,100;,
   3;103,102,104;,
   3;104,105,103;,
   3;105,104,106;,
   3;106,107,105;,
   3;107,106,108;,
   3;109,110,111;,
   3;110,109,112;,
   3;112,113,110;,
   3;113,112,114;,
   3;114,115,113;,
   3;115,114,116;,
   3;116,117,115;,
   3;117,116,118;,
   3;119,120,121;,
   3;120,119,122;,
   3;123,124,125;,
   3;124,123,126;,
   3;127,125,128;,
   3;125,127,123;,
   3;129,130,131;,
   3;130,129,132;,
   3;132,133,130;,
   3;133,132,134;,
   3;135,136,137;,
   3;136,135,138;,
   3;139,140,141;,
   3;58,142,143;,
   3;142,58,57;;
  }

  MeshMaterialList {
   1;
   104;
   0,
   0,
   0,
   0,
   0,
   0,
   0,
   0,
   0,
   0,
   0,
   0,
   0,
   0,
   0,
   0,
   0,
   0,
   0,
   0,
   0,
   0,
   0,
   0,
   0,
   0,
   0,
   0,
   0,
   0,
   0,
   0,
   0,
   0,
   0,
   0,
   0,
   0,
   0,
   0,
   0,
   0,
   0,
   0,
   0,
   0,
   0,
   0,
   0,
   0,
   0,
   0,
   0,
   0,
   0,
   0,
   0,
   0,
   0,
   0,
   0,
   0,
   0,
   0,
   0,
   0,
   0,
   0,
   0,
   0,
   0,
   0,
   0,
   0,
   0,
   0,
   0,
   0,
   0,
   0,
   0,
   0,
   0,
   0,
   0,
   0,
   0,
   0,
   0,
   0,
   0,
   0,
   0,
   0,
   0,
   0,
   0,
   0,
   0,
   0,
   0,
   0,
   0,
   0;
   { _03_-_Default }
  }

  MeshTextureCoords c1 {
   144;
   0.830253;0.168869;,
   0.642757;0.135105;,
   0.766873;0.013478;,
   0.538369;0.310283;,
   0.842325;0.551788;,
   0.484259;0.556915;,
   0.860944;0.159876;,
   0.830253;0.168869;,
   0.766873;0.013478;,
   0.642757;0.135105;,
   0.538369;0.310283;,
   0.538369;0.310283;,
   0.484259;0.556915;,
   0.484259;0.556915;,
   0.484259;0.556915;,
   0.842325;0.551788;,
   0.842325;0.551788;,
   0.484259;0.556915;,
   0.878368;0.546050;,
   0.842325;0.551788;,
   0.842325;0.551788;,
   0.538369;0.310283;,
   0.484259;0.556915;,
   0.766873;0.013478;,
   0.642757;0.135105;,
   0.830253;0.168869;,
   0.855790;0.563423;,
   0.560630;0.590273;,
   0.565855;0.564416;,
   0.649678;0.599917;,
   0.676108;0.613859;,
   0.645375;0.921230;,
   0.661025;0.951002;,
   0.617115;0.931305;,
   0.776298;0.962313;,
   0.843227;0.948941;,
   0.697686;0.869241;,
   0.654772;0.754055;,
   0.868390;0.726468;,
   0.676410;0.658579;,
   0.127795;0.506140;,
   0.043873;0.468656;,
   0.133342;0.466043;,
   0.061303;0.537348;,
   0.054737;0.513979;,
   0.118367;0.537348;,
   0.133342;0.466043;,
   0.130888;0.341317;,
   0.133573;0.376774;,
   0.047109;0.397677;,
   0.053261;0.362220;,
   0.043873;0.468656;,
   0.053724;0.248553;,
   0.129964;0.247246;,
   0.059733;0.190382;,
   0.119794;0.190382;,
   0.119794;0.190382;,
   0.059733;0.130995;,
   0.119794;0.130995;,
   0.059733;0.190382;,
   0.119794;0.130995;,
   0.139814;0.052238;,
   0.139814;0.129899;,
   0.341656;0.928542;,
   0.395650;0.218927;,
   0.358963;0.224168;,
   0.403239;0.925922;,
   0.139814;0.844035;,
   0.039713;0.791442;,
   0.139814;0.791442;,
   0.039713;0.844035;,
   0.139814;0.791442;,
   0.039121;0.760853;,
   0.139222;0.760852;,
   0.039713;0.791442;,
   0.119794;0.723549;,
   0.139814;0.724598;,
   0.039713;0.724598;,
   0.059733;0.723549;,
   0.059733;0.668832;,
   0.119794;0.668832;,
   0.059733;0.628372;,
   0.119794;0.628372;,
   0.060304;0.573050;,
   0.118938;0.568212;,
   0.697686;0.869241;,
   0.676410;0.658579;,
   0.654772;0.754055;,
   0.676108;0.613859;,
   0.649678;0.599917;,
   0.565855;0.564416;,
   0.560630;0.590273;,
   0.855790;0.563423;,
   0.843227;0.948941;,
   0.868390;0.726468;,
   0.661025;0.951002;,
   0.776298;0.962313;,
   0.645375;0.921230;,
   0.617115;0.931305;,
   0.656391;0.619962;,
   0.676410;0.658579;,
   0.676108;0.613859;,
   0.657856;0.656986;,
   0.654772;0.754055;,
   0.635805;0.754285;,
   0.697686;0.869241;,
   0.678615;0.869191;,
   0.645375;0.921230;,
   0.643449;0.899840;,
   0.676108;0.613859;,
   0.657856;0.656986;,
   0.656391;0.619962;,
   0.676410;0.658579;,
   0.635805;0.754285;,
   0.654772;0.754055;,
   0.678615;0.869191;,
   0.697686;0.869241;,
   0.643449;0.899840;,
   0.645375;0.921230;,
   0.861905;0.965108;,
   0.868390;0.726468;,
   0.843227;0.948941;,
   0.879080;0.734197;,
   0.777692;0.986955;,
   0.843227;0.948941;,
   0.776298;0.962313;,
   0.861905;0.965108;,
   0.673742;0.973026;,
   0.661025;0.951002;,
   0.661025;0.951002;,
   0.777692;0.986955;,
   0.673742;0.973026;,
   0.776298;0.962313;,
   0.861905;0.965108;,
   0.843227;0.948941;,
   0.843227;0.948941;,
   0.879080;0.734197;,
   0.861905;0.965108;,
   0.868390;0.726468;,
   0.039713;0.052238;,
   0.059733;0.130995;,
   0.039713;0.129899;,
   0.039713;0.052238;,
   0.139814;0.052238;;
  }
 }
}