xof 0303txt 0032
template ColorRGBA {
 <35ff44e0-6c7c-11cf-8f52-0040333594a3>
 FLOAT red;
 FLOAT green;
 FLOAT blue;
 FLOAT alpha;
}

template ColorRGB {
 <d3e16e81-7835-11cf-8f52-0040333594a3>
 FLOAT red;
 FLOAT green;
 FLOAT blue;
}

template Material {
 <3d82ab4d-62da-11cf-ab39-0020af71e433>
 ColorRGBA faceColor;
 FLOAT power;
 ColorRGB specularColor;
 ColorRGB emissiveColor;
 [...]
}

template TextureFilename {
 <a42790e1-7810-11cf-8f52-0040333594a3>
 STRING filename;
}

template Frame {
 <3d82ab46-62da-11cf-ab39-0020af71e433>
 [...]
}

template Matrix4x4 {
 <f6f23f45-7686-11cf-8f52-0040333594a3>
 array FLOAT matrix[16];
}

template FrameTransformMatrix {
 <f6f23f41-7686-11cf-8f52-0040333594a3>
 Matrix4x4 frameMatrix;
}

template Vector {
 <3d82ab5e-62da-11cf-ab39-0020af71e433>
 FLOAT x;
 FLOAT y;
 FLOAT z;
}

template MeshFace {
 <3d82ab5f-62da-11cf-ab39-0020af71e433>
 DWORD nFaceVertexIndices;
 array DWORD faceVertexIndices[nFaceVertexIndices];
}

template Mesh {
 <3d82ab44-62da-11cf-ab39-0020af71e433>
 DWORD nVertices;
 array Vector vertices[nVertices];
 DWORD nFaces;
 array MeshFace faces[nFaces];
 [...]
}

template MeshNormals {
 <f6f23f43-7686-11cf-8f52-0040333594a3>
 DWORD nNormals;
 array Vector normals[nNormals];
 DWORD nFaceNormals;
 array MeshFace faceNormals[nFaceNormals];
}

template MeshMaterialList {
 <f6f23f42-7686-11cf-8f52-0040333594a3>
 DWORD nMaterials;
 DWORD nFaceIndexes;
 array DWORD faceIndexes[nFaceIndexes];
 [Material <3d82ab4d-62da-11cf-ab39-0020af71e433>]
}

template Coords2d {
 <f6f23f44-7686-11cf-8f52-0040333594a3>
 FLOAT u;
 FLOAT v;
}

template MeshTextureCoords {
 <f6f23f40-7686-11cf-8f52-0040333594a3>
 DWORD nTextureCoords;
 array Coords2d textureCoords[nTextureCoords];
}


Material _02_-_Default {
 1.000000;1.000000;1.000000;1.000000;;
 9.999999;
 0.000000;0.000000;0.000000;;
 0.000000;0.000000;0.000000;;

 TextureFilename {
  "LeadPipe.png";
 }
}

Frame LeadPipe {
 

 FrameTransformMatrix {
  1.000000,0.000000,0.000000,0.000000,0.000000,1.000000,0.000000,0.000000,0.000000,0.000000,1.000000,0.000000,-0.000000,0.000000,0.000000,1.000000;;
 }

 Mesh LeadPipe {
  170;
  0.011061;0.294301;0.019158;,
  0.022121;0.302337;0.000000;,
  0.011061;0.302335;0.019158;,
  0.022121;0.294302;0.000000;,
  -0.011061;0.294301;0.019158;,
  0.011061;0.302335;0.019158;,
  -0.011061;0.302336;0.019158;,
  0.011061;0.302335;0.019158;,
  -0.011061;0.294301;0.019158;,
  0.011061;0.294301;0.019158;,
  -0.022121;0.294302;0.000000;,
  -0.011061;0.302336;0.019158;,
  -0.022121;0.302337;0.000000;,
  -0.011061;0.294301;0.019158;,
  -0.011061;0.294302;-0.019158;,
  -0.022121;0.302337;0.000000;,
  -0.011061;0.302336;-0.019158;,
  -0.022121;0.294302;0.000000;,
  0.011061;0.294302;-0.019158;,
  -0.011061;0.302336;-0.019158;,
  0.011061;0.302337;-0.019158;,
  -0.011061;0.302336;-0.019158;,
  0.011061;0.294302;-0.019158;,
  -0.011061;0.294302;-0.019158;,
  0.022121;0.294302;0.000000;,
  0.011061;0.302337;-0.019158;,
  0.022121;0.302337;0.000000;,
  0.011061;0.294302;-0.019158;,
  -0.008671;-0.036903;-0.015018;,
  -0.008671;-0.036903;0.015018;,
  -0.017341;-0.036903;-0.000000;,
  0.017341;-0.036903;0.000000;,
  0.008671;-0.036903;0.015018;,
  0.008671;-0.036903;-0.015018;,
  0.017341;0.302337;0.000000;,
  0.008278;0.331036;0.014923;,
  0.008671;0.302337;0.015018;,
  0.016949;0.331036;-0.000095;,
  0.008671;0.302337;0.015018;,
  -0.009063;0.331036;0.014923;,
  -0.008671;0.302337;0.015018;,
  0.008278;0.331036;0.014923;,
  -0.008671;0.302337;0.015018;,
  -0.017733;0.331036;-0.000095;,
  -0.017341;0.302337;0.000000;,
  -0.009063;0.331036;0.014923;,
  -0.009063;0.331036;-0.015112;,
  -0.008671;0.302337;-0.015018;,
  -0.008671;0.302337;-0.015018;,
  0.008278;0.331036;-0.015112;,
  0.008671;0.302337;-0.015018;,
  -0.009063;0.331036;-0.015112;,
  0.008671;0.302337;-0.015018;,
  0.008278;0.331036;-0.015112;,
  0.016552;0.341611;0.004367;,
  -0.018130;0.341611;0.004367;,
  -0.009460;0.352231;-0.006252;,
  0.007881;0.352231;-0.006252;,
  -0.009460;0.352231;-0.006252;,
  0.007881;0.352231;-0.006252;,
  0.016248;0.346073;0.014916;,
  0.008278;0.331036;0.014923;,
  -0.018434;0.346073;0.014916;,
  -0.009063;0.331036;0.014923;,
  -0.009763;0.361091;0.014916;,
  0.007578;0.361091;0.014916;,
  -0.009763;0.361091;0.014916;,
  0.007578;0.361091;0.014916;,
  -0.009049;0.330681;0.044572;,
  0.008278;0.331036;0.014923;,
  0.008292;0.330681;0.044572;,
  -0.009063;0.331036;0.014923;,
  0.008292;0.330681;0.044572;,
  0.016262;0.345718;0.044565;,
  -0.018420;0.345718;0.044565;,
  -0.009049;0.330681;0.044572;,
  -0.009749;0.360735;0.044565;,
  0.007592;0.360735;0.044565;,
  -0.009749;0.360735;0.044565;,
  0.007592;0.360735;0.044565;,
  -0.009049;0.330681;0.044572;,
  -0.009749;0.360735;0.044565;,
  -0.018420;0.345718;0.044565;,
  -0.009049;0.330681;0.044572;,
  0.007592;0.360735;0.044565;,
  -0.009749;0.360735;0.044565;,
  -0.009049;0.330681;0.044572;,
  0.016262;0.345718;0.044565;,
  0.007592;0.360735;0.044565;,
  -0.009049;0.330681;0.044572;,
  0.008292;0.330681;0.044572;,
  0.016262;0.345718;0.044565;,
  0.008671;0.294302;0.015018;,
  0.017341;-0.036903;0.000000;,
  0.017341;0.294302;0.000000;,
  0.008671;-0.036903;0.015018;,
  -0.008671;0.294302;0.015018;,
  0.008671;-0.036903;0.015018;,
  0.008671;0.294302;0.015018;,
  -0.008671;-0.036903;0.015018;,
  -0.017341;0.294302;0.000000;,
  -0.017341;-0.036903;-0.000000;,
  -0.008671;0.294302;-0.015018;,
  -0.008671;-0.036903;-0.015018;,
  0.008671;0.294302;-0.015018;,
  0.008671;-0.036903;-0.015018;,
  0.011061;0.294301;0.019158;,
  0.017341;0.294302;0.000000;,
  0.022121;0.294302;0.000000;,
  0.017341;0.294302;0.000000;,
  0.011061;0.294301;0.019158;,
  0.008671;0.294302;0.015018;,
  0.022121;0.302337;0.000000;,
  0.008671;0.302337;0.015018;,
  0.011061;0.302335;0.019158;,
  0.008671;0.302337;0.015018;,
  0.022121;0.302337;0.000000;,
  0.017341;0.302337;0.000000;,
  -0.011061;0.294301;0.019158;,
  0.008671;0.294302;0.015018;,
  0.011061;0.294301;0.019158;,
  0.008671;0.294302;0.015018;,
  -0.011061;0.294301;0.019158;,
  -0.008671;0.294302;0.015018;,
  0.011061;0.302335;0.019158;,
  -0.008671;0.302337;0.015018;,
  -0.011061;0.302336;0.019158;,
  -0.008671;0.302337;0.015018;,
  0.011061;0.302335;0.019158;,
  0.008671;0.302337;0.015018;,
  -0.022121;0.294302;0.000000;,
  -0.008671;0.294302;0.015018;,
  -0.011061;0.294301;0.019158;,
  -0.008671;0.294302;0.015018;,
  -0.022121;0.294302;0.000000;,
  -0.017341;0.294302;0.000000;,
  -0.011061;0.302336;0.019158;,
  -0.017341;0.302337;0.000000;,
  -0.022121;0.302337;0.000000;,
  -0.017341;0.302337;0.000000;,
  -0.011061;0.302336;0.019158;,
  -0.008671;0.302337;0.015018;,
  -0.011061;0.294302;-0.019158;,
  -0.017341;0.294302;0.000000;,
  -0.022121;0.294302;0.000000;,
  -0.017341;0.294302;0.000000;,
  -0.011061;0.294302;-0.019158;,
  -0.008671;0.294302;-0.015018;,
  -0.022121;0.302337;0.000000;,
  -0.008671;0.302337;-0.015018;,
  -0.011061;0.302336;-0.019158;,
  -0.008671;0.302337;-0.015018;,
  -0.022121;0.302337;0.000000;,
  -0.017341;0.302337;0.000000;,
  0.011061;0.294302;-0.019158;,
  -0.008671;0.294302;-0.015018;,
  -0.011061;0.294302;-0.019158;,
  -0.008671;0.294302;-0.015018;,
  0.011061;0.294302;-0.019158;,
  0.008671;0.294302;-0.015018;,
  -0.011061;0.302336;-0.019158;,
  0.008671;0.302337;-0.015018;,
  0.011061;0.302337;-0.019158;,
  0.008671;0.302337;-0.015018;,
  -0.011061;0.302336;-0.019158;,
  -0.008671;0.302337;-0.015018;,
  0.022121;0.294302;0.000000;,
  0.017341;0.294302;0.000000;,
  0.011061;0.302337;-0.019158;,
  0.008671;0.302337;-0.015018;;
  96;
  3;0,1,2;,
  3;1,0,3;,
  3;4,5,6;,
  3;7,8,9;,
  3;10,11,12;,
  3;11,10,13;,
  3;14,15,16;,
  3;15,14,17;,
  3;18,19,20;,
  3;21,22,23;,
  3;24,25,26;,
  3;25,24,27;,
  3;28,29,30;,
  3;29,31,32;,
  3;28,31,29;,
  3;28,33,31;,
  3;34,35,36;,
  3;35,34,37;,
  3;38,39,40;,
  3;39,38,41;,
  3;42,43,44;,
  3;43,42,45;,
  3;44,46,47;,
  3;46,44,43;,
  3;48,49,50;,
  3;49,48,51;,
  3;52,37,34;,
  3;37,52,53;,
  3;54,35,37;,
  3;55,43,45;,
  3;43,56,46;,
  3;56,43,55;,
  3;51,57,49;,
  3;57,51,58;,
  3;53,54,37;,
  3;54,53,59;,
  3;60,61,54;,
  3;62,55,63;,
  3;55,64,56;,
  3;64,55,62;,
  3;58,65,57;,
  3;65,58,66;,
  3;59,60,54;,
  3;60,59,67;,
  3;68,69,70;,
  3;69,68,71;,
  3;72,60,73;,
  3;60,72,61;,
  3;74,63,75;,
  3;63,74,62;,
  3;76,62,74;,
  3;62,76,64;,
  3;77,66,78;,
  3;66,77,65;,
  3;73,67,79;,
  3;67,73,60;,
  3;80,81,82;,
  3;83,84,85;,
  3;86,87,88;,
  3;89,90,91;,
  3;92,93,94;,
  3;93,92,95;,
  3;96,97,98;,
  3;97,96,99;,
  3;100,99,96;,
  3;99,100,101;,
  3;102,101,100;,
  3;101,102,103;,
  3;104,103,102;,
  3;103,104,105;,
  3;94,105,104;,
  3;105,94,93;,
  3;106,107,108;,
  3;109,110,111;,
  3;112,113,114;,
  3;115,116,117;,
  3;118,119,120;,
  3;121,122,123;,
  3;124,125,126;,
  3;127,128,129;,
  3;130,131,132;,
  3;133,134,135;,
  3;136,137,138;,
  3;139,140,141;,
  3;142,143,144;,
  3;145,146,147;,
  3;148,149,150;,
  3;151,152,153;,
  3;154,155,156;,
  3;157,158,159;,
  3;160,161,162;,
  3;163,164,165;,
  3;166,159,158;,
  3;159,166,167;,
  3;168,117,116;,
  3;117,168,169;;

  MeshNormals {
   170;
   0.866025;0.000001;0.500000;,
   0.866025;0.000001;0.500000;,
   0.866025;0.000001;0.500000;,
   0.866025;0.000000;0.500000;,
   -0.000000;0.000000;1.000000;,
   -0.000000;0.000000;1.000000;,
   -0.000000;0.000000;1.000000;,
   0.000000;-0.000001;1.000000;,
   0.000000;-0.000001;1.000000;,
   0.000000;-0.000001;1.000000;,
   -0.866026;0.000000;0.500000;,
   -0.866026;0.000000;0.500000;,
   -0.866026;0.000000;0.500000;,
   -0.866026;-0.000000;0.500000;,
   -0.866025;-0.000001;-0.500000;,
   -0.866025;-0.000001;-0.500000;,
   -0.866025;-0.000001;-0.500000;,
   -0.866025;-0.000000;-0.500000;,
   -0.000000;-0.000000;-1.000000;,
   -0.000000;-0.000000;-1.000000;,
   -0.000000;-0.000000;-1.000000;,
   0.000000;0.000001;-1.000000;,
   0.000000;0.000001;-1.000000;,
   0.000000;0.000001;-1.000000;,
   0.866025;-0.000000;-0.500000;,
   0.866025;-0.000000;-0.500000;,
   0.866025;-0.000000;-0.500000;,
   0.866026;0.000000;-0.500000;,
   0.000000;-1.000000;0.000000;,
   0.000000;-1.000000;0.000000;,
   0.000000;-1.000000;0.000000;,
   -0.000000;-1.000000;-0.000000;,
   -0.000000;-1.000000;-0.000000;,
   -0.000000;-1.000000;0.000000;,
   0.999906;0.013674;0.001042;,
   0.582251;-0.028000;0.812527;,
   0.502770;0.009722;0.864365;,
   0.996834;0.050842;-0.061125;,
   0.502770;0.009722;0.864365;,
   -0.585342;-0.051436;0.809153;,
   -0.496267;-0.003924;0.868161;,
   0.582251;-0.028000;0.812527;,
   -0.496267;-0.003924;0.868161;,
   -0.997790;0.005252;-0.066245;,
   -0.999906;-0.013667;0.001055;,
   -0.585342;-0.051436;0.809153;,
   -0.472188;0.160666;-0.866733;,
   -0.497152;-0.009656;-0.867610;,
   -0.497152;-0.009656;-0.867610;,
   0.472236;0.174470;-0.864033;,
   0.503702;0.004040;-0.863868;,
   -0.472188;0.160666;-0.866733;,
   0.503702;0.004040;-0.863868;,
   0.472236;0.174470;-0.864033;,
   0.991079;0.111106;-0.073602;,
   -0.993044;0.061282;-0.100539;,
   -0.455236;0.624980;-0.634161;,
   0.454059;0.634120;-0.625877;,
   -0.455236;0.624980;-0.634161;,
   0.454059;0.634120;-0.625877;,
   0.996415;0.082597;-0.018316;,
   0.603405;-0.796588;0.036747;,
   -0.998131;0.048459;-0.037245;,
   -0.566904;-0.823226;0.030326;,
   -0.473391;0.864956;-0.166591;,
   0.470076;0.867759;-0.161317;,
   -0.473391;0.864956;-0.166591;,
   0.470076;0.867759;-0.161317;,
   -0.483564;-0.875249;-0.010273;,
   0.603405;-0.796588;0.036747;,
   0.513871;-0.857803;-0.010530;,
   -0.566904;-0.823226;0.030326;,
   0.513871;-0.857803;-0.010530;,
   0.999897;0.014323;-0.000296;,
   -0.999782;-0.020866;0.000217;,
   -0.483564;-0.875249;-0.010273;,
   -0.501521;0.865080;0.010610;,
   0.501746;0.864956;0.010139;,
   -0.501521;0.865080;0.010610;,
   0.501746;0.864956;0.010139;,
   -0.000423;0.000240;1.000000;,
   -0.000423;0.000240;1.000000;,
   -0.000423;0.000240;1.000000;,
   -0.000000;0.000250;1.000000;,
   -0.000000;0.000250;1.000000;,
   -0.000000;0.000250;1.000000;,
   0.000224;0.000126;1.000000;,
   0.000224;0.000126;1.000000;,
   0.000224;0.000126;1.000000;,
   0.000000;0.000503;1.000000;,
   0.000000;0.000503;1.000000;,
   0.000000;0.000503;1.000000;,
   0.500000;-0.000000;0.866025;,
   1.000000;-0.000000;0.000000;,
   1.000000;-0.000000;0.000000;,
   0.500000;-0.000000;0.866026;,
   -0.500000;0.000000;0.866025;,
   0.500000;-0.000000;0.866026;,
   0.500000;-0.000000;0.866025;,
   -0.500000;0.000000;0.866025;,
   -1.000000;0.000000;-0.000000;,
   -1.000000;0.000000;-0.000000;,
   -0.500000;0.000000;-0.866026;,
   -0.500000;0.000000;-0.866026;,
   0.500000;0.000000;-0.866025;,
   0.500000;0.000000;-0.866025;,
   0.000000;-1.000000;-0.000076;,
   0.000000;-1.000000;-0.000076;,
   0.000000;-1.000000;-0.000076;,
   -0.000303;-1.000000;-0.000175;,
   -0.000303;-1.000000;-0.000175;,
   -0.000303;-1.000000;-0.000175;,
   0.000244;1.000000;0.000219;,
   0.000244;1.000000;0.000219;,
   0.000244;1.000000;0.000219;,
   0.000000;1.000000;0.000000;,
   0.000000;1.000000;0.000000;,
   0.000000;1.000000;0.000000;,
   -0.000014;-1.000000;-0.000342;,
   -0.000014;-1.000000;-0.000342;,
   -0.000014;-1.000000;-0.000342;,
   0.000000;-1.000000;-0.000276;,
   0.000000;-1.000000;-0.000276;,
   0.000000;-1.000000;-0.000276;,
   0.000014;1.000000;0.000294;,
   0.000014;1.000000;0.000294;,
   0.000014;1.000000;0.000294;,
   -0.000000;1.000000;0.000359;,
   -0.000000;1.000000;0.000359;,
   -0.000000;1.000000;0.000359;,
   0.000188;-1.000000;-0.000168;,
   0.000188;-1.000000;-0.000168;,
   0.000188;-1.000000;-0.000168;,
   0.000000;-1.000000;0.000000;,
   0.000000;-1.000000;0.000000;,
   0.000000;-1.000000;0.000000;,
   -0.000000;1.000000;0.000062;,
   -0.000000;1.000000;0.000062;,
   -0.000000;1.000000;0.000062;,
   -0.000247;1.000000;0.000143;,
   -0.000247;1.000000;0.000143;,
   -0.000247;1.000000;0.000143;,
   0.000000;-1.000000;0.000044;,
   0.000000;-1.000000;0.000044;,
   0.000000;-1.000000;0.000044;,
   0.000176;-1.000000;0.000101;,
   0.000176;-1.000000;0.000101;,
   0.000176;-1.000000;0.000101;,
   -0.000138;1.000000;-0.000123;,
   -0.000138;1.000000;-0.000123;,
   -0.000138;1.000000;-0.000123;,
   0.000000;1.000000;0.000000;,
   0.000000;1.000000;0.000000;,
   0.000000;1.000000;0.000000;,
   0.000038;-1.000000;0.000181;,
   0.000038;-1.000000;0.000181;,
   0.000038;-1.000000;0.000181;,
   0.000000;-1.000000;0.000000;,
   0.000000;-1.000000;0.000000;,
   0.000000;-1.000000;0.000000;,
   -0.000038;1.000000;-0.000022;,
   -0.000038;1.000000;-0.000022;,
   -0.000038;1.000000;-0.000022;,
   0.000000;1.000000;-0.000203;,
   0.000000;1.000000;-0.000203;,
   0.000000;1.000000;-0.000203;,
   0.000000;-1.000000;0.000000;,
   0.000000;-1.000000;0.000000;,
   0.000000;1.000000;0.000000;,
   0.000000;1.000000;0.000000;;
   96;
   3;0,1,2;,
   3;1,0,3;,
   3;4,5,6;,
   3;7,8,9;,
   3;10,11,12;,
   3;11,10,13;,
   3;14,15,16;,
   3;15,14,17;,
   3;18,19,20;,
   3;21,22,23;,
   3;24,25,26;,
   3;25,24,27;,
   3;28,29,30;,
   3;29,31,32;,
   3;28,31,29;,
   3;28,33,31;,
   3;34,35,36;,
   3;35,34,37;,
   3;38,39,40;,
   3;39,38,41;,
   3;42,43,44;,
   3;43,42,45;,
   3;44,46,47;,
   3;46,44,43;,
   3;48,49,50;,
   3;49,48,51;,
   3;52,37,34;,
   3;37,52,53;,
   3;54,35,37;,
   3;55,43,45;,
   3;43,56,46;,
   3;56,43,55;,
   3;51,57,49;,
   3;57,51,58;,
   3;53,54,37;,
   3;54,53,59;,
   3;60,61,54;,
   3;62,55,63;,
   3;55,64,56;,
   3;64,55,62;,
   3;58,65,57;,
   3;65,58,66;,
   3;59,60,54;,
   3;60,59,67;,
   3;68,69,70;,
   3;69,68,71;,
   3;72,60,73;,
   3;60,72,61;,
   3;74,63,75;,
   3;63,74,62;,
   3;76,62,74;,
   3;62,76,64;,
   3;77,66,78;,
   3;66,77,65;,
   3;73,67,79;,
   3;67,73,60;,
   3;80,81,82;,
   3;83,84,85;,
   3;86,87,88;,
   3;89,90,91;,
   3;92,93,94;,
   3;93,92,95;,
   3;96,97,98;,
   3;97,96,99;,
   3;100,99,96;,
   3;99,100,101;,
   3;102,101,100;,
   3;101,102,103;,
   3;104,103,102;,
   3;103,104,105;,
   3;94,105,104;,
   3;105,94,93;,
   3;106,107,108;,
   3;109,110,111;,
   3;112,113,114;,
   3;115,116,117;,
   3;118,119,120;,
   3;121,122,123;,
   3;124,125,126;,
   3;127,128,129;,
   3;130,131,132;,
   3;133,134,135;,
   3;136,137,138;,
   3;139,140,141;,
   3;142,143,144;,
   3;145,146,147;,
   3;148,149,150;,
   3;151,152,153;,
   3;154,155,156;,
   3;157,158,159;,
   3;160,161,162;,
   3;163,164,165;,
   3;166,159,158;,
   3;159,166,167;,
   3;168,117,116;,
   3;117,168,169;;
  }

  MeshMaterialList {
   1;
   96;
   0,
   0,
   0,
   0,
   0,
   0,
   0,
   0,
   0,
   0,
   0,
   0,
   0,
   0,
   0,
   0,
   0,
   0,
   0,
   0,
   0,
   0,
   0,
   0,
   0,
   0,
   0,
   0,
   0,
   0,
   0,
   0,
   0,
   0,
   0,
   0,
   0,
   0,
   0,
   0,
   0,
   0,
   0,
   0,
   0,
   0,
   0,
   0,
   0,
   0,
   0,
   0,
   0,
   0,
   0,
   0,
   0,
   0,
   0,
   0,
   0,
   0,
   0,
   0,
   0,
   0,
   0,
   0,
   0,
   0,
   0,
   0,
   0,
   0,
   0,
   0,
   0,
   0,
   0,
   0,
   0,
   0,
   0,
   0,
   0,
   0,
   0,
   0,
   0,
   0,
   0,
   0,
   0,
   0,
   0,
   0;
   { _02_-_Default }
  }

  MeshTextureCoords c1 {
   170;
   0.350516;0.698565;,
   0.451254;0.751582;,
   0.350915;0.752857;,
   0.450692;0.699679;,
   0.850243;0.700318;,
   0.949385;0.749033;,
   0.850327;0.750947;,
   0.949385;0.749033;,
   0.850243;0.700318;,
   0.950411;0.698563;,
   0.749738;0.700615;,
   0.850327;0.750947;,
   0.750300;0.749937;,
   0.850243;0.700318;,
   0.651419;0.701408;,
   0.750300;0.749937;,
   0.650786;0.749996;,
   0.749738;0.700615;,
   0.551828;0.701250;,
   0.650786;0.749996;,
   0.552548;0.750573;,
   0.650786;0.749996;,
   0.551828;0.701250;,
   0.651419;0.701408;,
   0.450692;0.699679;,
   0.552548;0.750573;,
   0.451254;0.751582;,
   0.551828;0.701250;,
   0.659563;0.858623;,
   0.659563;0.981554;,
   0.624076;0.920088;,
   0.766025;0.920088;,
   0.730538;0.981554;,
   0.730538;0.858623;,
   0.435842;0.616084;,
   0.521054;0.440485;,
   0.521594;0.616084;,
   0.435302;0.440485;,
   0.740535;0.574630;,
   0.670535;0.504630;,
   0.740535;0.504630;,
   0.670535;0.574630;,
   0.522095;0.617312;,
   0.434934;0.439216;,
   0.436097;0.615373;,
   0.521578;0.439862;,
   0.348936;0.439862;,
   0.350745;0.617312;,
   0.784516;0.139830;,
   0.677128;0.051968;,
   0.784516;0.051968;,
   0.677128;0.139830;,
   0.350090;0.616084;,
   0.349550;0.440485;,
   0.460777;0.375783;,
   0.459976;0.376043;,
   0.398676;0.311941;,
   0.589266;0.051968;,
   0.589266;0.139830;,
   0.400141;0.310810;,
   0.521011;0.348483;,
   0.521054;0.440485;,
   0.521536;0.347752;,
   0.521578;0.439862;,
   0.520890;0.255761;,
   0.472116;0.051968;,
   0.472116;0.139830;,
   0.521012;0.256597;,
   0.600535;0.504630;,
   0.670535;0.574630;,
   0.600535;0.574630;,
   0.670535;0.504630;,
   0.690350;0.442661;,
   0.690307;0.350659;,
   0.691417;0.351299;,
   0.688227;0.440824;,
   0.690771;0.259308;,
   0.354966;0.051968;,
   0.354966;0.139830;,
   0.690307;0.258773;,
   0.729029;0.981161;,
   0.729071;0.857673;,
   0.766834;0.921329;,
   0.729029;0.981161;,
   0.659841;0.858642;,
   0.729071;0.857673;,
   0.729029;0.981161;,
   0.624015;0.920361;,
   0.659841;0.858642;,
   0.729029;0.981161;,
   0.661252;0.981646;,
   0.624015;0.920361;,
   0.283549;0.064646;,
   0.244470;0.949773;,
   0.244470;0.064618;,
   0.283549;0.949801;,
   0.088154;0.064599;,
   0.049076;0.949801;,
   0.049076;0.064643;,
   0.088155;0.949757;,
   0.127234;0.064574;,
   0.127234;0.949735;,
   0.166313;0.064572;,
   0.166313;0.949732;,
   0.205392;0.064592;,
   0.205391;0.949749;,
   0.350516;0.698565;,
   0.449598;0.672506;,
   0.450692;0.699679;,
   0.449598;0.672506;,
   0.350516;0.698565;,
   0.349784;0.672796;,
   0.451254;0.751582;,
   0.351728;0.778924;,
   0.350915;0.752857;,
   0.351728;0.778924;,
   0.451254;0.751582;,
   0.451318;0.778714;,
   0.850243;0.700318;,
   0.949663;0.672796;,
   0.950411;0.698563;,
   0.949663;0.672796;,
   0.850243;0.700318;,
   0.850026;0.673937;,
   0.949385;0.749033;,
   0.850154;0.778399;,
   0.850327;0.750947;,
   0.850154;0.778399;,
   0.949385;0.749033;,
   0.949848;0.778923;,
   0.749738;0.700615;,
   0.850026;0.673937;,
   0.850243;0.700318;,
   0.850026;0.673937;,
   0.749738;0.700615;,
   0.751680;0.674117;,
   0.850327;0.750947;,
   0.751341;0.779178;,
   0.750300;0.749937;,
   0.751341;0.779178;,
   0.850327;0.750947;,
   0.850154;0.778399;,
   0.651419;0.701408;,
   0.751680;0.674117;,
   0.749738;0.700615;,
   0.751680;0.674117;,
   0.651419;0.701408;,
   0.652434;0.672322;,
   0.750300;0.749937;,
   0.650389;0.779190;,
   0.650786;0.749996;,
   0.650389;0.779190;,
   0.750300;0.749937;,
   0.751341;0.779178;,
   0.551828;0.701250;,
   0.652434;0.672322;,
   0.651419;0.701408;,
   0.652434;0.672322;,
   0.551828;0.701250;,
   0.549335;0.671820;,
   0.650786;0.749996;,
   0.552634;0.779589;,
   0.552548;0.750573;,
   0.552634;0.779589;,
   0.650786;0.749996;,
   0.650389;0.779190;,
   0.450692;0.699679;,
   0.449598;0.672506;,
   0.552548;0.750573;,
   0.552634;0.779589;;
  }
 }
}