xof 0303txt 0032
template ColorRGBA {
 <35ff44e0-6c7c-11cf-8f52-0040333594a3>
 FLOAT red;
 FLOAT green;
 FLOAT blue;
 FLOAT alpha;
}

template ColorRGB {
 <d3e16e81-7835-11cf-8f52-0040333594a3>
 FLOAT red;
 FLOAT green;
 FLOAT blue;
}

template Material {
 <3d82ab4d-62da-11cf-ab39-0020af71e433>
 ColorRGBA faceColor;
 FLOAT power;
 ColorRGB specularColor;
 ColorRGB emissiveColor;
 [...]
}

template TextureFilename {
 <a42790e1-7810-11cf-8f52-0040333594a3>
 STRING filename;
}

template Frame {
 <3d82ab46-62da-11cf-ab39-0020af71e433>
 [...]
}

template Matrix4x4 {
 <f6f23f45-7686-11cf-8f52-0040333594a3>
 array FLOAT matrix[16];
}

template FrameTransformMatrix {
 <f6f23f41-7686-11cf-8f52-0040333594a3>
 Matrix4x4 frameMatrix;
}

template Vector {
 <3d82ab5e-62da-11cf-ab39-0020af71e433>
 FLOAT x;
 FLOAT y;
 FLOAT z;
}

template MeshFace {
 <3d82ab5f-62da-11cf-ab39-0020af71e433>
 DWORD nFaceVertexIndices;
 array DWORD faceVertexIndices[nFaceVertexIndices];
}

template Mesh {
 <3d82ab44-62da-11cf-ab39-0020af71e433>
 DWORD nVertices;
 array Vector vertices[nVertices];
 DWORD nFaces;
 array MeshFace faces[nFaces];
 [...]
}

template MeshNormals {
 <f6f23f43-7686-11cf-8f52-0040333594a3>
 DWORD nNormals;
 array Vector normals[nNormals];
 DWORD nFaceNormals;
 array MeshFace faceNormals[nFaceNormals];
}

template MeshMaterialList {
 <f6f23f42-7686-11cf-8f52-0040333594a3>
 DWORD nMaterials;
 DWORD nFaceIndexes;
 array DWORD faceIndexes[nFaceIndexes];
 [Material <3d82ab4d-62da-11cf-ab39-0020af71e433>]
}

template Coords2d {
 <f6f23f44-7686-11cf-8f52-0040333594a3>
 FLOAT u;
 FLOAT v;
}

template MeshTextureCoords {
 <f6f23f40-7686-11cf-8f52-0040333594a3>
 DWORD nTextureCoords;
 array Coords2d textureCoords[nTextureCoords];
}


Material _14_-_Default {
 1.000000;1.000000;1.000000;1.000000;;
 9.999999;
 0.000000;0.000000;0.000000;;
 0.000000;0.000000;0.000000;;

 TextureFilename {
  "Machete.png";
 }
}

Frame Machete {
 

 FrameTransformMatrix {
  1.000000,0.000000,-0.000000,0.000000,0.000000,1.000000,0.000000,0.000000,0.000000,0.000000,1.000000,0.000000,0.000000,0.000000,0.000000,1.000000;;
 }

 Mesh Machete {
  135;
  0.002224;0.265123;0.022297;,
  0.000338;0.297688;0.001996;,
  0.000338;0.306711;0.033695;,
  0.000338;0.207003;-0.022017;,
  0.000338;0.271230;-0.017876;,
  0.002224;0.232651;0.015842;,
  -0.001548;0.265123;0.022297;,
  0.002224;0.265123;0.022297;,
  0.000338;0.306711;0.033695;,
  0.000338;0.071055;-0.021907;,
  0.002224;0.070928;0.005286;,
  -0.001548;0.070928;0.005286;,
  -0.001548;0.232651;0.015842;,
  0.002224;0.070928;0.005286;,
  0.002224;0.232651;0.015842;,
  -0.001548;0.070928;0.005286;,
  -0.001548;0.265123;0.022297;,
  0.000338;0.207003;-0.022017;,
  -0.001548;0.232651;0.015842;,
  0.000338;0.297688;0.001996;,
  0.000338;0.271230;-0.017876;,
  0.000338;0.306711;0.033695;,
  0.004714;0.071500;0.006635;,
  0.004714;0.059202;-0.011356;,
  0.004714;0.071258;-0.022396;,
  0.004714;0.071500;0.006635;,
  -0.004714;-0.015747;-0.014434;,
  0.004714;-0.018204;-0.017263;,
  -0.004714;-0.018204;-0.017263;,
  0.004714;-0.015747;-0.014434;,
  -0.004714;-0.018204;-0.017263;,
  0.004714;-0.023007;-0.012867;,
  -0.004714;-0.023007;-0.012867;,
  0.004714;-0.018204;-0.017263;,
  0.002829;-0.027794;-0.001185;,
  -0.002829;-0.027794;-0.001185;,
  0.002829;-0.023691;0.007247;,
  -0.002829;-0.023691;0.007247;,
  -0.002829;-0.023691;0.007247;,
  0.002829;0.031503;0.009523;,
  -0.002829;0.031503;0.009523;,
  0.002829;-0.023691;0.007247;,
  -0.002829;0.031503;0.009523;,
  -0.004714;0.071500;0.006635;,
  -0.004714;0.031743;0.007896;,
  -0.004714;0.071500;0.006635;,
  0.004714;0.071258;-0.022396;,
  -0.004714;0.071258;-0.022396;,
  0.004714;0.071500;0.006635;,
  -0.004714;0.071258;-0.022396;,
  0.004714;0.064953;-0.022919;,
  -0.004714;0.064953;-0.022919;,
  0.004714;0.071258;-0.022396;,
  -0.004714;0.064953;-0.022919;,
  0.004714;0.059202;-0.011356;,
  -0.004714;0.059202;-0.011356;,
  0.004714;0.064953;-0.022919;,
  0.002829;0.048686;-0.013184;,
  -0.002829;0.048686;-0.013184;,
  0.002829;0.024960;-0.015392;,
  -0.002829;0.024960;-0.015392;,
  0.002829;-0.003058;-0.011105;,
  -0.002829;-0.003058;-0.011105;,
  -0.004714;-0.003070;-0.009196;,
  -0.004714;-0.022504;0.005377;,
  -0.004714;0.031743;0.007896;,
  -0.004714;-0.022652;0.005074;,
  -0.004714;-0.015747;-0.014434;,
  -0.004714;0.059202;-0.011356;,
  -0.002829;0.048686;-0.013184;,
  -0.004714;0.048297;-0.011326;,
  -0.004714;0.025016;-0.013493;,
  -0.002829;0.024960;-0.015392;,
  -0.004714;-0.003070;-0.009196;,
  -0.002829;-0.003058;-0.011105;,
  -0.004714;-0.015747;-0.014434;,
  0.004714;0.059202;-0.011356;,
  0.004714;0.048297;-0.011326;,
  0.002829;0.048686;-0.013184;,
  0.002829;0.024960;-0.015392;,
  0.004714;0.025132;-0.013482;,
  0.004714;0.025016;-0.013493;,
  0.002829;-0.003058;-0.011105;,
  0.004714;-0.003070;-0.009196;,
  0.004714;-0.015747;-0.014434;,
  -0.002829;-0.023691;0.007247;,
  -0.004714;0.031743;0.007896;,
  -0.004714;-0.022504;0.005377;,
  -0.002829;0.031503;0.009523;,
  -0.002829;-0.027794;-0.001185;,
  -0.004714;-0.022652;0.005074;,
  -0.004714;-0.025765;-0.001325;,
  -0.004714;-0.022504;0.005377;,
  -0.002829;-0.023691;0.007247;,
  -0.004714;-0.023007;-0.012867;,
  0.004714;-0.023007;-0.012867;,
  0.004714;-0.025765;-0.001325;,
  0.002829;-0.027794;-0.001185;,
  0.002829;-0.023691;0.007247;,
  0.004714;-0.022504;0.005377;,
  0.004714;-0.022504;0.005377;,
  0.002829;0.031503;0.009523;,
  0.002829;-0.023691;0.007247;,
  0.004714;0.031743;0.007896;,
  0.004714;0.071500;0.006635;,
  0.002829;0.031503;0.009523;,
  0.004714;0.031743;0.007896;,
  0.004714;0.071500;0.006635;,
  0.004714;0.071500;0.006635;,
  -0.004714;0.071500;0.006635;,
  0.000338;0.071055;-0.021907;,
  0.002224;0.070928;0.005286;,
  -0.001548;0.070928;0.005286;,
  0.000338;0.071055;-0.021907;,
  -0.004714;-0.023007;-0.012867;,
  -0.004714;-0.018204;-0.017263;,
  -0.004714;-0.025765;-0.001325;,
  -0.004714;0.048297;-0.011326;,
  -0.004714;0.071500;0.006635;,
  -0.004714;0.031487;0.007082;,
  -0.004714;0.025016;-0.013493;,
  -0.004714;0.059202;-0.011356;,
  -0.004714;0.071258;-0.022396;,
  -0.004714;0.064953;-0.022919;,
  0.004714;0.064953;-0.022919;,
  0.004714;0.048297;-0.011326;,
  0.004714;0.031743;0.007896;,
  0.004714;0.025132;-0.013482;,
  0.004714;-0.003070;-0.009196;,
  0.004714;-0.022504;0.005377;,
  0.004714;-0.015747;-0.014434;,
  0.004714;0.025016;-0.013493;,
  0.004714;-0.023007;-0.012867;,
  0.004714;-0.018204;-0.017263;,
  0.004714;-0.025765;-0.001325;;
  98;
  3;0,1,2;,
  3;1,3,4;,
  3;0,3,1;,
  3;0,5,3;,
  3;6,7,8;,
  3;9,10,11;,
  3;12,13,14;,
  3;13,12,15;,
  3;16,17,18;,
  3;17,19,20;,
  3;16,19,17;,
  3;16,21,19;,
  3;22,23,24;,
  3;23,22,25;,
  3;26,27,28;,
  3;27,26,29;,
  3;30,31,32;,
  3;31,30,33;,
  3;32,34,35;,
  3;34,32,31;,
  3;35,36,37;,
  3;36,35,34;,
  3;38,39,40;,
  3;39,38,41;,
  3;42,43,44;,
  3;45,46,47;,
  3;46,45,48;,
  3;49,50,51;,
  3;50,49,52;,
  3;53,54,55;,
  3;54,53,56;,
  3;55,57,58;,
  3;57,55,54;,
  3;58,59,60;,
  3;59,58,57;,
  3;60,61,62;,
  3;61,60,59;,
  3;62,29,26;,
  3;29,62,61;,
  3;63,64,65;,
  3;63,66,64;,
  3;67,66,63;,
  3;68,69,70;,
  3;69,71,70;,
  3;71,69,72;,
  3;72,73,71;,
  3;73,72,74;,
  3;74,75,73;,
  3;76,77,78;,
  3;77,79,78;,
  3;79,80,81;,
  3;77,80,79;,
  3;81,82,79;,
  3;82,81,83;,
  3;83,84,82;,
  3;85,86,87;,
  3;86,85,88;,
  3;89,90,91;,
  3;89,92,90;,
  3;89,93,92;,
  3;94,89,91;,
  3;95,96,97;,
  3;96,98,97;,
  3;98,96,99;,
  3;100,101,102;,
  3;101,100,103;,
  3;104,105,106;,
  3;105,104,107;,
  3;40,108,109;,
  3;108,40,39;,
  3;110,5,111;,
  3;5,110,3;,
  3;6,14,7;,
  3;14,6,12;,
  3;112,17,113;,
  3;17,112,18;,
  3;114,67,115;,
  3;116,67,114;,
  3;67,116,66;,
  3;117,65,118;,
  3;65,117,119;,
  3;119,63,65;,
  3;63,119,120;,
  3;119,117,120;,
  3;121,118,122;,
  3;118,121,117;,
  3;121,122,123;,
  3;24,23,124;,
  3;23,25,125;,
  3;125,25,126;,
  3;125,126,127;,
  3;128,129,130;,
  3;129,128,126;,
  3;126,131,127;,
  3;131,126,128;,
  3;130,132,133;,
  3;132,129,134;,
  3;129,132,130;;

  MeshNormals {
   135;
   0.998402;0.024593;-0.050881;,
   0.999108;0.031088;-0.028574;,
   0.998695;0.049115;-0.013980;,
   0.998776;0.003377;-0.049357;,
   1.000000;0.000000;0.000001;,
   0.998379;0.008461;-0.056285;,
   -0.000001;-0.229294;0.973357;,
   -0.000001;-0.229294;0.973357;,
   -0.000001;-0.264306;0.964439;,
   0.000000;-0.999989;-0.004680;,
   0.000000;-0.999989;-0.004680;,
   0.000000;-0.999989;-0.004680;,
   -0.000001;-0.130331;0.991471;,
   -0.000000;-0.065133;0.997877;,
   -0.000001;-0.130331;0.991471;,
   -0.000000;-0.065133;0.997877;,
   -0.998402;0.024593;-0.050881;,
   -0.998627;0.005574;-0.052094;,
   -0.998391;0.009189;-0.055953;,
   -0.999108;0.031088;-0.028574;,
   -1.000000;-0.000000;-0.000001;,
   -0.998695;0.049114;-0.013980;,
   1.000000;0.000000;0.000000;,
   1.000000;0.000000;0.000000;,
   1.000000;0.000000;0.000000;,
   1.000000;0.000000;0.000000;,
   -0.044651;0.532684;-0.845136;,
   0.000000;0.755122;-0.655584;,
   0.000000;0.755122;-0.655584;,
   0.044652;0.532684;-0.845136;,
   0.000000;-0.675225;-0.737612;,
   0.000000;-0.813690;-0.581299;,
   0.000000;-0.813690;-0.581299;,
   0.000000;-0.675225;-0.737612;,
   0.000000;-0.999931;0.011773;,
   -0.000000;-0.999931;0.011773;,
   -0.000000;-0.899213;0.437510;,
   -0.000000;-0.899213;0.437510;,
   -0.000000;-0.041209;0.999151;,
   -0.000000;0.016273;0.999868;,
   -0.000000;0.016273;0.999868;,
   -0.000000;-0.041209;0.999151;,
   -0.653690;-0.005795;0.756740;,
   -0.651323;0.024068;0.758419;,
   -0.654348;-0.001971;0.756191;,
   0.000000;0.999965;-0.008348;,
   0.000000;0.999965;-0.008348;,
   0.000000;0.999965;-0.008348;,
   0.000000;0.999965;-0.008348;,
   0.000000;0.082692;-0.996575;,
   0.000000;0.082692;-0.996575;,
   0.000000;0.082692;-0.996575;,
   0.000000;0.082692;-0.996575;,
   0.000000;-0.895352;-0.445360;,
   0.068087;-0.459525;-0.885551;,
   -0.068086;-0.459525;-0.885551;,
   0.000000;-0.895352;-0.445360;,
   0.359902;0.093006;-0.928343;,
   -0.359901;0.093006;-0.928343;,
   0.000000;-0.029503;-0.999565;,
   0.000000;-0.029503;-0.999565;,
   0.387125;0.079449;-0.918598;,
   -0.387123;0.079449;-0.918599;,
   -1.000000;-0.000000;-0.000000;,
   -1.000000;-0.000000;-0.000000;,
   -1.000000;-0.000000;-0.000000;,
   -1.000000;-0.000000;-0.000000;,
   -1.000000;-0.000000;-0.000000;,
   -0.068086;-0.459525;-0.885551;,
   -0.359901;0.093006;-0.928343;,
   -0.704962;0.034296;-0.708415;,
   -0.709752;-0.020783;-0.704145;,
   -0.709752;-0.020783;-0.704145;,
   -0.709712;0.076133;-0.700366;,
   -0.387123;0.079449;-0.918599;,
   -0.044651;0.532684;-0.845136;,
   0.068087;-0.459525;-0.885551;,
   0.704962;0.034296;-0.708415;,
   0.359902;0.093006;-0.928343;,
   0.709753;-0.020783;-0.704144;,
   0.707107;0.065523;-0.704064;,
   0.709753;-0.020780;-0.704144;,
   0.387125;0.079449;-0.918598;,
   0.709714;0.076133;-0.700364;,
   0.044652;0.532684;-0.845136;,
   -0.711878;-0.032434;0.701554;,
   -0.654348;-0.001971;0.756191;,
   -0.714036;-0.032481;0.699355;,
   -0.653690;-0.005795;0.756740;,
   -0.732580;-0.674513;0.091433;,
   -0.707099;-0.635845;0.309373;,
   -0.732917;-0.675634;0.079700;,
   -0.707106;-0.635840;0.309367;,
   -0.707108;-0.635839;0.309366;,
   -0.717266;-0.677717;-0.161953;,
   0.717266;-0.677717;-0.161953;,
   0.732917;-0.675633;0.079700;,
   0.732579;-0.674513;0.091433;,
   0.707107;-0.635839;0.309368;,
   0.707108;-0.635838;0.309368;,
   0.711687;-0.029041;0.701896;,
   0.654812;-0.007812;0.755752;,
   0.712990;-0.028895;0.700578;,
   0.653550;-0.003792;0.756874;,
   -0.729609;0.083419;0.678758;,
   0.654812;-0.007812;0.755752;,
   0.653550;-0.003792;0.756874;,
   -0.743208;0.082987;0.663894;,
   -0.000000;0.072035;0.997402;,
   -0.000000;0.072035;0.997402;,
   0.997791;0.003848;-0.066315;,
   0.997596;0.004514;-0.069157;,
   -0.997792;0.000502;-0.066412;,
   -0.997604;-0.000056;-0.069179;,
   -1.000000;-0.000000;-0.000000;,
   -1.000000;-0.000000;-0.000000;,
   -1.000000;-0.000000;-0.000000;,
   -1.000000;-0.000000;-0.000000;,
   -1.000000;-0.000000;-0.000000;,
   -1.000000;-0.000000;-0.000000;,
   -1.000000;-0.000000;-0.000000;,
   -1.000000;-0.000000;-0.000000;,
   -1.000000;-0.000000;-0.000000;,
   -1.000000;-0.000000;-0.000000;,
   1.000000;0.000000;0.000000;,
   1.000000;0.000000;0.000000;,
   1.000000;0.000000;0.000000;,
   1.000000;0.000002;-0.000000;,
   1.000000;0.000000;0.000000;,
   1.000000;0.000000;0.000000;,
   1.000000;0.000000;0.000000;,
   1.000000;0.000001;-0.000000;,
   1.000000;0.000000;0.000000;,
   1.000000;0.000000;0.000000;,
   1.000000;0.000000;0.000000;;
   98;
   3;0,1,2;,
   3;1,3,4;,
   3;0,3,1;,
   3;0,5,3;,
   3;6,7,8;,
   3;9,10,11;,
   3;12,13,14;,
   3;13,12,15;,
   3;16,17,18;,
   3;17,19,20;,
   3;16,19,17;,
   3;16,21,19;,
   3;22,23,24;,
   3;23,22,25;,
   3;26,27,28;,
   3;27,26,29;,
   3;30,31,32;,
   3;31,30,33;,
   3;32,34,35;,
   3;34,32,31;,
   3;35,36,37;,
   3;36,35,34;,
   3;38,39,40;,
   3;39,38,41;,
   3;42,43,44;,
   3;45,46,47;,
   3;46,45,48;,
   3;49,50,51;,
   3;50,49,52;,
   3;53,54,55;,
   3;54,53,56;,
   3;55,57,58;,
   3;57,55,54;,
   3;58,59,60;,
   3;59,58,57;,
   3;60,61,62;,
   3;61,60,59;,
   3;62,29,26;,
   3;29,62,61;,
   3;63,64,65;,
   3;63,66,64;,
   3;67,66,63;,
   3;68,69,70;,
   3;69,71,70;,
   3;71,69,72;,
   3;72,73,71;,
   3;73,72,74;,
   3;74,75,73;,
   3;76,77,78;,
   3;77,79,78;,
   3;79,80,81;,
   3;77,80,79;,
   3;81,82,79;,
   3;82,81,83;,
   3;83,84,82;,
   3;85,86,87;,
   3;86,85,88;,
   3;89,90,91;,
   3;89,92,90;,
   3;89,93,92;,
   3;94,89,91;,
   3;95,96,97;,
   3;96,98,97;,
   3;98,96,99;,
   3;100,101,102;,
   3;101,100,103;,
   3;104,105,106;,
   3;105,104,107;,
   3;40,108,109;,
   3;108,40,39;,
   3;110,5,111;,
   3;5,110,3;,
   3;6,14,7;,
   3;14,6,12;,
   3;112,17,113;,
   3;17,112,18;,
   3;114,67,115;,
   3;116,67,114;,
   3;67,116,66;,
   3;117,65,118;,
   3;65,117,119;,
   3;119,63,65;,
   3;63,119,120;,
   3;119,117,120;,
   3;121,118,122;,
   3;118,121,117;,
   3;121,122,123;,
   3;24,23,124;,
   3;23,25,125;,
   3;125,25,126;,
   3;125,126,127;,
   3;128,129,130;,
   3;129,128,126;,
   3;126,131,127;,
   3;131,126,128;,
   3;130,132,133;,
   3;132,129,134;,
   3;129,132,130;;
  }

  MeshMaterialList {
   1;
   98;
   0,
   0,
   0,
   0,
   0,
   0,
   0,
   0,
   0,
   0,
   0,
   0,
   0,
   0,
   0,
   0,
   0,
   0,
   0,
   0,
   0,
   0,
   0,
   0,
   0,
   0,
   0,
   0,
   0,
   0,
   0,
   0,
   0,
   0,
   0,
   0,
   0,
   0,
   0,
   0,
   0,
   0,
   0,
   0,
   0,
   0,
   0,
   0,
   0,
   0,
   0,
   0,
   0,
   0,
   0,
   0,
   0,
   0,
   0,
   0,
   0,
   0,
   0,
   0,
   0,
   0,
   0,
   0,
   0,
   0,
   0,
   0,
   0,
   0,
   0,
   0,
   0,
   0,
   0,
   0,
   0,
   0,
   0,
   0,
   0,
   0,
   0,
   0,
   0,
   0,
   0,
   0,
   0,
   0,
   0,
   0,
   0,
   0;
   { _14_-_Default }
  }

  MeshTextureCoords c1 {
   135;
   0.830253;0.168869;,
   0.642757;0.135105;,
   0.766873;0.013478;,
   0.526648;0.363707;,
   0.538369;0.310283;,
   0.833260;0.264227;,
   0.860944;0.159876;,
   0.830253;0.168869;,
   0.766873;0.013478;,
   0.484259;0.550742;,
   0.842325;0.551788;,
   0.842325;0.551788;,
   0.865283;0.256045;,
   0.842325;0.551788;,
   0.833260;0.264227;,
   0.878368;0.546050;,
   0.830253;0.168869;,
   0.526648;0.363707;,
   0.833260;0.264227;,
   0.642757;0.135105;,
   0.538369;0.310283;,
   0.766873;0.013478;,
   0.855790;0.563423;,
   0.649678;0.599917;,
   0.565855;0.564416;,
   0.855790;0.563423;,
   0.195827;0.457368;,
   0.043510;0.443687;,
   0.205896;0.442733;,
   0.075144;0.468759;,
   0.205896;0.442733;,
   0.049383;0.417779;,
   0.201442;0.403216;,
   0.043510;0.443687;,
   0.061388;0.390386;,
   0.199764;0.389909;,
   0.072295;0.363222;,
   0.181305;0.363222;,
   0.181305;0.363222;,
   0.074650;0.259137;,
   0.182531;0.258362;,
   0.072295;0.363222;,
   0.182531;0.258362;,
   0.217643;0.006970;,
   0.223547;0.259528;,
   0.341656;0.928542;,
   0.395650;0.218927;,
   0.358963;0.224168;,
   0.403239;0.925922;,
   0.217642;0.844035;,
   0.035959;0.791442;,
   0.217642;0.791442;,
   0.035959;0.844035;,
   0.217642;0.791442;,
   0.034885;0.760853;,
   0.216568;0.760852;,
   0.035959;0.791442;,
   0.072296;0.668832;,
   0.181306;0.668832;,
   0.072296;0.628372;,
   0.181306;0.628372;,
   0.073331;0.573050;,
   0.179752;0.568212;,
   0.697686;0.869241;,
   0.843227;0.948941;,
   0.868390;0.726468;,
   0.840201;0.949546;,
   0.645375;0.921230;,
   0.649678;0.599917;,
   0.657856;0.656986;,
   0.676410;0.658579;,
   0.654772;0.754055;,
   0.635805;0.754285;,
   0.697686;0.869241;,
   0.678615;0.869191;,
   0.645375;0.921230;,
   0.649678;0.599917;,
   0.676410;0.658579;,
   0.657856;0.656986;,
   0.635805;0.754285;,
   0.654879;0.753583;,
   0.654772;0.754055;,
   0.678615;0.869191;,
   0.697686;0.869241;,
   0.643449;0.899840;,
   0.861905;0.965108;,
   0.868390;0.726468;,
   0.843227;0.948941;,
   0.886524;0.734922;,
   0.777692;0.986955;,
   0.840201;0.949546;,
   0.776298;0.962313;,
   0.843227;0.948941;,
   0.861905;0.965108;,
   0.673742;0.973026;,
   0.661025;0.951002;,
   0.776298;0.962313;,
   0.777692;0.986955;,
   0.861905;0.965108;,
   0.843227;0.948941;,
   0.843227;0.948941;,
   0.876597;0.721182;,
   0.861905;0.965108;,
   0.868390;0.726468;,
   0.035959;0.013143;,
   0.074650;0.259137;,
   0.030054;0.259528;,
   0.035959;0.013143;,
   0.035959;0.013143;,
   0.217643;0.006970;,
   0.484259;0.550742;,
   0.842325;0.551788;,
   0.842325;0.551788;,
   0.484259;0.550742;,
   0.673742;0.973026;,
   0.617115;0.931305;,
   0.776298;0.962313;,
   0.676410;0.658579;,
   0.855790;0.563423;,
   0.860262;0.727517;,
   0.654772;0.754055;,
   0.649678;0.599917;,
   0.565855;0.564416;,
   0.560630;0.590273;,
   0.560630;0.590273;,
   0.676410;0.658579;,
   0.868390;0.726468;,
   0.654879;0.753583;,
   0.697686;0.869241;,
   0.843227;0.948941;,
   0.643449;0.899840;,
   0.654772;0.754055;,
   0.661025;0.951002;,
   0.617115;0.931305;,
   0.776298;0.962313;;
  }
 }
}