xof 0303txt 0032
template ColorRGBA {
 <35ff44e0-6c7c-11cf-8f52-0040333594a3>
 FLOAT red;
 FLOAT green;
 FLOAT blue;
 FLOAT alpha;
}

template ColorRGB {
 <d3e16e81-7835-11cf-8f52-0040333594a3>
 FLOAT red;
 FLOAT green;
 FLOAT blue;
}

template Material {
 <3d82ab4d-62da-11cf-ab39-0020af71e433>
 ColorRGBA faceColor;
 FLOAT power;
 ColorRGB specularColor;
 ColorRGB emissiveColor;
 [...]
}

template TextureFilename {
 <a42790e1-7810-11cf-8f52-0040333594a3>
 STRING filename;
}

template Frame {
 <3d82ab46-62da-11cf-ab39-0020af71e433>
 [...]
}

template Matrix4x4 {
 <f6f23f45-7686-11cf-8f52-0040333594a3>
 array FLOAT matrix[16];
}

template FrameTransformMatrix {
 <f6f23f41-7686-11cf-8f52-0040333594a3>
 Matrix4x4 frameMatrix;
}

template Vector {
 <3d82ab5e-62da-11cf-ab39-0020af71e433>
 FLOAT x;
 FLOAT y;
 FLOAT z;
}

template MeshFace {
 <3d82ab5f-62da-11cf-ab39-0020af71e433>
 DWORD nFaceVertexIndices;
 array DWORD faceVertexIndices[nFaceVertexIndices];
}

template Mesh {
 <3d82ab44-62da-11cf-ab39-0020af71e433>
 DWORD nVertices;
 array Vector vertices[nVertices];
 DWORD nFaces;
 array MeshFace faces[nFaces];
 [...]
}

template MeshNormals {
 <f6f23f43-7686-11cf-8f52-0040333594a3>
 DWORD nNormals;
 array Vector normals[nNormals];
 DWORD nFaceNormals;
 array MeshFace faceNormals[nFaceNormals];
}

template MeshMaterialList {
 <f6f23f42-7686-11cf-8f52-0040333594a3>
 DWORD nMaterials;
 DWORD nFaceIndexes;
 array DWORD faceIndexes[nFaceIndexes];
 [Material <3d82ab4d-62da-11cf-ab39-0020af71e433>]
}

template Coords2d {
 <f6f23f44-7686-11cf-8f52-0040333594a3>
 FLOAT u;
 FLOAT v;
}

template MeshTextureCoords {
 <f6f23f40-7686-11cf-8f52-0040333594a3>
 DWORD nTextureCoords;
 array Coords2d textureCoords[nTextureCoords];
}


Material _04_-_Default {
 1.000000;1.000000;1.000000;1.000000;;
 9.999999;
 0.000000;0.000000;0.000000;;
 0.000000;0.000000;0.000000;;

 TextureFilename {
  "MeatCleaver.png";
 }
}

Frame MeatCleaver {
 

 FrameTransformMatrix {
  1.000000,0.000000,-0.000000,0.000000,0.000000,1.000000,0.000000,0.000000,0.000000,0.000000,1.000000,0.000000,0.000000,0.000000,0.000000,1.000000;;
 }

 Mesh MeatCleaver {
  160;
  0.004714;0.071500;0.006635;,
  0.004714;0.064953;-0.015463;,
  0.004714;0.071258;-0.014940;,
  0.004714;0.059202;-0.011356;,
  0.004714;-0.015747;-0.014434;,
  0.004714;-0.023007;-0.012867;,
  0.004714;-0.018204;-0.017263;,
  0.004714;-0.025765;-0.001325;,
  0.004714;-0.022504;0.005377;,
  0.004714;-0.003070;-0.009196;,
  0.004714;0.025016;-0.013493;,
  0.004714;0.031743;0.007896;,
  0.004714;0.048297;-0.011326;,
  -0.004714;-0.015747;-0.014434;,
  0.004714;-0.018204;-0.017263;,
  -0.004714;-0.018204;-0.017263;,
  0.004714;-0.015747;-0.014434;,
  -0.004714;-0.018204;-0.017263;,
  0.004714;-0.023007;-0.012867;,
  -0.004714;-0.023007;-0.012867;,
  0.004714;-0.018204;-0.017263;,
  0.002829;-0.027794;-0.001185;,
  -0.002829;-0.027794;-0.001185;,
  0.002829;-0.023691;0.007247;,
  -0.002829;-0.023691;0.007247;,
  -0.002829;-0.023691;0.007247;,
  0.002829;0.031587;0.008733;,
  -0.002829;0.031587;0.008733;,
  0.002829;-0.023691;0.007247;,
  -0.002829;0.031587;0.008733;,
  -0.004714;0.071500;0.006635;,
  -0.004714;0.031743;0.007896;,
  -0.004714;0.071500;0.006635;,
  0.004714;0.071258;-0.014940;,
  -0.004714;0.071258;-0.014940;,
  0.004714;0.071500;0.006635;,
  -0.004714;0.071258;-0.014940;,
  0.004714;0.064953;-0.015463;,
  -0.004714;0.064953;-0.015463;,
  0.004714;0.071258;-0.014940;,
  -0.004714;0.064953;-0.015463;,
  0.004714;0.059202;-0.011356;,
  -0.004714;0.059202;-0.011356;,
  0.004714;0.064953;-0.015463;,
  0.002829;0.048686;-0.013184;,
  -0.002829;0.048686;-0.013184;,
  0.002829;0.024960;-0.015392;,
  -0.002829;0.024960;-0.015392;,
  0.002829;-0.003058;-0.011105;,
  -0.002829;-0.003058;-0.011105;,
  -0.004714;-0.003070;-0.009196;,
  -0.004714;0.048297;-0.011326;,
  -0.004714;0.025016;-0.013493;,
  -0.004714;0.059202;-0.011356;,
  -0.004714;0.064953;-0.015463;,
  -0.004714;0.071500;0.006635;,
  -0.004714;0.071258;-0.014940;,
  -0.004714;-0.022504;0.005377;,
  -0.004714;0.031743;0.007896;,
  -0.004714;-0.023007;-0.012867;,
  -0.004714;-0.025765;-0.001325;,
  -0.004714;-0.015747;-0.014434;,
  -0.004714;-0.018204;-0.017263;,
  -0.004714;0.059202;-0.011356;,
  -0.002829;0.048686;-0.013184;,
  -0.004714;0.048297;-0.011326;,
  -0.004714;0.025016;-0.013493;,
  -0.002829;0.024960;-0.015392;,
  -0.004714;-0.003070;-0.009196;,
  -0.002829;-0.003058;-0.011105;,
  -0.004714;-0.015747;-0.014434;,
  0.004714;0.059202;-0.011356;,
  0.004714;0.048297;-0.011326;,
  0.002829;0.048686;-0.013184;,
  0.002829;0.024960;-0.015392;,
  0.004714;0.025016;-0.013493;,
  0.002829;-0.003058;-0.011105;,
  0.004714;-0.003070;-0.009196;,
  0.004714;-0.015747;-0.014434;,
  -0.002829;-0.023691;0.007247;,
  -0.004714;0.031743;0.007896;,
  -0.004714;-0.022504;0.005377;,
  -0.002829;0.031587;0.008733;,
  -0.002829;-0.027794;-0.001185;,
  -0.004714;-0.022504;0.005377;,
  -0.004714;-0.025765;-0.001325;,
  -0.002829;-0.023691;0.007247;,
  -0.004714;-0.023007;-0.012867;,
  0.004714;-0.023007;-0.012867;,
  0.004714;-0.025765;-0.001325;,
  0.002829;-0.027794;-0.001185;,
  0.002829;-0.023691;0.007247;,
  0.004714;-0.022504;0.005377;,
  0.004714;-0.022504;0.005377;,
  0.002829;0.031587;0.008733;,
  0.002829;-0.023691;0.007247;,
  0.004714;0.031743;0.007896;,
  0.004714;0.071500;0.006635;,
  0.002829;0.031587;0.008733;,
  0.004714;0.031743;0.007896;,
  0.004714;0.071500;0.006635;,
  -0.004714;0.071500;0.006635;,
  -0.002547;0.071565;-0.021181;,
  0.000000;0.070616;-0.056285;,
  0.002547;0.071565;-0.021181;,
  0.003304;0.071565;0.006085;,
  -0.003304;0.071565;0.006085;,
  0.000000;0.211734;-0.048226;,
  -0.002547;0.213719;-0.021181;,
  0.002547;0.213719;-0.021181;,
  0.003304;0.211734;0.018770;,
  -0.003304;0.211734;0.018770;,
  0.000000;0.070616;-0.056285;,
  0.002547;0.133944;-0.021181;,
  0.002547;0.071565;-0.021181;,
  0.000000;0.129234;-0.061290;,
  0.003304;0.133944;0.011956;,
  0.003304;0.071565;0.006085;,
  0.002547;0.158399;-0.021181;,
  0.000000;0.158399;-0.062100;,
  0.003304;0.158399;0.014556;,
  0.002547;0.183601;-0.021181;,
  0.000000;0.183601;-0.062100;,
  0.003304;0.183601;0.020277;,
  0.002547;0.202952;-0.021181;,
  0.000000;0.202952;-0.059578;,
  0.003304;0.202952;0.026083;,
  0.000000;0.211734;-0.048226;,
  0.002547;0.213719;-0.021181;,
  0.003304;0.211734;0.018770;,
  0.003304;0.071565;0.006085;,
  -0.003304;0.133944;0.011956;,
  -0.003304;0.071565;0.006085;,
  0.003304;0.133944;0.011956;,
  -0.003304;0.158399;0.014556;,
  0.003304;0.158399;0.014556;,
  -0.003304;0.183601;0.020277;,
  0.003304;0.183601;0.020277;,
  -0.003304;0.202952;0.026083;,
  0.003304;0.202952;0.026083;,
  -0.003304;0.211734;0.018770;,
  0.003304;0.211734;0.018770;,
  -0.003304;0.071565;0.006085;,
  -0.002547;0.133944;-0.021181;,
  -0.002547;0.071565;-0.021181;,
  -0.003304;0.133944;0.011956;,
  0.000000;0.129234;-0.061290;,
  0.000000;0.070616;-0.056285;,
  -0.002547;0.158399;-0.021181;,
  -0.003304;0.158399;0.014556;,
  0.000000;0.158399;-0.062100;,
  -0.002547;0.183601;-0.021181;,
  -0.003304;0.183601;0.020277;,
  0.000000;0.183601;-0.062100;,
  -0.002547;0.202952;-0.021181;,
  -0.003304;0.202952;0.026083;,
  0.000000;0.202952;-0.059578;,
  -0.002547;0.213719;-0.021181;,
  -0.003304;0.211734;0.018770;,
  0.000000;0.211734;-0.048226;;
  128;
  3;0,1,2;,
  3;0,3,1;,
  3;4,5,6;,
  3;4,7,5;,
  3;4,8,7;,
  3;9,8,4;,
  3;10,8,9;,
  3;10,11,8;,
  3;12,11,10;,
  3;3,11,12;,
  3;0,11,3;,
  3;13,14,15;,
  3;14,13,16;,
  3;17,18,19;,
  3;18,17,20;,
  3;19,21,22;,
  3;21,19,18;,
  3;22,23,24;,
  3;23,22,21;,
  3;25,26,27;,
  3;26,25,28;,
  3;29,30,31;,
  3;32,33,34;,
  3;33,32,35;,
  3;36,37,38;,
  3;37,36,39;,
  3;40,41,42;,
  3;41,40,43;,
  3;42,44,45;,
  3;44,42,41;,
  3;45,46,47;,
  3;46,45,44;,
  3;47,48,49;,
  3;48,47,46;,
  3;49,16,13;,
  3;16,49,48;,
  3;50,51,52;,
  3;50,53,51;,
  3;54,55,56;,
  3;53,55,54;,
  3;50,55,53;,
  3;55,57,58;,
  3;57,59,60;,
  3;55,59,57;,
  3;50,59,55;,
  3;61,59,50;,
  3;61,62,59;,
  3;63,64,65;,
  3;64,66,65;,
  3;66,64,67;,
  3;67,68,66;,
  3;68,67,69;,
  3;69,70,68;,
  3;71,72,73;,
  3;72,74,73;,
  3;74,72,75;,
  3;75,76,74;,
  3;76,75,77;,
  3;77,78,76;,
  3;79,80,81;,
  3;80,79,82;,
  3;83,84,85;,
  3;84,83,86;,
  3;87,83,85;,
  3;88,89,90;,
  3;89,91,90;,
  3;91,89,92;,
  3;93,94,95;,
  3;94,93,96;,
  3;97,98,99;,
  3;27,100,101;,
  3;100,27,26;,
  3;102,103,104;,
  3;102,105,106;,
  3;105,102,104;,
  3;107,108,109;,
  3;108,110,109;,
  3;110,108,111;,
  3;112,113,114;,
  3;113,112,115;,
  3;114,116,117;,
  3;116,114,113;,
  3;115,118,113;,
  3;118,115,119;,
  3;113,120,116;,
  3;120,113,118;,
  3;119,121,118;,
  3;121,119,122;,
  3;118,123,120;,
  3;123,118,121;,
  3;122,124,121;,
  3;124,122,125;,
  3;121,126,123;,
  3;126,121,124;,
  3;127,124,125;,
  3;124,127,128;,
  3;124,129,126;,
  3;129,124,128;,
  3;130,131,132;,
  3;131,130,133;,
  3;133,134,131;,
  3;134,133,135;,
  3;135,136,134;,
  3;136,135,137;,
  3;137,138,136;,
  3;138,137,139;,
  3;139,140,138;,
  3;140,139,141;,
  3;142,143,144;,
  3;143,142,145;,
  3;144,146,147;,
  3;146,144,143;,
  3;145,148,143;,
  3;148,145,149;,
  3;143,150,146;,
  3;150,143,148;,
  3;149,151,148;,
  3;151,149,152;,
  3;148,153,150;,
  3;153,148,151;,
  3;152,154,151;,
  3;154,152,155;,
  3;151,156,153;,
  3;156,151,154;,
  3;155,157,154;,
  3;157,155,158;,
  3;154,159,156;,
  3;159,154,157;;

  MeshNormals {
   160;
   1.000000;0.000000;0.000000;,
   1.000000;0.000000;0.000000;,
   1.000000;0.000000;0.000000;,
   1.000000;0.000000;0.000000;,
   1.000000;0.000000;0.000000;,
   1.000000;0.000000;0.000000;,
   1.000000;0.000000;0.000000;,
   1.000000;0.000000;0.000000;,
   1.000000;0.000000;0.000000;,
   1.000000;0.000000;0.000000;,
   1.000000;0.000000;0.000000;,
   1.000000;0.000000;0.000000;,
   1.000000;0.000000;0.000000;,
   -0.044651;0.532684;-0.845136;,
   0.000000;0.755122;-0.655584;,
   0.000000;0.755122;-0.655584;,
   0.044652;0.532684;-0.845136;,
   0.000000;-0.675225;-0.737612;,
   0.000000;-0.813690;-0.581299;,
   0.000000;-0.813690;-0.581299;,
   0.000000;-0.675225;-0.737612;,
   0.000000;-0.999931;0.011773;,
   -0.000000;-0.999931;0.011773;,
   -0.000000;-0.899213;0.437510;,
   -0.000000;-0.899213;0.437510;,
   -0.000000;-0.026868;0.999639;,
   -0.000000;0.013410;0.999910;,
   -0.000000;0.013410;0.999910;,
   -0.000000;-0.026868;0.999639;,
   -0.405420;0.000454;0.914131;,
   -0.403269;0.029025;0.914621;,
   -0.410346;0.003321;0.911924;,
   0.000000;0.999937;-0.011232;,
   0.000000;0.999937;-0.011232;,
   0.000000;0.999937;-0.011232;,
   0.000000;0.999937;-0.011232;,
   0.000000;0.082692;-0.996575;,
   0.000000;0.082692;-0.996575;,
   0.000000;0.082692;-0.996575;,
   0.000000;0.082692;-0.996575;,
   0.000000;-0.581121;-0.813817;,
   0.059388;-0.231415;-0.971041;,
   -0.059387;-0.231415;-0.971041;,
   0.000000;-0.581121;-0.813817;,
   0.359902;0.093006;-0.928343;,
   -0.359901;0.093006;-0.928343;,
   0.000000;-0.029503;-0.999565;,
   0.000000;-0.029503;-0.999565;,
   0.387125;0.079449;-0.918598;,
   -0.387123;0.079449;-0.918599;,
   -1.000000;-0.000000;0.000000;,
   -1.000000;-0.000000;0.000001;,
   -1.000000;-0.000000;-0.000000;,
   -1.000000;-0.000000;-0.000000;,
   -1.000000;-0.000000;-0.000000;,
   -1.000000;-0.000000;-0.000000;,
   -1.000000;-0.000000;-0.000000;,
   -1.000000;-0.000000;-0.000000;,
   -1.000000;-0.000000;-0.000000;,
   -1.000000;-0.000000;-0.000000;,
   -1.000000;-0.000000;-0.000000;,
   -1.000000;-0.000000;-0.000000;,
   -1.000000;-0.000000;-0.000000;,
   -0.059387;-0.231415;-0.971041;,
   -0.359901;0.093006;-0.928343;,
   -0.704962;0.034296;-0.708415;,
   -0.709752;-0.020783;-0.704145;,
   -0.709752;-0.020783;-0.704145;,
   -0.709712;0.076133;-0.700366;,
   -0.387123;0.079449;-0.918599;,
   -0.044651;0.532684;-0.845136;,
   0.059388;-0.231415;-0.971041;,
   0.704962;0.034296;-0.708415;,
   0.359902;0.093006;-0.928343;,
   0.709753;-0.020783;-0.704144;,
   0.709753;-0.020783;-0.704144;,
   0.387125;0.079449;-0.918598;,
   0.709715;0.076133;-0.700364;,
   0.044652;0.532684;-0.845136;,
   -0.705806;-0.032299;0.707669;,
   -0.410346;0.003321;0.911924;,
   -0.714036;-0.032481;0.699355;,
   -0.405420;0.000454;0.914131;,
   -0.732580;-0.674513;0.091433;,
   -0.707107;-0.635840;0.309367;,
   -0.732916;-0.675634;0.079700;,
   -0.707108;-0.635839;0.309366;,
   -0.717266;-0.677717;-0.161953;,
   0.717266;-0.677717;-0.161953;,
   0.732917;-0.675633;0.079700;,
   0.732579;-0.674513;0.091433;,
   0.707107;-0.635839;0.309368;,
   0.707108;-0.635838;0.309368;,
   0.705066;-0.019400;0.708876;,
   0.411369;-0.008722;0.911427;,
   0.710026;-0.018920;0.703921;,
   0.405794;-0.005036;0.913951;,
   0.403269;0.029025;0.914621;,
   0.411369;-0.008722;0.911427;,
   0.405794;-0.005036;0.913951;,
   -0.000000;0.052493;0.998621;,
   -0.000000;0.052493;0.998621;,
   -0.000000;-0.999915;0.013077;,
   -0.000000;-0.999635;0.027025;,
   -0.000000;-0.999915;0.013077;,
   0.000000;-1.000000;0.000000;,
   0.000000;-1.000000;0.000000;,
   0.000000;0.997316;-0.073216;,
   0.000000;0.999954;-0.009553;,
   0.000000;0.999954;-0.009553;,
   0.000000;0.998767;0.049637;,
   0.000000;0.998767;0.049637;,
   0.997625;-0.001947;-0.068856;,
   0.999053;-0.000575;-0.043500;,
   0.998773;0.000894;-0.049514;,
   0.998030;-0.003326;-0.062644;,
   0.999723;0.001620;-0.023483;,
   0.999610;0.002615;-0.027788;,
   0.999144;0.000246;-0.041379;,
   0.998069;-0.000855;-0.062114;,
   0.999760;0.003295;-0.021646;,
   0.999208;0.000339;-0.039784;,
   0.997980;0.002864;-0.063463;,
   0.999810;0.004384;-0.019010;,
   0.998906;0.004405;-0.046550;,
   0.997356;0.030094;-0.066146;,
   0.999851;-0.003163;-0.016962;,
   0.994905;0.072389;-0.070173;,
   0.998425;-0.000000;-0.056107;,
   0.999796;-0.011818;-0.016371;,
   0.000000;-0.093703;0.995600;,
   0.000000;-0.099719;0.995016;,
   0.000000;-0.093703;0.995600;,
   0.000000;-0.099719;0.995016;,
   0.000000;-0.163834;0.986488;,
   0.000000;-0.163834;0.986488;,
   0.000000;-0.254519;0.967068;,
   0.000000;-0.254519;0.967068;,
   0.000000;0.200105;0.979775;,
   0.000000;0.200105;0.979775;,
   0.000000;0.639931;0.768432;,
   0.000000;0.639931;0.768432;,
   -0.999654;0.000654;-0.026293;,
   -0.999066;0.000214;-0.043220;,
   -0.998822;-0.001924;-0.048492;,
   -0.999749;0.001752;-0.022319;,
   -0.997899;-0.001889;-0.064763;,
   -0.997372;-0.006162;-0.072185;,
   -0.999121;0.000228;-0.041916;,
   -0.999794;0.002516;-0.020146;,
   -0.998048;-0.000566;-0.062451;,
   -0.999144;0.001006;-0.041367;,
   -0.999843;0.003879;-0.017283;,
   -0.998062;0.003874;-0.062113;,
   -0.998882;0.004594;-0.047054;,
   -0.999850;-0.002132;-0.017171;,
   -0.997552;0.028116;-0.064026;,
   -0.998494;-0.000952;-0.054847;,
   -0.999669;-0.016476;-0.019785;,
   -0.994905;0.072389;-0.070174;;
   128;
   3;0,1,2;,
   3;0,3,1;,
   3;4,5,6;,
   3;4,7,5;,
   3;4,8,7;,
   3;9,8,4;,
   3;10,8,9;,
   3;10,11,8;,
   3;12,11,10;,
   3;3,11,12;,
   3;0,11,3;,
   3;13,14,15;,
   3;14,13,16;,
   3;17,18,19;,
   3;18,17,20;,
   3;19,21,22;,
   3;21,19,18;,
   3;22,23,24;,
   3;23,22,21;,
   3;25,26,27;,
   3;26,25,28;,
   3;29,30,31;,
   3;32,33,34;,
   3;33,32,35;,
   3;36,37,38;,
   3;37,36,39;,
   3;40,41,42;,
   3;41,40,43;,
   3;42,44,45;,
   3;44,42,41;,
   3;45,46,47;,
   3;46,45,44;,
   3;47,48,49;,
   3;48,47,46;,
   3;49,16,13;,
   3;16,49,48;,
   3;50,51,52;,
   3;50,53,51;,
   3;54,55,56;,
   3;53,55,54;,
   3;50,55,53;,
   3;55,57,58;,
   3;57,59,60;,
   3;55,59,57;,
   3;50,59,55;,
   3;61,59,50;,
   3;61,62,59;,
   3;63,64,65;,
   3;64,66,65;,
   3;66,64,67;,
   3;67,68,66;,
   3;68,67,69;,
   3;69,70,68;,
   3;71,72,73;,
   3;72,74,73;,
   3;74,72,75;,
   3;75,76,74;,
   3;76,75,77;,
   3;77,78,76;,
   3;79,80,81;,
   3;80,79,82;,
   3;83,84,85;,
   3;84,83,86;,
   3;87,83,85;,
   3;88,89,90;,
   3;89,91,90;,
   3;91,89,92;,
   3;93,94,95;,
   3;94,93,96;,
   3;97,98,99;,
   3;27,100,101;,
   3;100,27,26;,
   3;102,103,104;,
   3;102,105,106;,
   3;105,102,104;,
   3;107,108,109;,
   3;108,110,109;,
   3;110,108,111;,
   3;112,113,114;,
   3;113,112,115;,
   3;114,116,117;,
   3;116,114,113;,
   3;115,118,113;,
   3;118,115,119;,
   3;113,120,116;,
   3;120,113,118;,
   3;119,121,118;,
   3;121,119,122;,
   3;118,123,120;,
   3;123,118,121;,
   3;122,124,121;,
   3;124,122,125;,
   3;121,126,123;,
   3;126,121,124;,
   3;127,124,125;,
   3;124,127,128;,
   3;124,129,126;,
   3;129,124,128;,
   3;130,131,132;,
   3;131,130,133;,
   3;133,134,131;,
   3;134,133,135;,
   3;135,136,134;,
   3;136,135,137;,
   3;137,138,136;,
   3;138,137,139;,
   3;139,140,138;,
   3;140,139,141;,
   3;142,143,144;,
   3;143,142,145;,
   3;144,146,147;,
   3;146,144,143;,
   3;145,148,143;,
   3;148,145,149;,
   3;143,150,146;,
   3;150,143,148;,
   3;149,151,148;,
   3;151,149,152;,
   3;148,153,150;,
   3;153,148,151;,
   3;152,154,151;,
   3;154,152,155;,
   3;151,156,153;,
   3;156,151,154;,
   3;155,157,154;,
   3;157,155,158;,
   3;154,159,156;,
   3;159,154,157;;
  }

  MeshMaterialList {
   1;
   128;
   0,
   0,
   0,
   0,
   0,
   0,
   0,
   0,
   0,
   0,
   0,
   0,
   0,
   0,
   0,
   0,
   0,
   0,
   0,
   0,
   0,
   0,
   0,
   0,
   0,
   0,
   0,
   0,
   0,
   0,
   0,
   0,
   0,
   0,
   0,
   0,
   0,
   0,
   0,
   0,
   0,
   0,
   0,
   0,
   0,
   0,
   0,
   0,
   0,
   0,
   0,
   0,
   0,
   0,
   0,
   0,
   0,
   0,
   0,
   0,
   0,
   0,
   0,
   0,
   0,
   0,
   0,
   0,
   0,
   0,
   0,
   0,
   0,
   0,
   0,
   0,
   0,
   0,
   0,
   0,
   0,
   0,
   0,
   0,
   0,
   0,
   0,
   0,
   0,
   0,
   0,
   0,
   0,
   0,
   0,
   0,
   0,
   0,
   0,
   0,
   0,
   0,
   0,
   0,
   0,
   0,
   0,
   0,
   0,
   0,
   0,
   0,
   0,
   0,
   0,
   0,
   0,
   0,
   0,
   0,
   0,
   0,
   0,
   0,
   0,
   0,
   0,
   0;
   { _04_-_Default }
  }

  MeshTextureCoords c1 {
   160;
   0.855790;0.563423;,
   0.626256;0.588429;,
   0.626074;0.562266;,
   0.675779;0.613878;,
   0.644737;0.920554;,
   0.660990;0.950029;,
   0.617115;0.931305;,
   0.776298;0.962313;,
   0.843227;0.948941;,
   0.697686;0.869241;,
   0.654772;0.754055;,
   0.868390;0.726468;,
   0.676410;0.658579;,
   0.200184;0.457413;,
   0.043510;0.443687;,
   0.205896;0.442733;,
   0.054361;0.455004;,
   0.205896;0.442733;,
   0.040433;0.414420;,
   0.223071;0.419479;,
   0.043510;0.443687;,
   0.061388;0.390386;,
   0.199764;0.389909;,
   0.072295;0.363222;,
   0.181305;0.363222;,
   0.181305;0.363222;,
   0.072527;0.258745;,
   0.184128;0.258021;,
   0.072295;0.363222;,
   0.184128;0.258021;,
   0.217643;0.006970;,
   0.223547;0.259528;,
   0.341656;0.928542;,
   0.395650;0.218927;,
   0.358963;0.224168;,
   0.403239;0.925922;,
   0.217642;0.844035;,
   0.037923;0.790004;,
   0.216934;0.787841;,
   0.035959;0.844035;,
   0.216934;0.787841;,
   0.036971;0.726775;,
   0.217642;0.735242;,
   0.037923;0.790004;,
   0.072296;0.668832;,
   0.181306;0.668832;,
   0.072296;0.628372;,
   0.181306;0.628372;,
   0.073331;0.573050;,
   0.179752;0.568212;,
   0.697686;0.869241;,
   0.676410;0.658579;,
   0.654772;0.754055;,
   0.675779;0.613867;,
   0.626226;0.587047;,
   0.855790;0.563423;,
   0.626074;0.562266;,
   0.843227;0.948941;,
   0.868390;0.726468;,
   0.661135;0.950046;,
   0.776298;0.962313;,
   0.646950;0.918465;,
   0.617115;0.931305;,
   0.675779;0.613867;,
   0.657856;0.656986;,
   0.676410;0.658579;,
   0.654772;0.754055;,
   0.635805;0.754285;,
   0.697686;0.869241;,
   0.678615;0.869191;,
   0.646950;0.918465;,
   0.675779;0.613878;,
   0.676410;0.658579;,
   0.657856;0.656986;,
   0.635805;0.754285;,
   0.654772;0.754055;,
   0.678615;0.869191;,
   0.697686;0.869241;,
   0.644737;0.920554;,
   0.861905;0.965108;,
   0.868390;0.726468;,
   0.843227;0.948941;,
   0.883063;0.726298;,
   0.777692;0.986955;,
   0.843227;0.948941;,
   0.776298;0.962313;,
   0.861905;0.965108;,
   0.661135;0.950046;,
   0.660990;0.950029;,
   0.776298;0.962313;,
   0.777692;0.986955;,
   0.861905;0.965108;,
   0.843227;0.948941;,
   0.843227;0.948941;,
   0.874219;0.722708;,
   0.861905;0.965108;,
   0.868390;0.726468;,
   0.035959;0.013143;,
   0.072527;0.258745;,
   0.030054;0.259528;,
   0.035959;0.013143;,
   0.217643;0.006970;,
   0.727015;0.553052;,
   0.463321;0.552399;,
   0.727015;0.553052;,
   0.883485;0.553052;,
   0.883485;0.553052;,
   0.695785;0.051252;,
   0.727015;0.044358;,
   0.727015;0.044358;,
   0.802086;0.051253;,
   0.802086;0.051253;,
   0.463321;0.552399;,
   0.727015;0.336433;,
   0.727015;0.553052;,
   0.519052;0.352790;,
   0.884405;0.336433;,
   0.883485;0.553052;,
   0.727015;0.251511;,
   0.557391;0.251511;,
   0.880610;0.251511;,
   0.727015;0.148200;,
   0.610700;0.148200;,
   0.834125;0.148200;,
   0.727015;0.080999;,
   0.650040;0.080999;,
   0.844106;0.080999;,
   0.695785;0.051252;,
   0.727015;0.044358;,
   0.802086;0.051253;,
   0.883485;0.553052;,
   0.884405;0.336433;,
   0.883485;0.553052;,
   0.884405;0.336433;,
   0.880610;0.251511;,
   0.880610;0.251511;,
   0.834125;0.148200;,
   0.834125;0.148200;,
   0.844106;0.080999;,
   0.844106;0.080999;,
   0.802086;0.051253;,
   0.802086;0.051253;,
   0.883485;0.553052;,
   0.727015;0.336433;,
   0.727015;0.553052;,
   0.884405;0.336433;,
   0.519052;0.352790;,
   0.463321;0.552399;,
   0.727015;0.251511;,
   0.880610;0.251511;,
   0.557391;0.251511;,
   0.727015;0.148200;,
   0.834125;0.148200;,
   0.610700;0.148200;,
   0.727015;0.080999;,
   0.844106;0.080999;,
   0.650040;0.080999;,
   0.727015;0.044358;,
   0.802086;0.051253;,
   0.695785;0.051252;;
  }
 }
}