xof 0303txt 0032
template ColorRGBA {
 <35ff44e0-6c7c-11cf-8f52-0040333594a3>
 FLOAT red;
 FLOAT green;
 FLOAT blue;
 FLOAT alpha;
}

template ColorRGB {
 <d3e16e81-7835-11cf-8f52-0040333594a3>
 FLOAT red;
 FLOAT green;
 FLOAT blue;
}

template Material {
 <3d82ab4d-62da-11cf-ab39-0020af71e433>
 ColorRGBA faceColor;
 FLOAT power;
 ColorRGB specularColor;
 ColorRGB emissiveColor;
 [...]
}

template TextureFilename {
 <a42790e1-7810-11cf-8f52-0040333594a3>
 STRING filename;
}

template Frame {
 <3d82ab46-62da-11cf-ab39-0020af71e433>
 [...]
}

template Matrix4x4 {
 <f6f23f45-7686-11cf-8f52-0040333594a3>
 array FLOAT matrix[16];
}

template FrameTransformMatrix {
 <f6f23f41-7686-11cf-8f52-0040333594a3>
 Matrix4x4 frameMatrix;
}

template Vector {
 <3d82ab5e-62da-11cf-ab39-0020af71e433>
 FLOAT x;
 FLOAT y;
 FLOAT z;
}

template MeshFace {
 <3d82ab5f-62da-11cf-ab39-0020af71e433>
 DWORD nFaceVertexIndices;
 array DWORD faceVertexIndices[nFaceVertexIndices];
}

template Mesh {
 <3d82ab44-62da-11cf-ab39-0020af71e433>
 DWORD nVertices;
 array Vector vertices[nVertices];
 DWORD nFaces;
 array MeshFace faces[nFaces];
 [...]
}

template MeshNormals {
 <f6f23f43-7686-11cf-8f52-0040333594a3>
 DWORD nNormals;
 array Vector normals[nNormals];
 DWORD nFaceNormals;
 array MeshFace faceNormals[nFaceNormals];
}

template MeshMaterialList {
 <f6f23f42-7686-11cf-8f52-0040333594a3>
 DWORD nMaterials;
 DWORD nFaceIndexes;
 array DWORD faceIndexes[nFaceIndexes];
 [Material <3d82ab4d-62da-11cf-ab39-0020af71e433>]
}

template Coords2d {
 <f6f23f44-7686-11cf-8f52-0040333594a3>
 FLOAT u;
 FLOAT v;
}

template MeshTextureCoords {
 <f6f23f40-7686-11cf-8f52-0040333594a3>
 DWORD nTextureCoords;
 array Coords2d textureCoords[nTextureCoords];
}


Material _13_-_Default {
 1.000000;1.000000;1.000000;1.000000;;
 9.999999;
 0.000000;0.000000;0.000000;;
 0.000000;0.000000;0.000000;;

 TextureFilename {
  "Plunger.png";
 }
}

Frame Plunger {
 

 FrameTransformMatrix {
  1.000000,0.000000,0.000000,0.000000,0.000000,1.000000,0.000000,0.000000,0.000000,0.000000,1.000000,0.000000,0.000000,0.000000,0.000000,1.000000;;
 }

 Mesh Plunger {
  153;
  0.009644;-0.025054;-0.000000;,
  0.004822;0.318147;0.008352;,
  0.004822;-0.025054;0.008352;,
  0.009644;0.318147;-0.000000;,
  -0.004822;0.318147;0.008352;,
  -0.004822;-0.025054;0.008352;,
  -0.004822;-0.025054;0.008352;,
  -0.009644;0.318147;-0.000000;,
  -0.009644;-0.025054;-0.000000;,
  -0.004822;0.318147;0.008352;,
  -0.004822;0.318147;-0.008352;,
  -0.004822;-0.025054;-0.008352;,
  0.004822;0.318147;-0.008352;,
  0.004822;-0.025054;-0.008352;,
  0.004822;-0.025054;0.008352;,
  0.000000;-0.028310;-0.000000;,
  0.009644;-0.025054;-0.000000;,
  -0.004822;-0.025054;0.008352;,
  -0.009644;-0.025054;-0.000000;,
  -0.004822;-0.025054;-0.008352;,
  0.004822;-0.025054;-0.008352;,
  -0.044906;0.353194;0.025926;,
  -0.013066;0.371867;0.048747;,
  -0.045086;0.371867;0.025991;,
  -0.012963;0.353194;0.048380;,
  -0.048380;0.353194;-0.012963;,
  -0.048752;0.371867;-0.013063;,
  -0.025927;0.353194;-0.044906;,
  -0.026128;0.371867;-0.045250;,
  0.012963;0.353194;-0.048380;,
  0.013059;0.371867;-0.048750;,
  0.044906;0.353194;-0.025927;,
  0.045245;0.371867;-0.026126;,
  0.048380;0.353194;0.012963;,
  0.048745;0.371867;0.013061;,
  0.025927;0.353194;0.044906;,
  0.026121;0.371867;0.045247;,
  -0.012963;0.353194;0.048380;,
  -0.013066;0.371867;0.048747;,
  -0.037095;0.331294;0.021417;,
  -0.010708;0.331294;0.039965;,
  -0.039965;0.331294;-0.010708;,
  -0.021417;0.331294;-0.037095;,
  0.010708;0.331294;-0.039965;,
  0.037095;0.331294;-0.021417;,
  0.039965;0.331294;0.010708;,
  0.021417;0.331294;0.037095;,
  -0.010708;0.331294;0.039965;,
  -0.015500;0.316769;0.008949;,
  -0.004475;0.316769;0.016699;,
  -0.016699;0.316769;-0.004475;,
  -0.008949;0.316769;-0.015500;,
  0.004474;0.316769;-0.016699;,
  0.015500;0.316769;-0.008949;,
  0.016699;0.316769;0.004474;,
  0.008949;0.316769;0.015500;,
  -0.004475;0.316769;0.016699;,
  -0.003905;0.298289;0.014572;,
  -0.013526;0.298289;0.007809;,
  -0.014572;0.298289;-0.003905;,
  -0.003905;0.298289;0.014572;,
  -0.007809;0.298289;-0.013526;,
  -0.003905;0.298289;0.014572;,
  0.003905;0.298289;-0.014572;,
  -0.003905;0.298289;0.014572;,
  0.013526;0.298289;-0.007809;,
  -0.003905;0.298289;0.014572;,
  0.014572;0.298289;0.003905;,
  -0.003905;0.298289;0.014572;,
  0.007809;0.298289;0.013526;,
  -0.000000;0.330132;-0.000000;,
  -0.012482;0.382221;0.045901;,
  0.024318;0.382221;0.042614;,
  -0.000000;0.330132;-0.000000;,
  0.045565;0.382221;0.012388;,
  0.042278;0.382221;-0.024412;,
  0.012051;0.382221;-0.045659;,
  -0.024749;0.382221;-0.042372;,
  -0.045995;0.382221;-0.012146;,
  -0.042708;0.382221;0.024655;,
  -0.012482;0.382221;0.045901;,
  -0.013735;0.371867;0.053200;,
  -0.048747;0.382221;0.028590;,
  -0.048747;0.371867;0.028590;,
  -0.013735;0.382221;0.053200;,
  -0.052554;0.382221;-0.014036;,
  -0.052554;0.371867;-0.014036;,
  -0.027944;0.382221;-0.049047;,
  -0.027944;0.371867;-0.049047;,
  0.014682;0.382221;-0.052855;,
  0.014682;0.371867;-0.052855;,
  0.049694;0.382221;-0.028244;,
  0.049694;0.371867;-0.028244;,
  0.053501;0.382221;0.014382;,
  0.053501;0.371867;0.014382;,
  0.028891;0.382221;0.049393;,
  0.028891;0.371867;0.049393;,
  -0.013735;0.382221;0.053200;,
  -0.013735;0.371867;0.053200;,
  -0.013066;0.371867;0.048747;,
  -0.048747;0.371867;0.028590;,
  -0.045086;0.371867;0.025991;,
  -0.013735;0.371867;0.053200;,
  -0.052554;0.371867;-0.014036;,
  -0.048752;0.371867;-0.013063;,
  -0.027944;0.371867;-0.049047;,
  -0.026128;0.371867;-0.045250;,
  0.014682;0.371867;-0.052855;,
  0.013059;0.371867;-0.048750;,
  0.049694;0.371867;-0.028244;,
  0.045245;0.371867;-0.026126;,
  0.053501;0.371867;0.014382;,
  0.048745;0.371867;0.013061;,
  0.028891;0.371867;0.049393;,
  0.026121;0.371867;0.045247;,
  -0.013735;0.371867;0.053200;,
  -0.013066;0.371867;0.048747;,
  -0.012482;0.382221;0.045901;,
  0.028891;0.382221;0.049393;,
  0.024318;0.382221;0.042614;,
  -0.013735;0.382221;0.053200;,
  0.053501;0.382221;0.014382;,
  0.045565;0.382221;0.012388;,
  0.049694;0.382221;-0.028244;,
  0.042278;0.382221;-0.024412;,
  0.014682;0.382221;-0.052855;,
  0.012051;0.382221;-0.045659;,
  -0.027944;0.382221;-0.049047;,
  -0.024749;0.382221;-0.042372;,
  -0.052554;0.382221;-0.014036;,
  -0.045995;0.382221;-0.012146;,
  -0.048747;0.382221;0.028590;,
  -0.042708;0.382221;0.024655;,
  -0.013735;0.382221;0.053200;,
  -0.012482;0.382221;0.045901;,
  -0.004475;0.316769;0.016699;,
  0.007809;0.298289;0.013526;,
  0.008949;0.316769;0.015500;,
  -0.003905;0.298289;0.014572;,
  0.014572;0.298289;0.003905;,
  0.016699;0.316769;0.004474;,
  0.013526;0.298289;-0.007809;,
  0.015500;0.316769;-0.008949;,
  0.003905;0.298289;-0.014572;,
  0.004474;0.316769;-0.016699;,
  -0.007809;0.298289;-0.013526;,
  -0.008949;0.316769;-0.015500;,
  -0.014572;0.298289;-0.003905;,
  -0.016699;0.316769;-0.004475;,
  -0.013526;0.298289;0.007809;,
  -0.015500;0.316769;0.008949;,
  -0.003905;0.298289;0.014572;,
  -0.004475;0.316769;0.016699;;
  144;
  3;0,1,2;,
  3;1,0,3;,
  3;2,4,5;,
  3;4,2,1;,
  3;6,7,8;,
  3;7,6,9;,
  3;8,10,11;,
  3;10,8,7;,
  3;11,12,13;,
  3;12,11,10;,
  3;13,3,0;,
  3;3,13,12;,
  3;14,15,16;,
  3;17,15,14;,
  3;18,15,17;,
  3;19,15,18;,
  3;20,15,19;,
  3;16,15,20;,
  3;21,22,23;,
  3;22,21,24;,
  3;25,23,26;,
  3;23,25,21;,
  3;27,26,28;,
  3;26,27,25;,
  3;29,28,30;,
  3;28,29,27;,
  3;31,30,32;,
  3;30,31,29;,
  3;33,32,34;,
  3;32,33,31;,
  3;35,34,36;,
  3;34,35,33;,
  3;37,36,38;,
  3;36,37,35;,
  3;39,24,21;,
  3;24,39,40;,
  3;41,21,25;,
  3;21,41,39;,
  3;42,25,27;,
  3;25,42,41;,
  3;43,27,29;,
  3;27,43,42;,
  3;44,29,31;,
  3;29,44,43;,
  3;45,31,33;,
  3;31,45,44;,
  3;46,33,35;,
  3;33,46,45;,
  3;47,35,37;,
  3;35,47,46;,
  3;48,40,39;,
  3;40,48,49;,
  3;50,39,41;,
  3;39,50,48;,
  3;51,41,42;,
  3;41,51,50;,
  3;52,42,43;,
  3;42,52,51;,
  3;53,43,44;,
  3;43,53,52;,
  3;54,44,45;,
  3;44,54,53;,
  3;55,45,46;,
  3;45,55,54;,
  3;56,46,47;,
  3;46,56,55;,
  3;57,58,59;,
  3;60,59,61;,
  3;62,61,63;,
  3;64,63,65;,
  3;66,65,67;,
  3;68,67,69;,
  3;70,71,72;,
  3;73,72,74;,
  3;73,74,75;,
  3;73,75,76;,
  3;73,76,77;,
  3;73,77,78;,
  3;73,78,79;,
  3;73,79,80;,
  3;81,82,83;,
  3;82,81,84;,
  3;83,85,86;,
  3;85,83,82;,
  3;86,87,88;,
  3;87,86,85;,
  3;88,89,90;,
  3;89,88,87;,
  3;90,91,92;,
  3;91,90,89;,
  3;92,93,94;,
  3;93,92,91;,
  3;94,95,96;,
  3;95,94,93;,
  3;96,97,98;,
  3;97,96,95;,
  3;99,100,101;,
  3;100,99,102;,
  3;101,103,104;,
  3;103,101,100;,
  3;104,105,106;,
  3;105,104,103;,
  3;106,107,108;,
  3;107,106,105;,
  3;108,109,110;,
  3;109,108,107;,
  3;110,111,112;,
  3;111,110,109;,
  3;112,113,114;,
  3;113,112,111;,
  3;114,115,116;,
  3;115,114,113;,
  3;117,118,119;,
  3;118,117,120;,
  3;119,121,122;,
  3;121,119,118;,
  3;122,123,124;,
  3;123,122,121;,
  3;124,125,126;,
  3;125,124,123;,
  3;126,127,128;,
  3;127,126,125;,
  3;128,129,130;,
  3;129,128,127;,
  3;130,131,132;,
  3;131,130,129;,
  3;132,133,134;,
  3;133,132,131;,
  3;135,136,137;,
  3;136,135,138;,
  3;137,139,140;,
  3;139,137,136;,
  3;140,141,142;,
  3;141,140,139;,
  3;142,143,144;,
  3;143,142,141;,
  3;144,145,146;,
  3;145,144,143;,
  3;146,147,148;,
  3;147,146,145;,
  3;148,149,150;,
  3;149,148,147;,
  3;150,151,152;,
  3;151,150,149;;

  MeshNormals {
   153;
   0.861001;-0.508604;0.000000;,
   0.500000;0.000000;0.866025;,
   0.430500;-0.508604;0.745649;,
   1.000000;0.000000;-0.000000;,
   -0.500000;0.000000;0.866025;,
   -0.430501;-0.508604;0.745648;,
   -0.430501;-0.508604;0.745648;,
   -1.000000;0.000000;0.000000;,
   -0.861001;-0.508604;-0.000000;,
   -0.500000;0.000000;0.866025;,
   -0.500000;0.000000;-0.866025;,
   -0.430500;-0.508604;-0.745649;,
   0.500000;0.000000;-0.866025;,
   0.430500;-0.508604;-0.745648;,
   0.430500;-0.508604;0.745649;,
   -0.000000;-1.000000;0.000000;,
   0.861001;-0.508604;0.000000;,
   -0.430501;-0.508604;0.745648;,
   -0.861001;-0.508604;-0.000000;,
   -0.430500;-0.508604;-0.745649;,
   0.430500;-0.508604;-0.745648;,
   -0.850520;-0.190581;0.490199;,
   -0.259525;-0.018797;0.965553;,
   -0.867180;-0.011542;0.497861;,
   -0.254031;-0.191019;0.948146;,
   -0.948471;-0.190446;-0.253247;,
   -0.966299;-0.020651;-0.256594;,
   -0.490355;-0.195318;-0.849355;,
   -0.499915;-0.021327;-0.865812;,
   0.254074;-0.191035;-0.948131;,
   0.258723;-0.020473;-0.965735;,
   0.849379;-0.195183;-0.490366;,
   0.865813;-0.021052;-0.499924;,
   0.948156;-0.190931;0.254059;,
   0.965729;-0.020261;0.258762;,
   0.490401;-0.195170;0.849362;,
   0.499861;-0.021027;0.865850;,
   -0.254031;-0.191019;0.948146;,
   -0.259525;-0.018797;0.965553;,
   -0.681497;-0.617048;0.393463;,
   -0.204269;-0.614094;0.762340;,
   -0.762340;-0.614094;-0.204268;,
   -0.393463;-0.617048;-0.681497;,
   0.204268;-0.614094;-0.762340;,
   0.681497;-0.617049;-0.393463;,
   0.762340;-0.614094;0.204268;,
   0.393463;-0.617049;0.681497;,
   -0.204269;-0.614094;0.762340;,
   -0.435890;-0.864099;0.251661;,
   -0.133654;-0.856347;0.498806;,
   -0.498806;-0.856346;-0.133654;,
   -0.251661;-0.864099;-0.435890;,
   0.133654;-0.856346;-0.498806;,
   0.435889;-0.864099;-0.251661;,
   0.498806;-0.856347;0.133654;,
   0.251661;-0.864099;0.435889;,
   -0.133654;-0.856347;0.498806;,
   0.000000;-1.000000;0.000000;,
   0.000000;-1.000000;0.000000;,
   0.000000;-1.000000;0.000000;,
   0.000000;-1.000000;0.000000;,
   0.000000;-1.000000;0.000000;,
   0.000000;-1.000000;0.000000;,
   0.000000;-1.000000;0.000000;,
   0.000000;-1.000000;0.000000;,
   0.000000;-1.000000;0.000000;,
   0.000000;-1.000000;0.000000;,
   0.000000;-1.000000;0.000000;,
   0.000000;-1.000000;0.000000;,
   0.000000;-1.000000;0.000000;,
   -0.002333;0.999996;0.001312;,
   0.191441;0.674332;-0.713181;,
   -0.363503;0.685655;-0.630668;,
   -0.002333;0.999996;0.001312;,
   -0.715568;0.671617;-0.192075;,
   -0.631878;0.683838;0.364823;,
   -0.191427;0.671648;0.715713;,
   0.364404;0.685696;0.630103;,
   0.713324;0.674363;0.190797;,
   0.628899;0.687497;-0.363088;,
   0.191441;0.674332;-0.713181;,
   -0.258819;0.000001;0.965926;,
   -0.866025;0.000001;0.500000;,
   -0.866025;0.000001;0.500000;,
   -0.258819;0.000001;0.965926;,
   -0.965926;0.000001;-0.258819;,
   -0.965926;0.000000;-0.258819;,
   -0.500000;0.000000;-0.866025;,
   -0.500000;0.000000;-0.866025;,
   0.258818;0.000001;-0.965926;,
   0.258818;0.000001;-0.965926;,
   0.866025;0.000001;-0.500001;,
   0.866025;0.000000;-0.500001;,
   0.965926;0.000000;0.258818;,
   0.965926;0.000000;0.258818;,
   0.500000;0.000000;0.866025;,
   0.500001;0.000000;0.866025;,
   -0.258819;0.000001;0.965926;,
   -0.258819;0.000001;0.965926;,
   -0.000000;-1.000000;0.000000;,
   -0.000007;-1.000000;0.000004;,
   -0.000007;-1.000000;0.000004;,
   0.000000;-1.000000;0.000000;,
   -0.000000;-1.000000;-0.000000;,
   0.000000;-1.000000;-0.000000;,
   0.000000;-1.000000;0.000000;,
   0.000000;-1.000000;0.000000;,
   0.000000;-1.000000;0.000000;,
   0.000000;-1.000000;0.000000;,
   0.000000;-1.000000;0.000000;,
   0.000000;-1.000000;0.000000;,
   0.000000;-1.000000;0.000000;,
   0.000000;-1.000000;0.000000;,
   0.000000;-1.000000;0.000000;,
   0.000000;-1.000000;0.000000;,
   0.000000;-1.000000;0.000000;,
   -0.000000;-1.000000;0.000000;,
   0.000000;1.000000;0.000000;,
   0.000000;1.000000;0.000000;,
   0.000000;1.000000;0.000000;,
   0.000000;1.000000;0.000000;,
   0.000000;1.000000;0.000000;,
   0.000000;1.000000;0.000000;,
   0.000000;1.000000;0.000000;,
   0.000000;1.000000;0.000000;,
   0.000000;1.000000;0.000000;,
   0.000000;1.000000;0.000000;,
   0.000000;1.000000;0.000000;,
   0.000000;1.000000;0.000000;,
   0.000000;1.000000;0.000000;,
   0.000000;1.000000;0.000000;,
   0.000000;1.000000;0.000000;,
   0.000000;1.000000;0.000000;,
   0.000000;1.000000;0.000000;,
   0.000000;1.000000;0.000000;,
   -0.257001;-0.118321;0.959141;,
   0.496239;-0.122433;0.859510;,
   0.496239;-0.122433;0.859510;,
   -0.257001;-0.118321;0.959141;,
   0.959141;-0.118321;0.257000;,
   0.959141;-0.118321;0.257000;,
   0.859510;-0.122433;-0.496239;,
   0.859510;-0.122433;-0.496239;,
   0.257000;-0.118321;-0.959141;,
   0.257000;-0.118321;-0.959141;,
   -0.496239;-0.122433;-0.859510;,
   -0.496239;-0.122433;-0.859510;,
   -0.959141;-0.118321;-0.257001;,
   -0.959141;-0.118321;-0.257001;,
   -0.859510;-0.122433;0.496239;,
   -0.859510;-0.122433;0.496239;,
   -0.257001;-0.118321;0.959141;,
   -0.257001;-0.118321;0.959141;;
   144;
   3;0,1,2;,
   3;1,0,3;,
   3;2,4,5;,
   3;4,2,1;,
   3;6,7,8;,
   3;7,6,9;,
   3;8,10,11;,
   3;10,8,7;,
   3;11,12,13;,
   3;12,11,10;,
   3;13,3,0;,
   3;3,13,12;,
   3;14,15,16;,
   3;17,15,14;,
   3;18,15,17;,
   3;19,15,18;,
   3;20,15,19;,
   3;16,15,20;,
   3;21,22,23;,
   3;22,21,24;,
   3;25,23,26;,
   3;23,25,21;,
   3;27,26,28;,
   3;26,27,25;,
   3;29,28,30;,
   3;28,29,27;,
   3;31,30,32;,
   3;30,31,29;,
   3;33,32,34;,
   3;32,33,31;,
   3;35,34,36;,
   3;34,35,33;,
   3;37,36,38;,
   3;36,37,35;,
   3;39,24,21;,
   3;24,39,40;,
   3;41,21,25;,
   3;21,41,39;,
   3;42,25,27;,
   3;25,42,41;,
   3;43,27,29;,
   3;27,43,42;,
   3;44,29,31;,
   3;29,44,43;,
   3;45,31,33;,
   3;31,45,44;,
   3;46,33,35;,
   3;33,46,45;,
   3;47,35,37;,
   3;35,47,46;,
   3;48,40,39;,
   3;40,48,49;,
   3;50,39,41;,
   3;39,50,48;,
   3;51,41,42;,
   3;41,51,50;,
   3;52,42,43;,
   3;42,52,51;,
   3;53,43,44;,
   3;43,53,52;,
   3;54,44,45;,
   3;44,54,53;,
   3;55,45,46;,
   3;45,55,54;,
   3;56,46,47;,
   3;46,56,55;,
   3;57,58,59;,
   3;60,59,61;,
   3;62,61,63;,
   3;64,63,65;,
   3;66,65,67;,
   3;68,67,69;,
   3;70,71,72;,
   3;73,72,74;,
   3;73,74,75;,
   3;73,75,76;,
   3;73,76,77;,
   3;73,77,78;,
   3;73,78,79;,
   3;73,79,80;,
   3;81,82,83;,
   3;82,81,84;,
   3;83,85,86;,
   3;85,83,82;,
   3;86,87,88;,
   3;87,86,85;,
   3;88,89,90;,
   3;89,88,87;,
   3;90,91,92;,
   3;91,90,89;,
   3;92,93,94;,
   3;93,92,91;,
   3;94,95,96;,
   3;95,94,93;,
   3;96,97,98;,
   3;97,96,95;,
   3;99,100,101;,
   3;100,99,102;,
   3;101,103,104;,
   3;103,101,100;,
   3;104,105,106;,
   3;105,104,103;,
   3;106,107,108;,
   3;107,106,105;,
   3;108,109,110;,
   3;109,108,107;,
   3;110,111,112;,
   3;111,110,109;,
   3;112,113,114;,
   3;113,112,111;,
   3;114,115,116;,
   3;115,114,113;,
   3;117,118,119;,
   3;118,117,120;,
   3;119,121,122;,
   3;121,119,118;,
   3;122,123,124;,
   3;123,122,121;,
   3;124,125,126;,
   3;125,124,123;,
   3;126,127,128;,
   3;127,126,125;,
   3;128,129,130;,
   3;129,128,127;,
   3;130,131,132;,
   3;131,130,129;,
   3;132,133,134;,
   3;133,132,131;,
   3;135,136,137;,
   3;136,135,138;,
   3;137,139,140;,
   3;139,137,136;,
   3;140,141,142;,
   3;141,140,139;,
   3;142,143,144;,
   3;143,142,141;,
   3;144,145,146;,
   3;145,144,143;,
   3;146,147,148;,
   3;147,146,145;,
   3;148,149,150;,
   3;149,148,147;,
   3;150,151,152;,
   3;151,150,149;;
  }

  MeshMaterialList {
   1;
   144;
   0,
   0,
   0,
   0,
   0,
   0,
   0,
   0,
   0,
   0,
   0,
   0,
   0,
   0,
   0,
   0,
   0,
   0,
   0,
   0,
   0,
   0,
   0,
   0,
   0,
   0,
   0,
   0,
   0,
   0,
   0,
   0,
   0,
   0,
   0,
   0,
   0,
   0,
   0,
   0,
   0,
   0,
   0,
   0,
   0,
   0,
   0,
   0,
   0,
   0,
   0,
   0,
   0,
   0,
   0,
   0,
   0,
   0,
   0,
   0,
   0,
   0,
   0,
   0,
   0,
   0,
   0,
   0,
   0,
   0,
   0,
   0,
   0,
   0,
   0,
   0,
   0,
   0,
   0,
   0,
   0,
   0,
   0,
   0,
   0,
   0,
   0,
   0,
   0,
   0,
   0,
   0,
   0,
   0,
   0,
   0,
   0,
   0,
   0,
   0,
   0,
   0,
   0,
   0,
   0,
   0,
   0,
   0,
   0,
   0,
   0,
   0,
   0,
   0,
   0,
   0,
   0,
   0,
   0,
   0,
   0,
   0,
   0,
   0,
   0,
   0,
   0,
   0,
   0,
   0,
   0,
   0,
   0,
   0,
   0,
   0,
   0,
   0,
   0,
   0,
   0,
   0,
   0,
   0;
   { _13_-_Default }
  }

  MeshTextureCoords c1 {
   153;
   0.182395;0.964506;,
   0.214278;0.027139;,
   0.214278;0.964506;,
   0.182395;0.027139;,
   0.246161;0.027139;,
   0.246161;0.964506;,
   0.054862;0.964506;,
   0.086745;0.027139;,
   0.086745;0.964506;,
   0.054862;0.027139;,
   0.118629;0.027139;,
   0.118629;0.964506;,
   0.150512;0.027139;,
   0.150512;0.964506;,
   0.343256;0.850790;,
   0.416041;0.889113;,
   0.416041;0.808767;,
   0.343256;0.934835;,
   0.416041;0.976858;,
   0.488827;0.934835;,
   0.488827;0.850790;,
   0.484846;0.359893;,
   0.413812;0.326559;,
   0.484846;0.326559;,
   0.413812;0.359893;,
   0.555879;0.359893;,
   0.555879;0.326559;,
   0.626913;0.359893;,
   0.626913;0.326559;,
   0.697946;0.359893;,
   0.697946;0.326559;,
   0.768979;0.359893;,
   0.768979;0.326559;,
   0.840013;0.359893;,
   0.840013;0.326559;,
   0.911046;0.359893;,
   0.911046;0.326559;,
   0.958402;0.359893;,
   0.958402;0.326559;,
   0.484846;0.422904;,
   0.413812;0.422904;,
   0.555879;0.422904;,
   0.626913;0.422904;,
   0.697946;0.422904;,
   0.768979;0.422904;,
   0.840013;0.422904;,
   0.911046;0.422904;,
   0.958402;0.422904;,
   0.484846;0.517615;,
   0.413812;0.517615;,
   0.555879;0.517615;,
   0.626913;0.517615;,
   0.697946;0.517615;,
   0.768979;0.517615;,
   0.840013;0.517615;,
   0.911046;0.517615;,
   0.958402;0.517615;,
   0.484846;0.715352;,
   0.484846;0.620641;,
   0.555879;0.620641;,
   0.579557;0.715352;,
   0.626913;0.620641;,
   0.626913;0.715352;,
   0.697946;0.620641;,
   0.721624;0.715352;,
   0.768979;0.620641;,
   0.768979;0.715352;,
   0.840013;0.620641;,
   0.863690;0.715352;,
   0.911046;0.620641;,
   0.910408;0.091676;,
   0.958402;0.285110;,
   0.911046;0.285659;,
   0.626818;0.077012;,
   0.840013;0.285659;,
   0.768979;0.285659;,
   0.697946;0.285659;,
   0.626913;0.285659;,
   0.555879;0.285659;,
   0.484846;0.285659;,
   0.413812;0.285385;,
   0.413812;0.320320;,
   0.484846;0.303201;,
   0.484846;0.320320;,
   0.413812;0.303201;,
   0.555879;0.303201;,
   0.555879;0.320320;,
   0.626913;0.303201;,
   0.626913;0.320320;,
   0.697946;0.303201;,
   0.697946;0.320320;,
   0.768979;0.303201;,
   0.768979;0.320320;,
   0.840013;0.303201;,
   0.840013;0.320320;,
   0.911046;0.303201;,
   0.911046;0.320320;,
   0.958402;0.303201;,
   0.958402;0.320320;,
   0.413812;0.326559;,
   0.484846;0.320320;,
   0.484846;0.326559;,
   0.413812;0.320320;,
   0.555879;0.320320;,
   0.555879;0.326559;,
   0.626913;0.320320;,
   0.626913;0.326559;,
   0.697946;0.320320;,
   0.697946;0.326559;,
   0.768979;0.320320;,
   0.768979;0.326559;,
   0.840013;0.320320;,
   0.840013;0.326559;,
   0.911046;0.320320;,
   0.911046;0.326559;,
   0.958402;0.320320;,
   0.958402;0.326559;,
   0.958402;0.285110;,
   0.911046;0.303201;,
   0.911046;0.285659;,
   0.958402;0.303201;,
   0.840013;0.303201;,
   0.840013;0.285659;,
   0.768979;0.303201;,
   0.768979;0.285659;,
   0.697946;0.303201;,
   0.697946;0.285659;,
   0.626913;0.303201;,
   0.626913;0.285659;,
   0.555879;0.303201;,
   0.555879;0.285659;,
   0.484846;0.303201;,
   0.484846;0.285659;,
   0.413812;0.303201;,
   0.413812;0.285385;,
   0.958402;0.517615;,
   0.911046;0.620641;,
   0.911046;0.517615;,
   0.958402;0.620641;,
   0.840013;0.620641;,
   0.840013;0.517615;,
   0.768979;0.620641;,
   0.768979;0.517615;,
   0.697946;0.620641;,
   0.697946;0.517615;,
   0.626913;0.620641;,
   0.626913;0.517615;,
   0.555879;0.620641;,
   0.555879;0.517615;,
   0.484846;0.620641;,
   0.484846;0.517615;,
   0.413812;0.620641;,
   0.413812;0.517615;;
  }
 }
}