xof 0303txt 0032
template ColorRGBA {
 <35ff44e0-6c7c-11cf-8f52-0040333594a3>
 FLOAT red;
 FLOAT green;
 FLOAT blue;
 FLOAT alpha;
}

template ColorRGB {
 <d3e16e81-7835-11cf-8f52-0040333594a3>
 FLOAT red;
 FLOAT green;
 FLOAT blue;
}

template Material {
 <3d82ab4d-62da-11cf-ab39-0020af71e433>
 ColorRGBA faceColor;
 FLOAT power;
 ColorRGB specularColor;
 ColorRGB emissiveColor;
 [...]
}

template TextureFilename {
 <a42790e1-7810-11cf-8f52-0040333594a3>
 STRING filename;
}

template Frame {
 <3d82ab46-62da-11cf-ab39-0020af71e433>
 [...]
}

template Matrix4x4 {
 <f6f23f45-7686-11cf-8f52-0040333594a3>
 array FLOAT matrix[16];
}

template FrameTransformMatrix {
 <f6f23f41-7686-11cf-8f52-0040333594a3>
 Matrix4x4 frameMatrix;
}

template Vector {
 <3d82ab5e-62da-11cf-ab39-0020af71e433>
 FLOAT x;
 FLOAT y;
 FLOAT z;
}

template MeshFace {
 <3d82ab5f-62da-11cf-ab39-0020af71e433>
 DWORD nFaceVertexIndices;
 array DWORD faceVertexIndices[nFaceVertexIndices];
}

template Mesh {
 <3d82ab44-62da-11cf-ab39-0020af71e433>
 DWORD nVertices;
 array Vector vertices[nVertices];
 DWORD nFaces;
 array MeshFace faces[nFaces];
 [...]
}

template MeshNormals {
 <f6f23f43-7686-11cf-8f52-0040333594a3>
 DWORD nNormals;
 array Vector normals[nNormals];
 DWORD nFaceNormals;
 array MeshFace faceNormals[nFaceNormals];
}

template MeshMaterialList {
 <f6f23f42-7686-11cf-8f52-0040333594a3>
 DWORD nMaterials;
 DWORD nFaceIndexes;
 array DWORD faceIndexes[nFaceIndexes];
 [Material <3d82ab4d-62da-11cf-ab39-0020af71e433>]
}

template Coords2d {
 <f6f23f44-7686-11cf-8f52-0040333594a3>
 FLOAT u;
 FLOAT v;
}

template MeshTextureCoords {
 <f6f23f40-7686-11cf-8f52-0040333594a3>
 DWORD nTextureCoords;
 array Coords2d textureCoords[nTextureCoords];
}


Material Mat_WoodenMallet {
 1.000000;1.000000;1.000000;1.000000;;
 9.999999;
 0.000000;0.000000;0.000000;;
 0.000000;0.000000;0.000000;;

 TextureFilename {
  "WoodenMallet.png";
 }
}

Frame WoodenMallet {
 

 FrameTransformMatrix {
  1.000000,0.000000,0.000000,0.000000,0.000000,1.000000,0.000000,0.000000,0.000000,0.000000,1.000000,0.000000,0.000000,0.000000,0.000000,1.000000;;
 }

 Mesh WoodenMallet {
  104;
  -0.008673;-0.014317;-0.012793;,
  0.008673;-0.014317;0.012793;,
  -0.008673;-0.014317;0.012793;,
  0.008673;-0.014317;-0.012793;,
  -0.008673;0.262681;-0.015918;,
  0.008673;0.262681;0.015918;,
  0.008673;0.262681;-0.015918;,
  -0.008673;0.262681;0.015918;,
  -0.008673;-0.014317;-0.012793;,
  0.006406;0.005750;-0.009450;,
  0.008673;-0.014317;-0.012793;,
  -0.006406;0.005750;-0.009450;,
  -0.006406;0.005750;-0.009450;,
  0.006406;0.136880;-0.009450;,
  0.006406;0.005750;-0.009450;,
  -0.006406;0.136880;-0.009450;,
  0.008673;0.150206;-0.012793;,
  -0.008673;0.150206;-0.012793;,
  -0.008673;0.150206;-0.012793;,
  0.008673;0.262681;-0.015918;,
  0.008673;0.150206;-0.012793;,
  -0.008673;0.262681;-0.015918;,
  0.008673;-0.014317;-0.012793;,
  0.006406;0.005750;0.009450;,
  0.008673;-0.014317;0.012793;,
  0.006406;0.005750;-0.009450;,
  0.006406;0.005750;-0.009450;,
  0.006406;0.136880;0.009450;,
  0.006406;0.005750;0.009450;,
  0.006406;0.136880;-0.009450;,
  0.008673;0.150206;0.012793;,
  0.008673;0.150206;-0.012793;,
  0.008673;0.150206;-0.012793;,
  0.008673;0.262681;0.015918;,
  0.008673;0.150206;0.012793;,
  0.008673;0.262681;-0.015918;,
  0.008673;-0.014317;0.012793;,
  -0.006406;0.005750;0.009450;,
  -0.008673;-0.014317;0.012793;,
  0.006406;0.005750;0.009450;,
  0.006406;0.005750;0.009450;,
  -0.006406;0.136880;0.009450;,
  -0.006406;0.005750;0.009450;,
  0.006406;0.136880;0.009450;,
  -0.008673;0.150206;0.012793;,
  0.008673;0.150206;0.012793;,
  0.008673;0.150206;0.012793;,
  -0.008673;0.262681;0.015918;,
  -0.008673;0.150206;0.012793;,
  0.008673;0.262681;0.015918;,
  -0.008673;-0.014317;0.012793;,
  -0.006406;0.005750;-0.009450;,
  -0.008673;-0.014317;-0.012793;,
  -0.006406;0.005750;0.009450;,
  -0.006406;0.005750;0.009450;,
  -0.006406;0.136880;-0.009450;,
  -0.006406;0.005750;-0.009450;,
  -0.006406;0.136880;0.009450;,
  -0.008673;0.150206;-0.012793;,
  -0.008673;0.150206;0.012793;,
  -0.008673;0.150206;0.012793;,
  -0.008673;0.262681;-0.015918;,
  -0.008673;0.150206;-0.012793;,
  -0.008673;0.262681;0.015918;,
  -0.030437;0.170309;-0.049499;,
  0.030437;0.170309;-0.018279;,
  -0.030437;0.170309;-0.018279;,
  0.030437;0.170309;-0.049499;,
  0.030437;0.170309;0.018279;,
  -0.030437;0.170309;0.018279;,
  0.030437;0.170309;0.049499;,
  -0.030437;0.170309;0.049499;,
  -0.030437;0.245441;-0.049499;,
  0.030437;0.248738;-0.018279;,
  0.030437;0.245441;-0.049499;,
  -0.030437;0.248738;-0.018279;,
  0.030437;0.248738;0.018279;,
  -0.030437;0.248738;0.018279;,
  0.030437;0.245441;0.049499;,
  -0.030437;0.245441;0.049499;,
  -0.030437;0.170309;-0.049499;,
  0.030437;0.245441;-0.049499;,
  0.030437;0.170309;-0.049499;,
  -0.030437;0.245441;-0.049499;,
  0.030437;0.170309;-0.049499;,
  0.030437;0.248738;-0.018279;,
  0.030437;0.170309;-0.018279;,
  0.030437;0.245441;-0.049499;,
  0.030437;0.248738;0.018279;,
  0.030437;0.170309;0.018279;,
  0.030437;0.245441;0.049499;,
  0.030437;0.170309;0.049499;,
  0.030437;0.170309;0.049499;,
  -0.030437;0.245441;0.049499;,
  -0.030437;0.170309;0.049499;,
  0.030437;0.245441;0.049499;,
  -0.030437;0.170309;0.049499;,
  -0.030437;0.248738;0.018279;,
  -0.030437;0.170309;0.018279;,
  -0.030437;0.245441;0.049499;,
  -0.030437;0.248738;-0.018279;,
  -0.030437;0.170309;-0.018279;,
  -0.030437;0.245441;-0.049499;,
  -0.030437;0.170309;-0.049499;;
  64;
  3;0,1,2;,
  3;1,0,3;,
  3;4,5,6;,
  3;5,4,7;,
  3;8,9,10;,
  3;9,8,11;,
  3;12,13,14;,
  3;13,12,15;,
  3;15,16,13;,
  3;16,15,17;,
  3;18,19,20;,
  3;19,18,21;,
  3;22,23,24;,
  3;23,22,25;,
  3;26,27,28;,
  3;27,26,29;,
  3;29,30,27;,
  3;30,29,31;,
  3;32,33,34;,
  3;33,32,35;,
  3;36,37,38;,
  3;37,36,39;,
  3;40,41,42;,
  3;41,40,43;,
  3;43,44,41;,
  3;44,43,45;,
  3;46,47,48;,
  3;47,46,49;,
  3;50,51,52;,
  3;51,50,53;,
  3;54,55,56;,
  3;55,54,57;,
  3;57,58,55;,
  3;58,57,59;,
  3;60,61,62;,
  3;61,60,63;,
  3;64,65,66;,
  3;65,64,67;,
  3;66,68,69;,
  3;68,66,65;,
  3;69,70,71;,
  3;70,69,68;,
  3;72,73,74;,
  3;73,72,75;,
  3;75,76,73;,
  3;76,75,77;,
  3;77,78,76;,
  3;78,77,79;,
  3;80,81,82;,
  3;81,80,83;,
  3;84,85,86;,
  3;85,84,87;,
  3;86,88,89;,
  3;88,86,85;,
  3;89,90,91;,
  3;90,89,88;,
  3;92,93,94;,
  3;93,92,95;,
  3;96,97,98;,
  3;97,96,99;,
  3;98,100,101;,
  3;100,98,97;,
  3;101,102,103;,
  3;102,101,100;;

  MeshNormals {
   104;
   0.000000;-1.000000;0.000000;,
   0.000000;-1.000000;0.000000;,
   0.000000;-1.000000;0.000000;,
   0.000000;-1.000000;0.000000;,
   0.000000;1.000000;0.000000;,
   0.000000;1.000000;0.000000;,
   0.000000;1.000000;0.000000;,
   0.000000;1.000000;0.000000;,
   0.000000;0.164344;-0.986403;,
   0.000000;0.164344;-0.986403;,
   0.000000;0.164344;-0.986403;,
   0.000000;0.164344;-0.986403;,
   -0.707107;0.000000;-0.707107;,
   0.709783;-0.153449;-0.687504;,
   0.707107;0.000000;-0.707107;,
   -0.709783;-0.153449;-0.687504;,
   0.663319;-0.286278;-0.691414;,
   -0.663319;-0.286278;-0.691414;,
   0.000000;-0.027776;-0.999614;,
   0.000000;-0.027776;-0.999614;,
   0.000000;-0.027776;-0.999614;,
   0.000000;-0.027776;-0.999614;,
   0.993681;0.112241;0.000000;,
   0.993681;0.112241;0.000000;,
   0.993681;0.112241;0.000000;,
   0.993681;0.112241;0.000000;,
   0.707107;0.000000;-0.707107;,
   0.709783;-0.153449;0.687504;,
   0.707107;0.000000;0.707107;,
   0.709783;-0.153449;-0.687504;,
   0.663319;-0.286278;0.691414;,
   0.663319;-0.286278;-0.691414;,
   1.000000;-0.000000;0.000000;,
   1.000000;-0.000000;0.000000;,
   1.000000;-0.000000;0.000000;,
   1.000000;-0.000000;-0.000000;,
   0.000000;0.164344;0.986403;,
   0.000000;0.164344;0.986403;,
   0.000000;0.164344;0.986403;,
   0.000000;0.164344;0.986403;,
   0.707107;0.000000;0.707107;,
   -0.709783;-0.153449;0.687504;,
   -0.707107;0.000000;0.707107;,
   0.709783;-0.153449;0.687504;,
   -0.663319;-0.286278;0.691414;,
   0.663319;-0.286278;0.691414;,
   0.000000;-0.027776;0.999614;,
   0.000000;-0.027776;0.999614;,
   0.000000;-0.027776;0.999614;,
   0.000000;-0.027776;0.999614;,
   -0.993681;0.112241;0.000000;,
   -0.993681;0.112241;0.000000;,
   -0.993681;0.112241;0.000000;,
   -0.993681;0.112241;0.000000;,
   -0.707107;0.000000;0.707107;,
   -0.709783;-0.153449;-0.687504;,
   -0.707107;0.000000;-0.707107;,
   -0.709783;-0.153449;0.687504;,
   -0.663319;-0.286278;-0.691414;,
   -0.663319;-0.286278;0.691414;,
   -1.000000;-0.000000;0.000000;,
   -1.000000;-0.000000;0.000000;,
   -1.000000;-0.000000;0.000000;,
   -1.000000;-0.000000;0.000000;,
   0.000000;-1.000000;-0.000001;,
   0.000000;-1.000000;-0.000001;,
   0.000000;-1.000000;-0.000001;,
   0.000000;-1.000000;-0.000001;,
   0.000000;-1.000000;0.000000;,
   0.000000;-1.000000;0.000000;,
   0.000000;-1.000000;0.000001;,
   0.000000;-1.000000;0.000001;,
   0.000000;0.994470;-0.105024;,
   0.000000;0.998617;-0.052585;,
   0.000000;0.994470;-0.105024;,
   0.000000;0.998617;-0.052585;,
   0.000000;0.998617;0.052585;,
   0.000000;0.998617;0.052585;,
   0.000000;0.994470;0.105024;,
   0.000000;0.994470;0.105024;,
   0.000000;-0.000000;-1.000000;,
   0.000000;-0.000000;-1.000000;,
   0.000000;-0.000000;-1.000000;,
   0.000000;-0.000000;-1.000000;,
   1.000000;0.000000;0.000000;,
   1.000000;0.000000;0.000000;,
   1.000000;0.000000;0.000000;,
   1.000000;0.000000;0.000000;,
   1.000000;0.000000;-0.000000;,
   1.000000;0.000000;-0.000000;,
   1.000000;0.000000;-0.000000;,
   1.000000;0.000000;-0.000000;,
   0.000000;0.000000;1.000000;,
   0.000000;0.000000;1.000000;,
   0.000000;0.000000;1.000000;,
   0.000000;0.000000;1.000000;,
   -1.000000;0.000000;0.000000;,
   -1.000000;0.000000;0.000000;,
   -1.000000;0.000000;0.000000;,
   -1.000000;0.000000;0.000000;,
   -1.000000;0.000000;0.000000;,
   -1.000000;0.000000;0.000000;,
   -1.000000;0.000000;0.000000;,
   -1.000000;0.000000;0.000000;;
   64;
   3;0,1,2;,
   3;1,0,3;,
   3;4,5,6;,
   3;5,4,7;,
   3;8,9,10;,
   3;9,8,11;,
   3;12,13,14;,
   3;13,12,15;,
   3;15,16,13;,
   3;16,15,17;,
   3;18,19,20;,
   3;19,18,21;,
   3;22,23,24;,
   3;23,22,25;,
   3;26,27,28;,
   3;27,26,29;,
   3;29,30,27;,
   3;30,29,31;,
   3;32,33,34;,
   3;33,32,35;,
   3;36,37,38;,
   3;37,36,39;,
   3;40,41,42;,
   3;41,40,43;,
   3;43,44,41;,
   3;44,43,45;,
   3;46,47,48;,
   3;47,46,49;,
   3;50,51,52;,
   3;51,50,53;,
   3;54,55,56;,
   3;55,54,57;,
   3;57,58,55;,
   3;58,57,59;,
   3;60,61,62;,
   3;61,60,63;,
   3;64,65,66;,
   3;65,64,67;,
   3;66,68,69;,
   3;68,66,65;,
   3;69,70,71;,
   3;70,69,68;,
   3;72,73,74;,
   3;73,72,75;,
   3;75,76,73;,
   3;76,75,77;,
   3;77,78,76;,
   3;78,77,79;,
   3;80,81,82;,
   3;81,80,83;,
   3;84,85,86;,
   3;85,84,87;,
   3;86,88,89;,
   3;88,86,85;,
   3;89,90,91;,
   3;90,89,88;,
   3;92,93,94;,
   3;93,92,95;,
   3;96,97,98;,
   3;97,96,99;,
   3;98,100,101;,
   3;100,98,97;,
   3;101,102,103;,
   3;102,101,100;;
  }

  MeshMaterialList {
   1;
   64;
   0,
   0,
   0,
   0,
   0,
   0,
   0,
   0,
   0,
   0,
   0,
   0,
   0,
   0,
   0,
   0,
   0,
   0,
   0,
   0,
   0,
   0,
   0,
   0,
   0,
   0,
   0,
   0,
   0,
   0,
   0,
   0,
   0,
   0,
   0,
   0,
   0,
   0,
   0,
   0,
   0,
   0,
   0,
   0,
   0,
   0,
   0,
   0,
   0,
   0,
   0,
   0,
   0,
   0,
   0,
   0,
   0,
   0,
   0,
   0,
   0,
   0,
   0,
   0;
   { Mat_WoodenMallet }
  }

  MeshTextureCoords c1 {
   104;
   0.749186;0.178547;,
   0.839527;0.251903;,
   0.750328;0.252490;,
   0.842954;0.178547;,
   0.750941;0.251533;,
   0.842818;0.179333;,
   0.839391;0.251533;,
   0.750941;0.178159;,
   0.109236;0.972664;,
   0.211029;0.903118;,
   0.226330;0.972664;,
   0.124536;0.903118;,
   0.124536;0.903118;,
   0.211029;0.448657;,
   0.211029;0.903118;,
   0.124536;0.448657;,
   0.226330;0.402470;,
   0.109236;0.402470;,
   0.109236;0.402470;,
   0.226330;0.012664;,
   0.226330;0.402470;,
   0.109236;0.012664;,
   0.130332;0.972664;,
   0.280478;0.903118;,
   0.303047;0.972664;,
   0.152901;0.903118;,
   0.152901;0.903118;,
   0.280478;0.448657;,
   0.280478;0.903118;,
   0.152901;0.448657;,
   0.303047;0.402470;,
   0.130332;0.402470;,
   0.130332;0.402470;,
   0.324143;0.012664;,
   0.303047;0.402470;,
   0.109236;0.012664;,
   0.117194;0.981332;,
   0.219807;0.911225;,
   0.235231;0.981332;,
   0.132618;0.911225;,
   0.132618;0.911225;,
   0.219807;0.453103;,
   0.219807;0.911225;,
   0.132618;0.453103;,
   0.235231;0.406544;,
   0.117194;0.406544;,
   0.117194;0.406544;,
   0.235231;0.013597;,
   0.235231;0.406544;,
   0.117194;0.013597;,
   0.130332;0.972664;,
   0.280478;0.903118;,
   0.303047;0.972664;,
   0.152901;0.903118;,
   0.152901;0.903118;,
   0.280478;0.448657;,
   0.280478;0.903118;,
   0.152901;0.448657;,
   0.303047;0.402470;,
   0.130332;0.402470;,
   0.130332;0.402470;,
   0.324143;0.012664;,
   0.303047;0.402470;,
   0.109236;0.012664;,
   0.395704;0.652847;,
   0.778734;0.753703;,
   0.395704;0.753703;,
   0.778734;0.652847;,
   0.778734;0.871805;,
   0.395704;0.871805;,
   0.778734;0.972660;,
   0.395704;0.972660;,
   0.395160;0.972426;,
   0.778944;0.872011;,
   0.778944;0.972426;,
   0.395160;0.872011;,
   0.778944;0.753489;,
   0.395160;0.753489;,
   0.778944;0.654477;,
   0.395160;0.654477;,
   0.372695;0.225177;,
   0.700393;0.017527;,
   0.700393;0.225177;,
   0.372695;0.017527;,
   0.763230;0.590091;,
   0.336345;0.512386;,
   0.794094;0.512386;,
   0.355588;0.590091;,
   0.336345;0.402837;,
   0.794094;0.402837;,
   0.355588;0.309286;,
   0.794094;0.309286;,
   0.370085;0.227621;,
   0.699148;0.019104;,
   0.699148;0.227621;,
   0.370085;0.019104;,
   0.759408;0.590233;,
   0.336625;0.512954;,
   0.793976;0.511686;,
   0.355581;0.590233;,
   0.337859;0.403194;,
   0.792741;0.403194;,
   0.353112;0.308802;,
   0.792741;0.310070;;
  }
 }
}