xof 0303txt 0032
template ColorRGBA {
 <35ff44e0-6c7c-11cf-8f52-0040333594a3>
 FLOAT red;
 FLOAT green;
 FLOAT blue;
 FLOAT alpha;
}

template ColorRGB {
 <d3e16e81-7835-11cf-8f52-0040333594a3>
 FLOAT red;
 FLOAT green;
 FLOAT blue;
}

template Material {
 <3d82ab4d-62da-11cf-ab39-0020af71e433>
 ColorRGBA faceColor;
 FLOAT power;
 ColorRGB specularColor;
 ColorRGB emissiveColor;
 [...]
}

template TextureFilename {
 <a42790e1-7810-11cf-8f52-0040333594a3>
 STRING filename;
}

template Frame {
 <3d82ab46-62da-11cf-ab39-0020af71e433>
 [...]
}

template Matrix4x4 {
 <f6f23f45-7686-11cf-8f52-0040333594a3>
 array FLOAT matrix[16];
}

template FrameTransformMatrix {
 <f6f23f41-7686-11cf-8f52-0040333594a3>
 Matrix4x4 frameMatrix;
}

template Vector {
 <3d82ab5e-62da-11cf-ab39-0020af71e433>
 FLOAT x;
 FLOAT y;
 FLOAT z;
}

template MeshFace {
 <3d82ab5f-62da-11cf-ab39-0020af71e433>
 DWORD nFaceVertexIndices;
 array DWORD faceVertexIndices[nFaceVertexIndices];
}

template Mesh {
 <3d82ab44-62da-11cf-ab39-0020af71e433>
 DWORD nVertices;
 array Vector vertices[nVertices];
 DWORD nFaces;
 array MeshFace faces[nFaces];
 [...]
}

template MeshNormals {
 <f6f23f43-7686-11cf-8f52-0040333594a3>
 DWORD nNormals;
 array Vector normals[nNormals];
 DWORD nFaceNormals;
 array MeshFace faceNormals[nFaceNormals];
}

template MeshMaterialList {
 <f6f23f42-7686-11cf-8f52-0040333594a3>
 DWORD nMaterials;
 DWORD nFaceIndexes;
 array DWORD faceIndexes[nFaceIndexes];
 [Material <3d82ab4d-62da-11cf-ab39-0020af71e433>]
}

template Coords2d {
 <f6f23f44-7686-11cf-8f52-0040333594a3>
 FLOAT u;
 FLOAT v;
}

template MeshTextureCoords {
 <f6f23f40-7686-11cf-8f52-0040333594a3>
 DWORD nTextureCoords;
 array Coords2d textureCoords[nTextureCoords];
}


Material _01_-_Default {
 1.000000;1.000000;1.000000;1.000000;;
 9.999999;
 0.000000;0.000000;0.000000;;
 0.000000;0.000000;0.000000;;

 TextureFilename {
  "BleachBottle.png";
 }
}

Frame BleachBottle {
 

 FrameTransformMatrix {
  1.000000,0.000000,-0.000000,0.000000,0.000000,1.000000,0.000000,0.000000,0.000000,0.000000,1.000000,0.000000,0.000000,0.000000,0.000000,1.000000;;
 }

 Mesh BleachBottle {
  111;
  0.000000;-0.113153;0.022916;,
  -0.020403;-0.098523;0.013569;,
  -0.018105;-0.113153;0.009439;,
  0.000000;-0.098523;0.028756;,
  -0.028855;-0.098523;-0.023095;,
  -0.025605;-0.113153;-0.023095;,
  -0.020403;-0.098523;-0.059760;,
  -0.018105;-0.113153;-0.055630;,
  -0.000000;-0.098523;-0.072695;,
  -0.000000;-0.113153;-0.069106;,
  -0.000000;-0.113153;-0.069106;,
  0.020403;-0.098523;-0.059760;,
  0.018105;-0.113153;-0.055630;,
  -0.000000;-0.098523;-0.072695;,
  0.028855;-0.098523;-0.023095;,
  0.025605;-0.113153;-0.023095;,
  0.020403;-0.098523;0.013569;,
  0.018105;-0.113153;0.009439;,
  0.000000;-0.098523;0.028756;,
  0.000000;-0.113153;0.022916;,
  -0.020403;-0.021518;0.013569;,
  0.000000;-0.021518;0.028756;,
  -0.028855;-0.013167;-0.028138;,
  -0.020403;-0.007740;-0.059760;,
  -0.000000;-0.007740;-0.072695;,
  0.020403;-0.007740;-0.059760;,
  -0.000000;-0.007740;-0.072695;,
  0.028855;-0.013167;-0.028138;,
  0.020403;-0.021518;0.013569;,
  0.000000;-0.021518;0.028756;,
  -0.013350;0.042108;0.012726;,
  0.000000;0.042108;0.018598;,
  -0.020403;0.044966;-0.059760;,
  -0.025741;0.044966;-0.029039;,
  -0.000000;0.044966;-0.072695;,
  0.020403;0.044966;-0.059760;,
  -0.000000;0.044966;-0.072695;,
  0.025741;0.044966;-0.029039;,
  0.000000;0.042108;0.018598;,
  0.013350;0.042108;0.012726;,
  -0.017341;0.078478;-0.002690;,
  0.000000;0.078478;0.005773;,
  -0.020403;0.090926;-0.059760;,
  -0.023437;0.090926;-0.023095;,
  -0.000000;0.090926;-0.072695;,
  0.020403;0.090926;-0.059760;,
  -0.000000;0.090926;-0.072695;,
  0.023437;0.090926;-0.023095;,
  0.000000;0.078478;0.005773;,
  0.017341;0.078478;-0.002690;,
  -0.018105;-0.113153;0.009439;,
  -0.000000;-0.117367;0.002830;,
  0.000000;-0.113153;0.022916;,
  -0.025605;-0.113153;-0.023095;,
  -0.014427;-0.117367;-0.023095;,
  -0.018105;-0.113153;-0.055630;,
  -0.000000;-0.117367;-0.049021;,
  -0.000000;-0.113153;-0.069106;,
  0.018105;-0.113153;-0.055630;,
  0.025605;-0.113153;-0.023095;,
  0.014427;-0.117367;-0.023095;,
  0.018105;-0.113153;0.009439;,
  -0.018788;0.097673;-0.045607;,
  -0.013285;0.097673;-0.058893;,
  -0.000000;0.097673;-0.064396;,
  0.013285;0.097673;-0.058893;,
  -0.000000;0.097673;-0.064396;,
  0.018788;0.097673;-0.045607;,
  -0.000000;0.111989;-0.026819;,
  -0.018788;0.111989;-0.045607;,
  -0.013285;0.111989;-0.032322;,
  -0.013285;0.111989;-0.058893;,
  -0.000000;0.111989;-0.064396;,
  0.013285;0.111989;-0.058893;,
  0.018788;0.111989;-0.045607;,
  0.013285;0.111989;-0.032322;,
  -0.000000;0.097673;-0.026819;,
  -0.013285;0.111989;-0.032322;,
  -0.013285;0.097673;-0.032322;,
  -0.000000;0.111989;-0.026819;,
  -0.018788;0.111989;-0.045607;,
  -0.018788;0.097673;-0.045607;,
  -0.013285;0.111989;-0.058893;,
  -0.013285;0.097673;-0.058893;,
  -0.000000;0.111989;-0.064396;,
  -0.000000;0.097673;-0.064396;,
  0.013285;0.111989;-0.058893;,
  0.013285;0.097673;-0.058893;,
  0.018788;0.111989;-0.045607;,
  0.018788;0.097673;-0.045607;,
  0.013285;0.111989;-0.032322;,
  0.013285;0.097673;-0.032322;,
  -0.000000;0.111989;-0.026819;,
  -0.000000;0.097673;-0.026819;,
  0.013285;0.097673;-0.032322;,
  -0.000000;0.097673;-0.026819;,
  -0.000000;0.097673;-0.026819;,
  -0.013285;0.097673;-0.032322;,
  0.001243;0.039074;-0.001718;,
  0.001243;-0.010022;-0.002770;,
  0.001243;-0.010022;-0.002770;,
  0.001243;0.039074;-0.001718;,
  0.001243;0.067619;-0.008602;,
  0.001243;0.067619;-0.008602;,
  -0.000000;-0.005415;-0.016855;,
  -0.000000;0.042940;-0.021991;,
  -0.000000;0.042940;-0.021991;,
  -0.000000;-0.005415;-0.016855;,
  -0.023437;0.090926;-0.023095;,
  -0.000000;0.067655;-0.013502;,
  -0.000000;0.067655;-0.013502;;
  134;
  3;0,1,2;,
  3;1,0,3;,
  3;2,4,5;,
  3;4,2,1;,
  3;5,6,7;,
  3;6,5,4;,
  3;7,8,9;,
  3;8,7,6;,
  3;10,11,12;,
  3;11,10,13;,
  3;12,14,15;,
  3;14,12,11;,
  3;15,16,17;,
  3;16,15,14;,
  3;17,18,19;,
  3;18,17,16;,
  3;3,20,1;,
  3;20,3,21;,
  3;1,22,4;,
  3;22,1,20;,
  3;4,23,6;,
  3;23,4,22;,
  3;6,24,8;,
  3;24,6,23;,
  3;13,25,11;,
  3;25,13,26;,
  3;11,27,14;,
  3;27,11,25;,
  3;14,28,16;,
  3;28,14,27;,
  3;16,29,18;,
  3;29,16,28;,
  3;21,30,20;,
  3;30,21,31;,
  3;22,32,23;,
  3;32,22,33;,
  3;23,34,24;,
  3;34,23,32;,
  3;26,35,25;,
  3;35,26,36;,
  3;25,37,27;,
  3;37,25,35;,
  3;28,38,29;,
  3;38,28,39;,
  3;31,40,30;,
  3;40,31,41;,
  3;33,42,32;,
  3;42,33,43;,
  3;32,44,34;,
  3;44,32,42;,
  3;36,45,35;,
  3;45,36,46;,
  3;35,47,37;,
  3;47,35,45;,
  3;39,48,38;,
  3;48,39,49;,
  3;50,51,52;,
  3;53,51,50;,
  3;51,53,54;,
  3;55,54,53;,
  3;54,55,56;,
  3;57,56,55;,
  3;58,56,57;,
  3;59,56,58;,
  3;56,59,60;,
  3;61,60,59;,
  3;60,61,51;,
  3;52,51,61;,
  3;60,54,56;,
  3;51,54,60;,
  3;62,42,43;,
  3;42,62,63;,
  3;42,64,44;,
  3;64,42,63;,
  3;46,65,45;,
  3;65,46,66;,
  3;45,67,47;,
  3;67,45,65;,
  3;68,69,70;,
  3;71,69,72;,
  3;72,69,73;,
  3;73,69,74;,
  3;74,69,75;,
  3;75,69,68;,
  3;76,77,78;,
  3;77,76,79;,
  3;78,80,81;,
  3;80,78,77;,
  3;81,82,83;,
  3;82,81,80;,
  3;83,84,85;,
  3;84,83,82;,
  3;85,86,87;,
  3;86,85,84;,
  3;87,88,89;,
  3;88,87,86;,
  3;89,90,91;,
  3;90,89,88;,
  3;91,92,93;,
  3;92,91,90;,
  3;47,67,94;,
  3;47,94,95;,
  3;43,96,97;,
  3;43,97,62;,
  3;49,95,48;,
  3;95,49,47;,
  3;96,40,41;,
  3;40,96,43;,
  3;20,98,99;,
  3;98,20,30;,
  3;100,39,28;,
  3;39,100,101;,
  3;30,102,98;,
  3;102,30,40;,
  3;101,49,39;,
  3;49,101,103;,
  3;104,33,22;,
  3;33,104,105;,
  3;27,106,107;,
  3;106,27,37;,
  3;105,108,33;,
  3;108,105,109;,
  3;33,108,43;,
  3;37,110,106;,
  3;110,37,47;,
  3;109,40,108;,
  3;40,109,102;,
  3;40,43,108;,
  3;103,47,49;,
  3;47,103,110;,
  3;107,28,27;,
  3;28,107,100;,
  3;20,104,22;,
  3;104,20,99;;

  MeshNormals {
   111;
   0.000000;-0.683445;0.730002;,
   -0.823168;-0.134189;0.551714;,
   -0.632737;-0.673303;0.382502;,
   -0.000000;-0.176680;0.984268;,
   -0.994494;-0.104772;0.002279;,
   -0.773686;-0.633414;0.014068;,
   -0.800230;-0.138436;-0.583496;,
   -0.629899;-0.659702;-0.409903;,
   -0.009591;-0.126311;-0.991944;,
   -0.018847;-0.636787;-0.770809;,
   -0.018847;-0.636787;-0.770809;,
   0.806255;-0.129154;-0.577298;,
   0.632737;-0.673303;-0.382502;,
   -0.009591;-0.126311;-0.991944;,
   0.993963;-0.109691;0.002289;,
   0.773685;-0.633414;-0.014068;,
   0.821763;-0.136630;0.553207;,
   0.633652;-0.665378;0.394661;,
   -0.000000;-0.176680;0.984268;,
   0.000000;-0.683445;0.730002;,
   -0.874745;0.217317;0.433121;,
   0.007168;0.064305;0.997905;,
   -0.965726;0.190369;0.176445;,
   -0.807011;-0.002669;-0.590530;,
   -0.000000;-0.000000;-1.000000;,
   0.811257;0.009886;-0.584606;,
   -0.000000;-0.000000;-1.000000;,
   0.960958;0.214137;0.175228;,
   0.867336;0.227232;0.442825;,
   0.007168;0.064305;0.997905;,
   -0.959400;0.147074;0.240667;,
   0.012703;0.225275;0.974212;,
   -0.827429;0.009209;-0.561495;,
   -0.858323;0.014799;0.512897;,
   -0.000000;0.000000;-1.000000;,
   0.836748;0.011213;-0.547473;,
   -0.000000;0.000000;-1.000000;,
   0.876800;-0.025554;0.480175;,
   0.012703;0.225275;0.974212;,
   0.943285;0.057672;0.326937;,
   -0.929361;0.148271;0.338088;,
   -0.003061;0.594472;0.804110;,
   -0.792191;0.326390;-0.515658;,
   -0.641675;0.705616;0.300598;,
   -0.012236;0.368382;-0.929594;,
   0.809421;0.307577;-0.500235;,
   -0.012236;0.368382;-0.929594;,
   0.786125;0.461390;0.411251;,
   -0.003061;0.594472;0.804110;,
   0.928583;0.206976;0.308051;,
   -0.632737;-0.673303;0.382502;,
   -0.011568;-0.992531;0.121445;,
   0.000000;-0.683445;0.730002;,
   -0.773686;-0.633414;0.014068;,
   -0.217616;-0.975414;0.034791;,
   -0.629899;-0.659702;-0.409903;,
   0.011568;-0.992531;-0.121445;,
   -0.018847;-0.636787;-0.770809;,
   0.632737;-0.673303;-0.382502;,
   0.773685;-0.633414;-0.014068;,
   0.217616;-0.975414;-0.034791;,
   0.633652;-0.665378;0.394661;,
   -0.825929;0.559542;-0.068946;,
   -0.482012;0.591586;-0.646290;,
   -0.061437;0.752526;-0.655690;,
   0.509325;0.667581;-0.543069;,
   -0.061437;0.752526;-0.655690;,
   0.825930;0.559541;-0.068946;,
   0.000000;1.000000;0.000000;,
   0.000000;1.000000;0.000000;,
   0.000000;1.000000;0.000000;,
   0.000000;1.000000;0.000000;,
   0.000000;1.000000;0.000000;,
   0.000000;1.000000;0.000000;,
   0.000000;1.000000;0.000000;,
   0.000000;1.000000;0.000000;,
   0.000000;0.000000;1.000000;,
   -0.707107;0.000000;0.707107;,
   -0.707107;0.000000;0.707107;,
   0.000000;0.000000;1.000000;,
   -1.000000;0.000000;0.000000;,
   -1.000000;0.000000;0.000000;,
   -0.707107;0.000000;-0.707107;,
   -0.707107;0.000000;-0.707107;,
   0.000000;0.000000;-1.000000;,
   0.000000;0.000000;-1.000000;,
   0.707107;0.000000;-0.707107;,
   0.707107;0.000000;-0.707107;,
   1.000000;0.000000;-0.000000;,
   1.000000;0.000000;-0.000000;,
   0.707107;0.000000;0.707107;,
   0.707107;0.000000;0.707107;,
   0.000000;0.000000;1.000000;,
   0.000000;0.000000;1.000000;,
   0.307706;0.896993;0.317366;,
   0.000000;0.861292;0.508111;,
   0.000000;0.861292;0.508111;,
   -0.307706;0.896993;0.317366;,
   0.030414;-0.135061;-0.990371;,
   0.085759;0.932328;-0.351298;,
   0.085759;0.932328;-0.351298;,
   0.030414;-0.135061;-0.990371;,
   0.070158;-0.747528;-0.660514;,
   0.070158;-0.747528;-0.660514;,
   0.013014;0.644456;0.764531;,
   -0.016986;-0.082861;0.996416;,
   -0.016986;-0.082861;0.996416;,
   0.013014;0.644456;0.764531;,
   -0.663627;-0.559030;0.497076;,
   -0.079675;-0.764397;0.639803;,
   -0.079675;-0.764397;0.639803;;
   134;
   3;0,1,2;,
   3;1,0,3;,
   3;2,4,5;,
   3;4,2,1;,
   3;5,6,7;,
   3;6,5,4;,
   3;7,8,9;,
   3;8,7,6;,
   3;10,11,12;,
   3;11,10,13;,
   3;12,14,15;,
   3;14,12,11;,
   3;15,16,17;,
   3;16,15,14;,
   3;17,18,19;,
   3;18,17,16;,
   3;3,20,1;,
   3;20,3,21;,
   3;1,22,4;,
   3;22,1,20;,
   3;4,23,6;,
   3;23,4,22;,
   3;6,24,8;,
   3;24,6,23;,
   3;13,25,11;,
   3;25,13,26;,
   3;11,27,14;,
   3;27,11,25;,
   3;14,28,16;,
   3;28,14,27;,
   3;16,29,18;,
   3;29,16,28;,
   3;21,30,20;,
   3;30,21,31;,
   3;22,32,23;,
   3;32,22,33;,
   3;23,34,24;,
   3;34,23,32;,
   3;26,35,25;,
   3;35,26,36;,
   3;25,37,27;,
   3;37,25,35;,
   3;28,38,29;,
   3;38,28,39;,
   3;31,40,30;,
   3;40,31,41;,
   3;33,42,32;,
   3;42,33,43;,
   3;32,44,34;,
   3;44,32,42;,
   3;36,45,35;,
   3;45,36,46;,
   3;35,47,37;,
   3;47,35,45;,
   3;39,48,38;,
   3;48,39,49;,
   3;50,51,52;,
   3;53,51,50;,
   3;51,53,54;,
   3;55,54,53;,
   3;54,55,56;,
   3;57,56,55;,
   3;58,56,57;,
   3;59,56,58;,
   3;56,59,60;,
   3;61,60,59;,
   3;60,61,51;,
   3;52,51,61;,
   3;60,54,56;,
   3;51,54,60;,
   3;62,42,43;,
   3;42,62,63;,
   3;42,64,44;,
   3;64,42,63;,
   3;46,65,45;,
   3;65,46,66;,
   3;45,67,47;,
   3;67,45,65;,
   3;68,69,70;,
   3;71,69,72;,
   3;72,69,73;,
   3;73,69,74;,
   3;74,69,75;,
   3;75,69,68;,
   3;76,77,78;,
   3;77,76,79;,
   3;78,80,81;,
   3;80,78,77;,
   3;81,82,83;,
   3;82,81,80;,
   3;83,84,85;,
   3;84,83,82;,
   3;85,86,87;,
   3;86,85,84;,
   3;87,88,89;,
   3;88,87,86;,
   3;89,90,91;,
   3;90,89,88;,
   3;91,92,93;,
   3;92,91,90;,
   3;47,67,94;,
   3;47,94,95;,
   3;43,96,97;,
   3;43,97,62;,
   3;49,95,48;,
   3;95,49,47;,
   3;96,40,41;,
   3;40,96,43;,
   3;20,98,99;,
   3;98,20,30;,
   3;100,39,28;,
   3;39,100,101;,
   3;30,102,98;,
   3;102,30,40;,
   3;101,49,39;,
   3;49,101,103;,
   3;104,33,22;,
   3;33,104,105;,
   3;27,106,107;,
   3;106,27,37;,
   3;105,108,33;,
   3;108,105,109;,
   3;33,108,43;,
   3;37,110,106;,
   3;110,37,47;,
   3;109,40,108;,
   3;40,109,102;,
   3;40,43,108;,
   3;103,47,49;,
   3;47,103,110;,
   3;107,28,27;,
   3;28,107,100;,
   3;20,104,22;,
   3;104,20,99;;
  }

  MeshMaterialList {
   1;
   134;
   0,
   0,
   0,
   0,
   0,
   0,
   0,
   0,
   0,
   0,
   0,
   0,
   0,
   0,
   0,
   0,
   0,
   0,
   0,
   0,
   0,
   0,
   0,
   0,
   0,
   0,
   0,
   0,
   0,
   0,
   0,
   0,
   0,
   0,
   0,
   0,
   0,
   0,
   0,
   0,
   0,
   0,
   0,
   0,
   0,
   0,
   0,
   0,
   0,
   0,
   0,
   0,
   0,
   0,
   0,
   0,
   0,
   0,
   0,
   0,
   0,
   0,
   0,
   0,
   0,
   0,
   0,
   0,
   0,
   0,
   0,
   0,
   0,
   0,
   0,
   0,
   0,
   0,
   0,
   0,
   0,
   0,
   0,
   0,
   0,
   0,
   0,
   0,
   0,
   0,
   0,
   0,
   0,
   0,
   0,
   0,
   0,
   0,
   0,
   0,
   0,
   0,
   0,
   0,
   0,
   0,
   0,
   0,
   0,
   0,
   0,
   0,
   0,
   0,
   0,
   0,
   0,
   0,
   0,
   0,
   0,
   0,
   0,
   0,
   0,
   0,
   0,
   0,
   0,
   0,
   0,
   0,
   0,
   0;
   { _01_-_Default }
  }

  MeshTextureCoords c1 {
   111;
   0.096689;0.956627;,
   0.164453;0.903158;,
   0.178913;0.956627;,
   0.076240;0.903158;,
   0.292832;0.903158;,
   0.292832;0.956627;,
   0.421210;0.903158;,
   0.406750;0.956627;,
   0.499691;0.903158;,
   0.479241;0.956627;,
   0.532405;0.956018;,
   0.590436;0.902548;,
   0.604897;0.956018;,
   0.511956;0.902548;,
   0.718815;0.902548;,
   0.718815;0.956018;,
   0.847194;0.902548;,
   0.832733;0.956018;,
   0.935407;0.902548;,
   0.914957;0.956018;,
   0.157222;0.617463;,
   0.076240;0.621712;,
   0.309882;0.598661;,
   0.421210;0.571357;,
   0.499691;0.571357;,
   0.590436;0.570747;,
   0.511956;0.570747;,
   0.716255;0.580821;,
   0.851912;0.620170;,
   0.935407;0.621102;,
   0.171594;0.387328;,
   0.111808;0.389169;,
   0.421210;0.378722;,
   0.321281;0.377575;,
   0.499691;0.378722;,
   0.590436;0.378112;,
   0.511956;0.378112;,
   0.691819;0.379796;,
   0.899839;0.388560;,
   0.841408;0.391380;,
   0.218562;0.260503;,
   0.156715;0.256242;,
   0.421210;0.210745;,
   0.292832;0.210745;,
   0.499691;0.210745;,
   0.590436;0.210136;,
   0.511956;0.210136;,
   0.728884;0.208581;,
   0.854932;0.255632;,
   0.787605;0.261249;,
   0.733941;0.047942;,
   0.754443;0.104148;,
   0.691952;0.104107;,
   0.835075;0.024854;,
   0.835014;0.059581;,
   0.936111;0.048366;,
   0.915373;0.104667;,
   0.977863;0.104707;,
   0.935875;0.160872;,
   0.834741;0.183961;,
   0.834814;0.149233;,
   0.733705;0.160448;,
   0.371656;0.186086;,
   0.418174;0.186086;,
   0.462747;0.186086;,
   0.593473;0.185477;,
   0.548899;0.185477;,
   0.639991;0.185477;,
   0.621730;0.095894;,
   0.550405;0.024719;,
   0.600883;0.045566;,
   0.500226;0.045566;,
   0.479380;0.095894;,
   0.500226;0.146223;,
   0.550555;0.167069;,
   0.600520;0.146223;,
   0.020234;0.079002;,
   0.071509;0.030529;,
   0.071509;0.079002;,
   0.020234;0.030529;,
   0.121646;0.030529;,
   0.121646;0.079002;,
   0.171259;0.030529;,
   0.171259;0.079002;,
   0.222443;0.030529;,
   0.222443;0.079002;,
   0.272287;0.030529;,
   0.272287;0.079002;,
   0.321648;0.030529;,
   0.321648;0.079002;,
   0.370907;0.030529;,
   0.370907;0.079002;,
   0.421275;0.030529;,
   0.421275;0.079002;,
   0.686509;0.185477;,
   0.740815;0.185477;,
   0.270831;0.186086;,
   0.325137;0.186086;,
   0.217978;0.400257;,
   0.221663;0.579696;,
   0.789983;0.579087;,
   0.793668;0.399647;,
   0.242082;0.295928;,
   0.769564;0.295318;,
   0.270982;0.562857;,
   0.288964;0.386129;,
   0.722683;0.385519;,
   0.740665;0.562248;,
   0.263167;0.225837;,
   0.259241;0.295797;,
   0.752405;0.295187;;
  }
 }
}