xof 0303txt 0032
template ColorRGBA {
 <35ff44e0-6c7c-11cf-8f52-0040333594a3>
 FLOAT red;
 FLOAT green;
 FLOAT blue;
 FLOAT alpha;
}

template ColorRGB {
 <d3e16e81-7835-11cf-8f52-0040333594a3>
 FLOAT red;
 FLOAT green;
 FLOAT blue;
}

template Material {
 <3d82ab4d-62da-11cf-ab39-0020af71e433>
 ColorRGBA faceColor;
 FLOAT power;
 ColorRGB specularColor;
 ColorRGB emissiveColor;
 [...]
}

template TextureFilename {
 <a42790e1-7810-11cf-8f52-0040333594a3>
 STRING filename;
}

template Frame {
 <3d82ab46-62da-11cf-ab39-0020af71e433>
 [...]
}

template Matrix4x4 {
 <f6f23f45-7686-11cf-8f52-0040333594a3>
 array FLOAT matrix[16];
}

template FrameTransformMatrix {
 <f6f23f41-7686-11cf-8f52-0040333594a3>
 Matrix4x4 frameMatrix;
}

template Vector {
 <3d82ab5e-62da-11cf-ab39-0020af71e433>
 FLOAT x;
 FLOAT y;
 FLOAT z;
}

template MeshFace {
 <3d82ab5f-62da-11cf-ab39-0020af71e433>
 DWORD nFaceVertexIndices;
 array DWORD faceVertexIndices[nFaceVertexIndices];
}

template Mesh {
 <3d82ab44-62da-11cf-ab39-0020af71e433>
 DWORD nVertices;
 array Vector vertices[nVertices];
 DWORD nFaces;
 array MeshFace faces[nFaces];
 [...]
}

template MeshNormals {
 <f6f23f43-7686-11cf-8f52-0040333594a3>
 DWORD nNormals;
 array Vector normals[nNormals];
 DWORD nFaceNormals;
 array MeshFace faceNormals[nFaceNormals];
}

template MeshMaterialList {
 <f6f23f42-7686-11cf-8f52-0040333594a3>
 DWORD nMaterials;
 DWORD nFaceIndexes;
 array DWORD faceIndexes[nFaceIndexes];
 [Material <3d82ab4d-62da-11cf-ab39-0020af71e433>]
}

template Coords2d {
 <f6f23f44-7686-11cf-8f52-0040333594a3>
 FLOAT u;
 FLOAT v;
}

template MeshTextureCoords {
 <f6f23f40-7686-11cf-8f52-0040333594a3>
 DWORD nTextureCoords;
 array Coords2d textureCoords[nTextureCoords];
}


Material _16_-_Default {
 1.000000;1.000000;1.000000;1.000000;;
 9.999999;
 0.000000;0.000000;0.000000;;
 0.000000;0.000000;0.000000;;

 TextureFilename {
  "Branch.png";
 }
}

Frame Branch {
 

 FrameTransformMatrix {
  1.000000,0.000000,0.000000,0.000000,-0.000000,1.000000,0.000000,0.000000,0.000000,0.000000,1.000000,0.000000,0.000000,0.000000,0.000000,1.000000;;
 }

 Mesh Branch {
  161;
  -0.024181;0.482585;0.003256;,
  -0.013438;0.408945;0.019158;,
  -0.014096;0.474634;0.020463;,
  -0.022864;0.409964;0.002938;,
  0.005416;0.411282;0.019476;,
  0.006075;0.461745;0.020463;,
  0.006075;0.461745;0.020463;,
  0.014843;0.414638;0.003574;,
  0.016160;0.471732;0.003256;,
  0.005416;0.411282;0.019476;,
  0.005416;0.415656;-0.012646;,
  0.006075;0.474634;-0.013951;,
  -0.013438;0.413319;-0.012964;,
  -0.014096;0.474634;-0.013951;,
  0.006075;0.474634;-0.013951;,
  0.006075;0.461745;0.020463;,
  0.016160;0.471732;0.003256;,
  -0.014096;0.474634;-0.013951;,
  -0.024181;0.482585;0.003256;,
  -0.014096;0.474634;0.020463;,
  -0.010340;-0.039905;0.008980;,
  0.006318;-0.047826;-0.000681;,
  0.000765;-0.042579;0.008980;,
  0.000765;-0.049839;-0.010343;,
  -0.010340;-0.046936;-0.010343;,
  -0.015893;-0.043161;-0.000681;,
  -0.005683;0.325887;0.020506;,
  -0.014426;0.325887;0.005588;,
  0.011805;0.325887;0.020506;,
  0.020549;0.325887;0.005588;,
  0.011805;0.325887;0.020506;,
  0.011805;0.325887;-0.009331;,
  -0.005683;0.325887;-0.009331;,
  -0.011721;0.224523;0.012424;,
  -0.020465;0.224523;-0.002494;,
  0.005767;0.224523;0.012424;,
  0.014511;0.224523;-0.002494;,
  0.005767;0.224523;0.012424;,
  0.005767;0.224523;-0.017413;,
  -0.011721;0.224523;-0.017413;,
  0.001950;0.097344;0.011104;,
  -0.004913;0.096654;-0.000681;,
  0.015675;0.098725;0.011104;,
  0.022537;0.099416;-0.000681;,
  0.014511;0.224523;-0.002494;,
  0.015675;0.098725;0.011104;,
  0.015675;0.098725;-0.012466;,
  0.001950;0.097344;-0.012466;,
  -0.004913;0.096654;-0.000681;,
  -0.010340;-0.039905;0.008980;,
  -0.015893;-0.043161;-0.000681;,
  0.000765;-0.042579;0.008980;,
  0.006318;-0.047826;-0.000681;,
  0.000765;-0.042579;0.008980;,
  0.000765;-0.049839;-0.010343;,
  -0.010340;-0.046936;-0.010343;,
  -0.034588;0.447814;0.014269;,
  -0.033837;0.462725;0.012212;,
  -0.033042;0.449072;0.010203;,
  -0.035640;0.461826;0.016020;,
  -0.032718;0.464037;0.007591;,
  -0.031907;0.450190;0.005559;,
  -0.036632;0.460438;0.020792;,
  -0.035054;0.476316;0.018446;,
  -0.035750;0.474352;0.022078;,
  -0.033606;0.475979;0.015319;,
  -0.032792;0.477583;0.011766;,
  -0.031661;0.478217;0.008426;,
  -0.031258;0.465143;0.003376;,
  -0.032309;0.485162;0.018821;,
  -0.033517;0.481839;0.020004;,
  -0.031936;0.482772;0.015359;,
  -0.032829;0.445369;0.009609;,
  -0.034140;0.441767;0.012641;,
  -0.038323;0.452853;0.019530;,
  -0.031948;0.446489;0.011103;,
  -0.041291;0.448299;0.020651;,
  -0.037250;0.457602;0.016872;,
  -0.030772;0.451147;0.008337;,
  -0.042014;0.443514;0.023594;,
  -0.044721;0.456083;0.031796;,
  -0.044805;0.451937;0.033624;,
  -0.041966;0.459137;0.030252;,
  -0.041465;0.463113;0.028468;,
  -0.039836;0.466628;0.026804;,
  -0.035230;0.462253;0.014982;,
  -0.041596;0.463588;0.040599;,
  -0.042886;0.459761;0.038447;,
  -0.040621;0.464688;0.036172;,
  -0.030235;0.444792;0.008762;,
  -0.010826;0.439728;0.018901;,
  -0.031728;0.441437;0.017451;,
  -0.017479;0.432223;0.011128;,
  -0.027366;0.444801;0.022903;,
  -0.032994;0.443902;0.014518;,
  -0.020692;0.435876;-0.000670;,
  -0.020692;0.435876;-0.000670;,
  -0.033345;0.449732;0.014128;,
  -0.019184;0.450727;-0.003580;,
  -0.032994;0.443902;0.014518;,
  -0.030707;0.453096;0.018126;,
  -0.019149;0.458232;0.008775;,
  -0.027718;0.450631;0.022513;,
  -0.011898;0.452732;0.018911;,
  -0.019149;0.458232;0.008775;,
  -0.020692;0.435876;-0.000670;,
  -0.019184;0.450727;-0.003580;,
  -0.020692;0.435876;-0.000670;,
  -0.010826;0.439728;0.018901;,
  -0.017479;0.432223;0.011128;,
  -0.019149;0.458232;0.008775;,
  -0.010826;0.439728;0.018901;,
  -0.020692;0.435876;-0.000670;,
  -0.011898;0.452732;0.018911;,
  -0.010826;0.439728;0.018901;,
  -0.019149;0.458232;0.008775;,
  -0.035214;0.446174;0.023844;,
  -0.036976;0.450627;0.021743;,
  -0.037274;0.447659;0.022211;,
  -0.031841;0.450377;0.024653;,
  -0.034618;0.452110;0.022907;,
  -0.033440;0.447527;0.024116;,
  -0.035214;0.446174;0.023844;,
  -0.033440;0.447527;0.024116;,
  -0.037274;0.447659;0.022211;,
  -0.036976;0.450627;0.021743;,
  -0.037274;0.447659;0.022211;,
  -0.034618;0.452110;0.022907;,
  -0.031841;0.450377;0.024653;,
  0.009581;0.242586;0.008066;,
  -0.001779;0.242176;0.023183;,
  -0.001103;0.235081;0.013077;,
  0.003010;0.245541;0.023255;,
  -0.007088;0.244642;0.023183;,
  -0.012945;0.240581;0.008519;,
  -0.012945;0.240581;0.008519;,
  -0.007607;0.250472;0.023255;,
  -0.014104;0.253586;0.006584;,
  -0.007088;0.244642;0.023183;,
  -0.002818;0.253836;0.023326;,
  -0.003420;0.261091;0.013396;,
  0.002491;0.251371;0.023326;,
  0.008422;0.255591;0.008225;,
  -0.003420;0.261091;0.013396;,
  -0.012945;0.240581;0.008519;,
  -0.014104;0.253586;0.006584;,
  -0.012945;0.240581;0.008519;,
  0.009581;0.242586;0.008066;,
  -0.001103;0.235081;0.013077;,
  -0.003420;0.261091;0.013396;,
  0.009581;0.242586;0.008066;,
  -0.012945;0.240581;0.008519;,
  0.008422;0.255591;0.008225;,
  0.009581;0.242586;0.008066;,
  -0.003420;0.261091;0.013396;,
  -0.001779;0.242176;0.023183;,
  -0.007607;0.250472;0.023255;,
  -0.007088;0.244642;0.023183;,
  0.002491;0.251371;0.023326;,
  -0.002818;0.253836;0.023326;,
  0.003010;0.245541;0.023255;;
  164;
  3;0,1,2;,
  3;1,0,3;,
  3;2,4,5;,
  3;4,2,1;,
  3;6,7,8;,
  3;7,6,9;,
  3;8,10,11;,
  3;10,8,7;,
  3;11,12,13;,
  3;12,11,10;,
  3;13,3,0;,
  3;3,13,12;,
  3;14,15,16;,
  3;17,15,14;,
  3;15,18,19;,
  3;17,18,15;,
  3;20,21,22;,
  3;20,23,21;,
  3;20,24,23;,
  3;25,24,20;,
  3;3,26,1;,
  3;26,3,27;,
  3;1,28,4;,
  3;28,1,26;,
  3;9,29,7;,
  3;29,9,30;,
  3;7,31,10;,
  3;31,7,29;,
  3;10,32,12;,
  3;32,10,31;,
  3;12,27,3;,
  3;27,12,32;,
  3;27,33,26;,
  3;33,27,34;,
  3;26,35,28;,
  3;35,26,33;,
  3;30,36,29;,
  3;36,30,37;,
  3;29,38,31;,
  3;38,29,36;,
  3;31,39,32;,
  3;39,31,38;,
  3;32,34,27;,
  3;34,32,39;,
  3;34,40,33;,
  3;40,34,41;,
  3;33,42,35;,
  3;42,33,40;,
  3;37,43,44;,
  3;43,37,45;,
  3;44,46,38;,
  3;46,44,43;,
  3;38,47,39;,
  3;47,38,46;,
  3;39,41,34;,
  3;41,39,47;,
  3;48,49,40;,
  3;49,48,50;,
  3;40,51,42;,
  3;51,40,49;,
  3;45,52,43;,
  3;52,45,53;,
  3;43,54,46;,
  3;54,43,52;,
  3;46,55,47;,
  3;55,46,54;,
  3;47,50,48;,
  3;50,47,55;,
  3;56,57,58;,
  3;57,56,59;,
  3;58,60,61;,
  3;60,58,57;,
  3;62,63,59;,
  3;63,62,64;,
  3;59,65,57;,
  3;65,59,63;,
  3;57,66,60;,
  3;66,57,65;,
  3;60,67,68;,
  3;67,60,66;,
  3;63,69,65;,
  3;69,63,70;,
  3;65,71,66;,
  3;71,65,69;,
  3;56,58,72;,
  3;58,61,72;,
  3;61,60,68;,
  3;56,62,59;,
  3;66,71,67;,
  3;64,70,63;,
  3;73,74,75;,
  3;74,73,76;,
  3;75,77,78;,
  3;77,75,74;,
  3;79,80,76;,
  3;80,79,81;,
  3;76,82,74;,
  3;82,76,80;,
  3;74,83,77;,
  3;83,74,82;,
  3;77,84,85;,
  3;84,77,83;,
  3;80,86,82;,
  3;86,80,87;,
  3;82,88,83;,
  3;88,82,86;,
  3;73,75,89;,
  3;75,78,89;,
  3;78,77,85;,
  3;73,79,76;,
  3;83,88,84;,
  3;81,87,80;,
  3;90,91,92;,
  3;91,90,93;,
  3;92,94,95;,
  3;94,92,91;,
  3;96,97,98;,
  3;97,96,99;,
  3;98,100,101;,
  3;100,98,97;,
  3;101,102,103;,
  3;102,101,100;,
  3;103,93,90;,
  3;93,103,102;,
  3;104,105,106;,
  3;107,108,109;,
  3;110,111,112;,
  3;113,114,115;,
  3;116,117,118;,
  3;117,119,120;,
  3;116,119,117;,
  3;121,119,116;,
  3;93,122,91;,
  3;122,93,123;,
  3;91,124,94;,
  3;124,91,122;,
  3;99,125,97;,
  3;125,99,126;,
  3;97,127,100;,
  3;127,97,125;,
  3;100,128,102;,
  3;128,100,127;,
  3;102,123,93;,
  3;123,102,128;,
  3;129,130,131;,
  3;130,129,132;,
  3;131,133,134;,
  3;133,131,130;,
  3;135,136,137;,
  3;136,135,138;,
  3;137,139,140;,
  3;139,137,136;,
  3;140,141,142;,
  3;141,140,139;,
  3;142,132,129;,
  3;132,142,141;,
  3;143,144,145;,
  3;146,147,148;,
  3;149,150,151;,
  3;152,153,154;,
  3;155,156,157;,
  3;156,158,159;,
  3;155,158,156;,
  3;160,158,155;;

  MeshNormals {
   161;
   -0.999829;-0.018463;0.001104;,
   -0.518108;-0.029492;0.854807;,
   -0.653378;-0.021430;0.756729;,
   -0.997942;-0.062188;-0.015642;,
   0.477546;0.012379;0.878520;,
   0.482126;-0.021661;0.875834;,
   0.482126;-0.021661;0.875834;,
   0.999845;0.017399;0.002680;,
   0.990905;-0.022559;-0.132658;,
   0.477546;0.012379;0.878520;,
   0.496469;-0.013070;-0.867956;,
   0.472802;-0.021834;-0.880898;,
   -0.489895;-0.049373;-0.870382;,
   -0.551838;-0.017241;-0.833773;,
   -0.082340;0.933298;0.349535;,
   0.216068;0.955959;0.198637;,
   -0.312418;0.889603;0.333170;,
   0.334130;0.930107;0.152504;,
   0.569800;0.821756;-0.006664;,
   0.536990;0.840374;0.073576;,
   -0.185962;-0.920368;0.344007;,
   -0.237126;-0.910823;0.337896;,
   -0.217856;-0.904711;0.366110;,
   -0.240662;-0.912502;0.330789;,
   -0.194659;-0.921755;0.335374;,
   -0.043847;-0.938827;0.341586;,
   -0.472272;-0.035483;0.880738;,
   -0.999636;-0.020457;0.017579;,
   0.505969;-0.023415;0.862234;,
   0.999861;0.002346;0.016534;,
   0.505969;-0.023415;0.862234;,
   0.520708;0.021561;-0.853462;,
   -0.486750;0.011300;-0.873468;,
   -0.520718;-0.050565;0.852230;,
   -0.999471;-0.029024;-0.014656;,
   0.484939;-0.035768;0.873816;,
   0.998009;-0.057358;-0.026247;,
   0.484939;-0.035768;0.873816;,
   0.472594;0.022336;-0.880997;,
   -0.508367;0.004906;-0.861126;,
   -0.472971;-0.017080;0.880912;,
   -0.992658;-0.120865;0.004692;,
   0.519693;-0.018105;0.854161;,
   0.999813;-0.019160;0.002641;,
   0.997940;0.063980;-0.004777;,
   0.519693;-0.018105;0.854161;,
   0.522248;-0.029948;-0.852268;,
   -0.474250;-0.030168;-0.879874;,
   -0.996853;0.079272;-0.000618;,
   -0.536597;0.033724;0.843165;,
   -0.988262;0.076366;-0.132311;,
   0.550158;-0.070777;0.832056;,
   0.989702;-0.110767;-0.090671;,
   0.550158;-0.070777;0.832056;,
   0.493111;-0.062773;-0.867699;,
   -0.419746;0.022701;-0.907358;,
   -0.938555;-0.008160;-0.345035;,
   -0.946999;0.034498;-0.319378;,
   -0.954149;-0.009382;-0.299185;,
   -0.949605;0.031424;-0.311871;,
   -0.960717;0.031384;-0.275750;,
   -0.967460;-0.018593;-0.252339;,
   -0.980339;0.013001;-0.196891;,
   -0.945222;0.207091;-0.252328;,
   -0.984127;0.134236;-0.116079;,
   -0.939981;0.161542;-0.300567;,
   -0.956471;0.189901;-0.221589;,
   -0.943431;0.163394;-0.288514;,
   -0.947531;0.045946;-0.316346;,
   -0.925401;0.265468;-0.270481;,
   -0.949008;0.295219;-0.110591;,
   -0.941239;0.245551;-0.231894;,
   -0.953753;-0.006716;-0.300516;,
   -0.745683;0.089921;-0.660205;,
   -0.831181;0.126960;-0.541312;,
   -0.797668;0.011997;-0.602978;,
   -0.834887;0.092284;-0.542631;,
   -0.866028;0.050238;-0.497466;,
   -0.824679;-0.082056;-0.559617;,
   -0.910021;-0.117280;-0.397627;,
   -0.945279;0.270196;-0.182873;,
   -0.997691;-0.009400;-0.067265;,
   -0.911239;0.307744;-0.273747;,
   -0.963132;0.210354;-0.167714;,
   -0.914899;0.292611;-0.278098;,
   -0.838220;0.151270;-0.523933;,
   -0.913107;0.397815;-0.089320;,
   -0.963169;0.230617;0.138281;,
   -0.942000;0.329311;-0.064728;,
   -0.801689;0.014954;-0.597554;,
   0.060214;-0.409190;0.910460;,
   -0.512944;-0.843835;0.157578;,
   -0.422056;-0.837593;0.346852;,
   0.076541;-0.424088;0.902381;,
   -0.823864;-0.401062;-0.400497;,
   -0.795199;-0.433435;-0.424020;,
   -0.795199;-0.433435;-0.424020;,
   -0.783090;0.383339;-0.489716;,
   -0.766417;0.278302;-0.578924;,
   -0.823864;-0.401062;-0.400497;,
   -0.287857;0.956605;0.045224;,
   -0.433315;0.900440;-0.038034;,
   0.187608;0.536694;0.822656;,
   0.144117;0.480402;0.865127;,
   0.994497;-0.090759;0.052341;,
   0.994497;-0.090759;0.052341;,
   0.994497;-0.090759;0.052341;,
   0.851000;-0.389406;-0.352366;,
   0.851000;-0.389406;-0.352366;,
   0.851000;-0.389406;-0.352366;,
   0.873407;0.137136;-0.467283;,
   0.873407;0.137136;-0.467283;,
   0.873407;0.137136;-0.467283;,
   0.828693;0.068770;-0.555463;,
   0.828693;0.068770;-0.555463;,
   0.828693;0.068770;-0.555463;,
   -0.456165;-0.451638;0.766770;,
   -0.864088;0.481045;0.148149;,
   -0.952831;-0.166689;0.253631;,
   0.161988;0.300158;0.940035;,
   -0.370662;0.785620;0.495389;,
   0.096267;-0.201572;0.974731;,
   -0.456165;-0.451638;0.766770;,
   0.096267;-0.201572;0.974731;,
   -0.952831;-0.166689;0.253631;,
   -0.864088;0.481045;0.148149;,
   -0.952831;-0.166689;0.253631;,
   -0.370662;0.785620;0.495389;,
   0.161988;0.300158;0.940035;,
   0.857693;-0.258140;0.444664;,
   0.128141;-0.835910;0.533698;,
   0.109470;-0.827744;0.550323;,
   0.818072;-0.383586;0.428508;,
   -0.745530;-0.470196;0.472336;,
   -0.829200;-0.367385;0.421255;,
   -0.829200;-0.367385;0.421255;,
   -0.822068;0.394969;0.410127;,
   -0.867640;0.273185;0.415417;,
   -0.745530;-0.470196;0.472336;,
   -0.146184;0.830525;0.537456;,
   -0.142839;0.816118;0.559954;,
   0.750101;0.461001;0.474159;,
   0.814380;0.390746;0.429072;,
   0.571159;-0.070789;-0.817781;,
   0.571159;-0.070789;-0.817781;,
   0.571159;-0.070789;-0.817781;,
   0.036323;-0.590170;-0.806462;,
   0.036323;-0.590170;-0.806462;,
   0.036323;-0.590170;-0.806462;,
   -0.041663;0.249404;-0.967503;,
   -0.041663;0.249404;-0.967503;,
   -0.041663;0.249404;-0.967503;,
   -0.409865;-0.025347;-0.911794;,
   -0.409865;-0.025347;-0.911794;,
   -0.409865;-0.025347;-0.911794;,
   -0.005939;-0.012788;0.999901;,
   -0.005939;-0.012788;0.999901;,
   -0.005939;-0.012788;0.999901;,
   -0.005939;-0.012788;0.999901;,
   -0.005939;-0.012788;0.999901;,
   -0.005939;-0.012788;0.999901;;
   164;
   3;0,1,2;,
   3;1,0,3;,
   3;2,4,5;,
   3;4,2,1;,
   3;6,7,8;,
   3;7,6,9;,
   3;8,10,11;,
   3;10,8,7;,
   3;11,12,13;,
   3;12,11,10;,
   3;13,3,0;,
   3;3,13,12;,
   3;14,15,16;,
   3;17,15,14;,
   3;15,18,19;,
   3;17,18,15;,
   3;20,21,22;,
   3;20,23,21;,
   3;20,24,23;,
   3;25,24,20;,
   3;3,26,1;,
   3;26,3,27;,
   3;1,28,4;,
   3;28,1,26;,
   3;9,29,7;,
   3;29,9,30;,
   3;7,31,10;,
   3;31,7,29;,
   3;10,32,12;,
   3;32,10,31;,
   3;12,27,3;,
   3;27,12,32;,
   3;27,33,26;,
   3;33,27,34;,
   3;26,35,28;,
   3;35,26,33;,
   3;30,36,29;,
   3;36,30,37;,
   3;29,38,31;,
   3;38,29,36;,
   3;31,39,32;,
   3;39,31,38;,
   3;32,34,27;,
   3;34,32,39;,
   3;34,40,33;,
   3;40,34,41;,
   3;33,42,35;,
   3;42,33,40;,
   3;37,43,44;,
   3;43,37,45;,
   3;44,46,38;,
   3;46,44,43;,
   3;38,47,39;,
   3;47,38,46;,
   3;39,41,34;,
   3;41,39,47;,
   3;48,49,40;,
   3;49,48,50;,
   3;40,51,42;,
   3;51,40,49;,
   3;45,52,43;,
   3;52,45,53;,
   3;43,54,46;,
   3;54,43,52;,
   3;46,55,47;,
   3;55,46,54;,
   3;47,50,48;,
   3;50,47,55;,
   3;56,57,58;,
   3;57,56,59;,
   3;58,60,61;,
   3;60,58,57;,
   3;62,63,59;,
   3;63,62,64;,
   3;59,65,57;,
   3;65,59,63;,
   3;57,66,60;,
   3;66,57,65;,
   3;60,67,68;,
   3;67,60,66;,
   3;63,69,65;,
   3;69,63,70;,
   3;65,71,66;,
   3;71,65,69;,
   3;56,58,72;,
   3;58,61,72;,
   3;61,60,68;,
   3;56,62,59;,
   3;66,71,67;,
   3;64,70,63;,
   3;73,74,75;,
   3;74,73,76;,
   3;75,77,78;,
   3;77,75,74;,
   3;79,80,76;,
   3;80,79,81;,
   3;76,82,74;,
   3;82,76,80;,
   3;74,83,77;,
   3;83,74,82;,
   3;77,84,85;,
   3;84,77,83;,
   3;80,86,82;,
   3;86,80,87;,
   3;82,88,83;,
   3;88,82,86;,
   3;73,75,89;,
   3;75,78,89;,
   3;78,77,85;,
   3;73,79,76;,
   3;83,88,84;,
   3;81,87,80;,
   3;90,91,92;,
   3;91,90,93;,
   3;92,94,95;,
   3;94,92,91;,
   3;96,97,98;,
   3;97,96,99;,
   3;98,100,101;,
   3;100,98,97;,
   3;101,102,103;,
   3;102,101,100;,
   3;103,93,90;,
   3;93,103,102;,
   3;104,105,106;,
   3;107,108,109;,
   3;110,111,112;,
   3;113,114,115;,
   3;116,117,118;,
   3;117,119,120;,
   3;116,119,117;,
   3;121,119,116;,
   3;93,122,91;,
   3;122,93,123;,
   3;91,124,94;,
   3;124,91,122;,
   3;99,125,97;,
   3;125,99,126;,
   3;97,127,100;,
   3;127,97,125;,
   3;100,128,102;,
   3;128,100,127;,
   3;102,123,93;,
   3;123,102,128;,
   3;129,130,131;,
   3;130,129,132;,
   3;131,133,134;,
   3;133,131,130;,
   3;135,136,137;,
   3;136,135,138;,
   3;137,139,140;,
   3;139,137,136;,
   3;140,141,142;,
   3;141,140,139;,
   3;142,132,129;,
   3;132,142,141;,
   3;143,144,145;,
   3;146,147,148;,
   3;149,150,151;,
   3;152,153,154;,
   3;155,156,157;,
   3;156,158,159;,
   3;155,158,156;,
   3;160,158,155;;
  }

  MeshMaterialList {
   1;
   164;
   0,
   0,
   0,
   0,
   0,
   0,
   0,
   0,
   0,
   0,
   0,
   0,
   0,
   0,
   0,
   0,
   0,
   0,
   0,
   0,
   0,
   0,
   0,
   0,
   0,
   0,
   0,
   0,
   0,
   0,
   0,
   0,
   0,
   0,
   0,
   0,
   0,
   0,
   0,
   0,
   0,
   0,
   0,
   0,
   0,
   0,
   0,
   0,
   0,
   0,
   0,
   0,
   0,
   0,
   0,
   0,
   0,
   0,
   0,
   0,
   0,
   0,
   0,
   0,
   0,
   0,
   0,
   0,
   0,
   0,
   0,
   0,
   0,
   0,
   0,
   0,
   0,
   0,
   0,
   0,
   0,
   0,
   0,
   0,
   0,
   0,
   0,
   0,
   0,
   0,
   0,
   0,
   0,
   0,
   0,
   0,
   0,
   0,
   0,
   0,
   0,
   0,
   0,
   0,
   0,
   0,
   0,
   0,
   0,
   0,
   0,
   0,
   0,
   0,
   0,
   0,
   0,
   0,
   0,
   0,
   0,
   0,
   0,
   0,
   0,
   0,
   0,
   0,
   0,
   0,
   0,
   0,
   0,
   0,
   0,
   0,
   0,
   0,
   0,
   0,
   0,
   0,
   0,
   0,
   0,
   0,
   0,
   0,
   0,
   0,
   0,
   0,
   0,
   0,
   0,
   0,
   0,
   0,
   0,
   0,
   0,
   0,
   0,
   0;
   { _16_-_Default }
  }

  MeshTextureCoords c1 {
   161;
   0.209129;0.984788;,
   0.239551;0.839629;,
   0.247981;0.967435;,
   0.204064;0.843920;,
   0.275969;0.840513;,
   0.286071;0.939028;,
   0.051402;0.939028;,
   0.096163;0.848875;,
   0.089633;0.961786;,
   0.060686;0.840494;,
   0.132533;0.853226;,
   0.129067;0.969367;,
   0.168980;0.850509;,
   0.169200;0.970007;,
   0.328765;0.737987;,
   0.515801;0.743560;,
   0.414351;0.794620;,
   0.331823;0.635327;,
   0.414351;0.563620;,
   0.506781;0.622011;,
   0.323773;0.625060;,
   0.422129;0.792281;,
   0.324803;0.731480;,
   0.516646;0.745404;,
   0.514881;0.638474;,
   0.422129;0.580052;,
   0.235612;0.681007;,
   0.202426;0.681328;,
   0.268266;0.679298;,
   0.102366;0.679485;,
   0.070244;0.679009;,
   0.134907;0.679900;,
   0.168650;0.680692;,
   0.228614;0.496495;,
   0.198888;0.496723;,
   0.259361;0.494485;,
   0.109058;0.494514;,
   0.078150;0.493969;,
   0.139421;0.494969;,
   0.169442;0.495867;,
   0.218775;0.271117;,
   0.194068;0.270698;,
   0.243190;0.272342;,
   0.120812;0.274472;,
   0.109058;0.494514;,
   0.096991;0.271691;,
   0.144830;0.274294;,
   0.169335;0.272233;,
   0.194068;0.270698;,
   0.210034;0.026919;,
   0.190695;0.020639;,
   0.229703;0.023241;,
   0.131479;0.015116;,
   0.111088;0.022375;,
   0.151028;0.011354;,
   0.170863;0.014956;,
   0.539540;0.507142;,
   0.607916;0.349041;,
   0.608730;0.507017;,
   0.549023;0.349480;,
   0.682570;0.349285;,
   0.677803;0.509322;,
   0.479964;0.354123;,
   0.561148;0.149657;,
   0.499760;0.151163;,
   0.610515;0.154686;,
   0.660133;0.151935;,
   0.718876;0.152066;,
   0.738221;0.342964;,
   0.592177;0.027070;,
   0.562413;0.068634;,
   0.631523;0.069644;,
   0.607804;0.550508;,
   0.539033;0.507677;,
   0.611105;0.348920;,
   0.607947;0.505935;,
   0.550351;0.350977;,
   0.681244;0.350549;,
   0.678350;0.508596;,
   0.480558;0.353319;,
   0.555275;0.151252;,
   0.499116;0.153492;,
   0.609971;0.154989;,
   0.665260;0.153050;,
   0.718307;0.153570;,
   0.739264;0.342802;,
   0.590575;0.027323;,
   0.561969;0.068985;,
   0.628814;0.069106;,
   0.607589;0.548766;,
   0.372004;0.264470;,
   0.393298;0.181781;,
   0.393298;0.264470;,
   0.372004;0.181781;,
   0.403945;0.181781;,
   0.403945;0.264470;,
   0.283280;0.264470;,
   0.308122;0.181781;,
   0.308122;0.264470;,
   0.283280;0.181781;,
   0.329416;0.181781;,
   0.329416;0.264470;,
   0.350710;0.181781;,
   0.350710;0.264470;,
   4.785687;2.152164;,
   3.919662;2.152164;,
   4.352674;2.402164;,
   3.919662;2.152164;,
   4.352674;1.402164;,
   3.919662;1.652164;,
   4.785687;2.152164;,
   4.352674;1.402164;,
   3.919662;2.152164;,
   4.785687;1.652164;,
   4.352674;1.402164;,
   4.785687;2.152164;,
   0.419607;0.795858;,
   0.503020;0.646102;,
   0.504471;0.745195;,
   0.309318;0.655119;,
   0.416703;0.597674;,
   0.363984;0.748873;,
   0.393298;0.087939;,
   0.372004;0.087939;,
   0.403945;0.087939;,
   0.308122;0.087939;,
   0.283280;0.087939;,
   0.329416;0.087939;,
   0.350710;0.087939;,
   0.373930;0.422033;,
   0.396077;0.289146;,
   0.396077;0.422033;,
   0.373930;0.289146;,
   0.418225;0.289146;,
   0.418225;0.422033;,
   0.285338;0.422033;,
   0.307486;0.289146;,
   0.307486;0.422033;,
   0.285338;0.289146;,
   0.329634;0.289146;,
   0.329634;0.422033;,
   0.351782;0.289146;,
   0.351782;0.422033;,
   5.860242;2.112851;,
   4.994217;2.112851;,
   5.427230;2.362851;,
   4.994217;2.112851;,
   5.427230;1.362851;,
   4.994217;1.612851;,
   5.860242;2.112851;,
   5.427230;1.362851;,
   4.994217;2.112851;,
   5.860242;1.612851;,
   5.427230;1.362851;,
   5.860242;2.112851;,
   0.407246;0.778454;,
   0.505224;0.639006;,
   0.496490;0.737014;,
   0.335469;0.623878;,
   0.424714;0.582438;,
   0.326735;0.721886;;
  }
 }
}