xof 0303txt 0032
template ColorRGBA {
 <35ff44e0-6c7c-11cf-8f52-0040333594a3>
 FLOAT red;
 FLOAT green;
 FLOAT blue;
 FLOAT alpha;
}

template ColorRGB {
 <d3e16e81-7835-11cf-8f52-0040333594a3>
 FLOAT red;
 FLOAT green;
 FLOAT blue;
}

template Material {
 <3d82ab4d-62da-11cf-ab39-0020af71e433>
 ColorRGBA faceColor;
 FLOAT power;
 ColorRGB specularColor;
 ColorRGB emissiveColor;
 [...]
}

template TextureFilename {
 <a42790e1-7810-11cf-8f52-0040333594a3>
 STRING filename;
}

template Frame {
 <3d82ab46-62da-11cf-ab39-0020af71e433>
 [...]
}

template Matrix4x4 {
 <f6f23f45-7686-11cf-8f52-0040333594a3>
 array FLOAT matrix[16];
}

template FrameTransformMatrix {
 <f6f23f41-7686-11cf-8f52-0040333594a3>
 Matrix4x4 frameMatrix;
}

template Vector {
 <3d82ab5e-62da-11cf-ab39-0020af71e433>
 FLOAT x;
 FLOAT y;
 FLOAT z;
}

template MeshFace {
 <3d82ab5f-62da-11cf-ab39-0020af71e433>
 DWORD nFaceVertexIndices;
 array DWORD faceVertexIndices[nFaceVertexIndices];
}

template Mesh {
 <3d82ab44-62da-11cf-ab39-0020af71e433>
 DWORD nVertices;
 array Vector vertices[nVertices];
 DWORD nFaces;
 array MeshFace faces[nFaces];
 [...]
}

template MeshNormals {
 <f6f23f43-7686-11cf-8f52-0040333594a3>
 DWORD nNormals;
 array Vector normals[nNormals];
 DWORD nFaceNormals;
 array MeshFace faceNormals[nFaceNormals];
}

template MeshMaterialList {
 <f6f23f42-7686-11cf-8f52-0040333594a3>
 DWORD nMaterials;
 DWORD nFaceIndexes;
 array DWORD faceIndexes[nFaceIndexes];
 [Material <3d82ab4d-62da-11cf-ab39-0020af71e433>]
}

template Coords2d {
 <f6f23f44-7686-11cf-8f52-0040333594a3>
 FLOAT u;
 FLOAT v;
}

template MeshTextureCoords {
 <f6f23f40-7686-11cf-8f52-0040333594a3>
 DWORD nTextureCoords;
 array Coords2d textureCoords[nTextureCoords];
}


Material _17_-_Default {
 1.000000;1.000000;1.000000;1.000000;;
 9.999999;
 0.000000;0.000000;0.000000;;
 0.000000;0.000000;0.000000;;

 TextureFilename {
  "CanOpen.png";
 }
}

Frame CanOpen {
 

 FrameTransformMatrix {
  1.000000,0.000000,0.000000,0.000000,0.000000,1.000000,0.000000,0.000000,0.000000,0.000000,1.000000,0.000000,0.000000,0.000000,0.000000,1.000000;;
 }

 Mesh CanOpen {
  116;
  0.031361;0.000000;0.000000;,
  0.022176;0.087831;0.022176;,
  0.022176;0.000000;0.022176;,
  0.031361;0.087831;0.000000;,
  -0.000000;0.087831;0.031361;,
  -0.000000;0.000000;0.031361;,
  -0.022176;0.087831;0.022176;,
  -0.022176;0.000000;0.022176;,
  -0.031361;0.087831;-0.000000;,
  -0.031361;0.000000;-0.000000;,
  -0.022176;0.087831;-0.022176;,
  -0.022176;0.000000;-0.022176;,
  0.000000;0.087831;-0.031361;,
  0.000000;0.000000;-0.031361;,
  0.022176;0.087831;-0.022176;,
  0.022176;0.000000;-0.022176;,
  0.031361;0.087831;0.000000;,
  0.031361;0.000000;0.000000;,
  0.022176;0.000000;0.022176;,
  0.000000;0.000000;0.000000;,
  0.031361;0.000000;0.000000;,
  -0.000000;0.000000;0.031361;,
  -0.022176;0.000000;0.022176;,
  -0.031361;0.000000;-0.000000;,
  -0.022176;0.000000;-0.022176;,
  0.000000;0.000000;-0.031361;,
  0.022176;0.000000;-0.022176;,
  0.031361;0.087831;0.000000;,
  0.019778;0.087831;0.019778;,
  0.022176;0.087831;0.022176;,
  0.027970;0.087831;0.000000;,
  -0.000000;0.087831;0.027970;,
  -0.000000;0.087831;0.031361;,
  -0.019778;0.087831;0.019778;,
  -0.022176;0.087831;0.022176;,
  -0.027970;0.087831;-0.000000;,
  -0.031361;0.087831;-0.000000;,
  -0.019778;0.087831;-0.019778;,
  -0.022176;0.087831;-0.022176;,
  0.000000;0.087831;-0.027970;,
  0.000000;0.087831;-0.031361;,
  0.019778;0.087831;-0.019778;,
  0.022176;0.087831;-0.022176;,
  -0.019778;0.087831;0.019778;,
  -0.000000;0.087831;0.027970;,
  0.000000;0.043536;0.000000;,
  0.019778;0.087831;0.019778;,
  0.027970;0.087831;0.000000;,
  0.019778;0.087831;-0.019778;,
  0.000000;0.087831;-0.027970;,
  -0.019778;0.087831;-0.019778;,
  -0.027970;0.087831;-0.000000;,
  0.034749;0.117752;0.060200;,
  0.016119;0.106800;0.040274;,
  0.044303;0.107874;0.043287;,
  0.037688;0.096356;0.025850;,
  0.019941;0.086528;0.022315;,
  0.000003;0.086809;0.030652;,
  -0.010562;0.101299;0.042714;,
  -0.005449;0.117245;0.054698;,
  0.013801;0.122645;0.063686;,
  0.034755;0.119491;0.058951;,
  0.044303;0.107874;0.043287;,
  0.044310;0.109614;0.042038;,
  0.044303;0.107874;0.043287;,
  0.034755;0.119491;0.058951;,
  0.034749;0.117752;0.060200;,
  0.044310;0.109614;0.042038;,
  0.037688;0.096356;0.025850;,
  0.037308;0.097764;0.024263;,
  0.037688;0.096356;0.025850;,
  0.044310;0.109614;0.042038;,
  0.044303;0.107874;0.043287;,
  0.037308;0.097764;0.024263;,
  0.019941;0.086528;0.022315;,
  0.019091;0.087351;0.020449;,
  0.019941;0.086528;0.022315;,
  0.037308;0.097764;0.024263;,
  0.037688;0.096356;0.025850;,
  0.019091;0.087351;0.020449;,
  0.000003;0.086809;0.030652;,
  -0.000846;0.087632;0.028786;,
  0.000003;0.086809;0.030652;,
  0.019091;0.087351;0.020449;,
  0.019941;0.086528;0.022315;,
  -0.000846;0.087632;0.028786;,
  -0.010562;0.101299;0.042714;,
  -0.011411;0.102122;0.040848;,
  0.000003;0.086809;0.030652;,
  -0.011411;0.102122;0.040848;,
  -0.005449;0.117245;0.054698;,
  -0.005828;0.118653;0.053111;,
  -0.005449;0.117245;0.054698;,
  -0.011411;0.102122;0.040848;,
  -0.010562;0.101299;0.042714;,
  -0.005828;0.118653;0.053111;,
  0.013801;0.122645;0.063686;,
  0.013808;0.124385;0.062437;,
  0.013801;0.122645;0.063686;,
  -0.005828;0.118653;0.053111;,
  -0.005449;0.117245;0.054698;,
  0.013808;0.124385;0.062437;,
  0.034749;0.117752;0.060200;,
  0.034755;0.119491;0.058951;,
  0.034749;0.117752;0.060200;,
  0.013808;0.124385;0.062437;,
  0.013801;0.122645;0.063686;,
  0.044310;0.109614;0.042038;,
  0.015702;0.108349;0.038529;,
  0.034755;0.119491;0.058951;,
  0.037308;0.097764;0.024263;,
  0.019091;0.087351;0.020449;,
  -0.000846;0.087632;0.028786;,
  -0.011411;0.102122;0.040848;,
  -0.005828;0.118653;0.053111;,
  0.013808;0.124385;0.062437;;
  80;
  3;0,1,2;,
  3;1,0,3;,
  3;2,4,5;,
  3;4,2,1;,
  3;5,6,7;,
  3;6,5,4;,
  3;7,8,9;,
  3;8,7,6;,
  3;9,10,11;,
  3;10,9,8;,
  3;11,12,13;,
  3;12,11,10;,
  3;13,14,15;,
  3;14,13,12;,
  3;15,16,17;,
  3;16,15,14;,
  3;18,19,20;,
  3;21,19,18;,
  3;22,19,21;,
  3;23,19,22;,
  3;24,19,23;,
  3;25,19,24;,
  3;26,19,25;,
  3;20,19,26;,
  3;27,28,29;,
  3;28,27,30;,
  3;29,31,32;,
  3;31,29,28;,
  3;32,33,34;,
  3;33,32,31;,
  3;34,35,36;,
  3;35,34,33;,
  3;36,37,38;,
  3;37,36,35;,
  3;38,39,40;,
  3;39,38,37;,
  3;40,41,42;,
  3;41,40,39;,
  3;42,30,27;,
  3;30,42,41;,
  3;43,44,45;,
  3;44,46,45;,
  3;46,47,45;,
  3;47,48,45;,
  3;48,49,45;,
  3;49,50,45;,
  3;50,51,45;,
  3;51,43,45;,
  3;52,53,54;,
  3;54,53,55;,
  3;55,53,56;,
  3;56,53,57;,
  3;57,53,58;,
  3;58,53,59;,
  3;59,53,60;,
  3;60,53,52;,
  3;61,62,63;,
  3;64,65,66;,
  3;67,68,69;,
  3;70,71,72;,
  3;73,74,75;,
  3;76,77,78;,
  3;79,80,81;,
  3;82,83,84;,
  3;85,86,87;,
  3;86,85,88;,
  3;89,90,91;,
  3;92,93,94;,
  3;95,96,97;,
  3;98,99,100;,
  3;101,102,103;,
  3;104,105,106;,
  3;107,108,109;,
  3;110,108,107;,
  3;111,108,110;,
  3;108,111,112;,
  3;108,112,113;,
  3;108,113,114;,
  3;108,115,109;,
  3;108,114,115;;

  MeshNormals {
   116;
   1.000000;0.000000;0.000000;,
   0.707107;0.000000;0.707107;,
   0.707107;0.000000;0.707107;,
   1.000000;0.000000;0.000000;,
   -0.000000;0.000000;1.000000;,
   -0.000000;0.000000;1.000000;,
   -0.707107;0.000000;0.707107;,
   -0.707107;0.000000;0.707107;,
   -1.000000;0.000000;-0.000000;,
   -1.000000;0.000000;-0.000000;,
   -0.707107;0.000000;-0.707107;,
   -0.707107;0.000000;-0.707107;,
   -0.000000;0.000000;-1.000000;,
   0.000000;0.000000;-1.000000;,
   0.707107;0.000000;-0.707107;,
   0.707107;0.000000;-0.707107;,
   1.000000;0.000000;0.000000;,
   1.000000;0.000000;0.000000;,
   0.000000;-1.000000;0.000000;,
   0.000000;-1.000000;0.000000;,
   0.000000;-1.000000;0.000000;,
   0.000000;-1.000000;0.000000;,
   0.000000;-1.000000;0.000000;,
   0.000000;-1.000000;0.000000;,
   0.000000;-1.000000;0.000000;,
   0.000000;-1.000000;0.000000;,
   0.000000;-1.000000;0.000000;,
   -0.000003;1.000000;-0.000000;,
   -0.000002;1.000000;-0.000002;,
   -0.000002;1.000000;-0.000002;,
   -0.000003;1.000000;0.000000;,
   0.000000;1.000000;-0.000003;,
   0.000000;1.000000;-0.000003;,
   0.000002;1.000000;-0.000002;,
   0.000002;1.000000;-0.000002;,
   0.000003;1.000000;0.000000;,
   0.000003;1.000000;0.000000;,
   0.000002;1.000000;0.000002;,
   0.000002;1.000000;0.000002;,
   0.000000;1.000000;0.000003;,
   -0.000000;1.000000;0.000003;,
   -0.000002;1.000000;0.000002;,
   -0.000002;1.000000;0.000002;,
   0.597884;0.533919;-0.597884;,
   0.000000;0.533919;-0.845536;,
   -0.000000;1.000000;-0.000000;,
   -0.597884;0.533919;-0.597884;,
   -0.845536;0.533919;-0.000000;,
   -0.597884;0.533919;0.597884;,
   -0.000000;0.533919;0.845536;,
   0.597884;0.533919;0.597884;,
   0.845536;0.533919;0.000000;,
   -0.060991;-0.849553;0.523965;,
   0.091179;-0.736842;0.669888;,
   -0.023900;-0.849849;0.526485;,
   0.085271;-0.742090;0.664855;,
   0.249245;-0.615437;0.747739;,
   0.244938;-0.573641;0.781628;,
   0.193100;-0.588248;0.785288;,
   0.085271;-0.742089;0.664855;,
   -0.066176;-0.829376;0.554758;,
   0.898090;0.254285;0.358850;,
   0.898090;0.254285;0.358850;,
   0.898090;0.254285;0.358850;,
   0.898090;0.254277;0.358856;,
   0.898090;0.254277;0.358856;,
   0.898090;0.254277;0.358856;,
   0.946111;-0.094305;-0.309809;,
   0.946111;-0.094305;-0.309809;,
   0.946111;-0.094305;-0.309809;,
   0.953266;-0.178693;-0.243623;,
   0.953266;-0.178693;-0.243623;,
   0.953266;-0.178693;-0.243623;,
   0.501745;-0.683710;-0.529899;,
   0.501745;-0.683710;-0.529899;,
   0.501745;-0.683710;-0.529899;,
   0.463806;-0.604678;-0.647494;,
   0.463806;-0.604678;-0.647494;,
   0.463806;-0.604678;-0.647494;,
   -0.154735;-0.928049;-0.338796;,
   -0.154735;-0.928049;-0.338796;,
   -0.154735;-0.928049;-0.338796;,
   -0.154735;-0.928048;-0.338797;,
   -0.154735;-0.928048;-0.338797;,
   -0.154735;-0.928048;-0.338797;,
   -0.774628;-0.627861;0.075769;,
   -0.774628;-0.627861;0.075769;,
   -0.774628;-0.627861;0.075769;,
   -0.774628;-0.627862;0.075770;,
   -0.947080;0.091609;0.307648;,
   -0.947080;0.091609;0.307648;,
   -0.947080;0.091609;0.307648;,
   -0.912469;-0.014748;0.408880;,
   -0.912469;-0.014748;0.408880;,
   -0.912469;-0.014748;0.408880;,
   -0.485897;0.511139;0.708972;,
   -0.485897;0.511139;0.708972;,
   -0.485897;0.511139;0.708972;,
   -0.470300;0.601249;0.646001;,
   -0.470300;0.601249;0.646001;,
   -0.470300;0.601249;0.646001;,
   0.261892;0.562360;0.784324;,
   0.261892;0.562360;0.784324;,
   0.261892;0.562360;0.784324;,
   0.261893;0.562363;0.784322;,
   0.261893;0.562363;0.784322;,
   0.261893;0.562363;0.784322;,
   0.027219;0.848946;-0.527778;,
   -0.093254;0.734982;-0.671644;,
   0.062516;0.850448;-0.522332;,
   -0.082139;0.736800;-0.671103;,
   -0.250526;0.608134;-0.753266;,
   -0.249432;0.568040;-0.784292;,
   -0.201459;0.584373;-0.786081;,
   -0.093880;0.742486;-0.663251;,
   0.064000;0.831135;-0.552376;;
   80;
   3;0,1,2;,
   3;1,0,3;,
   3;2,4,5;,
   3;4,2,1;,
   3;5,6,7;,
   3;6,5,4;,
   3;7,8,9;,
   3;8,7,6;,
   3;9,10,11;,
   3;10,9,8;,
   3;11,12,13;,
   3;12,11,10;,
   3;13,14,15;,
   3;14,13,12;,
   3;15,16,17;,
   3;16,15,14;,
   3;18,19,20;,
   3;21,19,18;,
   3;22,19,21;,
   3;23,19,22;,
   3;24,19,23;,
   3;25,19,24;,
   3;26,19,25;,
   3;20,19,26;,
   3;27,28,29;,
   3;28,27,30;,
   3;29,31,32;,
   3;31,29,28;,
   3;32,33,34;,
   3;33,32,31;,
   3;34,35,36;,
   3;35,34,33;,
   3;36,37,38;,
   3;37,36,35;,
   3;38,39,40;,
   3;39,38,37;,
   3;40,41,42;,
   3;41,40,39;,
   3;42,30,27;,
   3;30,42,41;,
   3;43,44,45;,
   3;44,46,45;,
   3;46,47,45;,
   3;47,48,45;,
   3;48,49,45;,
   3;49,50,45;,
   3;50,51,45;,
   3;51,43,45;,
   3;52,53,54;,
   3;54,53,55;,
   3;55,53,56;,
   3;56,53,57;,
   3;57,53,58;,
   3;58,53,59;,
   3;59,53,60;,
   3;60,53,52;,
   3;61,62,63;,
   3;64,65,66;,
   3;67,68,69;,
   3;70,71,72;,
   3;73,74,75;,
   3;76,77,78;,
   3;79,80,81;,
   3;82,83,84;,
   3;85,86,87;,
   3;86,85,88;,
   3;89,90,91;,
   3;92,93,94;,
   3;95,96,97;,
   3;98,99,100;,
   3;101,102,103;,
   3;104,105,106;,
   3;107,108,109;,
   3;110,108,107;,
   3;111,108,110;,
   3;108,111,112;,
   3;108,112,113;,
   3;108,113,114;,
   3;108,115,109;,
   3;108,114,115;;
  }

  MeshMaterialList {
   1;
   80;
   0,
   0,
   0,
   0,
   0,
   0,
   0,
   0,
   0,
   0,
   0,
   0,
   0,
   0,
   0,
   0,
   0,
   0,
   0,
   0,
   0,
   0,
   0,
   0,
   0,
   0,
   0,
   0,
   0,
   0,
   0,
   0,
   0,
   0,
   0,
   0,
   0,
   0,
   0,
   0,
   0,
   0,
   0,
   0,
   0,
   0,
   0,
   0,
   0,
   0,
   0,
   0,
   0,
   0,
   0,
   0,
   0,
   0,
   0,
   0,
   0,
   0,
   0,
   0,
   0,
   0,
   0,
   0,
   0,
   0,
   0,
   0,
   0,
   0,
   0,
   0,
   0,
   0,
   0,
   0;
   { _17_-_Default }
  }

  MeshTextureCoords c1 {
   116;
   0.477122;0.989291;,
   0.035701;0.866674;,
   0.477122;0.866674;,
   0.035701;0.989291;,
   0.035701;0.744057;,
   0.477122;0.744057;,
   0.035701;0.621441;,
   0.477122;0.621441;,
   0.035701;0.498824;,
   0.477122;0.498824;,
   0.035701;0.376207;,
   0.477122;0.376207;,
   0.035701;0.253590;,
   0.477122;0.253590;,
   0.035701;0.130973;,
   0.477122;0.130973;,
   0.035701;0.008356;,
   0.477122;0.008356;,
   0.923207;0.080148;,
   0.751380;0.251975;,
   0.994380;0.251975;,
   0.751380;0.008975;,
   0.579553;0.080148;,
   0.508380;0.251975;,
   0.579553;0.423802;,
   0.751380;0.494975;,
   0.923207;0.423802;,
   0.981469;0.763864;,
   0.897953;0.621260;,
   0.915240;0.603973;,
   0.957022;0.763864;,
   0.755348;0.562191;,
   0.755348;0.537744;,
   0.612743;0.621260;,
   0.595457;0.603973;,
   0.553675;0.763864;,
   0.529228;0.763864;,
   0.612743;0.906469;,
   0.595457;0.923756;,
   0.755348;0.965538;,
   0.755348;0.989985;,
   0.897953;0.906469;,
   0.915240;0.923756;,
   0.612743;0.621260;,
   0.755348;0.562191;,
   0.755434;0.763133;,
   0.897953;0.621260;,
   0.957022;0.763864;,
   0.897953;0.906469;,
   0.755348;0.965538;,
   0.612743;0.906469;,
   0.553675;0.763864;,
   0.968086;0.249461;,
   0.751233;0.249461;,
   0.904572;0.096123;,
   0.751233;0.032608;,
   0.597895;0.096123;,
   0.534380;0.249461;,
   0.597895;0.402800;,
   0.751233;0.466315;,
   0.904572;0.402800;,
   0.968086;0.249461;,
   0.904572;0.096123;,
   0.904572;0.096123;,
   0.904572;0.096123;,
   0.968086;0.249461;,
   0.968086;0.249461;,
   0.904572;0.096123;,
   0.751233;0.032608;,
   0.751233;0.032608;,
   0.751233;0.032608;,
   0.904572;0.096123;,
   0.904572;0.096123;,
   0.751233;0.032608;,
   0.597895;0.096123;,
   0.597895;0.096123;,
   0.597895;0.096123;,
   0.751233;0.032608;,
   0.751233;0.032608;,
   0.597895;0.096123;,
   0.534380;0.249461;,
   0.534380;0.249461;,
   0.534380;0.249461;,
   0.597895;0.096123;,
   0.597895;0.096123;,
   0.534380;0.249461;,
   0.597895;0.402800;,
   0.597895;0.402800;,
   0.534380;0.249461;,
   0.597895;0.402800;,
   0.751233;0.466315;,
   0.751233;0.466315;,
   0.751233;0.466315;,
   0.597895;0.402800;,
   0.597895;0.402800;,
   0.751233;0.466315;,
   0.904572;0.402800;,
   0.904572;0.402800;,
   0.904572;0.402800;,
   0.751233;0.466315;,
   0.751233;0.466315;,
   0.904572;0.402800;,
   0.968086;0.249461;,
   0.968086;0.249461;,
   0.968086;0.249461;,
   0.904572;0.402800;,
   0.904572;0.402800;,
   0.904572;0.096123;,
   0.751325;0.248675;,
   0.968086;0.249461;,
   0.751233;0.032608;,
   0.597895;0.096123;,
   0.534380;0.249461;,
   0.597895;0.402800;,
   0.751233;0.466315;,
   0.904572;0.402800;;
  }
 }
}