xof 0303txt 0032
template ColorRGBA {
 <35ff44e0-6c7c-11cf-8f52-0040333594a3>
 FLOAT red;
 FLOAT green;
 FLOAT blue;
 FLOAT alpha;
}

template ColorRGB {
 <d3e16e81-7835-11cf-8f52-0040333594a3>
 FLOAT red;
 FLOAT green;
 FLOAT blue;
}

template Material {
 <3d82ab4d-62da-11cf-ab39-0020af71e433>
 ColorRGBA faceColor;
 FLOAT power;
 ColorRGB specularColor;
 ColorRGB emissiveColor;
 [...]
}

template TextureFilename {
 <a42790e1-7810-11cf-8f52-0040333594a3>
 STRING filename;
}

template Frame {
 <3d82ab46-62da-11cf-ab39-0020af71e433>
 [...]
}

template Matrix4x4 {
 <f6f23f45-7686-11cf-8f52-0040333594a3>
 array FLOAT matrix[16];
}

template FrameTransformMatrix {
 <f6f23f41-7686-11cf-8f52-0040333594a3>
 Matrix4x4 frameMatrix;
}

template Vector {
 <3d82ab5e-62da-11cf-ab39-0020af71e433>
 FLOAT x;
 FLOAT y;
 FLOAT z;
}

template MeshFace {
 <3d82ab5f-62da-11cf-ab39-0020af71e433>
 DWORD nFaceVertexIndices;
 array DWORD faceVertexIndices[nFaceVertexIndices];
}

template Mesh {
 <3d82ab44-62da-11cf-ab39-0020af71e433>
 DWORD nVertices;
 array Vector vertices[nVertices];
 DWORD nFaces;
 array MeshFace faces[nFaces];
 [...]
}

template MeshNormals {
 <f6f23f43-7686-11cf-8f52-0040333594a3>
 DWORD nNormals;
 array Vector normals[nNormals];
 DWORD nFaceNormals;
 array MeshFace faceNormals[nFaceNormals];
}

template MeshMaterialList {
 <f6f23f42-7686-11cf-8f52-0040333594a3>
 DWORD nMaterials;
 DWORD nFaceIndexes;
 array DWORD faceIndexes[nFaceIndexes];
 [Material <3d82ab4d-62da-11cf-ab39-0020af71e433>]
}

template Coords2d {
 <f6f23f44-7686-11cf-8f52-0040333594a3>
 FLOAT u;
 FLOAT v;
}

template MeshTextureCoords {
 <f6f23f40-7686-11cf-8f52-0040333594a3>
 DWORD nTextureCoords;
 array Coords2d textureCoords[nTextureCoords];
}


Material Mat_Magazine {
 1.000000;1.000000;1.000000;1.000000;;
 9.999999;
 0.000000;0.000000;0.000000;;
 0.000000;0.000000;0.000000;;

 TextureFilename {
  "Magazine.png";
 }
}

Frame Magazine {
 

 FrameTransformMatrix {
  1.000000,0.000000,-0.000000,0.000000,-0.000000,1.000000,-0.000000,0.000000,0.000000,0.000000,1.000000,0.000000,0.000000,0.000000,0.000000,1.000000;;
 }

 Mesh Magazine {
  112;
  -0.116835;-0.088791;-0.029323;,
  -0.112314;-0.029597;-0.035966;,
  -0.112407;-0.085731;-0.031908;,
  -0.116835;-0.029597;-0.029323;,
  -0.112249;0.029597;-0.038073;,
  -0.115935;0.029597;-0.033722;,
  -0.110086;0.086570;-0.034674;,
  -0.115935;0.088791;-0.030323;,
  -0.001065;-0.088791;0.002065;,
  -0.036623;-0.088791;-0.017825;,
  -0.000000;-0.088791;-0.002176;,
  -0.039142;-0.088791;-0.010976;,
  -0.076048;-0.088791;-0.028480;,
  -0.077539;-0.088791;-0.024129;,
  -0.112407;-0.085731;-0.031908;,
  -0.116835;-0.088791;-0.029323;,
  -0.000000;-0.088791;-0.002176;,
  -0.037182;-0.029597;-0.016248;,
  -0.000000;-0.029597;-0.002176;,
  -0.036623;-0.088791;-0.017825;,
  -0.037651;0.029597;-0.015328;,
  0.000000;0.029597;-0.002176;,
  -0.037651;0.088791;-0.015328;,
  0.000000;0.088791;-0.002176;,
  -0.076048;-0.029597;-0.028480;,
  -0.076048;-0.088791;-0.028480;,
  -0.074047;0.029597;-0.031440;,
  -0.076048;0.088791;-0.028480;,
  -0.112314;-0.029597;-0.035966;,
  -0.112407;-0.085731;-0.031908;,
  -0.112249;0.029597;-0.038073;,
  -0.110086;0.086570;-0.034674;,
  0.000000;0.088791;-0.002176;,
  -0.039142;0.088791;-0.010976;,
  0.000000;0.088791;0.002065;,
  -0.037651;0.088791;-0.015328;,
  -0.077539;0.088791;-0.024129;,
  -0.076048;0.088791;-0.028480;,
  -0.115935;0.088791;-0.030323;,
  -0.110086;0.086570;-0.034674;,
  0.000000;0.088791;0.002065;,
  -0.039322;0.029597;-0.009140;,
  -0.001186;0.029597;0.002065;,
  -0.039142;0.088791;-0.010976;,
  -0.039142;-0.029597;-0.010976;,
  -0.000000;-0.029597;0.002065;,
  -0.039142;-0.088791;-0.010976;,
  -0.001065;-0.088791;0.002065;,
  -0.077539;0.029597;-0.024129;,
  -0.077539;0.088791;-0.024129;,
  -0.077539;-0.029597;-0.024129;,
  -0.077539;-0.088791;-0.024129;,
  -0.115935;0.029597;-0.033722;,
  -0.115935;0.088791;-0.030323;,
  -0.116835;-0.029597;-0.029323;,
  -0.116835;-0.088791;-0.029323;,
  0.106484;-0.088791;-0.049871;,
  0.110363;-0.029597;-0.051486;,
  0.111081;-0.088791;-0.046494;,
  0.105101;-0.029597;-0.055617;,
  0.110363;0.029597;-0.051486;,
  0.105420;0.029382;-0.055617;,
  0.110363;0.088791;-0.045722;,
  0.102093;0.082267;-0.060672;,
  -0.000000;-0.088791;-0.002176;,
  0.037462;-0.088791;-0.015785;,
  -0.001065;-0.088791;0.002065;,
  0.035439;-0.088791;-0.019916;,
  0.073912;-0.088791;-0.033636;,
  0.071890;-0.088791;-0.037767;,
  0.111081;-0.088791;-0.046494;,
  0.106484;-0.088791;-0.049871;,
  -0.001065;-0.088791;0.002065;,
  0.038143;-0.029597;-0.013884;,
  -0.000000;-0.029597;0.002065;,
  0.037462;-0.088791;-0.015785;,
  0.037462;0.029597;-0.015785;,
  -0.001186;0.029597;0.002065;,
  0.037462;0.088791;-0.015785;,
  0.000000;0.088791;0.002065;,
  0.073912;-0.029597;-0.033636;,
  0.073912;-0.088791;-0.033636;,
  0.073912;0.029597;-0.033636;,
  0.073912;0.088791;-0.033636;,
  0.110363;-0.029597;-0.051486;,
  0.111081;-0.088791;-0.046494;,
  0.110363;0.029597;-0.051486;,
  0.110363;0.088791;-0.045722;,
  0.000000;0.088791;0.002065;,
  0.032103;0.088791;-0.022747;,
  0.000000;0.088791;-0.002176;,
  0.037462;0.088791;-0.015785;,
  0.069092;0.087354;-0.037767;,
  0.073912;0.088791;-0.033636;,
  0.102093;0.082267;-0.060672;,
  0.110363;0.088791;-0.045722;,
  0.000000;0.088791;-0.002176;,
  0.035439;0.029597;-0.019916;,
  0.000000;0.029597;-0.002176;,
  0.032103;0.088791;-0.022747;,
  0.033130;-0.029597;-0.023341;,
  -0.000000;-0.029597;-0.002176;,
  0.035439;-0.088791;-0.019916;,
  -0.000000;-0.088791;-0.002176;,
  0.071890;0.029597;-0.037767;,
  0.069092;0.087354;-0.037767;,
  0.071890;-0.029597;-0.037767;,
  0.071890;-0.088791;-0.037767;,
  0.105420;0.029382;-0.055617;,
  0.102093;0.082267;-0.060672;,
  0.105101;-0.029597;-0.055617;,
  0.106484;-0.088791;-0.049871;;
  108;
  3;0,1,2;,
  3;1,0,3;,
  3;3,4,1;,
  3;4,3,5;,
  3;5,6,4;,
  3;6,5,7;,
  3;8,9,10;,
  3;9,8,11;,
  3;11,12,9;,
  3;12,11,13;,
  3;13,14,12;,
  3;14,13,15;,
  3;16,17,18;,
  3;17,16,19;,
  3;18,20,21;,
  3;20,18,17;,
  3;21,22,23;,
  3;22,21,20;,
  3;19,24,17;,
  3;24,19,25;,
  3;17,26,20;,
  3;26,17,24;,
  3;20,27,22;,
  3;27,20,26;,
  3;25,28,24;,
  3;28,25,29;,
  3;24,30,26;,
  3;30,24,28;,
  3;26,31,27;,
  3;31,26,30;,
  3;32,33,34;,
  3;33,32,35;,
  3;35,36,33;,
  3;36,35,37;,
  3;37,38,36;,
  3;38,37,39;,
  3;40,41,42;,
  3;41,40,43;,
  3;42,44,45;,
  3;44,42,41;,
  3;45,46,47;,
  3;46,45,44;,
  3;43,48,41;,
  3;48,43,49;,
  3;41,50,44;,
  3;50,41,48;,
  3;44,51,46;,
  3;51,44,50;,
  3;49,52,48;,
  3;52,49,53;,
  3;48,54,50;,
  3;54,48,52;,
  3;50,55,51;,
  3;55,50,54;,
  3;56,57,58;,
  3;57,56,59;,
  3;59,60,57;,
  3;60,59,61;,
  3;61,62,60;,
  3;62,61,63;,
  3;64,65,66;,
  3;65,64,67;,
  3;67,68,65;,
  3;68,67,69;,
  3;69,70,68;,
  3;70,69,71;,
  3;72,73,74;,
  3;73,72,75;,
  3;74,76,77;,
  3;76,74,73;,
  3;77,78,79;,
  3;78,77,76;,
  3;75,80,73;,
  3;80,75,81;,
  3;73,82,76;,
  3;82,73,80;,
  3;76,83,78;,
  3;83,76,82;,
  3;81,84,80;,
  3;84,81,85;,
  3;80,86,82;,
  3;86,80,84;,
  3;82,87,83;,
  3;87,82,86;,
  3;88,89,90;,
  3;89,88,91;,
  3;91,92,89;,
  3;92,91,93;,
  3;93,94,92;,
  3;94,93,95;,
  3;96,97,98;,
  3;97,96,99;,
  3;98,100,101;,
  3;100,98,97;,
  3;101,102,103;,
  3;102,101,100;,
  3;99,104,97;,
  3;104,99,105;,
  3;97,106,100;,
  3;106,97,104;,
  3;100,107,102;,
  3;107,100,106;,
  3;105,108,104;,
  3;108,105,109;,
  3;104,110,106;,
  3;110,104,108;,
  3;106,111,107;,
  3;111,106,110;;

  MeshNormals {
   112;
   -0.523218;-0.055465;-0.850392;,
   -0.819507;-0.011542;-0.572953;,
   -0.470465;-0.062838;-0.880178;,
   -0.824790;-0.009887;-0.565353;,
   -0.765861;0.016366;-0.642798;,
   -0.756881;0.014411;-0.653394;,
   -0.595040;0.047687;-0.802280;,
   -0.584767;0.046505;-0.809868;,
   -0.000000;-1.000000;-0.000000;,
   -0.000000;-1.000000;-0.000000;,
   -0.000000;-1.000000;-0.000000;,
   -0.000000;-1.000000;-0.000000;,
   -0.036537;-0.999254;-0.012515;,
   -0.037546;-0.998517;-0.039422;,
   0.083277;-0.742039;-0.665164;,
   0.091415;-0.716485;-0.691587;,
   0.378293;0.017596;-0.925519;,
   0.340874;0.006697;-0.940085;,
   0.349413;0.005399;-0.936953;,
   0.335066;0.019565;-0.941991;,
   0.362092;0.015177;-0.932019;,
   0.329772;-0.000000;-0.944061;,
   0.326913;-0.000000;-0.945055;,
   0.329772;-0.000000;-0.944061;,
   0.244461;-0.020701;-0.969438;,
   0.198114;-0.021985;-0.979932;,
   0.281453;0.011761;-0.959503;,
   0.266908;0.038789;-0.962941;,
   0.182254;-0.030269;-0.982785;,
   0.087626;-0.071965;-0.993551;,
   0.176701;0.001470;-0.984264;,
   0.173680;0.054040;-0.983318;,
   0.000000;1.000000;-0.000000;,
   0.000000;1.000000;0.000000;,
   0.000000;1.000000;-0.000000;,
   0.000000;1.000000;0.000000;,
   0.000000;1.000000;0.000000;,
   0.000992;0.999769;-0.021469;,
   0.017539;0.925001;-0.379559;,
   0.020012;0.901128;-0.433090;,
   -0.303195;0.021057;0.952696;,
   -0.322994;0.000709;0.946401;,
   -0.288553;-0.007789;0.957432;,
   -0.328045;0.020928;0.944430;,
   -0.316887;-0.011467;0.948394;,
   -0.317620;-0.002055;0.948216;,
   -0.322507;0.001786;0.946565;,
   -0.324028;0.005830;0.946030;,
   -0.290216;0.016521;0.956819;,
   -0.257912;-0.017768;0.966005;,
   -0.232773;-0.004681;0.972520;,
   -0.228672;0.000000;0.973503;,
   -0.227075;0.027479;0.973490;,
   -0.159013;-0.056599;0.985653;,
   -0.152013;0.014194;0.988277;,
   -0.131042;0.000000;0.991377;,
   0.592635;-0.060752;-0.803177;,
   0.616435;-0.031479;-0.786776;,
   0.590876;-0.060672;-0.804478;,
   0.618068;-0.030297;-0.785540;,
   0.639027;0.037323;-0.768278;,
   0.664992;0.030469;-0.746229;,
   0.856298;0.014749;-0.516271;,
   0.873461;0.008416;-0.486822;,
   -0.000000;-1.000000;-0.000000;,
   -0.000000;-1.000000;0.000000;,
   -0.000000;-1.000000;-0.000000;,
   -0.000000;-1.000000;0.000000;,
   -0.000000;-1.000000;0.000000;,
   -0.000000;-1.000000;0.000000;,
   -0.000000;-1.000000;0.000000;,
   -0.000000;-1.000000;0.000000;,
   0.406901;-0.023466;0.913171;,
   0.434271;-0.001049;0.900782;,
   0.392455;0.008490;0.919732;,
   0.438557;-0.023432;0.898398;,
   0.426357;0.013075;0.904461;,
   0.421426;0.002521;0.906859;,
   0.432848;-0.002600;0.901463;,
   0.430145;-0.008621;0.902719;,
   0.457561;-0.005200;0.889163;,
   0.405440;0.025891;0.913755;,
   0.432932;-0.008671;0.901385;,
   0.378130;0.000000;0.925753;,
   0.419320;0.015519;0.907706;,
   0.325801;0.083374;0.941755;,
   0.439406;-0.043007;0.897258;,
   0.362829;-0.033285;0.931261;,
   0.000000;1.000000;-0.000000;,
   0.013012;0.999865;-0.010016;,
   0.000000;1.000000;-0.000000;,
   0.010043;0.999696;-0.022521;,
   -0.073082;0.970707;-0.228882;,
   -0.077318;0.960837;-0.266109;,
   -0.106406;0.935584;-0.336690;,
   -0.113973;0.932122;-0.343742;,
   -0.505209;-0.044166;-0.861866;,
   -0.443516;0.000225;-0.896267;,
   -0.464833;0.021717;-0.885132;,
   -0.473358;-0.054739;-0.879168;,
   -0.446272;-0.000730;-0.894897;,
   -0.521642;-0.021810;-0.852886;,
   -0.460456;-0.047640;-0.886403;,
   -0.447633;-0.000000;-0.894217;,
   -0.449765;-0.017379;-0.892978;,
   -0.452218;-0.045635;-0.890740;,
   -0.408141;-0.005192;-0.912904;,
   -0.367828;-0.021184;-0.929653;,
   -0.491959;-0.027664;-0.870179;,
   -0.578276;-0.113610;-0.807892;,
   -0.472257;-0.047187;-0.880197;,
   -0.382518;-0.034752;-0.923294;;
   108;
   3;0,1,2;,
   3;1,0,3;,
   3;3,4,1;,
   3;4,3,5;,
   3;5,6,4;,
   3;6,5,7;,
   3;8,9,10;,
   3;9,8,11;,
   3;11,12,9;,
   3;12,11,13;,
   3;13,14,12;,
   3;14,13,15;,
   3;16,17,18;,
   3;17,16,19;,
   3;18,20,21;,
   3;20,18,17;,
   3;21,22,23;,
   3;22,21,20;,
   3;19,24,17;,
   3;24,19,25;,
   3;17,26,20;,
   3;26,17,24;,
   3;20,27,22;,
   3;27,20,26;,
   3;25,28,24;,
   3;28,25,29;,
   3;24,30,26;,
   3;30,24,28;,
   3;26,31,27;,
   3;31,26,30;,
   3;32,33,34;,
   3;33,32,35;,
   3;35,36,33;,
   3;36,35,37;,
   3;37,38,36;,
   3;38,37,39;,
   3;40,41,42;,
   3;41,40,43;,
   3;42,44,45;,
   3;44,42,41;,
   3;45,46,47;,
   3;46,45,44;,
   3;43,48,41;,
   3;48,43,49;,
   3;41,50,44;,
   3;50,41,48;,
   3;44,51,46;,
   3;51,44,50;,
   3;49,52,48;,
   3;52,49,53;,
   3;48,54,50;,
   3;54,48,52;,
   3;50,55,51;,
   3;55,50,54;,
   3;56,57,58;,
   3;57,56,59;,
   3;59,60,57;,
   3;60,59,61;,
   3;61,62,60;,
   3;62,61,63;,
   3;64,65,66;,
   3;65,64,67;,
   3;67,68,65;,
   3;68,67,69;,
   3;69,70,68;,
   3;70,69,71;,
   3;72,73,74;,
   3;73,72,75;,
   3;74,76,77;,
   3;76,74,73;,
   3;77,78,79;,
   3;78,77,76;,
   3;75,80,73;,
   3;80,75,81;,
   3;73,82,76;,
   3;82,73,80;,
   3;76,83,78;,
   3;83,76,82;,
   3;81,84,80;,
   3;84,81,85;,
   3;80,86,82;,
   3;86,80,84;,
   3;82,87,83;,
   3;87,82,86;,
   3;88,89,90;,
   3;89,88,91;,
   3;91,92,89;,
   3;92,91,93;,
   3;93,94,92;,
   3;94,93,95;,
   3;96,97,98;,
   3;97,96,99;,
   3;98,100,101;,
   3;100,98,97;,
   3;101,102,103;,
   3;102,101,100;,
   3;99,104,97;,
   3;104,99,105;,
   3;97,106,100;,
   3;106,97,104;,
   3;100,107,102;,
   3;107,100,106;,
   3;105,108,104;,
   3;108,105,109;,
   3;104,110,106;,
   3;110,104,108;,
   3;106,111,107;,
   3;111,106,110;;
  }

  MeshMaterialList {
   1;
   108;
   0,
   0,
   0,
   0,
   0,
   0,
   0,
   0,
   0,
   0,
   0,
   0,
   0,
   0,
   0,
   0,
   0,
   0,
   0,
   0,
   0,
   0,
   0,
   0,
   0,
   0,
   0,
   0,
   0,
   0,
   0,
   0,
   0,
   0,
   0,
   0,
   0,
   0,
   0,
   0,
   0,
   0,
   0,
   0,
   0,
   0,
   0,
   0,
   0,
   0,
   0,
   0,
   0,
   0,
   0,
   0,
   0,
   0,
   0,
   0,
   0,
   0,
   0,
   0,
   0,
   0,
   0,
   0,
   0,
   0,
   0,
   0,
   0,
   0,
   0,
   0,
   0,
   0,
   0,
   0,
   0,
   0,
   0,
   0,
   0,
   0,
   0,
   0,
   0,
   0,
   0,
   0,
   0,
   0,
   0,
   0,
   0,
   0,
   0,
   0,
   0,
   0,
   0,
   0,
   0,
   0,
   0,
   0;
   { Mat_Magazine }
  }

  MeshTextureCoords c1 {
   112;
   0.916857;0.957177;,
   0.972381;0.648707;,
   0.972381;0.957177;,
   0.916857;0.648707;,
   0.972381;0.340237;,
   0.916857;0.340237;,
   0.972381;0.031767;,
   0.916857;0.031767;,
   0.806620;0.958568;,
   0.862145;0.650098;,
   0.862145;0.958568;,
   0.806620;0.650098;,
   0.862145;0.341628;,
   0.806620;0.341628;,
   0.862145;0.033158;,
   0.806620;0.033158;,
   0.390239;0.487487;,
   0.276843;0.332898;,
   0.390239;0.332898;,
   0.276843;0.487487;,
   0.276843;0.178310;,
   0.390239;0.178310;,
   0.276843;0.023721;,
   0.390239;0.023721;,
   0.163448;0.332898;,
   0.163448;0.487487;,
   0.163448;0.178310;,
   0.163448;0.023721;,
   0.050053;0.332898;,
   0.050053;0.487487;,
   0.050053;0.178310;,
   0.050053;0.023721;,
   0.807782;0.958284;,
   0.863307;0.649815;,
   0.863307;0.958284;,
   0.807782;0.649815;,
   0.863307;0.341344;,
   0.807782;0.341344;,
   0.863307;0.032875;,
   0.807782;0.032875;,
   0.052155;0.516526;,
   0.155157;0.660729;,
   0.052155;0.660729;,
   0.155157;0.516526;,
   0.155157;0.804932;,
   0.052155;0.804932;,
   0.155157;0.949135;,
   0.052155;0.949135;,
   0.258158;0.660729;,
   0.258158;0.516526;,
   0.258158;0.804932;,
   0.258158;0.949135;,
   0.361160;0.660729;,
   0.361160;0.516526;,
   0.361160;0.804932;,
   0.361160;0.949135;,
   0.924129;0.951570;,
   0.979653;0.643100;,
   0.979653;0.951570;,
   0.924129;0.643100;,
   0.979653;0.334630;,
   0.924128;0.334630;,
   0.979653;0.026160;,
   0.924128;0.026160;,
   0.807396;0.951570;,
   0.858855;0.643100;,
   0.858855;0.951570;,
   0.807396;0.643100;,
   0.858855;0.334630;,
   0.807396;0.334630;,
   0.858855;0.026160;,
   0.807396;0.026160;,
   0.710918;0.952469;,
   0.608018;0.805396;,
   0.710918;0.805396;,
   0.608018;0.952469;,
   0.608018;0.658324;,
   0.710918;0.658324;,
   0.608018;0.511252;,
   0.710918;0.511252;,
   0.505118;0.805396;,
   0.505117;0.952469;,
   0.505118;0.658324;,
   0.505118;0.511252;,
   0.402217;0.805396;,
   0.402217;0.952469;,
   0.402217;0.658324;,
   0.402217;0.511252;,
   0.918424;0.959492;,
   0.973508;0.651022;,
   0.973508;0.959492;,
   0.918424;0.651022;,
   0.973508;0.342552;,
   0.918424;0.342552;,
   0.973508;0.034082;,
   0.918423;0.034082;,
   0.402468;0.023913;,
   0.515864;0.178467;,
   0.402468;0.178467;,
   0.515864;0.023913;,
   0.515864;0.333020;,
   0.402468;0.333020;,
   0.515864;0.487574;,
   0.402468;0.487574;,
   0.629259;0.178467;,
   0.629259;0.023913;,
   0.629259;0.333020;,
   0.629259;0.487574;,
   0.742654;0.178467;,
   0.742654;0.023913;,
   0.742654;0.333020;,
   0.742654;0.487574;;
  }
 }
}