xof 0303txt 0032
template ColorRGBA {
 <35ff44e0-6c7c-11cf-8f52-0040333594a3>
 FLOAT red;
 FLOAT green;
 FLOAT blue;
 FLOAT alpha;
}

template ColorRGB {
 <d3e16e81-7835-11cf-8f52-0040333594a3>
 FLOAT red;
 FLOAT green;
 FLOAT blue;
}

template Material {
 <3d82ab4d-62da-11cf-ab39-0020af71e433>
 ColorRGBA faceColor;
 FLOAT power;
 ColorRGB specularColor;
 ColorRGB emissiveColor;
 [...]
}

template TextureFilename {
 <a42790e1-7810-11cf-8f52-0040333594a3>
 STRING filename;
}

template Frame {
 <3d82ab46-62da-11cf-ab39-0020af71e433>
 [...]
}

template Matrix4x4 {
 <f6f23f45-7686-11cf-8f52-0040333594a3>
 array FLOAT matrix[16];
}

template FrameTransformMatrix {
 <f6f23f41-7686-11cf-8f52-0040333594a3>
 Matrix4x4 frameMatrix;
}

template Vector {
 <3d82ab5e-62da-11cf-ab39-0020af71e433>
 FLOAT x;
 FLOAT y;
 FLOAT z;
}

template MeshFace {
 <3d82ab5f-62da-11cf-ab39-0020af71e433>
 DWORD nFaceVertexIndices;
 array DWORD faceVertexIndices[nFaceVertexIndices];
}

template Mesh {
 <3d82ab44-62da-11cf-ab39-0020af71e433>
 DWORD nVertices;
 array Vector vertices[nVertices];
 DWORD nFaces;
 array MeshFace faces[nFaces];
 [...]
}

template MeshNormals {
 <f6f23f43-7686-11cf-8f52-0040333594a3>
 DWORD nNormals;
 array Vector normals[nNormals];
 DWORD nFaceNormals;
 array MeshFace faceNormals[nFaceNormals];
}

template MeshMaterialList {
 <f6f23f42-7686-11cf-8f52-0040333594a3>
 DWORD nMaterials;
 DWORD nFaceIndexes;
 array DWORD faceIndexes[nFaceIndexes];
 [Material <3d82ab4d-62da-11cf-ab39-0020af71e433>]
}

template Coords2d {
 <f6f23f44-7686-11cf-8f52-0040333594a3>
 FLOAT u;
 FLOAT v;
}

template MeshTextureCoords {
 <f6f23f40-7686-11cf-8f52-0040333594a3>
 DWORD nTextureCoords;
 array Coords2d textureCoords[nTextureCoords];
}


Material _08_-_Default {
 1.000000;1.000000;1.000000;1.000000;;
 9.999999;
 0.000000;0.000000;0.000000;;
 0.000000;0.000000;0.000000;;

 TextureFilename {
  "PopBottle.png";
 }
}

Frame PopBottle {
 

 FrameTransformMatrix {
  1.000000,0.000000,0.000000,0.000000,0.000000,1.000000,0.000000,0.000000,0.000000,0.000000,1.000000,0.000000,0.000000,0.000000,0.000000,1.000000;;
 }

 Mesh PopBottle {
  98;
  0.037867;-0.033300;-0.003212;,
  0.026073;-0.018809;0.022568;,
  0.024528;-0.033300;0.019893;,
  0.040956;-0.018809;-0.003212;,
  -0.003695;-0.018809;0.022568;,
  -0.002151;-0.033300;0.019893;,
  -0.002151;-0.033300;0.019893;,
  -0.018579;-0.018809;-0.003212;,
  -0.015490;-0.033300;-0.003212;,
  -0.003695;-0.018809;0.022568;,
  -0.003695;-0.018809;-0.028991;,
  -0.002151;-0.033300;-0.026316;,
  0.026072;-0.018809;-0.028991;,
  0.024528;-0.033300;-0.026316;,
  0.026073;0.078736;0.022568;,
  0.040956;0.078736;-0.003212;,
  -0.003695;0.078736;0.022568;,
  -0.018579;0.078736;-0.003212;,
  -0.003695;0.078736;0.022568;,
  -0.003695;0.078736;-0.028991;,
  0.026073;0.078736;-0.028991;,
  0.040956;0.078736;-0.003212;,
  0.024555;0.081926;0.019940;,
  0.026073;0.078736;0.022568;,
  0.037922;0.081926;-0.003212;,
  -0.002178;0.081926;0.019940;,
  -0.003695;0.078736;0.022568;,
  -0.003695;0.078736;0.022568;,
  -0.015545;0.081926;-0.003212;,
  -0.018579;0.078736;-0.003212;,
  -0.002178;0.081926;0.019940;,
  -0.002178;0.081926;-0.026364;,
  -0.003695;0.078736;-0.028991;,
  0.024555;0.081926;-0.026364;,
  0.026073;0.078736;-0.028991;,
  0.026073;0.087457;0.022568;,
  0.040956;0.087457;-0.003212;,
  -0.003695;0.087457;0.022568;,
  -0.018579;0.087457;-0.003212;,
  -0.003695;0.087457;0.022568;,
  -0.003695;0.087457;-0.028991;,
  0.026073;0.087457;-0.028991;,
  0.040956;0.087457;-0.003212;,
  0.024883;0.112150;0.020508;,
  0.026073;0.087457;0.022568;,
  0.038577;0.112150;-0.003212;,
  -0.002506;0.112150;0.020508;,
  -0.003695;0.087457;0.022568;,
  -0.003695;0.087457;0.022568;,
  -0.016200;0.112150;-0.003212;,
  -0.018579;0.087457;-0.003212;,
  -0.002506;0.112150;0.020508;,
  -0.002506;0.112150;-0.026931;,
  -0.003695;0.087457;-0.028991;,
  0.024883;0.112150;-0.026931;,
  0.026073;0.087457;-0.028991;,
  0.020864;0.132442;0.013546;,
  0.030539;0.132442;-0.003212;,
  0.001514;0.132442;0.013546;,
  -0.008161;0.132442;-0.003212;,
  0.001514;0.132442;0.013546;,
  0.001514;0.132442;-0.019969;,
  0.020864;0.132442;-0.019969;,
  0.027664;-0.034098;-0.003212;,
  0.019426;-0.034098;0.011057;,
  0.019426;-0.034098;0.011057;,
  0.002951;-0.034098;0.011057;,
  0.002951;-0.034098;0.011057;,
  -0.005287;-0.034098;-0.003212;,
  -0.005287;-0.034098;-0.003212;,
  0.002951;-0.034098;-0.017480;,
  0.002951;-0.034098;-0.017480;,
  0.019426;-0.034098;-0.017480;,
  0.019426;-0.034098;-0.017480;,
  0.027664;-0.034098;-0.003212;,
  0.011189;-0.031079;-0.003212;,
  0.017470;0.144456;0.007667;,
  0.023751;0.144456;-0.003212;,
  0.004908;0.144456;0.007667;,
  -0.001373;0.144456;-0.003212;,
  0.004908;0.144456;0.007667;,
  0.004908;0.144456;-0.014091;,
  0.017470;0.144456;-0.014091;,
  0.023751;0.157906;-0.003212;,
  0.011189;0.159539;-0.003212;,
  0.017470;0.157906;0.007667;,
  0.004908;0.157906;0.007667;,
  0.004908;0.157906;0.007667;,
  -0.001373;0.157906;-0.003212;,
  0.004908;0.157906;-0.014091;,
  0.017470;0.157906;-0.014091;,
  0.023751;0.144456;-0.003212;,
  0.017470;0.144456;0.007667;,
  0.004908;0.144456;0.007667;,
  0.004908;0.144456;0.007667;,
  -0.001373;0.144456;-0.003212;,
  0.004908;0.144456;-0.014091;,
  0.017470;0.144456;-0.014091;;
  120;
  3;0,1,2;,
  3;1,0,3;,
  3;2,4,5;,
  3;4,2,1;,
  3;6,7,8;,
  3;7,6,9;,
  3;8,10,11;,
  3;10,8,7;,
  3;11,12,13;,
  3;12,11,10;,
  3;13,3,0;,
  3;3,13,12;,
  3;3,14,1;,
  3;14,3,15;,
  3;1,16,4;,
  3;16,1,14;,
  3;9,17,7;,
  3;17,9,18;,
  3;7,19,10;,
  3;19,7,17;,
  3;10,20,12;,
  3;20,10,19;,
  3;12,15,3;,
  3;15,12,20;,
  3;21,22,23;,
  3;22,21,24;,
  3;23,25,26;,
  3;25,23,22;,
  3;27,28,29;,
  3;28,27,30;,
  3;29,31,32;,
  3;31,29,28;,
  3;32,33,34;,
  3;33,32,31;,
  3;34,24,21;,
  3;24,34,33;,
  3;24,35,22;,
  3;35,24,36;,
  3;22,37,25;,
  3;37,22,35;,
  3;30,38,28;,
  3;38,30,39;,
  3;28,40,31;,
  3;40,28,38;,
  3;31,41,33;,
  3;41,31,40;,
  3;33,36,24;,
  3;36,33,41;,
  3;42,43,44;,
  3;43,42,45;,
  3;44,46,47;,
  3;46,44,43;,
  3;48,49,50;,
  3;49,48,51;,
  3;50,52,53;,
  3;52,50,49;,
  3;53,54,55;,
  3;54,53,52;,
  3;55,45,42;,
  3;45,55,54;,
  3;45,56,43;,
  3;56,45,57;,
  3;43,58,46;,
  3;58,43,56;,
  3;51,59,49;,
  3;59,51,60;,
  3;49,61,52;,
  3;61,49,59;,
  3;52,62,54;,
  3;62,52,61;,
  3;54,57,45;,
  3;57,54,62;,
  3;2,63,0;,
  3;63,2,64;,
  3;5,65,2;,
  3;65,5,66;,
  3;8,67,6;,
  3;67,8,68;,
  3;11,69,8;,
  3;69,11,70;,
  3;13,71,11;,
  3;71,13,72;,
  3;0,73,13;,
  3;73,0,74;,
  3;64,75,63;,
  3;66,75,65;,
  3;68,75,67;,
  3;70,75,69;,
  3;72,75,71;,
  3;74,75,73;,
  3;57,76,56;,
  3;76,57,77;,
  3;56,78,58;,
  3;78,56,76;,
  3;60,79,59;,
  3;79,60,80;,
  3;59,81,61;,
  3;81,59,79;,
  3;61,82,62;,
  3;82,61,81;,
  3;62,77,57;,
  3;77,62,82;,
  3;83,84,85;,
  3;85,84,86;,
  3;87,84,88;,
  3;88,84,89;,
  3;89,84,90;,
  3;90,84,83;,
  3;91,85,92;,
  3;85,91,83;,
  3;92,86,93;,
  3;86,92,85;,
  3;94,88,95;,
  3;88,94,87;,
  3;95,89,96;,
  3;89,95,88;,
  3;96,90,97;,
  3;90,96,89;,
  3;97,83,91;,
  3;83,97,90;;

  MeshNormals {
   98;
   0.745426;-0.666589;0.000000;,
   0.497417;-0.101518;0.861551;,
   0.372713;-0.666589;0.645557;,
   0.994834;-0.101518;-0.000000;,
   -0.497417;-0.101518;0.861551;,
   -0.372713;-0.666589;0.645557;,
   -0.372713;-0.666589;0.645557;,
   -0.994834;-0.101518;-0.000000;,
   -0.745426;-0.666589;-0.000000;,
   -0.497417;-0.101518;0.861551;,
   -0.497417;-0.101518;-0.861551;,
   -0.372713;-0.666589;-0.645557;,
   0.497417;-0.101518;-0.861551;,
   0.372713;-0.666589;-0.645557;,
   0.500000;-0.000000;0.866025;,
   1.000000;-0.000000;-0.000000;,
   -0.500000;-0.000000;0.866025;,
   -1.000000;-0.000000;-0.000000;,
   -0.500000;-0.000000;0.866025;,
   -0.500000;-0.000000;-0.866025;,
   0.500000;-0.000000;-0.866025;,
   0.724585;0.689185;0.000000;,
   0.493389;0.162071;0.854576;,
   0.362293;0.689185;0.627509;,
   0.986779;0.162070;0.000000;,
   -0.493390;0.162070;0.854576;,
   -0.362293;0.689185;0.627509;,
   -0.362293;0.689185;0.627509;,
   -0.986779;0.162070;-0.000000;,
   -0.724585;0.689186;-0.000000;,
   -0.493390;0.162070;0.854576;,
   -0.493390;0.162069;-0.854576;,
   -0.362292;0.689185;-0.627509;,
   0.493390;0.162069;-0.854576;,
   0.362293;0.689185;-0.627509;,
   0.438369;-0.480969;0.759277;,
   0.876737;-0.480970;0.000000;,
   -0.438369;-0.480969;0.759277;,
   -0.876737;-0.480970;-0.000000;,
   -0.438369;-0.480969;0.759277;,
   -0.438368;-0.480971;-0.759276;,
   0.438368;-0.480971;-0.759276;,
   0.995390;0.095909;0.000000;,
   0.487199;0.224828;0.843854;,
   0.497695;0.095909;0.862033;,
   0.974398;0.224828;-0.000000;,
   -0.487199;0.224828;0.843854;,
   -0.497695;0.095909;0.862033;,
   -0.497695;0.095909;0.862033;,
   -0.974399;0.224828;-0.000000;,
   -0.995390;0.095909;-0.000000;,
   -0.487199;0.224828;0.843854;,
   -0.487199;0.224828;-0.843854;,
   -0.497695;0.095909;-0.862033;,
   0.487199;0.224828;-0.843854;,
   0.497695;0.095909;-0.862033;,
   0.453111;0.422801;0.784812;,
   0.906223;0.422801;-0.000000;,
   -0.453111;0.422801;0.784812;,
   -0.906223;0.422801;-0.000000;,
   -0.453111;0.422801;0.784812;,
   -0.453111;0.422801;-0.784812;,
   0.453111;0.422801;-0.784812;,
   -0.008452;-0.999952;-0.004880;,
   -0.008452;-0.999952;-0.004880;,
   0.000000;-0.999952;-0.009759;,
   0.000000;-0.999952;-0.009759;,
   0.008452;-0.999952;-0.004880;,
   0.008452;-0.999952;-0.004880;,
   0.008452;-0.999952;0.004880;,
   0.008452;-0.999952;0.004880;,
   0.000000;-0.999952;0.009759;,
   0.000000;-0.999952;0.009759;,
   -0.008452;-0.999952;0.004880;,
   -0.008452;-0.999952;0.004880;,
   -0.000000;-1.000000;-0.000000;,
   0.435317;0.491931;0.753991;,
   0.870634;0.491931;-0.000000;,
   -0.435317;0.491931;0.753991;,
   -0.870634;0.491931;-0.000000;,
   -0.435317;0.491931;0.753991;,
   -0.435317;0.491931;-0.753991;,
   0.435317;0.491931;-0.753991;,
   0.820932;0.571026;-0.000000;,
   0.000000;1.000000;0.000000;,
   0.410466;0.571026;0.710948;,
   -0.410466;0.571026;0.710948;,
   -0.410466;0.571026;0.710948;,
   -0.820932;0.571026;-0.000000;,
   -0.410466;0.571026;-0.710948;,
   0.410466;0.571026;-0.710948;,
   1.000000;-0.000000;-0.000000;,
   0.500000;0.000000;0.866025;,
   -0.500000;-0.000000;0.866025;,
   -0.500000;-0.000000;0.866025;,
   -1.000000;-0.000000;-0.000000;,
   -0.500000;-0.000000;-0.866025;,
   0.500000;-0.000000;-0.866025;;
   120;
   3;0,1,2;,
   3;1,0,3;,
   3;2,4,5;,
   3;4,2,1;,
   3;6,7,8;,
   3;7,6,9;,
   3;8,10,11;,
   3;10,8,7;,
   3;11,12,13;,
   3;12,11,10;,
   3;13,3,0;,
   3;3,13,12;,
   3;3,14,1;,
   3;14,3,15;,
   3;1,16,4;,
   3;16,1,14;,
   3;9,17,7;,
   3;17,9,18;,
   3;7,19,10;,
   3;19,7,17;,
   3;10,20,12;,
   3;20,10,19;,
   3;12,15,3;,
   3;15,12,20;,
   3;21,22,23;,
   3;22,21,24;,
   3;23,25,26;,
   3;25,23,22;,
   3;27,28,29;,
   3;28,27,30;,
   3;29,31,32;,
   3;31,29,28;,
   3;32,33,34;,
   3;33,32,31;,
   3;34,24,21;,
   3;24,34,33;,
   3;24,35,22;,
   3;35,24,36;,
   3;22,37,25;,
   3;37,22,35;,
   3;30,38,28;,
   3;38,30,39;,
   3;28,40,31;,
   3;40,28,38;,
   3;31,41,33;,
   3;41,31,40;,
   3;33,36,24;,
   3;36,33,41;,
   3;42,43,44;,
   3;43,42,45;,
   3;44,46,47;,
   3;46,44,43;,
   3;48,49,50;,
   3;49,48,51;,
   3;50,52,53;,
   3;52,50,49;,
   3;53,54,55;,
   3;54,53,52;,
   3;55,45,42;,
   3;45,55,54;,
   3;45,56,43;,
   3;56,45,57;,
   3;43,58,46;,
   3;58,43,56;,
   3;51,59,49;,
   3;59,51,60;,
   3;49,61,52;,
   3;61,49,59;,
   3;52,62,54;,
   3;62,52,61;,
   3;54,57,45;,
   3;57,54,62;,
   3;2,63,0;,
   3;63,2,64;,
   3;5,65,2;,
   3;65,5,66;,
   3;8,67,6;,
   3;67,8,68;,
   3;11,69,8;,
   3;69,11,70;,
   3;13,71,11;,
   3;71,13,72;,
   3;0,73,13;,
   3;73,0,74;,
   3;64,75,63;,
   3;66,75,65;,
   3;68,75,67;,
   3;70,75,69;,
   3;72,75,71;,
   3;74,75,73;,
   3;57,76,56;,
   3;76,57,77;,
   3;56,78,58;,
   3;78,56,76;,
   3;60,79,59;,
   3;79,60,80;,
   3;59,81,61;,
   3;81,59,79;,
   3;61,82,62;,
   3;82,61,81;,
   3;62,77,57;,
   3;77,62,82;,
   3;83,84,85;,
   3;85,84,86;,
   3;87,84,88;,
   3;88,84,89;,
   3;89,84,90;,
   3;90,84,83;,
   3;91,85,92;,
   3;85,91,83;,
   3;92,86,93;,
   3;86,92,85;,
   3;94,88,95;,
   3;88,94,87;,
   3;95,89,96;,
   3;89,95,88;,
   3;96,90,97;,
   3;90,96,89;,
   3;97,83,91;,
   3;83,97,90;;
  }

  MeshMaterialList {
   1;
   120;
   0,
   0,
   0,
   0,
   0,
   0,
   0,
   0,
   0,
   0,
   0,
   0,
   0,
   0,
   0,
   0,
   0,
   0,
   0,
   0,
   0,
   0,
   0,
   0,
   0,
   0,
   0,
   0,
   0,
   0,
   0,
   0,
   0,
   0,
   0,
   0,
   0,
   0,
   0,
   0,
   0,
   0,
   0,
   0,
   0,
   0,
   0,
   0,
   0,
   0,
   0,
   0,
   0,
   0,
   0,
   0,
   0,
   0,
   0,
   0,
   0,
   0,
   0,
   0,
   0,
   0,
   0,
   0,
   0,
   0,
   0,
   0,
   0,
   0,
   0,
   0,
   0,
   0,
   0,
   0,
   0,
   0,
   0,
   0,
   0,
   0,
   0,
   0,
   0,
   0,
   0,
   0,
   0,
   0,
   0,
   0,
   0,
   0,
   0,
   0,
   0,
   0,
   0,
   0,
   0,
   0,
   0,
   0,
   0,
   0,
   0,
   0,
   0,
   0,
   0,
   0,
   0,
   0,
   0,
   0;
   { _08_-_Default }
  }

  MeshTextureCoords c1 {
   98;
   0.377508;0.863908;,
   0.467860;0.821270;,
   0.467886;0.863564;,
   0.377508;0.821063;,
   0.551074;0.821186;,
   0.546650;0.863151;,
   0.036472;0.863908;,
   0.118229;0.820480;,
   0.118229;0.863908;,
   0.035196;0.820871;,
   0.204655;0.820480;,
   0.204655;0.863908;,
   0.292579;0.820365;,
   0.291082;0.863908;,
   0.463935;0.549913;,
   0.377508;0.549913;,
   0.550361;0.549913;,
   0.118229;0.549913;,
   0.031802;0.549913;,
   0.204655;0.549913;,
   0.291082;0.549913;,
   0.377508;0.549913;,
   0.463935;0.541522;,
   0.463935;0.549913;,
   0.377508;0.541522;,
   0.550361;0.541522;,
   0.550361;0.549913;,
   0.031802;0.549913;,
   0.118229;0.541522;,
   0.118229;0.549913;,
   0.031802;0.541522;,
   0.204655;0.541522;,
   0.204655;0.549913;,
   0.291082;0.541522;,
   0.291082;0.549913;,
   0.463935;0.526975;,
   0.377508;0.526975;,
   0.550362;0.526975;,
   0.118229;0.526975;,
   0.031802;0.526975;,
   0.204655;0.526975;,
   0.291082;0.526975;,
   0.377508;0.526975;,
   0.463935;0.462027;,
   0.463935;0.526975;,
   0.377508;0.462027;,
   0.550361;0.462027;,
   0.550362;0.526975;,
   0.031802;0.526975;,
   0.118229;0.462027;,
   0.118229;0.526975;,
   0.031802;0.462027;,
   0.204655;0.462027;,
   0.204655;0.526975;,
   0.291082;0.462027;,
   0.291082;0.526975;,
   0.463582;0.399800;,
   0.379746;0.399800;,
   0.544199;0.399800;,
   0.119836;0.399800;,
   0.034389;0.399800;,
   0.205633;0.399800;,
   0.291080;0.399800;,
   0.378360;0.887400;,
   0.468415;0.885417;,
   0.468415;0.885417;,
   0.538021;0.887109;,
   0.036784;0.884370;,
   0.120200;0.885884;,
   0.120200;0.885884;,
   0.204655;0.886771;,
   0.204655;0.886771;,
   0.291933;0.886975;,
   0.291933;0.886975;,
   0.378360;0.887400;,
   0.292105;0.926297;,
   0.464387;0.352103;,
   0.378941;0.352103;,
   0.542590;0.352103;,
   0.119836;0.352103;,
   0.034577;0.352040;,
   0.205633;0.352103;,
   0.291080;0.352103;,
   0.381703;0.205671;,
   0.293019;0.123452;,
   0.464233;0.204685;,
   0.544430;0.204714;,
   0.037295;0.204745;,
   0.121228;0.204011;,
   0.207381;0.203494;,
   0.291980;0.205804;,
   0.379888;0.302115;,
   0.464968;0.304209;,
   0.544213;0.306822;,
   0.033709;0.304627;,
   0.119303;0.303120;,
   0.208223;0.304680;,
   0.292396;0.303231;;
  }
 }
}