xof 0303txt 0032
template ColorRGBA {
 <35ff44e0-6c7c-11cf-8f52-0040333594a3>
 FLOAT red;
 FLOAT green;
 FLOAT blue;
 FLOAT alpha;
}

template ColorRGB {
 <d3e16e81-7835-11cf-8f52-0040333594a3>
 FLOAT red;
 FLOAT green;
 FLOAT blue;
}

template Material {
 <3d82ab4d-62da-11cf-ab39-0020af71e433>
 ColorRGBA faceColor;
 FLOAT power;
 ColorRGB specularColor;
 ColorRGB emissiveColor;
 [...]
}

template TextureFilename {
 <a42790e1-7810-11cf-8f52-0040333594a3>
 STRING filename;
}

template Frame {
 <3d82ab46-62da-11cf-ab39-0020af71e433>
 [...]
}

template Matrix4x4 {
 <f6f23f45-7686-11cf-8f52-0040333594a3>
 array FLOAT matrix[16];
}

template FrameTransformMatrix {
 <f6f23f41-7686-11cf-8f52-0040333594a3>
 Matrix4x4 frameMatrix;
}

template Vector {
 <3d82ab5e-62da-11cf-ab39-0020af71e433>
 FLOAT x;
 FLOAT y;
 FLOAT z;
}

template MeshFace {
 <3d82ab5f-62da-11cf-ab39-0020af71e433>
 DWORD nFaceVertexIndices;
 array DWORD faceVertexIndices[nFaceVertexIndices];
}

template Mesh {
 <3d82ab44-62da-11cf-ab39-0020af71e433>
 DWORD nVertices;
 array Vector vertices[nVertices];
 DWORD nFaces;
 array MeshFace faces[nFaces];
 [...]
}

template MeshNormals {
 <f6f23f43-7686-11cf-8f52-0040333594a3>
 DWORD nNormals;
 array Vector normals[nNormals];
 DWORD nFaceNormals;
 array MeshFace faceNormals[nFaceNormals];
}

template MeshMaterialList {
 <f6f23f42-7686-11cf-8f52-0040333594a3>
 DWORD nMaterials;
 DWORD nFaceIndexes;
 array DWORD faceIndexes[nFaceIndexes];
 [Material <3d82ab4d-62da-11cf-ab39-0020af71e433>]
}

template Coords2d {
 <f6f23f44-7686-11cf-8f52-0040333594a3>
 FLOAT u;
 FLOAT v;
}

template MeshTextureCoords {
 <f6f23f40-7686-11cf-8f52-0040333594a3>
 DWORD nTextureCoords;
 array Coords2d textureCoords[nTextureCoords];
}

template XSkinMeshHeader {
 <3cf169ce-ff7c-44ab-93c0-f78f62d172e2>
 WORD nMaxSkinWeightsPerVertex;
 WORD nMaxSkinWeightsPerFace;
 WORD nBones;
}

template SkinWeights {
 <6f0d123b-bad2-4167-a0d0-80224f25fabb>
 STRING transformNodeName;
 DWORD nWeights;
 array DWORD vertexIndices[nWeights];
 array FLOAT weights[nWeights];
 Matrix4x4 matrixOffset;
}

template AnimTicksPerSecond {
 <9e415a43-7ba6-4a73-8743-b73d47e88476>
 DWORD AnimTicksPerSecond;
}

template Animation {
 <3d82ab4f-62da-11cf-ab39-0020af71e433>
 [...]
}

template AnimationSet {
 <3d82ab50-62da-11cf-ab39-0020af71e433>
 [Animation <3d82ab4f-62da-11cf-ab39-0020af71e433>]
}

template FloatKeys {
 <10dd46a9-775b-11cf-8f52-0040333594a3>
 DWORD nValues;
 array FLOAT values[nValues];
}

template TimedFloatKeys {
 <f406b180-7b3b-11cf-8f52-0040333594a3>
 DWORD time;
 FloatKeys tfkeys;
}

template AnimationKey {
 <10dd46a8-775b-11cf-8f52-0040333594a3>
 DWORD keyType;
 DWORD nKeys;
 array TimedFloatKeys keys[nKeys];
}


Material Material__125 {
 1.000000;1.000000;1.000000;1.000000;;
 9.999999;
 0.000000;0.000000;0.000000;;
 0.000000;0.000000;0.000000;;

 TextureFilename {
  "GasCan.png";
 }
}

Frame Dummy01 {
 

 FrameTransformMatrix {
  1.000000,0.000000,0.000000,0.000000,0.000000,-0.000000,-1.000000,0.000000,0.000000,1.000000,-0.000000,0.000000,0.000000,0.000000,0.000000,1.000000;;
 }

 Frame Bip01 {
  

  FrameTransformMatrix {
   -0.087155,0.982405,-0.165183,0.000000,-0.000001,0.165814,0.986157,0.000000,0.996195,0.085949,-0.014450,0.000000,-0.010000,-0.012284,0.490453,1.000000;;
  }

  Frame Bip01_Pelvis {
   

   FrameTransformMatrix {
    0.000000,1.000000,-0.000001,0.000000,-0.000001,0.000001,1.000000,0.000000,1.000000,0.000000,0.000001,0.000000,0.000000,0.000000,0.000000,1.000000;;
   }

   Frame Bip01_Spine {
    

    FrameTransformMatrix {
     0.984686,0.000002,-0.174337,0.000000,-0.000001,1.000000,0.000004,0.000000,0.174337,-0.000004,0.984686,0.000000,0.051619,0.000000,-0.000083,1.000000;;
    }

    Frame Bip01_Spine1 {
     

     FrameTransformMatrix {
      0.997819,0.052687,0.039774,0.000000,-0.044862,0.983198,-0.176942,0.000000,-0.048428,0.174771,0.983417,0.000000,0.106484,-0.000015,-0.000083,1.000000;;
     }

     Frame Bip01_Neck {
      

      FrameTransformMatrix {
       0.966067,-0.020835,0.257451,0.000000,0.025191,0.999590,-0.013632,0.000000,-0.257061,0.019655,0.966195,0.000000,0.130511,-0.000001,0.004626,1.000000;;
      }

      Frame Bip01_Head {
       

       FrameTransformMatrix {
        0.989321,-0.051753,-0.136255,0.000000,0.064251,0.993958,0.088989,0.000000,0.130826,-0.096793,0.986669,0.000000,0.033674,-0.000000,-0.000000,1.000000;;
       }

       Frame Bip01_HeadNub {
        

        FrameTransformMatrix {
         1.000000,-0.000000,-0.000000,0.000000,-0.000000,1.000000,0.000000,0.000000,0.000000,-0.000000,1.000000,0.000000,0.169824,0.000000,0.000000,1.000000;;
        }
       }
      }

      Frame Bip01_L_Clavicle {
       

       FrameTransformMatrix {
        -0.205975,0.976135,0.068811,0.000000,0.943873,0.216738,-0.249254,0.000000,-0.258220,0.013609,-0.965990,0.000000,-0.024734,0.015166,0.002017,1.000000;;
       }

       Frame Bip01_L_UpperArm {
        

        FrameTransformMatrix {
         0.385871,-0.777669,0.496320,0.000000,0.922466,0.332598,-0.196046,0.000000,-0.012616,0.533487,0.845714,0.000000,0.087086,-0.000000,-0.000000,1.000000;;
        }

        Frame Bip01_L_Forearm {
         

         FrameTransformMatrix {
          0.943939,0.000000,-0.330119,0.000000,0.000000,1.000000,-0.000000,0.000000,0.330119,-0.000000,0.943939,0.000000,0.137062,0.000000,0.000000,1.000000;;
         }

         Frame Bip01_L_Hand {
          

          FrameTransformMatrix {
           1.000000,-0.000000,0.000000,0.000000,0.000000,0.000796,1.000000,0.000000,0.000000,-1.000000,0.000796,0.000000,0.137062,0.000000,0.000000,1.000000;;
          }

          Frame Bip01_L_Finger0 {
           

           FrameTransformMatrix {
            0.690342,-0.181727,0.700288,0.000000,0.558537,0.749101,-0.356210,0.000000,-0.459853,0.637043,0.618637,0.000000,0.057681,-0.023605,-0.000272,1.000000;;
           }

           Frame Bip01_L_Finger0Nub {
            

            FrameTransformMatrix {
             1.000000,0.000000,0.000000,0.000000,0.000000,1.000000,0.000000,0.000000,-0.000000,0.000000,1.000000,0.000000,0.029435,-0.000000,-0.000000,1.000000;;
            }
           }
          }

          Frame Bip01_L_Finger1 {
           

           FrameTransformMatrix {
            0.728079,-0.000546,0.685493,0.000000,0.000000,1.000000,0.000796,0.000000,-0.685493,-0.000580,0.728079,0.000000,0.084102,0.000000,0.000000,1.000000;;
           }

           Frame Bip01_L_Finger1Nub {
            

            FrameTransformMatrix {
             1.000000,0.000000,0.000000,0.000000,-0.000000,1.000000,-0.000000,0.000000,-0.000000,0.000000,1.000000,0.000000,0.047988,0.000000,-0.000000,1.000000;;
            }
           }
          }
         }
        }
       }
      }

      Frame Bip01_R_Clavicle {
       

       FrameTransformMatrix {
        -0.028509,-0.999573,-0.006461,0.000000,-0.965665,0.025871,0.258498,0.000000,-0.258220,0.013609,-0.965990,0.000000,-0.024080,-0.016250,0.001399,1.000000;;
       }

       Frame Bip01_R_UpperArm {
        

        FrameTransformMatrix {
         0.221390,0.975047,0.016433,0.000000,-0.974986,0.221654,-0.016512,0.000000,-0.019742,-0.012366,0.999729,0.000000,0.087086,0.000000,0.000000,1.000000;;
        }

        Frame Bip01_R_Forearm {
         

         FrameTransformMatrix {
          0.915660,-0.000000,-0.401954,0.000000,-0.000000,1.000000,-0.000000,0.000000,0.401954,-0.000000,0.915660,0.000000,0.137062,0.000000,0.000000,1.000000;;
         }

         Frame Bip01_R_Hand {
          

          FrameTransformMatrix {
           0.975195,-0.000000,-0.221346,0.000000,-0.221346,0.000796,-0.975195,0.000000,0.000176,1.000000,0.000777,0.000000,0.137062,-0.000000,0.000000,1.000000;;
          }

          Frame Bip01_R_Finger0 {
           

           FrameTransformMatrix {
            0.417774,-0.116941,0.900994,0.000000,-0.558537,0.749101,0.356210,0.000000,-0.716591,-0.652054,0.247639,0.000000,0.057681,0.023605,-0.000272,1.000000;;
           }

           Frame Bip01_R_Finger0Nub {
            

            FrameTransformMatrix {
             -1.000000,-0.000000,0.000000,0.000000,-0.000000,1.000000,0.000000,0.000000,-0.000000,0.000000,-1.000000,0.000000,0.029435,-0.000000,0.000000,1.000000;;
            }
           }
          }

          Frame Bip01_R_Finger1 {
           

           FrameTransformMatrix {
            0.352436,0.000745,0.935835,0.000000,0.000000,1.000000,-0.000796,0.000000,-0.935836,0.000281,0.352436,0.000000,0.084102,0.000000,0.000000,1.000000;;
           }

           Frame Bip01_R_Finger1Nub {
            

            FrameTransformMatrix {
             -1.000000,0.000000,0.000000,0.000000,0.000000,1.000000,-0.000000,0.000000,0.000000,-0.000000,-1.000000,0.000000,0.047988,0.000000,0.000000,1.000000;;
            }
           }
          }
         }
        }
       }
      }
     }

     Frame Bip01_BackPack {
      

      FrameTransformMatrix {
       0.180560,0.080500,-0.980264,0.000000,0.047560,0.994764,0.090451,0.000000,0.982413,-0.062954,0.175786,0.000000,0.063697,0.000003,-0.088856,1.000000;;
      }

      Frame Bip01_BackPackNub {
       

       FrameTransformMatrix {
        0.000796,0.000003,1.000000,0.000000,0.000000,-1.000000,0.000003,0.000000,1.000000,-0.000000,-0.000796,0.000000,0.053240,0.000000,0.000000,1.000000;;
       }
      }
     }
    }

    Frame Bip01_L_Thigh {
     

     FrameTransformMatrix {
      -0.888504,0.030427,0.457858,0.000000,-0.032107,-0.999476,0.004114,0.000000,0.457744,-0.011045,0.889016,0.000000,-0.050843,0.055225,-0.008917,1.000000;;
     }

     Frame Bip01_L_Calf {
      

      FrameTransformMatrix {
       0.942235,-0.000000,-0.334952,0.000000,-0.000000,1.000000,-0.000000,0.000000,0.334952,-0.000000,0.942235,0.000000,0.237500,0.000000,-0.000000,1.000000;;
      }

      Frame Bip01_L_Foot {
       

       FrameTransformMatrix {
        0.924325,-0.026487,0.380687,0.000000,-0.068962,0.969570,0.234901,0.000000,-0.375325,-0.243378,0.894371,0.000000,0.206841,0.000000,0.000000,1.000000;;
       }

       Frame Bip01_L_Toe0 {
        

        FrameTransformMatrix {
         0.000000,0.000000,1.000000,0.000000,0.000000,1.000000,-0.000000,0.000000,-1.000000,0.000000,0.000000,0.000000,0.065373,0.000000,0.066450,1.000000;;
        }

        Frame Bip01_L_Toe0Nub {
         

         FrameTransformMatrix {
          -1.000000,0.000000,0.000000,0.000000,0.000000,1.000000,0.000000,0.000000,0.000000,0.000000,-1.000000,0.000000,0.006735,-0.000000,-0.000000,1.000000;;
         }
        }
       }
      }
     }
    }

    Frame Bip01_R_Thigh {
     

     FrameTransformMatrix {
      -0.996965,0.030321,-0.071704,0.000000,-0.029454,-0.999480,-0.013113,0.000000,-0.072065,-0.010961,0.997340,0.000000,-0.050843,-0.055225,-0.008917,1.000000;;
     }

     Frame Bip01_R_Calf {
      

      FrameTransformMatrix {
       0.730239,0.000000,-0.683192,0.000000,0.000000,1.000000,0.000000,0.000000,0.683192,0.000000,0.730239,0.000000,0.237500,0.000000,0.000000,1.000000;;
      }

      Frame Bip01_R_Foot {
       

       FrameTransformMatrix {
        0.991957,0.087165,-0.091782,0.000000,-0.093276,0.993546,-0.064539,0.000000,0.085565,0.072581,0.993685,0.000000,0.206841,0.000000,0.000000,1.000000;;
       }

       Frame Bip01_R_Toe0 {
        

        FrameTransformMatrix {
         0.000000,0.000000,1.000000,0.000000,0.000000,1.000000,-0.000000,0.000000,-1.000000,0.000000,0.000000,0.000000,0.065373,0.000000,0.066450,1.000000;;
        }

        Frame Bip01_R_Toe0Nub {
         

         FrameTransformMatrix {
          1.000000,0.000000,0.000000,0.000000,0.000000,1.000000,-0.000000,0.000000,-0.000000,-0.000000,1.000000,0.000000,0.006735,-0.000000,-0.000000,1.000000;;
         }
        }
       }
      }
     }
    }
   }

   Frame Bip01_DressFront {
    

    FrameTransformMatrix {
     -0.880185,-0.088339,0.466338,0.000000,0.121847,0.907542,0.401896,0.000000,-0.458725,0.410564,-0.788041,0.000000,-0.043935,0.001339,0.061057,1.000000;;
    }

    Frame Bip01_DressFront02 {
     

     FrameTransformMatrix {
      0.912593,0.000001,0.408870,0.000000,-0.000001,1.000000,-0.000000,0.000000,-0.408870,-0.000000,0.912593,0.000000,0.183378,-0.000000,-0.000120,1.000000;;
     }

     Frame Bip01_DressFrontNub {
      

      FrameTransformMatrix {
       0.000796,0.000003,1.000000,0.000000,0.000000,-1.000000,0.000003,0.000000,1.000000,0.000000,-0.000796,0.000000,0.165302,0.000000,0.000000,1.000000;;
      }
     }
    }
   }

   Frame Bip01_DressBack {
    

    FrameTransformMatrix {
     -0.886023,0.038029,0.462080,0.000000,0.191625,0.937561,0.290274,0.000000,-0.422190,0.345735,-0.837988,0.000000,-0.047673,-0.000048,-0.078302,1.000000;;
    }

    Frame Bip01_DressBack02 {
     

     FrameTransformMatrix {
      0.936852,0.174932,-0.302833,0.000000,-0.166408,0.984581,0.053939,0.000000,0.307600,-0.000139,0.951516,0.000000,0.176125,0.000000,-0.000103,1.000000;;
     }

     Frame Bip01_DressBackNub {
      

      FrameTransformMatrix {
       0.000796,0.000003,1.000000,0.000000,0.000000,-1.000000,0.000003,0.000000,1.000000,0.000000,-0.000796,0.000000,0.136508,0.000000,0.000000,1.000000;;
      }
     }
    }
   }
  }

  Frame Bip01_Prop1 {
   

   FrameTransformMatrix {
    -0.233929,-0.108090,0.966227,0.000000,0.687222,0.684611,0.242967,0.000000,-0.687752,0.720849,-0.085868,0.000000,0.076452,-0.048658,-0.145664,1.000000;;
   }
  }

  Frame Bip01_Prop2 {
   

   FrameTransformMatrix {
    -0.163643,-0.967062,0.194966,0.000000,0.985576,-0.168906,-0.010564,0.000000,0.043147,0.190425,0.980753,0.000000,-0.138405,-0.102098,0.114818,1.000000;;
   }
  }
 }
}

Frame Translation_Data {
 

 FrameTransformMatrix {
  -0.000000,0.000000,-1.000000,0.000000,-1.000000,-0.000000,0.000000,0.000000,-0.000000,1.000000,0.000000,0.000000,0.000000,-0.000000,0.000000,1.000000;;
 }
}

Frame GasCan_RHand {
 

 FrameTransformMatrix {
  1.000000,0.000000,0.000000,0.000000,0.000000,1.000000,0.000000,0.000000,0.000000,0.000000,1.000000,0.000000,0.000000,0.000000,0.000000,1.000000;;
 }

 Mesh GasCan_RHand {
  137;
  -0.444225;0.664253;-0.017704;,
  -0.460062;0.705770;0.073502;,
  -0.441264;0.674500;0.076318;,
  -0.463023;0.695523;-0.020520;,
  -0.475274;0.717713;0.091812;,
  -0.466495;0.704372;0.100914;,
  -0.479403;0.721533;0.072393;,
  -0.482365;0.711286;-0.021629;,
  -0.479672;0.702493;-0.047828;,
  -0.471386;0.687447;-0.054374;,
  -0.444225;0.664253;-0.017704;,
  -0.443809;0.642836;-0.042455;,
  -0.452588;0.656177;-0.051558;,
  -0.439432;0.639870;-0.015197;,
  -0.436471;0.650117;0.078824;,
  -0.441264;0.674500;0.076318;,
  -0.439410;0.658055;0.097184;,
  -0.447697;0.673102;0.103731;,
  -0.496124;0.714039;0.100794;,
  -0.474309;0.679537;0.115075;,
  -0.501963;0.719442;0.073331;,
  -0.504925;0.709195;-0.020690;,
  -0.501015;0.697114;-0.054495;,
  -0.479897;0.660200;-0.062344;,
  -0.471386;0.687447;-0.054374;,
  -0.479897;0.660200;-0.062344;,
  -0.458083;0.625698;-0.048063;,
  -0.451996;0.621150;-0.012761;,
  -0.449034;0.631397;0.081260;,
  -0.453191;0.642623;0.107226;,
  -0.474309;0.679537;0.115075;,
  -0.466495;0.704372;0.100914;,
  -0.556038;0.678540;0.106550;,
  -0.534223;0.644038;0.120831;,
  -0.561878;0.683943;0.079088;,
  -0.564839;0.673695;-0.014934;,
  -0.560929;0.661615;-0.048738;,
  -0.539811;0.624701;-0.056588;,
  -0.517997;0.590199;-0.042307;,
  -0.539811;0.624701;-0.056588;,
  -0.511910;0.585650;-0.007005;,
  -0.508948;0.595898;0.087017;,
  -0.513105;0.607124;0.112982;,
  -0.534223;0.644038;0.120831;,
  -0.570312;0.661402;0.100943;,
  -0.552133;0.632426;0.111453;,
  -0.574441;0.665223;0.081524;,
  -0.577402;0.654975;-0.012498;,
  -0.574710;0.646183;-0.038697;,
  -0.557024;0.615501;-0.043835;,
  -0.538846;0.586525;-0.033325;,
  -0.557024;0.615501;-0.043835;,
  -0.534470;0.583559;-0.006066;,
  -0.531509;0.593807;0.087955;,
  -0.534448;0.601745;0.106315;,
  -0.552133;0.632426;0.111453;,
  -0.569648;0.640840;0.084030;,
  -0.572610;0.630592;-0.009991;,
  -0.553811;0.599322;-0.007175;,
  -0.572610;0.630592;-0.009991;,
  -0.550850;0.609570;0.086846;,
  -0.569648;0.640840;0.084030;,
  -0.550850;0.609570;0.086846;,
  -0.553811;0.599322;-0.007175;,
  -0.444225;0.664253;-0.017704;,
  -0.453181;0.695557;-0.017189;,
  -0.463023;0.695523;-0.020520;,
  -0.439811;0.673316;-0.015186;,
  -0.460859;0.689762;-0.050185;,
  -0.471386;0.687447;-0.054374;,
  -0.445916;0.664903;-0.047947;,
  -0.452588;0.656177;-0.051558;,
  -0.439811;0.673316;-0.015186;,
  -0.444225;0.664253;-0.017704;,
  -0.460062;0.705770;0.073502;,
  -0.427115;0.692703;0.069702;,
  -0.441264;0.674500;0.076318;,
  -0.436877;0.708941;0.068240;,
  -0.441264;0.674500;0.076318;,
  -0.419847;0.701755;0.073507;,
  -0.447697;0.673102;0.103731;,
  -0.427115;0.692703;0.069702;,
  -0.425799;0.711655;0.072616;,
  -0.466495;0.704372;0.100914;,
  -0.428021;0.703398;0.000406;,
  -0.422436;0.694108;0.001243;,
  -0.439779;0.700455;0.001222;,
  -0.430637;0.685248;0.002592;,
  -0.430637;0.685248;0.002592;,
  -0.443762;0.672477;-0.026149;,
  -0.425015;0.695352;-0.038364;,
  -0.446482;0.683935;-0.021848;,
  -0.422295;0.683895;-0.042664;,
  -0.446482;0.683935;-0.021848;,
  -0.433450;0.702450;-0.044335;,
  -0.454917;0.691032;-0.027820;,
  -0.425015;0.695352;-0.038364;,
  -0.439164;0.698090;-0.054607;,
  -0.460631;0.686672;-0.038091;,
  -0.436444;0.686632;-0.058907;,
  -0.457911;0.675214;-0.042391;,
  -0.428010;0.679535;-0.052936;,
  -0.449476;0.668117;-0.036420;,
  -0.427388;0.693487;-0.043238;,
  -0.425910;0.687260;-0.045575;,
  -0.431972;0.697344;-0.046483;,
  -0.427388;0.693487;-0.043238;,
  -0.435078;0.694975;-0.052065;,
  -0.433599;0.688748;-0.054402;,
  -0.429015;0.684891;-0.051157;,
  -0.425910;0.687260;-0.045575;,
  -0.388949;0.713868;-0.073516;,
  -0.427388;0.693487;-0.043238;,
  -0.388664;0.707019;-0.074804;,
  -0.427388;0.693487;-0.043238;,
  -0.394726;0.717103;-0.075712;,
  -0.431972;0.697344;-0.046483;,
  -0.388949;0.713868;-0.073516;,
  -0.400217;0.713488;-0.079196;,
  -0.435078;0.694975;-0.052065;,
  -0.399932;0.706638;-0.080485;,
  -0.433599;0.688748;-0.054402;,
  -0.394155;0.703404;-0.078288;,
  -0.429015;0.684891;-0.051157;,
  -0.382691;0.715186;-0.100659;,
  -0.395174;0.714670;-0.099733;,
  -0.388873;0.718376;-0.100653;,
  -0.395293;0.707776;-0.098818;,
  -0.389112;0.704586;-0.098825;,
  -0.382811;0.708291;-0.099745;,
  -0.382691;0.715186;-0.100659;,
  -0.382811;0.708291;-0.099745;,
  -0.388873;0.718376;-0.100653;,
  -0.382691;0.715186;-0.100659;,
  -0.395174;0.714670;-0.099733;,
  -0.395293;0.707776;-0.098818;,
  -0.389112;0.704586;-0.098825;;
  176;
  3;0,1,2;,
  3;1,0,3;,
  3;1,4,5;,
  3;1,6,4;,
  3;7,1,3;,
  3;1,7,6;,
  3;3,8,7;,
  3;3,9,8;,
  3;10,11,12;,
  3;10,13,11;,
  3;14,10,15;,
  3;10,14,13;,
  3;15,16,14;,
  3;15,17,16;,
  3;18,5,4;,
  3;5,18,19;,
  3;20,4,6;,
  3;4,20,18;,
  3;21,6,7;,
  3;6,21,20;,
  3;22,7,8;,
  3;7,22,21;,
  3;23,8,9;,
  3;8,23,22;,
  3;24,12,25;,
  3;26,12,11;,
  3;12,26,25;,
  3;27,11,13;,
  3;11,27,26;,
  3;28,13,14;,
  3;13,28,27;,
  3;29,14,16;,
  3;14,29,28;,
  3;30,16,17;,
  3;16,30,29;,
  3;17,31,30;,
  3;32,19,18;,
  3;19,32,33;,
  3;34,18,20;,
  3;18,34,32;,
  3;35,20,21;,
  3;20,35,34;,
  3;36,21,22;,
  3;21,36,35;,
  3;37,22,23;,
  3;22,37,36;,
  3;38,25,26;,
  3;25,38,39;,
  3;40,26,27;,
  3;26,40,38;,
  3;41,27,28;,
  3;27,41,40;,
  3;42,28,29;,
  3;28,42,41;,
  3;43,29,30;,
  3;29,43,42;,
  3;44,33,32;,
  3;33,44,45;,
  3;46,32,34;,
  3;32,46,44;,
  3;47,34,35;,
  3;34,47,46;,
  3;48,35,36;,
  3;35,48,47;,
  3;49,36,37;,
  3;36,49,48;,
  3;50,39,38;,
  3;39,50,51;,
  3;52,38,40;,
  3;38,52,50;,
  3;53,40,41;,
  3;40,53,52;,
  3;54,41,42;,
  3;41,54,53;,
  3;55,42,43;,
  3;42,55,54;,
  3;45,44,56;,
  3;44,46,56;,
  3;57,46,47;,
  3;46,57,56;,
  3;47,48,57;,
  3;48,49,57;,
  3;51,58,59;,
  3;51,50,58;,
  3;50,52,58;,
  3;60,52,53;,
  3;52,60,58;,
  3;53,54,60;,
  3;54,55,60;,
  3;55,61,60;,
  3;57,62,56;,
  3;62,57,63;,
  3;64,65,66;,
  3;65,64,67;,
  3;66,68,69;,
  3;68,66,65;,
  3;69,70,71;,
  3;70,69,68;,
  3;71,72,73;,
  3;72,71,70;,
  3;74,75,76;,
  3;75,74,77;,
  3;78,79,80;,
  3;79,78,81;,
  3;80,82,83;,
  3;82,80,79;,
  3;83,77,74;,
  3;77,83,82;,
  3;65,84,68;,
  3;68,85,70;,
  3;85,68,84;,
  3;70,85,72;,
  3;67,86,65;,
  3;86,67,87;,
  3;65,86,84;,
  3;85,88,72;,
  3;87,77,86;,
  3;77,87,75;,
  3;86,82,84;,
  3;82,86,77;,
  3;84,79,85;,
  3;79,84,82;,
  3;85,81,88;,
  3;81,85,79;,
  3;89,90,91;,
  3;90,89,92;,
  3;93,94,95;,
  3;94,93,96;,
  3;95,97,98;,
  3;97,95,94;,
  3;98,99,100;,
  3;99,98,97;,
  3;100,101,102;,
  3;101,100,99;,
  3;102,92,89;,
  3;92,102,101;,
  3;92,103,90;,
  3;103,92,104;,
  3;96,105,94;,
  3;105,96,106;,
  3;94,107,97;,
  3;107,94,105;,
  3;97,108,99;,
  3;108,97,107;,
  3;99,109,101;,
  3;109,99,108;,
  3;101,104,92;,
  3;104,101,109;,
  3;110,111,112;,
  3;111,110,113;,
  3;114,115,116;,
  3;115,114,117;,
  3;116,118,119;,
  3;118,116,115;,
  3;119,120,121;,
  3;120,119,118;,
  3;121,122,123;,
  3;122,121,120;,
  3;123,113,110;,
  3;113,123,122;,
  3;124,125,126;,
  3;124,127,125;,
  3;124,128,127;,
  3;129,128,124;,
  3;113,130,111;,
  3;130,113,131;,
  3;117,132,115;,
  3;132,117,133;,
  3;115,134,118;,
  3;134,115,132;,
  3;118,135,120;,
  3;135,118,134;,
  3;120,136,122;,
  3;136,120,135;,
  3;122,131,113;,
  3;131,122,136;;

  MeshNormals {
   137;
   0.995978;0.082889;0.034009;,
   0.497804;0.839825;-0.216529;,
   0.988284;0.009713;-0.152316;,
   0.524976;0.851031;-0.012132;,
   0.356562;0.859555;0.366099;,
   0.378257;0.605226;0.700445;,
   0.265474;0.964069;0.009728;,
   0.263387;0.943086;-0.203016;,
   0.321239;0.753263;-0.573934;,
   0.208350;0.467979;-0.858829;,
   0.995978;0.082889;0.034009;,
   0.880471;-0.136296;-0.454085;,
   0.618125;-0.042266;-0.784943;,
   0.969512;-0.226550;-0.093385;,
   0.970973;-0.209500;0.115414;,
   0.988284;0.009713;-0.152316;,
   0.872684;-0.023774;0.487707;,
   0.619756;0.052502;0.783037;,
   -0.150033;0.753597;0.639986;,
   0.200264;0.197044;0.959723;,
   -0.307424;0.948789;0.072733;,
   -0.317532;0.921899;-0.221982;,
   -0.184163;0.622039;-0.761020;,
   0.130264;-0.001204;-0.991479;,
   0.208350;0.467979;-0.858829;,
   0.130264;-0.001204;-0.991479;,
   0.507587;-0.568331;-0.647577;,
   0.675469;-0.734039;-0.070207;,
   0.682038;-0.697138;0.220958;,
   0.548944;-0.373182;0.747928;,
   0.200264;0.197044;0.959723;,
   0.378257;0.605226;0.700445;,
   -0.503881;0.529113;0.682747;,
   -0.166737;-0.017096;0.985853;,
   -0.671685;0.732962;0.107729;,
   -0.683488;0.706290;-0.184386;,
   -0.562366;0.391795;-0.728176;,
   -0.232564;-0.219492;-0.947490;,
   0.140687;-0.772478;-0.619261;,
   -0.232564;-0.219492;-0.947490;,
   0.309354;-0.950200;-0.037685;,
   0.317777;-0.912965;0.255955;,
   0.166644;-0.594952;0.786296;,
   -0.166737;-0.017096;0.985853;,
   -0.833614;0.103961;0.542475;,
   -0.604610;-0.306216;0.735309;,
   -0.963314;0.236005;0.127783;,
   -0.974957;0.207711;-0.079470;,
   -0.877498;-0.004824;-0.479556;,
   -0.673180;-0.448515;-0.587931;,
   -0.376250;-0.839175;-0.392710;,
   -0.673180;-0.448515;-0.587931;,
   -0.269105;-0.962871;0.021488;,
   -0.257814;-0.937563;0.233470;,
   -0.344198;-0.701561;0.623971;,
   -0.604610;-0.306216;0.735309;,
   -0.911893;-0.354829;0.206268;,
   -0.924026;-0.381111;-0.030493;,
   -0.768527;-0.639776;-0.007198;,
   -0.924026;-0.381111;-0.030493;,
   -0.758443;-0.610087;0.229256;,
   -0.911893;-0.354829;0.206268;,
   -0.758443;-0.610087;0.229256;,
   -0.768527;-0.639776;-0.007198;,
   0.995978;0.082889;0.034009;,
   -0.506627;0.674989;0.536394;,
   0.524976;0.851031;-0.012132;,
   0.307596;-0.693595;0.651391;,
   0.293128;0.696401;-0.655059;,
   0.208350;0.467979;-0.858829;,
   0.809187;-0.172328;-0.561712;,
   0.618125;-0.042266;-0.784943;,
   0.307596;-0.693595;0.651391;,
   0.995978;0.082889;0.034009;,
   0.497804;0.839825;-0.216529;,
   0.385152;-0.850738;-0.357636;,
   0.988284;0.009713;-0.152316;,
   -0.558189;0.703459;-0.439966;,
   0.988284;0.009713;-0.152316;,
   0.937099;0.032975;0.347502;,
   0.619756;0.052502;0.783037;,
   0.385152;-0.850738;-0.357636;,
   0.435699;0.857214;0.274502;,
   0.378257;0.605226;0.700445;,
   0.423969;0.855691;-0.296722;,
   0.974436;-0.059598;-0.216615;,
   -0.831828;0.512422;0.213273;,
   0.038657;-0.939266;0.341005;,
   0.038657;-0.939266;0.341005;,
   0.669720;-0.569127;0.477043;,
   0.796964;0.508463;0.326058;,
   0.450250;0.344844;0.823625;,
   0.972676;-0.226955;0.048915;,
   0.450250;0.344844;0.823625;,
   0.256208;0.964855;-0.058416;,
   -0.221104;0.912719;0.343594;,
   0.796964;0.508463;0.326058;,
   -0.108515;0.685763;-0.719690;,
   -0.670280;0.566074;-0.479880;,
   0.067272;-0.049301;-0.996516;,
   -0.450251;-0.344845;-0.823624;,
   0.607704;-0.505636;-0.612395;,
   0.218385;-0.912179;-0.346752;,
   0.751520;0.404872;-0.520861;,
   0.763804;0.353137;-0.540276;,
   0.713430;0.436927;-0.547825;,
   0.751520;0.404872;-0.520861;,
   0.687630;0.417237;-0.594204;,
   0.699912;0.365497;-0.613624;,
   0.738000;0.333446;-0.586660;,
   0.674226;-0.564686;0.475971;,
   0.695433;0.466376;0.546686;,
   0.458174;0.348494;0.817697;,
   0.808220;-0.447242;0.383087;,
   0.458174;0.348494;0.817697;,
   -0.042226;0.965754;0.256002;,
   -0.215924;0.914233;0.342862;,
   0.695433;0.466376;0.546686;,
   -0.741702;0.605844;-0.287806;,
   -0.671450;0.566060;-0.478259;,
   -0.675033;-0.456073;-0.579938;,
   -0.453728;-0.346008;-0.821225;,
   0.205222;-0.967966;-0.144657;,
   0.217356;-0.913455;-0.344029;,
   -0.068040;-0.129985;-0.989179;,
   -0.068042;-0.129983;-0.989179;,
   -0.068042;-0.129980;-0.989179;,
   -0.068041;-0.129986;-0.989179;,
   -0.068039;-0.129988;-0.989178;,
   -0.068037;-0.129990;-0.989178;,
   0.828208;0.516307;0.217939;,
   0.899338;-0.393336;0.190990;,
   0.063037;0.996003;0.063278;,
   0.828208;0.516307;0.217939;,
   -0.808579;0.564463;-0.166074;,
   -0.824433;-0.513919;-0.237059;,
   0.128811;-0.991271;-0.028090;;
   176;
   3;0,1,2;,
   3;1,0,3;,
   3;1,4,5;,
   3;1,6,4;,
   3;7,1,3;,
   3;1,7,6;,
   3;3,8,7;,
   3;3,9,8;,
   3;10,11,12;,
   3;10,13,11;,
   3;14,10,15;,
   3;10,14,13;,
   3;15,16,14;,
   3;15,17,16;,
   3;18,5,4;,
   3;5,18,19;,
   3;20,4,6;,
   3;4,20,18;,
   3;21,6,7;,
   3;6,21,20;,
   3;22,7,8;,
   3;7,22,21;,
   3;23,8,9;,
   3;8,23,22;,
   3;24,12,25;,
   3;26,12,11;,
   3;12,26,25;,
   3;27,11,13;,
   3;11,27,26;,
   3;28,13,14;,
   3;13,28,27;,
   3;29,14,16;,
   3;14,29,28;,
   3;30,16,17;,
   3;16,30,29;,
   3;17,31,30;,
   3;32,19,18;,
   3;19,32,33;,
   3;34,18,20;,
   3;18,34,32;,
   3;35,20,21;,
   3;20,35,34;,
   3;36,21,22;,
   3;21,36,35;,
   3;37,22,23;,
   3;22,37,36;,
   3;38,25,26;,
   3;25,38,39;,
   3;40,26,27;,
   3;26,40,38;,
   3;41,27,28;,
   3;27,41,40;,
   3;42,28,29;,
   3;28,42,41;,
   3;43,29,30;,
   3;29,43,42;,
   3;44,33,32;,
   3;33,44,45;,
   3;46,32,34;,
   3;32,46,44;,
   3;47,34,35;,
   3;34,47,46;,
   3;48,35,36;,
   3;35,48,47;,
   3;49,36,37;,
   3;36,49,48;,
   3;50,39,38;,
   3;39,50,51;,
   3;52,38,40;,
   3;38,52,50;,
   3;53,40,41;,
   3;40,53,52;,
   3;54,41,42;,
   3;41,54,53;,
   3;55,42,43;,
   3;42,55,54;,
   3;45,44,56;,
   3;44,46,56;,
   3;57,46,47;,
   3;46,57,56;,
   3;47,48,57;,
   3;48,49,57;,
   3;51,58,59;,
   3;51,50,58;,
   3;50,52,58;,
   3;60,52,53;,
   3;52,60,58;,
   3;53,54,60;,
   3;54,55,60;,
   3;55,61,60;,
   3;57,62,56;,
   3;62,57,63;,
   3;64,65,66;,
   3;65,64,67;,
   3;66,68,69;,
   3;68,66,65;,
   3;69,70,71;,
   3;70,69,68;,
   3;71,72,73;,
   3;72,71,70;,
   3;74,75,76;,
   3;75,74,77;,
   3;78,79,80;,
   3;79,78,81;,
   3;80,82,83;,
   3;82,80,79;,
   3;83,77,74;,
   3;77,83,82;,
   3;65,84,68;,
   3;68,85,70;,
   3;85,68,84;,
   3;70,85,72;,
   3;67,86,65;,
   3;86,67,87;,
   3;65,86,84;,
   3;85,88,72;,
   3;87,77,86;,
   3;77,87,75;,
   3;86,82,84;,
   3;82,86,77;,
   3;84,79,85;,
   3;79,84,82;,
   3;85,81,88;,
   3;81,85,79;,
   3;89,90,91;,
   3;90,89,92;,
   3;93,94,95;,
   3;94,93,96;,
   3;95,97,98;,
   3;97,95,94;,
   3;98,99,100;,
   3;99,98,97;,
   3;100,101,102;,
   3;101,100,99;,
   3;102,92,89;,
   3;92,102,101;,
   3;92,103,90;,
   3;103,92,104;,
   3;96,105,94;,
   3;105,96,106;,
   3;94,107,97;,
   3;107,94,105;,
   3;97,108,99;,
   3;108,97,107;,
   3;99,109,101;,
   3;109,99,108;,
   3;101,104,92;,
   3;104,101,109;,
   3;110,111,112;,
   3;111,110,113;,
   3;114,115,116;,
   3;115,114,117;,
   3;116,118,119;,
   3;118,116,115;,
   3;119,120,121;,
   3;120,119,118;,
   3;121,122,123;,
   3;122,121,120;,
   3;123,113,110;,
   3;113,123,122;,
   3;124,125,126;,
   3;124,127,125;,
   3;124,128,127;,
   3;129,128,124;,
   3;113,130,111;,
   3;130,113,131;,
   3;117,132,115;,
   3;132,117,133;,
   3;115,134,118;,
   3;134,115,132;,
   3;118,135,120;,
   3;135,118,134;,
   3;120,136,122;,
   3;136,120,135;,
   3;122,131,113;,
   3;131,122,136;;
  }

  MeshMaterialList {
   1;
   176;
   0,
   0,
   0,
   0,
   0,
   0,
   0,
   0,
   0,
   0,
   0,
   0,
   0,
   0,
   0,
   0,
   0,
   0,
   0,
   0,
   0,
   0,
   0,
   0,
   0,
   0,
   0,
   0,
   0,
   0,
   0,
   0,
   0,
   0,
   0,
   0,
   0,
   0,
   0,
   0,
   0,
   0,
   0,
   0,
   0,
   0,
   0,
   0,
   0,
   0,
   0,
   0,
   0,
   0,
   0,
   0,
   0,
   0,
   0,
   0,
   0,
   0,
   0,
   0,
   0,
   0,
   0,
   0,
   0,
   0,
   0,
   0,
   0,
   0,
   0,
   0,
   0,
   0,
   0,
   0,
   0,
   0,
   0,
   0,
   0,
   0,
   0,
   0,
   0,
   0,
   0,
   0,
   0,
   0,
   0,
   0,
   0,
   0,
   0,
   0,
   0,
   0,
   0,
   0,
   0,
   0,
   0,
   0,
   0,
   0,
   0,
   0,
   0,
   0,
   0,
   0,
   0,
   0,
   0,
   0,
   0,
   0,
   0,
   0,
   0,
   0,
   0,
   0,
   0,
   0,
   0,
   0,
   0,
   0,
   0,
   0,
   0,
   0,
   0,
   0,
   0,
   0,
   0,
   0,
   0,
   0,
   0,
   0,
   0,
   0,
   0,
   0,
   0,
   0,
   0,
   0,
   0,
   0,
   0,
   0,
   0,
   0,
   0,
   0,
   0,
   0,
   0,
   0,
   0,
   0,
   0,
   0,
   0,
   0,
   0,
   0;
   { Material__125 }
  }

  MeshTextureCoords c1 {
   137;
   0.015826;0.192130;,
   0.094475;0.364207;,
   0.017360;0.361131;,
   0.096163;0.192030;,
   0.141451;0.408796;,
   0.143458;0.458608;,
   0.146094;0.362170;,
   0.145998;0.192352;,
   0.145170;0.145788;,
   0.131574;0.107623;,
   0.505926;0.551104;,
   0.436142;0.593490;,
   0.383231;0.594634;,
   0.502166;0.590363;,
   0.702856;0.595098;,
   0.722807;0.552848;,
   0.763232;0.593775;,
   0.854951;0.582833;,
   0.191854;0.409501;,
   0.191065;0.460060;,
   0.193852;0.359584;,
   0.193178;0.192397;,
   0.192182;0.130472;,
   0.192262;0.078267;,
   0.302722;0.586460;,
   0.342205;0.645390;,
   0.435043;0.646649;,
   0.509208;0.643443;,
   0.704203;0.642802;,
   0.776746;0.642914;,
   0.898893;0.646752;,
   0.948464;0.585705;,
   0.354173;0.410861;,
   0.353800;0.462927;,
   0.354005;0.360469;,
   0.356702;0.191984;,
   0.356272;0.132360;,
   0.355456;0.079726;,
   0.435316;0.812169;,
   0.342677;0.811562;,
   0.511389;0.820273;,
   0.713677;0.818986;,
   0.780348;0.819522;,
   0.891230;0.823829;,
   0.403556;0.398631;,
   0.400566;0.462707;,
   0.403425;0.361483;,
   0.406444;0.192059;,
   0.406034;0.142526;,
   0.424412;0.084581;,
   0.437034;0.881406;,
   0.343104;0.877458;,
   0.509817;0.875142;,
   0.715644;0.878419;,
   0.764657;0.879670;,
   0.886290;0.890647;,
   0.452261;0.373882;,
   0.454384;0.183348;,
   0.516588;0.963405;,
   0.307311;0.957674;,
   0.716950;0.968948;,
   0.934587;0.955261;,
   0.526698;0.376351;,
   0.529501;0.184706;,
   0.288378;0.664291;,
   0.215751;0.705140;,
   0.247052;0.654330;,
   0.260528;0.713105;,
   0.206327;0.595735;,
   0.213764;0.567671;,
   0.136640;0.596104;,
   0.128350;0.567787;,
   0.084389;0.701398;,
   0.056295;0.647014;,
   0.216593;0.967692;,
   0.220784;0.858792;,
   0.256277;0.922362;,
   0.200306;0.866755;,
   0.087759;0.925577;,
   0.155996;0.861690;,
   0.117791;0.982502;,
   0.137226;0.862445;,
   0.182302;0.867812;,
   0.203060;0.988668;,
   0.186233;0.704807;,
   0.141041;0.710396;,
   0.199521;0.744570;,
   0.256076;0.751176;,
   0.140803;0.740438;,
   0.924815;0.515164;,
   0.956925;0.367264;,
   0.975795;0.501111;,
   0.914316;0.385258;,
   0.677003;0.493206;,
   0.749775;0.385980;,
   0.724252;0.512620;,
   0.707164;0.375092;,
   0.786034;0.402571;,
   0.775549;0.530723;,
   0.830090;0.402611;,
   0.828251;0.536538;,
   0.874461;0.397049;,
   0.877848;0.529406;,
   0.940727;0.349536;,
   0.904629;0.363547;,
   0.753478;0.366134;,
   0.719886;0.349995;,
   0.793553;0.374186;,
   0.831520;0.376695;,
   0.868375;0.372260;,
   0.904629;0.363547;,
   0.906883;0.117787;,
   0.940727;0.349536;,
   0.879242;0.132619;,
   0.719886;0.349995;,
   0.776420;0.155101;,
   0.753478;0.366134;,
   0.739608;0.120873;,
   0.797671;0.167245;,
   0.793553;0.374186;,
   0.829216;0.167476;,
   0.831520;0.376695;,
   0.854289;0.153715;,
   0.868375;0.372260;,
   0.618377;0.050405;,
   0.563767;0.146138;,
   0.563770;0.082310;,
   0.618377;0.178033;,
   0.673041;0.146133;,
   0.673041;0.082295;,
   0.882988;0.027501;,
   0.862523;0.049233;,
   0.783328;0.040688;,
   0.767458;0.020562;,
   0.801306;0.054730;,
   0.821660;0.056307;,
   0.838012;0.054096;;
  }

  XSkinMeshHeader {
   1;
   1;
   1;
  }

  SkinWeights {
   "Bip01_Prop1";
   137;
   0,
   1,
   2,
   3,
   4,
   5,
   6,
   7,
   8,
   9,
   10,
   11,
   12,
   13,
   14,
   15,
   16,
   17,
   18,
   19,
   20,
   21,
   22,
   23,
   24,
   25,
   26,
   27,
   28,
   29,
   30,
   31,
   32,
   33,
   34,
   35,
   36,
   37,
   38,
   39,
   40,
   41,
   42,
   43,
   44,
   45,
   46,
   47,
   48,
   49,
   50,
   51,
   52,
   53,
   54,
   55,
   56,
   57,
   58,
   59,
   60,
   61,
   62,
   63,
   64,
   65,
   66,
   67,
   68,
   69,
   70,
   71,
   72,
   73,
   74,
   75,
   76,
   77,
   78,
   79,
   80,
   81,
   82,
   83,
   84,
   85,
   86,
   87,
   88,
   89,
   90,
   91,
   92,
   93,
   94,
   95,
   96,
   97,
   98,
   99,
   100,
   101,
   102,
   103,
   104,
   105,
   106,
   107,
   108,
   109,
   110,
   111,
   112,
   113,
   114,
   115,
   116,
   117,
   118,
   119,
   120,
   121,
   122,
   123,
   124,
   125,
   126,
   127,
   128,
   129,
   130,
   131,
   132,
   133,
   134,
   135,
   136;
   1.000000,
   1.000000,
   1.000000,
   1.000000,
   1.000000,
   1.000000,
   1.000000,
   1.000000,
   1.000000,
   1.000000,
   1.000000,
   1.000000,
   1.000000,
   1.000000,
   1.000000,
   1.000000,
   1.000000,
   1.000000,
   1.000000,
   1.000000,
   1.000000,
   1.000000,
   1.000000,
   1.000000,
   1.000000,
   1.000000,
   1.000000,
   1.000000,
   1.000000,
   1.000000,
   1.000000,
   1.000000,
   1.000000,
   1.000000,
   1.000000,
   1.000000,
   1.000000,
   1.000000,
   1.000000,
   1.000000,
   1.000000,
   1.000000,
   1.000000,
   1.000000,
   1.000000,
   1.000000,
   1.000000,
   1.000000,
   1.000000,
   1.000000,
   1.000000,
   1.000000,
   1.000000,
   1.000000,
   1.000000,
   1.000000,
   1.000000,
   1.000000,
   1.000000,
   1.000000,
   1.000000,
   1.000000,
   1.000000,
   1.000000,
   1.000000,
   1.000000,
   1.000000,
   1.000000,
   1.000000,
   1.000000,
   1.000000,
   1.000000,
   1.000000,
   1.000000,
   1.000000,
   1.000000,
   1.000000,
   1.000000,
   1.000000,
   1.000000,
   1.000000,
   1.000000,
   1.000000,
   1.000000,
   1.000000,
   1.000000,
   1.000000,
   1.000000,
   1.000000,
   1.000000,
   1.000000,
   1.000000,
   1.000000,
   1.000000,
   1.000000,
   1.000000,
   1.000000,
   1.000000,
   1.000000,
   1.000000,
   1.000000,
   1.000000,
   1.000000,
   1.000000,
   1.000000,
   1.000000,
   1.000000,
   1.000000,
   1.000000,
   1.000000,
   1.000000,
   1.000000,
   1.000000,
   1.000000,
   1.000000,
   1.000000,
   1.000000,
   1.000000,
   1.000000,
   1.000000,
   1.000000,
   1.000000,
   1.000000,
   1.000000,
   1.000000,
   1.000000,
   1.000000,
   1.000000,
   1.000000,
   1.000000,
   1.000000,
   1.000000,
   1.000000,
   1.000000,
   1.000000,
   1.000000,
   1.000000;
   0.513697,-0.031297,0.857400,0.000000,-0.854513,-0.108296,0.508015,0.000000,0.076954,-0.993626,-0.082376,0.000000,0.821476,0.117511,0.031785,1.000000;;
  }
 }
}

AnimTicksPerSecond  {
 4800;
}

AnimationSet Bob_Walk {
 

 Animation {
  
  { Dummy01 }

  AnimationKey S {
   1;
   2;
   0;3;1.000000,1.000000,1.000000;;,
   3200;3;1.000000,1.000000,1.000000;;;
  }

  AnimationKey R {
   0;
   2;
   0;4;0.707107,0.707107,0.000000,0.000000;;,
   3200;4;0.707107,0.707107,0.000000,0.000000;;;
  }

  AnimationKey T {
   2;
   2;
   0;3;0.000000,0.000000,0.000000;;,
   3200;3;0.000000,0.000000,0.000000;;;
  }
 }

 Animation {
  
  { Bip01 }

  AnimationKey S {
   1;
   2;
   0;3;1.000000,1.000000,1.000000;;,
   3200;3;1.000000,1.000000,1.000000;;;
  }

  AnimationKey R {
   0;
   21;
   0;4;0.515802,-0.436315,-0.562899,-0.476154;;,
   160;4;0.517441,-0.437578,-0.561533,-0.474828;;,
   320;4;0.521626,-0.440871,-0.557927,-0.471441;;,
   480;4;0.527247,-0.445573,-0.552691,-0.466912;;,
   640;4;0.533452,-0.451064,-0.546445,-0.461918;;,
   800;4;0.539863,-0.456672,-0.539862,-0.456671;;,
   960;4;0.546445,-0.461919,-0.533451,-0.451064;;,
   1120;4;0.552691,-0.466914,-0.527246,-0.445574;;,
   1280;4;0.557926,-0.471443,-0.521624,-0.440872;;,
   1440;4;0.561532,-0.474830,-0.517438,-0.437580;;,
   1600;4;0.562897,-0.476157,-0.515800,-0.436316;;,
   1760;4;0.561532,-0.474830,-0.517438,-0.437580;;,
   1920;4;0.557926,-0.471443,-0.521624,-0.440872;;,
   2080;4;0.552691,-0.466914,-0.527246,-0.445574;;,
   2240;4;0.546445,-0.461919,-0.533451,-0.451064;;,
   2400;4;0.539863,-0.456672,-0.539862,-0.456671;;,
   2560;4;0.533452,-0.451064,-0.546445,-0.461918;;,
   2720;4;0.527247,-0.445573,-0.552691,-0.466912;;,
   2880;4;0.521626,-0.440871,-0.557927,-0.471441;;,
   3040;4;0.517441,-0.437578,-0.561533,-0.474828;;,
   3200;4;0.515802,-0.436315,-0.562899,-0.476154;;;
  }

  AnimationKey T {
   2;
   21;
   0;3;-0.010000,-0.012284,0.490453;;,
   160;3;-0.010708,-0.012284,0.491858;;,
   320;3;-0.010749,-0.012284,0.495223;;,
   480;3;-0.010016,-0.012284,0.499328;;,
   640;3;-0.008388,-0.012284,0.502988;;,
   800;3;-0.005725,-0.012284,0.504988;;,
   960;3;-0.002280,-0.012284,0.504002;;,
   1120;3;0.001356,-0.012284,0.500588;;,
   1280;3;0.004842,-0.012284,0.496226;;,
   1440;3;0.007841,-0.012284,0.492357;;,
   1600;3;0.010000,-0.012284,0.490453;;,
   1760;3;0.011004,-0.012284,0.491604;;,
   1920;3;0.010933,-0.012284,0.494934;;,
   2080;3;0.009946,-0.012284,0.499131;;,
   2240;3;0.008187,-0.012284,0.502917;;,
   2400;3;0.005782,-0.012284,0.504988;;,
   2560;3;0.002869,-0.012284,0.503948;;,
   2720;3;-0.000359,-0.012284,0.500406;;,
   2880;3;-0.003707,-0.012284,0.495943;;,
   3040;3;-0.006986,-0.012284,0.492100;;,
   3200;3;-0.010000,-0.012284,0.490453;;;
  }
 }

 Animation {
  
  { Bip01_Pelvis }

  AnimationKey S {
   1;
   2;
   0;3;1.000000,1.000000,1.000000;;,
   3200;3;1.000000,1.000000,1.000000;;;
  }

  AnimationKey R {
   0;
   21;
   0;4;0.500001,-0.499999,-0.500000,-0.500000;;,
   160;4;0.502878,-0.497105,-0.502877,-0.497106;;,
   320;4;0.506123,-0.493801,-0.506123,-0.493802;;,
   480;4;0.509152,-0.490677,-0.509152,-0.490678;;,
   640;4;0.511400,-0.488334,-0.511399,-0.488335;;,
   800;4;0.512285,-0.487405,-0.512285,-0.487406;;,
   960;4;0.511605,-0.488119,-0.511605,-0.488120;;,
   1120;4;0.509768,-0.490038,-0.509767,-0.490039;;,
   1280;4;0.507050,-0.492849,-0.507049,-0.492850;;,
   1440;4;0.503710,-0.496263,-0.503709,-0.496263;;,
   1600;4;0.500001,-0.499999,-0.500000,-0.500000;;,
   1760;4;0.496198,-0.503773,-0.496197,-0.503774;;,
   1920;4;0.492628,-0.507265,-0.492627,-0.507266;;,
   2080;4;0.489628,-0.510161,-0.489627,-0.510162;;,
   2240;4;0.487550,-0.512148,-0.487549,-0.512149;;,
   2400;4;0.486768,-0.512891,-0.486767,-0.512892;;,
   2560;4;0.487745,-0.511962,-0.487744,-0.511963;;,
   2720;4;0.490207,-0.509605,-0.490207,-0.509605;;,
   2880;4;0.493490,-0.506426,-0.493489,-0.506427;;,
   3040;4;0.496961,-0.503020,-0.496961,-0.503021;;,
   3200;4;0.500001,-0.499999,-0.500000,-0.500000;;;
  }

  AnimationKey T {
   2;
   2;
   0;3;0.000000,0.000000,0.000000;;,
   3200;3;0.000000,0.000000,0.000000;;;
  }
 }

 Animation {
  
  { Bip01_Spine }

  AnimationKey S {
   1;
   2;
   0;3;1.000000,1.000000,1.000000;;,
   3200;3;1.000000,1.000000,1.000000;;;
  }

  AnimationKey R {
   0;
   21;
   0;4;0.996164,-0.000002,-0.087504,-0.000001;;,
   160;4;0.996148,0.000503,-0.087503,-0.005750;;,
   320;4;0.996089,0.001076,-0.087498,-0.012274;;,
   480;4;0.995994,0.001615,-0.087489,-0.018403;;,
   640;4;0.995899,0.002016,-0.087481,-0.022976;;,
   800;4;0.995856,0.002175,-0.087477,-0.024784;;,
   960;4;0.995889,0.002053,-0.087480,-0.023395;;,
   1120;4;0.995970,0.001724,-0.087487,-0.019653;;,
   1280;4;0.996064,0.001241,-0.087495,-0.014146;;,
   1440;4;0.996137,0.000650,-0.087502,-0.007418;;,
   1600;4;0.996164,-0.000002,-0.087504,-0.000001;;,
   1760;4;0.996136,-0.000665,-0.087502,0.007547;;,
   1920;4;0.996058,-0.001283,-0.087495,0.014582;;,
   2080;4;0.995954,-0.001799,-0.087486,0.020455;;,
   2240;4;0.995863,-0.002155,-0.087478,0.024505;;,
   2400;4;0.995824,-0.002288,-0.087474,0.026024;;,
   2560;4;0.995872,-0.002121,-0.087479,0.024125;;,
   2720;4;0.995977,-0.001699,-0.087488,0.019324;;,
   2880;4;0.996081,-0.001134,-0.087497,0.012888;;,
   3040;4;0.996146,-0.000532,-0.087503,0.006036;;,
   3200;4;0.996164,-0.000002,-0.087504,-0.000001;;;
  }

  AnimationKey T {
   2;
   21;
   0;3;0.051619,0.000000,-0.000083;;,
   160;3;0.051615,0.000596,-0.000083;;,
   320;3;0.051603,0.001272,-0.000083;;,
   480;3;0.051583,0.001907,-0.000083;;,
   640;3;0.051564,0.002380,-0.000083;;,
   800;3;0.051555,0.002568,-0.000083;;,
   960;3;0.051562,0.002424,-0.000083;;,
   1120;3;0.051578,0.002036,-0.000083;;,
   1280;3;0.051598,0.001466,-0.000083;;,
   1440;3;0.051613,0.000769,-0.000083;;,
   1600;3;0.051619,0.000000,-0.000083;;,
   1760;3;0.051613,-0.000782,-0.000083;;,
   1920;3;0.051596,-0.001511,-0.000083;;,
   2080;3;0.051575,-0.002119,-0.000083;;,
   2240;3;0.051556,-0.002539,-0.000083;;,
   2400;3;0.051548,-0.002696,-0.000083;;,
   2560;3;0.051558,-0.002499,-0.000083;;,
   2720;3;0.051580,-0.002002,-0.000083;;,
   2880;3;0.051601,-0.001335,-0.000083;;,
   3040;3;0.051615,-0.000626,-0.000083;;,
   3200;3;0.051619,0.000000,-0.000083;;;
  }
 }

 Animation {
  
  { Bip01_Spine1 }

  AnimationKey S {
   1;
   2;
   0;3;1.000000,1.000000,1.000000;;,
   3200;3;1.000000,1.000000,1.000000;;;
  }

  AnimationKey R {
   0;
   21;
   0;4;0.995544,0.088322,0.022149,-0.024497;;,
   160;4;0.996188,0.080990,0.022461,-0.023342;;,
   320;4;0.997602,0.062049,0.023185,-0.020083;;,
   480;4;0.998959,0.035809,0.023963,-0.014989;;,
   640;4;0.999646,0.006414,0.024470,-0.008307;;,
   800;4;0.999458,-0.021962,0.024504,-0.000285;;,
   960;4;0.998626,-0.045736,0.024053,0.008679;;,
   1120;4;0.997506,-0.064272,0.023267,0.017588;;,
   1280;4;0.996410,-0.077620,0.022385,0.025342;;,
   1440;4;0.995604,-0.085742,0.021679,0.030849;;,
   1600;4;0.995301,-0.088500,0.021398,0.032959;;,
   1760;4;0.995983,-0.081152,0.021844,0.030922;;,
   1920;4;0.997476,-0.062171,0.022843,0.025573;;,
   2080;4;0.998910,-0.035879,0.023856,0.017983;;,
   2240;4;0.999638,-0.006435,0.024464,0.009198;;,
   2400;4;0.999458,0.021962,0.024504,0.000284;;,
   2560;4;0.998634,0.045715,0.024093,-0.007788;;,
   2720;4;0.997554,0.064204,0.023459,-0.014597;;,
   2880;4;0.996534,0.077500,0.022812,-0.019859;;,
   3040;4;0.995809,0.085581,0.022331,-0.023273;;,
   3200;4;0.995544,0.088322,0.022149,-0.024497;;;
  }

  AnimationKey T {
   2;
   21;
   0;3;0.106484,-0.000015,-0.000083;;,
   160;3;0.106484,-0.000014,-0.000084;;,
   320;3;0.106484,-0.000010,-0.000084;;,
   480;3;0.106484,-0.000006,-0.000084;;,
   640;3;0.106484,-0.000001,-0.000085;;,
   800;3;0.106484,0.000004,-0.000085;;,
   960;3;0.106484,0.000008,-0.000084;;,
   1120;3;0.106484,0.000011,-0.000084;;,
   1280;3;0.106484,0.000013,-0.000084;;,
   1440;3;0.106484,0.000014,-0.000083;;,
   1600;3;0.106484,0.000015,-0.000083;;,
   1760;3;0.106484,0.000014,-0.000084;;,
   1920;3;0.106484,0.000010,-0.000084;;,
   2080;3;0.106484,0.000006,-0.000084;;,
   2240;3;0.106484,0.000001,-0.000085;;,
   2400;3;0.106484,-0.000004,-0.000085;;,
   2560;3;0.106484,-0.000008,-0.000084;;,
   2720;3;0.106484,-0.000011,-0.000084;;,
   2880;3;0.106484,-0.000013,-0.000084;;,
   3040;3;0.106484,-0.000014,-0.000083;;,
   3200;3;0.106484,-0.000015,-0.000083;;;
  }
 }

 Animation {
  
  { Bip01_Neck }

  AnimationKey S {
   1;
   2;
   0;3;1.000000,1.000000,1.000000;;,
   3200;3;1.000000,1.000000,1.000000;;;
  }

  AnimationKey R {
   0;
   21;
   0;4;0.991445,0.008393,0.129738,0.011606;;,
   160;4;0.991464,0.007504,0.129794,0.009788;;,
   320;4;0.991492,0.005405,0.129938,0.005493;;,
   480;4;0.991492,0.002912,0.130133,0.000384;;,
   640;4;0.991464,0.000816,0.130317,-0.003913;;,
   800;4;0.991445,-0.000071,0.130400,-0.005732;;,
   960;4;0.991452,-0.001175,0.130310,-0.006349;;,
   1120;4;0.991463,-0.003783,0.130101,-0.007806;;,
   1280;4;0.991463,-0.006884,0.129858,-0.009535;;,
   1440;4;0.991452,-0.009493,0.129659,-0.010988;;,
   1600;4;0.991445,-0.010598,0.129577,-0.011603;;,
   1760;4;0.991467,-0.009477,0.129647,-0.009786;;,
   1920;4;0.991498,-0.006832,0.129827,-0.005492;;,
   2080;4;0.991498,-0.003689,0.130070,-0.000385;;,
   2240;4;0.991467,-0.001047,0.130298,0.003912;;,
   2400;4;0.991445,0.000071,0.130400,0.005731;;,
   2560;4;0.991450,0.000944,0.130327,0.006348;;,
   2720;4;0.991458,0.003005,0.130158,0.007805;;,
   2880;4;0.991458,0.005457,0.129963,0.009536;;,
   3040;4;0.991450,0.007520,0.129804,0.010990;;,
   3200;4;0.991445,0.008393,0.129738,0.011606;;;
  }

  AnimationKey T {
   2;
   6;
   0;3;0.130511,-0.000001,0.004626;;,
   1280;3;0.130511,-0.000000,0.004626;;,
   1440;3;0.130511,0.000001,0.004626;;,
   2720;3;0.130511,0.000001,0.004626;;,
   2880;3;0.130511,-0.000000,0.004626;;,
   3200;3;0.130511,-0.000000,0.004626;;;
  }
 }

 Animation {
  
  { Bip01_Head }

  AnimationKey S {
   1;
   2;
   0;3;1.000000,1.000000,1.000000;;,
   3200;3;1.000000,1.000000,1.000000;;;
  }

  AnimationKey R {
   0;
   21;
   0;4;0.996236,-0.046621,-0.067022,0.029110;;,
   160;4;0.996729,-0.041722,-0.062915,0.028860;;,
   320;4;0.997785,-0.029274,-0.053251,0.027049;;,
   480;4;0.998800,-0.012491,-0.041840,0.022163;;,
   640;4;0.999373,0.005563,-0.032339,0.013297;;,
   800;4;0.999358,0.021966,-0.028322,0.000368;;,
   960;4;0.998820,0.033781,-0.032221,-0.013356;;,
   1120;4;0.997995,0.041034,-0.041642,-0.024260;;,
   1280;4;0.997071,0.045035,-0.052966,-0.031861;;,
   1440;4;0.996287,0.046794,-0.062550,-0.036196;;,
   1600;4;0.995953,0.047182,-0.066624,-0.037580;;,
   1760;4;0.996482,0.042193,-0.062578,-0.036444;;,
   1920;4;0.997624,0.029560,-0.053046,-0.032538;;,
   2080;4;0.998731,0.012612,-0.041759,-0.025156;;,
   2240;4;0.999361,-0.005536,-0.032326,-0.014188;;,
   2400;4;0.999358,-0.021965,-0.028322,-0.000368;;,
   2560;4;0.998832,-0.033754,-0.032266,0.012466;;,
   2720;4;0.998061,-0.040913,-0.041803,0.021270;;,
   2880;4;0.997229,-0.044749,-0.053250,0.026376;;,
   3040;4;0.996532,-0.046323,-0.062920,0.028614;;,
   3200;4;0.996236,-0.046621,-0.067022,0.029111;;;
  }

  AnimationKey T {
   2;
   2;
   0;3;0.033674,-0.000000,-0.000000;;,
   3200;3;0.033674,-0.000000,-0.000000;;;
  }
 }

 Animation {
  
  { Bip01_HeadNub }

  AnimationKey S {
   1;
   2;
   0;3;1.000000,1.000000,1.000000;;,
   3200;3;1.000000,1.000000,1.000000;;;
  }

  AnimationKey R {
   0;
   2;
   0;4;1.000000,-0.000000,-0.000000,0.000000;;,
   3200;4;1.000000,0.000000,0.000000,0.000000;;;
  }

  AnimationKey T {
   2;
   2;
   0;3;0.169824,0.000000,0.000000;;,
   3200;3;0.169824,0.000000,-0.000000;;;
  }
 }

 Animation {
  
  { Bip01_L_Clavicle }

  AnimationKey S {
   1;
   2;
   0;3;1.000000,1.000000,1.000000;;,
   3200;3;1.000000,1.000000,1.000000;;;
  }

  AnimationKey R {
   0;
   21;
   0;4;0.105798,0.621144,0.772772,-0.076234;;,
   160;4;0.105024,0.625083,0.769588,-0.077300;;,
   320;4;0.103149,0.634649,0.761712,-0.079851;;,
   480;4;0.100810,0.646636,0.751542,-0.082966;;,
   640;4;0.098649,0.658044,0.741547,-0.085759;;,
   800;4;0.097350,0.665979,0.734414,-0.087352;;,
   960;4;0.095858,0.672131,0.728803,-0.088862;;,
   1120;4;0.093204,0.679139,0.722307,-0.091413;;,
   1280;4;0.090245,0.685579,0.716218,-0.094176;;,
   1440;4;0.087848,0.690095,0.711875,-0.096368;;,
   1600;4;0.086923,0.691304,0.710700,-0.097207;;,
   1760;4;0.088109,0.687310,0.714566,-0.096112;;,
   1920;4;0.090727,0.679052,0.722416,-0.093665;;,
   2080;4;0.093887,0.668554,0.732121,-0.090663;;,
   2240;4;0.096777,0.657484,0.742046,-0.087840;;,
   2400;4;0.098580,0.647631,0.750645,-0.085961;;,
   2560;4;0.099981,0.639318,0.757749,-0.084220;;,
   2720;4;0.101852,0.632088,0.763814,-0.081727;;,
   2880;4;0.103738,0.626345,0.768550,-0.079128;;,
   3040;4;0.105203,0.622533,0.771650,-0.077074;;,
   3200;4;0.105798,0.621144,0.772772,-0.076234;;;
  }

  AnimationKey T {
   2;
   21;
   0;3;-0.024734,0.015166,0.002017;;,
   160;3;-0.024683,0.015254,0.001985;;,
   320;3;-0.024560,0.015460,0.001912;;,
   480;3;-0.024411,0.015704,0.001824;;,
   640;3;-0.024285,0.015908,0.001751;;,
   800;3;-0.024231,0.015993,0.001719;;,
   960;3;-0.024216,0.016020,0.001678;;,
   1120;3;-0.024181,0.016082,0.001579;;,
   1280;3;-0.024140,0.016155,0.001462;;,
   1440;3;-0.024104,0.016216,0.001363;;,
   1600;3;-0.024090,0.016242,0.001321;;,
   1760;3;-0.024143,0.016158,0.001369;;,
   1920;3;-0.024268,0.015960,0.001480;;,
   2080;3;-0.024415,0.015722,0.001612;;,
   2240;3;-0.024536,0.015520,0.001724;;,
   2400;3;-0.024587,0.015434,0.001771;;,
   2560;3;-0.024603,0.015406,0.001797;;,
   2720;3;-0.024640,0.015340,0.001857;;,
   2880;3;-0.024683,0.015261,0.001930;;,
   3040;3;-0.024719,0.015195,0.001991;;,
   3200;3;-0.024734,0.015166,0.002017;;;
  }
 }

 Animation {
  
  { Bip01_L_UpperArm }

  AnimationKey S {
   1;
   2;
   0;3;1.000000,1.000000,1.000000;;,
   3200;3;1.000000,1.000000,1.000000;;;
  }

  AnimationKey R {
   0;
   21;
   0;4;0.800653,0.227793,0.158913,0.530859;;,
   160;4;0.801540,0.217351,0.147559,0.537139;;,
   320;4;0.802811,0.191005,0.122178,0.551438;;,
   480;4;0.802620,0.156371,0.095319,0.567682;;,
   640;4;0.799306,0.122836,0.077987,0.583044;;,
   800;4;0.790720,0.101683,0.079127,0.598466;;,
   960;4;0.781070,0.084623,0.079365,0.613571;;,
   1120;4;0.776241,0.059219,0.062412,0.624538;;,
   1280;4;0.774818,0.031640,0.039349,0.630165;;,
   1440;4;0.775215,0.008885,0.019575,0.631331;;,
   1600;4;0.776137,-0.001228,0.011584,0.630456;;,
   1760;4;0.775971,0.012534,0.020110,0.630323;;,
   1920;4;0.775028,0.047294,0.039173,0.628936;;,
   2080;4;0.775751,0.089448,0.062404,0.621542;;,
   2240;4;0.780953,0.125645,0.081801,0.606329;;,
   2400;4;0.792860,0.144296,0.085867,0.585814;;,
   2560;4;0.803500,0.158189,0.087431,0.567204;;,
   2720;4;0.806779,0.180281,0.104282,0.552931;;,
   2880;4;0.805543,0.203164,0.128028,0.541695;;,
   3040;4;0.802454,0.220747,0.149503,0.533842;;,
   3200;4;0.800653,0.227793,0.158913,0.530859;;;
  }

  AnimationKey T {
   2;
   2;
   0;3;0.087086,-0.000000,-0.000000;;,
   3200;3;0.087086,0.000000,0.000000;;;
  }
 }

 Animation {
  
  { Bip01_L_Forearm }

  AnimationKey S {
   1;
   2;
   0;3;1.000000,1.000000,1.000000;;,
   3200;3;1.000000,1.000000,1.000000;;;
  }

  AnimationKey R {
   0;
   21;
   0;4;0.985885,-0.000000,-0.167423,0.000000;;,
   160;4;0.986901,0.000000,-0.161330,0.000000;;,
   320;4;0.987527,0.000000,-0.157448,0.000000;;,
   480;4;0.987798,-0.000000,-0.155738,0.000000;;,
   640;4;0.987725,-0.000000,-0.156203,-0.000000;;,
   800;4;0.987298,-0.000000,-0.158882,-0.000000;;,
   960;4;0.986544,-0.000000,-0.163498,-0.000000;;,
   1120;4;0.985444,0.000000,-0.170000,0.000000;;,
   1280;4;0.983881,-0.000000,-0.178824,0.000000;;,
   1440;4;0.981700,-0.000000,-0.190436,-0.000000;;,
   1600;4;0.978688,0.000000,-0.205354,-0.000000;;,
   1760;4;0.975029,0.000000,-0.222076,0.000000;;,
   1920;4;0.971375,0.000000,-0.237551,-0.000000;;,
   2080;4;0.968230,-0.000000,-0.250063,-0.000000;;,
   2240;4;0.966179,0.000000,-0.257873,0.000000;;,
   2400;4;0.965851,-0.000000,-0.259099,-0.000000;;,
   2560;4;0.969034,0.000000,-0.246929,0.000000;;,
   2720;4;0.974506,-0.000000,-0.224364,0.000000;;,
   2880;4;0.979593,-0.000000,-0.200993,0.000000;;,
   3040;4;0.983390,-0.000000,-0.181505,-0.000000;;,
   3200;4;0.985885,-0.000000,-0.167423,0.000000;;;
  }

  AnimationKey T {
   2;
   2;
   0;3;0.137062,0.000000,0.000000;;,
   3200;3;0.137062,0.000000,0.000000;;;
  }
 }

 Animation {
  
  { Bip01_L_Hand }

  AnimationKey S {
   1;
   2;
   0;3;1.000000,1.000000,1.000000;;,
   3200;3;1.000000,1.000000,1.000000;;;
  }

  AnimationKey R {
   0;
   21;
   0;4;0.707388,-0.706825,0.000000,0.000000;;,
   160;4;0.707216,-0.706653,0.015633,-0.015620;;,
   320;4;0.706910,-0.706348,0.026003,-0.025982;;,
   480;4;0.706699,-0.706137,0.031213,-0.031188;;,
   640;4;0.706697,-0.706134,0.031268,-0.031243;;,
   800;4;0.706908,-0.706345,0.026067,-0.026046;;,
   960;4;0.707303,-0.706740,0.010969,-0.010960;;,
   1120;4;0.707253,-0.706690,-0.013821,0.013810;;,
   1280;4;0.706170,-0.705608,-0.041495,0.041462;;,
   1440;4;0.704359,-0.703798,-0.065399,0.065347;;,
   1600;4;0.702988,-0.702428,-0.078779,0.078716;;,
   1760;4;0.702984,-0.702424,-0.078814,0.078752;;,
   1920;4;0.703897,-0.703337,-0.070196,0.070140;;,
   2080;4;0.705094,-0.704532,-0.056932,0.056887;;,
   2240;4;0.706086,-0.705524,-0.042905,0.042870;;,
   2400;4;0.706661,-0.706099,-0.032060,0.032034;;,
   2560;4;0.706965,-0.706402,-0.024475,0.024456;;,
   2720;4;0.707172,-0.706609,-0.017481,0.017467;;,
   2880;4;0.707302,-0.706739,-0.011069,0.011060;;,
   3040;4;0.707369,-0.706806,-0.005238,0.005233;;,
   3200;4;0.707388,-0.706825,-0.000000,0.000000;;;
  }

  AnimationKey T {
   2;
   2;
   0;3;0.137062,0.000000,0.000000;;,
   3200;3;0.137062,0.000000,0.000000;;;
  }
 }

 Animation {
  
  { Bip01_L_Finger0 }

  AnimationKey S {
   1;
   2;
   0;3;1.000000,1.000000,1.000001;;,
   3200;3;1.000000,1.000001,1.000001;;;
  }

  AnimationKey R {
   0;
   21;
   0;4;0.874368,0.283991,0.331708,0.211657;;,
   160;4;0.864888,0.289720,0.355695,0.203744;;,
   320;4;0.854497,0.295359,0.379979,0.195481;;,
   480;4;0.843559,0.300700,0.403680,0.187161;;,
   640;4;0.832531,0.305569,0.425961,0.179102;;,
   800;4;0.821952,0.309824,0.446032,0.171637;;,
   960;4;0.810581,0.314005,0.466379,0.163862;;,
   1120;4;0.798059,0.318198,0.487496,0.155562;;,
   1280;4;0.786586,0.321706,0.505799,0.148171;;,
   1440;4;0.778671,0.323959,0.517901,0.143179;;,
   1600;4;0.776935,0.324436,0.520502,0.142095;;,
   1760;4;0.783692,0.322545,0.510272,0.146336;;,
   1920;4;0.796975,0.318543,0.489267,0.154856;;,
   2080;4;0.812933,0.313171,0.462267,0.165450;;,
   2240;4;0.828177,0.307366,0.434366,0.176000;;,
   2400;4;0.839995,0.302326,0.411047,0.184523;;,
   2560;4;0.848531,0.298341,0.393122,0.190899;;,
   2720;4;0.855787,0.294692,0.377067,0.196486;;,
   2880;4;0.862244,0.291213,0.362057,0.201605;;,
   3040;4;0.868320,0.287717,0.347232,0.206564;;,
   3200;4;0.874368,0.283991,0.331708,0.211657;;;
  }

  AnimationKey T {
   2;
   2;
   0;3;0.057681,-0.023605,-0.000272;;,
   3200;3;0.057681,-0.023605,-0.000272;;;
  }
 }

 Animation {
  
  { Bip01_L_Finger0Nub }

  AnimationKey S {
   1;
   2;
   0;3;1.000000,1.000000,1.000000;;,
   3200;3;1.000000,1.000000,1.000000;;;
  }

  AnimationKey R {
   0;
   2;
   0;4;1.000000,0.000000,0.000000,0.000000;;,
   3200;4;1.000000,0.000000,-0.000000,0.000000;;;
  }

  AnimationKey T {
   2;
   2;
   0;3;0.029435,-0.000000,-0.000000;;,
   3200;3;0.029435,-0.000000,0.000000;;;
  }
 }

 Animation {
  
  { Bip01_L_Finger1 }

  AnimationKey S {
   1;
   2;
   0;3;1.000000,1.000000,1.000000;;,
   3200;3;1.000000,1.000000,1.000000;;;
  }

  AnimationKey R {
   0;
   21;
   0;4;0.929537,-0.000370,0.368728,0.000147;;,
   160;4;0.919015,-0.000366,0.394223,0.000157;;,
   320;4;0.907515,-0.000361,0.420020,0.000167;;,
   480;4;0.895439,-0.000357,0.445185,0.000177;;,
   640;4;0.883288,-0.000352,0.468830,0.000187;;,
   800;4;0.871655,-0.000347,0.490120,0.000195;;,
   960;4;0.859169,-0.000342,0.511692,0.000204;;,
   1120;4;0.845441,-0.000337,0.534069,0.000213;;,
   1280;4;0.832880,-0.000332,0.553453,0.000220;;,
   1440;4;0.824223,-0.000328,0.566265,0.000225;;,
   1600;4;0.822325,-0.000327,0.569018,0.000227;;,
   1760;4;0.829714,-0.000330,0.558189,0.000222;;,
   1920;4;0.844253,-0.000336,0.535944,0.000213;;,
   2080;4;0.861750,-0.000343,0.507333,0.000202;;,
   2240;4;0.878498,-0.000350,0.477747,0.000190;;,
   2400;4;0.891509,-0.000355,0.453004,0.000180;;,
   2560;4;0.900924,-0.000359,0.433976,0.000173;;,
   2720;4;0.908940,-0.000362,0.416927,0.000166;;,
   2880;4;0.916086,-0.000365,0.400981,0.000160;;,
   3040;4;0.922821,-0.000367,0.385229,0.000153;;,
   3200;4;0.929537,-0.000370,0.368728,0.000147;;;
  }

  AnimationKey T {
   2;
   2;
   0;3;0.084102,0.000000,0.000000;;,
   3200;3;0.084102,0.000000,0.000000;;;
  }
 }

 Animation {
  
  { Bip01_L_Finger1Nub }

  AnimationKey S {
   1;
   2;
   0;3;1.000000,1.000000,1.000000;;,
   3200;3;1.000000,1.000000,1.000000;;;
  }

  AnimationKey R {
   0;
   2;
   0;4;1.000000,0.000000,0.000000,-0.000000;;,
   3200;4;1.000000,0.000000,-0.000000,0.000000;;;
  }

  AnimationKey T {
   2;
   2;
   0;3;0.047988,0.000000,-0.000000;;,
   3200;3;0.047988,0.000000,0.000000;;;
  }
 }

 Animation {
  
  { Bip01_R_Clavicle }

  AnimationKey S {
   1;
   2;
   0;3;1.000000,1.000000,1.000000;;,
   3200;3;1.000000,1.000000,1.000000;;;
  }

  AnimationKey R {
   0;
   21;
   0;4;0.088560,-0.691305,0.710699,0.095718;;,
   160;4;0.089354,-0.688941,0.712991,0.094980;;,
   320;4;0.091267,-0.683028,0.718649,0.093199;;,
   480;4;0.093628,-0.675248,0.725944,0.090994;;,
   640;4;0.095775,-0.667274,0.733252,0.088958;;,
   800;4;0.097037,-0.660876,0.739009,0.087699;;,
   960;4;0.098270,-0.655636,0.743678,0.086187;;,
   1120;4;0.100324,-0.650332,0.748349,0.083537;;,
   1280;4;0.102560,-0.645644,0.752416,0.080589;;,
   1440;4;0.104363,-0.642276,0.755300,0.078182;;,
   1600;4;0.105111,-0.640976,0.756403,0.077179;;,
   1760;4;0.104236,-0.644233,0.753634,0.078329;;,
   1920;4;0.102129,-0.652179,0.746765,0.081082;;,
   2080;4;0.099526,-0.662220,0.737855,0.084435;;,
   2240;4;0.097156,-0.671923,0.728998,0.087420;;,
   2400;4;0.095783,-0.678934,0.722455,0.089067;;,
   2560;4;0.094644,-0.683326,0.718315,0.090176;;,
   2720;4;0.092806,-0.686770,0.715048,0.091871;;,
   2880;4;0.090818,-0.689262,0.712667,0.093675;;,
   3040;4;0.089220,-0.690786,0.711201,0.095121;;,
   3200;4;0.088560,-0.691305,0.710699,0.095718;;;
  }

  AnimationKey T {
   2;
   21;
   0;3;-0.024080,-0.016250,0.001399;;,
   160;3;-0.024134,-0.016165,0.001438;;,
   320;3;-0.024262,-0.015965,0.001530;;,
   480;3;-0.024411,-0.015724,0.001640;;,
   640;3;-0.024535,-0.015520,0.001732;;,
   800;3;-0.024587,-0.015434,0.001771;;,
   960;3;-0.024602,-0.015407,0.001803;;,
   1120;3;-0.024637,-0.015342,0.001879;;,
   1280;3;-0.024678,-0.015265,0.001969;;,
   1440;3;-0.024712,-0.015200,0.002044;;,
   1600;3;-0.024726,-0.015172,0.002077;;,
   1760;3;-0.024676,-0.015259,0.002039;;,
   1920;3;-0.024555,-0.015464,0.001951;;,
   2080;3;-0.024408,-0.015706,0.001845;;,
   2240;3;-0.024284,-0.015908,0.001757;;,
   2400;3;-0.024231,-0.015993,0.001719;;,
   2560;3;-0.024215,-0.016021,0.001686;;,
   2720;3;-0.024178,-0.016085,0.001606;;,
   2880;3;-0.024133,-0.016160,0.001512;;,
   3040;3;-0.024096,-0.016223,0.001433;;,
   3200;3;-0.024080,-0.016250,0.001399;;;
  }
 }

 Animation {
  
  { Bip01_R_UpperArm }

  AnimationKey S {
   1;
   2;
   0;3;1.000000,1.000000,1.000000;;,
   3200;3;1.000000,1.000000,1.000000;;;
  }

  AnimationKey R {
   0;
   21;
   0;4;0.781469,0.001326,0.011573,-0.623836;;,
   160;4;0.779502,-0.011535,0.019121,-0.626002;;,
   320;4;0.775766,-0.042506,0.037026,-0.628497;;,
   480;4;0.773523,-0.080573,0.058221,-0.625924;;,
   640;4;0.775659,-0.115172,0.074053,-0.616121;;,
   800;4;0.784187,-0.136356,0.073649,-0.600861;;,
   960;4;0.792564,-0.154186,0.073499,-0.585378;;,
   1120;4;0.795466,-0.179450,0.091974,-0.571466;;,
   1280;4;0.794860,-0.204493,0.119080,-0.558749;;,
   1440;4;0.792641,-0.223184,0.143946,-0.548806;;,
   1600;4;0.791277,-0.230529,0.154917,-0.544736;;,
   1760;4;0.791660,-0.221304,0.145244,-0.550639;;,
   1920;4;0.791846,-0.198020,0.123811,-0.564305;;,
   2080;4;0.790515,-0.167368,0.101566,-0.580308;;,
   2240;4;0.786265,-0.137485,0.088017,-0.595935;;,
   2400;4;0.777036,-0.118039,0.090788,-0.611588;;,
   2560;4;0.769301,-0.099038,0.090209,-0.624684;;,
   2720;4;0.769592,-0.068998,0.070896,-0.630826;;,
   2880;4;0.774133,-0.036269,0.044546,-0.630412;;,
   3040;4;0.779150,-0.009706,0.021510,-0.626393;;,
   3200;4;0.781469,0.001326,0.011573,-0.623836;;;
  }

  AnimationKey T {
   2;
   2;
   0;3;0.087086,0.000000,0.000000;;,
   3200;3;0.087086,0.000000,0.000000;;;
  }
 }

 Animation {
  
  { Bip01_R_Forearm }

  AnimationKey S {
   1;
   2;
   0;3;1.000000,1.000000,1.000000;;,
   3200;3;1.000000,1.000000,1.000000;;;
  }

  AnimationKey R {
   0;
   21;
   0;4;0.978688,-0.000000,-0.205354,0.000000;;,
   160;4;0.974447,0.000000,-0.224619,-0.000000;;,
   320;4;0.969797,-0.000000,-0.243913,0.000000;;,
   480;4;0.965392,0.000000,-0.260802,-0.000000;;,
   640;4;0.962047,0.000000,-0.272884,0.000000;;,
   800;4;0.960680,0.000000,-0.277657,0.000000;;,
   960;4;0.961956,-0.000000,-0.273205,0.000000;;,
   1120;4;0.965295,0.000000,-0.261162,-0.000000;;,
   1280;4;0.969765,-0.000000,-0.244039,0.000000;;,
   1440;4;0.974534,-0.000000,-0.224239,0.000000;;,
   1600;4;0.978931,-0.000000,-0.204193,0.000000;;,
   1760;4;0.982317,-0.000000,-0.187227,-0.000000;;,
   1920;4;0.984705,-0.000000,-0.174233,0.000000;;,
   2080;4;0.986267,-0.000000,-0.165158,-0.000000;;,
   2240;4;0.987115,0.000000,-0.160015,-0.000000;;,
   2400;4;0.987298,0.000000,-0.158882,-0.000000;;,
   2560;4;0.986767,-0.000000,-0.162145,-0.000000;;,
   2720;4;0.985485,-0.000000,-0.169763,0.000000;;,
   2880;4;0.983600,-0.000000,-0.180364,-0.000000;;,
   3040;4;0.981267,-0.000000,-0.192652,0.000000;;,
   3200;4;0.978688,-0.000000,-0.205353,0.000000;;;
  }

  AnimationKey T {
   2;
   2;
   0;3;0.137062,0.000000,0.000000;;,
   3200;3;0.137062,0.000000,-0.000000;;;
  }
 }

 Animation {
  
  { Bip01_R_Hand }

  AnimationKey S {
   1;
   2;
   0;3;1.000000,1.000000,1.000000;;,
   3200;3;1.000000,1.000000,1.000000;;;
  }

  AnimationKey R {
   0;
   21;
   0;4;0.702988,0.702428,-0.078779,-0.078716;;,
   160;4;0.703212,0.702652,-0.076753,-0.076692;;,
   320;4;0.703775,0.703215,-0.071407,-0.071351;;,
   480;4;0.704509,0.703948,-0.063763,-0.063712;;,
   640;4;0.705264,0.704702,-0.054784,-0.054741;;,
   800;4;0.705928,0.705366,-0.045430,-0.045394;;,
   960;4;0.706448,0.705886,-0.036463,-0.036434;;,
   1120;4;0.706843,0.706281,-0.027765,-0.027743;;,
   1280;4;0.707133,0.706570,-0.019008,-0.018993;;,
   1440;4;0.707319,0.706756,-0.009866,-0.009858;;,
   1600;4;0.707388,0.706825,-0.000000,-0.000000;;,
   1760;4;0.707309,0.706746,0.010568,0.010559;;,
   1920;4;0.707096,0.706534,0.020322,0.020306;;,
   2080;4;0.706857,0.706294,0.027420,0.027398;;,
   2240;4;0.706752,0.706190,0.029995,0.029971;;,
   2400;4;0.706908,0.706345,0.026067,0.026046;;,
   2560;4;0.707317,0.706754,0.010040,0.010032;;,
   2720;4;0.707194,0.706631,-0.016588,-0.016575;;,
   2880;4;0.705915,0.705353,-0.045630,-0.045594;;,
   3040;4;0.704008,0.703447,-0.069075,-0.069020;;,
   3200;4;0.702988,0.702428,-0.078779,-0.078716;;;
  }

  AnimationKey T {
   2;
   2;
   0;3;0.137062,-0.000000,0.000000;;,
   3200;3;0.137062,0.000000,-0.000000;;;
  }
 }

 Animation {
  
  { Bip01_R_Finger0 }

  AnimationKey S {
   1;
   2;
   0;3;1.000000,1.000001,1.000001;;,
   3200;3;1.000000,1.000001,1.000001;;;
  }

  AnimationKey R {
   0;
   21;
   0;4;0.776935,-0.324436,0.520502,-0.142095;;,
   160;4;0.790988,-0.320396,0.498887,-0.150985;;,
   320;4;0.804756,-0.316006,0.476359,-0.159969;;,
   480;4;0.817732,-0.311420,0.453723,-0.168723;;,
   640;4;0.829500,-0.306826,0.431833,-0.176938;;,
   800;4;0.839730,-0.302445,0.411586,-0.184329;;,
   960;4;0.849725,-0.297758,0.390535,-0.191808;;,
   1120;4;0.859681,-0.292622,0.368101,-0.199555;;,
   1280;4;0.867954,-0.287935,0.348148,-0.206261;;,
   1440;4;0.873239,-0.284707,0.334671,-0.210693;;,
   1600;4;0.874368,-0.283991,0.331708,-0.211657;;,
   1760;4;0.869980,-0.286720,0.343053,-0.207945;;,
   1920;4;0.860613,-0.292114,0.365919,-0.200297;;,
   2080;4;0.847921,-0.298636,0.394436,-0.190437;;,
   2240;4;0.834077,-0.304914,0.422925,-0.180214;;,
   2400;4;0.821952,-0.309824,0.446032,-0.171637;;,
   2560;4;0.812279,-0.313404,0.463415,-0.165007;;,
   2720;4;0.803352,-0.316475,0.478723,-0.159039;;,
   2880;4;0.794792,-0.319228,0.492804,-0.153438;;,
   3040;4;0.786154,-0.321833,0.506470,-0.147897;;,
   3200;4;0.776935,-0.324436,0.520502,-0.142095;;;
  }

  AnimationKey T {
   2;
   2;
   0;3;0.057681,0.023605,-0.000272;;,
   3200;3;0.057681,0.023605,-0.000272;;;
  }
 }

 Animation {
  
  { Bip01_R_Finger0Nub }

  AnimationKey S {
   1;
   2;
   0;3;1.000000,1.000000,1.000000;;,
   3200;3;1.000000,1.000000,1.000000;;;
  }

  AnimationKey R {
   0;
   2;
   0;4;0.000000,-0.000000,1.000000,0.000000;;,
   3200;4;-0.000000,0.000000,1.000000,0.000000;;;
  }

  AnimationKey T {
   2;
   2;
   0;3;0.029435,-0.000000,0.000000;;,
   3200;3;0.029435,0.000000,-0.000000;;;
  }
 }

 Animation {
  
  { Bip01_R_Finger1 }

  AnimationKey S {
   1;
   2;
   0;3;1.000000,1.000000,1.000000;;,
   3200;3;1.000000,1.000000,1.000000;;;
  }

  AnimationKey R {
   0;
   21;
   0;4;0.822325,0.000327,0.569018,-0.000227;;,
   160;4;0.837698,0.000334,0.546133,-0.000217;;,
   320;4;0.852781,0.000339,0.522269,-0.000208;;,
   480;4;0.867019,0.000345,0.498275,-0.000198;;,
   640;4;0.879954,0.000350,0.475059,-0.000189;;,
   800;4;0.891217,0.000355,0.453576,-0.000181;;,
   960;4;0.902243,0.000359,0.431229,-0.000172;;,
   1120;4;0.913248,0.000364,0.407403,-0.000162;;,
   1280;4;0.922414,0.000367,0.386202,-0.000154;;,
   1440;4;0.928282,0.000370,0.371877,-0.000148;;,
   1600;4;0.929537,0.000370,0.368728,-0.000147;;,
   1760;4;0.924663,0.000368,0.380787,-0.000152;;,
   1920;4;0.914279,0.000364,0.405085,-0.000161;;,
   2080;4;0.900251,0.000358,0.435371,-0.000173;;,
   2240;4;0.884991,0.000352,0.465609,-0.000185;;,
   2400;4;0.871655,0.000347,0.490120,-0.000195;;,
   2560;4;0.861032,0.000343,0.508550,-0.000202;;,
   2720;4;0.851242,0.000339,0.524774,-0.000209;;,
   2880;4;0.841863,0.000335,0.539691,-0.000215;;,
   3040;4;0.832407,0.000331,0.554164,-0.000221;;,
   3200;4;0.822325,0.000327,0.569018,-0.000227;;;
  }

  AnimationKey T {
   2;
   2;
   0;3;0.084102,0.000000,0.000000;;,
   3200;3;0.084102,-0.000000,0.000000;;;
  }
 }

 Animation {
  
  { Bip01_R_Finger1Nub }

  AnimationKey S {
   1;
   2;
   0;3;1.000000,1.000000,1.000000;;,
   3200;3;1.000000,1.000000,1.000000;;;
  }

  AnimationKey R {
   0;
   2;
   0;4;0.000000,0.000000,1.000000,-0.000000;;,
   3200;4;0.000000,0.000000,1.000000,-0.000000;;;
  }

  AnimationKey T {
   2;
   2;
   0;3;0.047988,0.000000,0.000000;;,
   3200;3;0.047988,-0.000000,-0.000000;;;
  }
 }

 Animation {
  
  { Bip01_BackPack }

  AnimationKey S {
   1;
   2;
   0;3;1.000000,1.000000,1.000000;;,
   3200;3;1.000000,1.000000,1.000000;;;
  }

  AnimationKey R {
   0;
   21;
   0;4;0.766667,-0.050023,-0.640004,-0.010741;;,
   160;4;0.765257,-0.040980,-0.642390,-0.006117;;,
   320;4;0.760406,-0.014303,-0.649233,0.008624;;,
   480;4;0.752897,0.020303,-0.657222,0.028165;;,
   640;4;0.745900,0.049639,-0.662815,0.042949;;,
   800;4;0.742752,0.065821,-0.664723,0.046151;;,
   960;4;0.745708,0.066431,-0.661967,0.036133;;,
   1120;4;0.752619,0.058357,-0.655646,0.016962;;,
   1280;4;0.760350,0.044158,-0.647975,-0.006805;;,
   1440;4;0.766095,0.026443,-0.641454,-0.030591;;,
   1600;4;0.767551,0.007873,-0.639000,-0.049822;;,
   1760;4;0.762919,-0.015558,-0.642886,-0.066406;;,
   1920;4;0.753284,-0.045591,-0.650801,-0.083320;;,
   2080;4;0.741498,-0.076137,-0.659429,-0.097664;;,
   2240;4;0.731210,-0.101149,-0.666128,-0.106651;;,
   2400;4;0.726646,-0.114663,-0.668774,-0.107606;;,
   2560;4;0.731203,-0.111997,-0.666200,-0.094744;;,
   2720;4;0.742294,-0.095189,-0.659552,-0.070219;;,
   2880;4;0.755033,-0.072485,-0.650380,-0.040940;;,
   3040;4;0.763923,-0.055347,-0.642667,-0.018357;;,
   3200;4;0.766667,-0.050023,-0.640004,-0.010741;;;
  }

  AnimationKey T {
   2;
   16;
   0;3;0.063697,0.000003,-0.088856;;,
   320;3;0.063697,0.000002,-0.088855;;,
   480;3;0.063696,0.000000,-0.088854;;,
   800;3;0.063696,-0.000001,-0.088853;;,
   960;3;0.063696,-0.000002,-0.088853;;,
   1280;3;0.063696,-0.000003,-0.088854;;,
   1440;3;0.063697,-0.000004,-0.088856;;,
   1760;3;0.063697,-0.000003,-0.088856;;,
   1920;3;0.063696,-0.000002,-0.088854;;,
   2080;3;0.063696,-0.000001,-0.088853;;,
   2240;3;0.063696,0.000000,-0.088852;;,
   2560;3;0.063696,0.000001,-0.088851;;,
   2720;3;0.063696,0.000002,-0.088853;;,
   2880;3;0.063696,0.000002,-0.088854;;,
   3040;3;0.063696,0.000002,-0.088855;;,
   3200;3;0.063697,0.000003,-0.088856;;;
  }
 }

 Animation {
  
  { Bip01_BackPackNub }

  AnimationKey S {
   1;
   2;
   0;3;1.000000,1.000000,1.000000;;,
   3200;3;1.000000,1.000000,1.000000;;;
  }

  AnimationKey R {
   0;
   2;
   0;4;-0.000001,0.707388,0.000001,0.706825;;,
   3200;4;-0.000001,0.707388,0.000001,0.706825;;;
  }

  AnimationKey T {
   2;
   2;
   0;3;0.053240,0.000000,0.000000;;,
   3200;3;0.053240,0.000000,0.000000;;;
  }
 }

 Animation {
  
  { Bip01_L_Thigh }

  AnimationKey S {
   1;
   2;
   0;3;1.000000,1.000000,1.000000;;,
   3200;3;1.000000,1.000000,1.000000;;;
  }

  AnimationKey R {
   0;
   21;
   0;4;-0.016088,0.235561,-0.001783,0.971725;;,
   160;4;-0.010021,0.189477,-0.002994,0.981830;;,
   320;4;-0.008008,0.177559,-0.003163,0.984073;;,
   480;4;-0.005914,0.169865,-0.002800,0.985446;;,
   640;4;0.001228,0.131694,-0.001641,0.991288;;,
   800;4;0.007402,0.075240,-0.000016,0.997138;;,
   960;4;0.013369,0.031997,0.001555,0.999397;;,
   1120;4;0.017916,-0.014635,0.003097,0.999728;;,
   1280;4;0.020242,-0.057575,0.004407,0.998126;;,
   1440;4;0.019670,-0.095043,0.005110,0.995266;;,
   1600;4;0.014944,-0.119889,0.004556,0.992664;;,
   1760;4;0.015023,-0.044699,0.003520,0.998881;;,
   1920;4;0.015030,0.030702,0.002499,0.999413;;,
   2080;4;0.014444,0.086061,0.001775,0.996184;;,
   2240;4;0.012258,0.093215,-0.000030,0.995571;;,
   2400;4;0.009063,0.094882,-0.002201,0.995445;;,
   2560;4;0.005478,0.122347,-0.003072,0.992468;;,
   2720;4;0.001135,0.150185,-0.003531,0.988651;;,
   2880;4;-0.003927,0.178354,-0.003515,0.983952;;,
   3040;4;-0.009676,0.206823,-0.002957,0.978326;;,
   3200;4;-0.016088,0.235561,-0.001783,0.971725;;;
  }

  AnimationKey T {
   2;
   21;
   0;3;-0.050843,0.055225,-0.008917;;,
   160;3;-0.050215,0.055222,-0.008806;;,
   320;3;-0.049503,0.055209,-0.008680;;,
   480;3;-0.048834,0.055188,-0.008561;;,
   640;3;-0.048335,0.055167,-0.008473;;,
   800;3;-0.048138,0.055157,-0.008438;;,
   960;3;-0.048289,0.055164,-0.008465;;,
   1120;3;-0.048697,0.055182,-0.008537;;,
   1280;3;-0.049298,0.055203,-0.008644;;,
   1440;3;-0.050033,0.055219,-0.008774;;,
   1600;3;-0.050843,0.055225,-0.008917;;,
   1760;3;-0.051667,0.055219,-0.009063;;,
   1920;3;-0.052435,0.055202,-0.009199;;,
   2080;3;-0.053076,0.055179,-0.009312;;,
   2240;3;-0.053517,0.055159,-0.009391;;,
   2400;3;-0.053683,0.055150,-0.009420;;,
   2560;3;-0.053476,0.055161,-0.009383;;,
   2720;3;-0.052952,0.055184,-0.009290;;,
   2880;3;-0.052250,0.055207,-0.009166;;,
   3040;3;-0.051502,0.055221,-0.009034;;,
   3200;3;-0.050843,0.055225,-0.008917;;;
  }
 }

 Animation {
  
  { Bip01_L_Calf }

  AnimationKey S {
   1;
   2;
   0;3;1.000000,1.000000,1.000000;;,
   3200;3;1.000000,1.000000,1.000000;;;
  }

  AnimationKey R {
   0;
   21;
   0;4;0.985453,-0.000000,-0.169948,-0.000000;;,
   160;4;0.988691,-0.000000,-0.149968,0.000000;;,
   320;4;0.987149,0.000000,-0.159804,0.000000;;,
   480;4;0.985489,-0.000000,-0.169738,-0.000000;;,
   640;4;0.979354,-0.000000,-0.202155,-0.000000;;,
   800;4;0.980486,0.000000,-0.196589,-0.000000;;,
   960;4;0.977864,0.000000,-0.209241,0.000000;;,
   1120;4;0.976906,0.000000,-0.213672,0.000000;;,
   1280;4;0.975489,0.000000,-0.220050,-0.000000;;,
   1440;4;0.974089,0.000000,-0.226167,-0.000000;;,
   1600;4;0.972529,-0.000000,-0.232783,0.000000;;,
   1760;4;0.932235,-0.000000,-0.361853,-0.000000;;,
   1920;4;0.874977,0.000000,-0.484164,0.000000;;,
   2080;4;0.843257,-0.000000,-0.537511,-0.000000;;,
   2240;4;0.860540,-0.000000,-0.509382,-0.000000;;,
   2400;4;0.881725,0.000000,-0.471763,-0.000000;;,
   2560;4;0.895243,-0.000000,-0.445579,-0.000000;;,
   2720;4;0.915169,-0.000000,-0.403071,0.000000;;,
   2880;4;0.939109,0.000000,-0.343619,0.000000;;,
   3040;4;0.963901,-0.000000,-0.266263,0.000000;;,
   3200;4;0.985453,-0.000000,-0.169948,-0.000000;;;
  }

  AnimationKey T {
   2;
   2;
   0;3;0.237500,0.000000,-0.000000;;,
   3200;3;0.237500,0.000000,0.000000;;;
  }
 }

 Animation {
  
  { Bip01_L_Foot }

  AnimationKey S {
   1;
   2;
   0;3;1.000000,1.000000,1.000000;;,
   3200;3;1.000000,1.000000,1.000000;;;
  }

  AnimationKey R {
   0;
   21;
   0;4;0.973173,-0.122866,0.194213,-0.010912;;,
   160;4;0.980324,-0.111437,0.162732,-0.008027;;,
   320;4;0.992283,-0.096698,0.077512,-0.003984;;,
   480;4;0.996525,-0.082315,-0.012665,-0.001698;;,
   640;4;0.994965,-0.076328,0.064914,-0.002213;;,
   800;4;0.989994,-0.070545,0.122206,-0.001254;;,
   960;4;0.985914,-0.061125,0.155260,0.011481;;,
   1120;4;0.982485,-0.054416,0.175727,0.029719;;,
   1280;4;0.982830,-0.050216,0.170855,0.048291;;,
   1440;4;0.988881,-0.046008,0.128011,0.060093;;,
   1600;4;0.997807,-0.035533,0.019573,0.052300;;,
   1760;4;0.998664,-0.030117,-0.006129,0.041531;;,
   1920;4;0.998773,-0.024392,-0.031594,0.029315;;,
   2080;4;0.997639,-0.016852,-0.064052,0.018188;;,
   2240;4;0.999640,-0.009196,-0.023291,0.009640;;,
   2400;4;0.998982,-0.008233,0.044148,0.004381;;,
   2560;4;0.997446,-0.021370,0.068130,0.001919;;,
   2720;4;0.993545,-0.046121,0.103638,-0.000503;;,
   2880;4;0.986956,-0.075655,0.142042,-0.004337;;,
   3040;4;0.979084,-0.103434,0.174982,-0.008830;;,
   3200;4;0.973173,-0.122866,0.194213,-0.010912;;;
  }

  AnimationKey T {
   2;
   2;
   0;3;0.206841,0.000000,0.000000;;,
   3200;3;0.206841,0.000000,0.000000;;;
  }
 }

 Animation {
  
  { Bip01_L_Toe0 }

  AnimationKey S {
   1;
   2;
   0;3;1.000000,1.000000,1.000000;;,
   3200;3;1.000000,1.000000,1.000000;;;
  }

  AnimationKey R {
   0;
   17;
   0;4;0.707107,0.000000,0.707107,-0.000000;;,
   160;4;0.711943,0.000000,0.702237,0.000000;;,
   320;4;0.721515,-0.000000,0.692399,0.000000;;,
   480;4;0.726250,-0.000001,0.687431,0.000000;;,
   640;4;0.724288,-0.000486,0.689497,0.000703;;,
   800;4;0.722688,-0.000000,0.691175,0.000000;;,
   960;4;0.724509,-0.002641,0.689233,-0.006149;;,
   1120;4;0.748770,-0.000105,0.662736,-0.011181;;,
   1280;4;0.766704,0.004616,0.641809,-0.015025;;,
   1440;4;0.753275,0.005979,0.657527,-0.014161;;,
   1600;4;0.673170,-0.000000,0.739488,0.000000;;,
   1760;4;0.682231,-0.000000,0.731137,0.000000;;,
   1920;4;0.700040,-0.000000,0.714104,0.000000;;,
   2080;4;0.708785,0.000000,0.705425,0.000000;;,
   2240;4;0.707946,-0.000000,0.706266,-0.000000;;,
   2400;4;0.707107,-0.000000,0.707107,-0.000000;;,
   3200;4;0.707107,-0.000000,0.707107,-0.000000;;;
  }

  AnimationKey T {
   2;
   2;
   0;3;0.065373,0.000000,0.066450;;,
   3200;3;0.065373,0.000000,0.066450;;;
  }
 }

 Animation {
  
  { Bip01_L_Toe0Nub }

  AnimationKey S {
   1;
   2;
   0;3;1.000000,1.000000,1.000000;;,
   3200;3;1.000000,1.000000,1.000000;;;
  }

  AnimationKey R {
   0;
   2;
   0;4;-0.000000,0.000000,1.000000,0.000000;;,
   3200;4;-0.000000,-0.000000,1.000000,0.000000;;;
  }

  AnimationKey T {
   2;
   2;
   0;3;0.006735,-0.000000,-0.000000;;,
   3200;3;0.006735,-0.000000,-0.000000;;;
  }
 }

 Animation {
  
  { Bip01_R_Thigh }

  AnimationKey S {
   1;
   2;
   0;3;1.000000,1.000000,1.000000;;,
   3200;3;1.000000,1.000000,1.000000;;;
  }

  AnimationKey R {
   0;
   21;
   0;4;-0.014955,-0.035970,-0.006023,0.999223;;,
   160;4;-0.014908,-0.025129,-0.005352,0.999559;;,
   320;4;-0.014613,0.001881,-0.003696,0.999885;;,
   480;4;-0.013842,0.037486,-0.001566,0.999200;;,
   640;4;-0.012132,0.075012,0.000524,0.997109;;,
   800;4;-0.009246,0.107461,0.002027,0.994164;;,
   960;4;-0.004312,0.140092,0.002870,0.990125;;,
   1120;4;0.002421,0.177605,0.003099,0.984094;;,
   1280;4;0.009199,0.211513,0.002680,0.977328;;,
   1440;4;0.014322,0.233623,0.002021,0.972220;;,
   1600;4;0.016088,0.235561,0.001786,0.971725;;,
   1760;4;0.015055,0.218526,0.002536,0.975712;;,
   1920;4;0.012475,0.189146,0.003775,0.981862;;,
   2080;4;0.007614,0.146068,0.004400,0.989236;;,
   2240;4;-0.000535,0.098823,0.002715,0.995101;;,
   2400;4;-0.007078,0.037028,0.000257,0.999289;;,
   2560;4;-0.010025,0.011986,-0.001183,0.999877;;,
   2720;4;-0.012243,-0.008222,-0.002849,0.999887;;,
   2880;4;-0.013773,-0.023254,-0.004413,0.999625;;,
   3040;4;-0.014664,-0.032682,-0.005570,0.999343;;,
   3200;4;-0.014955,-0.035967,-0.006023,0.999223;;;
  }

  AnimationKey T {
   2;
   21;
   0;3;-0.050843,-0.055225,-0.008917;;,
   160;3;-0.051470,-0.055222,-0.009028;;,
   320;3;-0.052183,-0.055209,-0.009154;;,
   480;3;-0.052851,-0.055188,-0.009272;;,
   640;3;-0.053350,-0.055167,-0.009361;;,
   800;3;-0.053548,-0.055157,-0.009396;;,
   960;3;-0.053396,-0.055165,-0.009369;;,
   1120;3;-0.052988,-0.055182,-0.009296;;,
   1280;3;-0.052387,-0.055203,-0.009190;;,
   1440;3;-0.051652,-0.055219,-0.009060;;,
   1600;3;-0.050843,-0.055225,-0.008917;;,
   1760;3;-0.050019,-0.055219,-0.008771;;,
   1920;3;-0.049251,-0.055202,-0.008635;;,
   2080;3;-0.048610,-0.055179,-0.008521;;,
   2240;3;-0.048168,-0.055159,-0.008443;;,
   2400;3;-0.048002,-0.055150,-0.008414;;,
   2560;3;-0.048209,-0.055161,-0.008450;;,
   2720;3;-0.048733,-0.055184,-0.008543;;,
   2880;3;-0.049436,-0.055207,-0.008668;;,
   3040;3;-0.050184,-0.055221,-0.008800;;,
   3200;3;-0.050843,-0.055225,-0.008917;;;
  }
 }

 Animation {
  
  { Bip01_R_Calf }

  AnimationKey S {
   1;
   2;
   0;3;1.000000,1.000000,1.000000;;,
   3200;3;1.000000,1.000000,1.000000;;;
  }

  AnimationKey R {
   0;
   21;
   0;4;0.930118,-0.000000,-0.367261,-0.000000;;,
   160;4;0.923308,0.000000,-0.384060,0.000000;;,
   320;4;0.906175,0.000000,-0.422902,0.000000;;,
   480;4;0.883881,0.000000,-0.467711,-0.000000;;,
   640;4;0.866531,-0.000000,-0.499123,0.000000;;,
   800;4;0.865623,0.000000,-0.500696,-0.000000;;,
   960;4;0.886809,-0.000000,-0.462137,-0.000000;;,
   1120;4;0.919758,-0.000000,-0.392487,-0.000000;;,
   1280;4;0.951391,-0.000000,-0.307987,-0.000000;;,
   1440;4;0.973899,-0.000000,-0.226980,0.000000;;,
   1600;4;0.985453,0.000000,-0.169948,-0.000000;;,
   1760;4;0.989207,-0.000000,-0.146526,0.000000;;,
   1920;4;0.989918,-0.000000,-0.141640,0.000000;;,
   2080;4;0.990062,-0.000000,-0.140635,0.000000;;,
   2240;4;0.988226,-0.000000,-0.153001,0.000000;;,
   2400;4;0.991182,0.000000,-0.132507,0.000000;;,
   2560;4;0.985340,0.000000,-0.170600,0.000000;;,
   2720;4;0.972915,-0.000000,-0.231165,-0.000000;;,
   2880;4;0.955317,-0.000000,-0.295585,0.000000;;,
   3040;4;0.938052,0.000000,-0.346495,-0.000000;;,
   3200;4;0.930115,-0.000000,-0.367268,-0.000000;;;
  }

  AnimationKey T {
   2;
   2;
   0;3;0.237500,0.000000,0.000000;;,
   3200;3;0.237500,0.000000,0.000000;;;
  }
 }

 Animation {
  
  { Bip01_R_Foot }

  AnimationKey S {
   1;
   2;
   0;3;1.000000,1.000000,1.000000;;,
   3200;3;1.000000,1.000000,1.000000;;;
  }

  AnimationKey R {
   0;
   21;
   0;4;0.997395,0.034370,-0.044453,-0.045228;;,
   160;4;0.995823,0.024244,-0.076989,-0.042682;;,
   320;4;0.990314,0.006145,-0.134533,-0.033785;;,
   480;4;0.986982,-0.002401,-0.159362,-0.021539;;,
   640;4;0.998742,0.002780,-0.048714,-0.011527;;,
   800;4;0.997867,0.008402,0.064585,-0.004359;;,
   960;4;0.996001,0.019792,0.087083,-0.002472;;,
   1120;4;0.992040,0.041526,0.118878,-0.001044;;,
   1280;4;0.985975,0.068194,0.152309,0.001979;;,
   1440;4;0.979331,0.092249,0.179918,0.005524;;,
   1600;4;0.975411,0.103617,0.194391,0.007073;;,
   1760;4;0.982883,0.099827,0.154718,0.006162;;,
   1920;4;0.993527,0.090835,0.068004,0.005405;;,
   2080;4;0.996527,0.083088,-0.001731,0.005244;;,
   2240;4;0.995868,0.068533,0.059535,0.002371;;,
   2400;4;0.994014,0.053662,0.095145,-0.001968;;,
   2560;4;0.995310,0.047647,0.083778,-0.008280;;,
   2720;4;0.995943,0.043915,0.076721,-0.016795;;,
   2880;4;0.996890,0.041571,0.061445,-0.026582;;,
   3040;4;0.998245,0.039077,0.025415,-0.036511;;,
   3200;4;0.997396,0.034370,-0.044448,-0.045227;;;
  }

  AnimationKey T {
   2;
   2;
   0;3;0.206841,0.000000,0.000000;;,
   3200;3;0.206841,0.000000,0.000000;;;
  }
 }

 Animation {
  
  { Bip01_R_Toe0 }

  AnimationKey S {
   1;
   2;
   0;3;1.000000,1.000000,1.000000;;,
   3200;3;1.000000,1.000000,1.000000;;;
  }

  AnimationKey R {
   0;
   12;
   0;4;0.707107,0.000000,0.707107,0.000000;;,
   1600;4;0.707107,0.000000,0.707107,0.000000;;,
   1760;4;0.689366,-0.000000,0.724413,-0.000000;;,
   1920;4;0.652626,0.000000,0.757680,0.000000;;,
   2080;4;0.633649,0.000000,0.773620,0.000000;;,
   2240;4;0.683638,0.000110,0.729821,-0.000896;;,
   2400;4;0.726133,-0.000000,0.687554,0.000000;;,
   2560;4;0.724340,0.000000,0.689443,0.000000;;,
   2720;4;0.719620,0.000000,0.694368,-0.000000;;,
   2880;4;0.713741,0.000001,0.700410,-0.000001;;,
   3040;4;0.708947,0.000001,0.705262,-0.000001;;,
   3200;4;0.707107,0.000001,0.707107,-0.000001;;;
  }

  AnimationKey T {
   2;
   2;
   0;3;0.065373,0.000000,0.066450;;,
   3200;3;0.065373,0.000000,0.066450;;;
  }
 }

 Animation {
  
  { Bip01_R_Toe0Nub }

  AnimationKey S {
   1;
   2;
   0;3;1.000000,1.000000,1.000000;;,
   3200;3;1.000000,1.000000,1.000000;;;
  }

  AnimationKey R {
   0;
   2;
   0;4;1.000000,0.000000,0.000000,0.000000;;,
   3200;4;1.000000,0.000000,0.000000,0.000000;;;
  }

  AnimationKey T {
   2;
   2;
   0;3;0.006735,-0.000000,-0.000000;;,
   3200;3;0.006735,0.000000,-0.000000;;;
  }
 }

 Animation {
  
  { Bip01_DressFront }

  AnimationKey S {
   1;
   2;
   0;3;1.000000,1.000000,1.000000;;,
   3200;3;1.000000,1.000000,1.000000;;;
  }

  AnimationKey R {
   0;
   21;
   0;4;0.244600,0.008860,0.945485,0.214826;;,
   160;4;0.260474,-0.008973,0.947896,0.183211;;,
   320;4;0.276075,-0.029356,0.948459,0.152797;;,
   480;4;0.291174,-0.048411,0.947702,0.121393;;,
   640;4;0.305540,-0.062280,0.946165,0.086821;;,
   800;4;0.318900,-0.067132,0.944243,0.046925;;,
   960;4;0.332628,-0.059928,0.941129,-0.006656;;,
   1120;4;0.346081,-0.043023,0.934425,-0.072304;;,
   1280;4;0.356606,-0.020988,0.923903,-0.137094;;,
   1440;4;0.362811,0.001312,0.912620,-0.188390;;,
   1600;4;0.364354,0.018884,0.906100,-0.214180;;,
   1760;4;0.361067,0.032767,0.908074,-0.209663;;,
   1920;4;0.353657,0.046195,0.916148,-0.182937;;,
   2080;4;0.343217,0.057459,0.926736,-0.141636;;,
   2240;4;0.331038,0.064935,0.936716,-0.093596;;,
   2400;4;0.318901,0.067129,0.944243,-0.046927;;,
   2560;4;0.306711,0.062443,0.949752,-0.000251;;,
   2720;4;0.292952,0.051776,0.953323,0.051711;;,
   2880;4;0.277770,0.037584,0.953985,0.106512;;,
   3040;4;0.261485,0.022414,0.951305,0.161686;;,
   3200;4;0.244600,0.008860,0.945485,0.214826;;;
  }

  AnimationKey T {
   2;
   21;
   0;3;-0.043935,0.001339,0.061057;;,
   160;3;-0.043929,0.001349,0.061058;;,
   320;3;-0.043924,0.001359,0.061058;;,
   480;3;-0.043920,0.001370,0.061058;;,
   640;3;-0.043916,0.001381,0.061058;;,
   800;3;-0.043913,0.001393,0.061057;;,
   960;3;-0.043910,0.001407,0.061055;;,
   1120;3;-0.043908,0.001423,0.061051;;,
   1280;3;-0.043906,0.001438,0.061045;;,
   1440;3;-0.043905,0.001449,0.061039;;,
   1600;3;-0.043904,0.001454,0.061035;;,
   1760;3;-0.043904,0.001451,0.061037;;,
   1920;3;-0.043905,0.001443,0.061041;;,
   2080;3;-0.043906,0.001432,0.061047;;,
   2240;3;-0.043909,0.001419,0.061053;;,
   2400;3;-0.043913,0.001406,0.061057;;,
   2560;3;-0.043917,0.001394,0.061060;;,
   2720;3;-0.043921,0.001380,0.061062;;,
   2880;3;-0.043926,0.001367,0.061062;;,
   3040;3;-0.043930,0.001353,0.061060;;,
   3200;3;-0.043935,0.001339,0.061057;;;
  }
 }

 Animation {
  
  { Bip01_DressFront02 }

  AnimationKey S {
   1;
   2;
   0;3;1.000000,1.000000,1.000000;;,
   3200;3;1.000000,1.000000,1.000000;;;
  }

  AnimationKey R {
   0;
   21;
   0;4;0.977904,0.000000,0.209054,-0.000001;;,
   160;4;0.970086,0.012906,0.241915,0.015591;;,
   320;4;0.959361,0.027566,0.278849,0.033302;;,
   480;4;0.947532,0.041287,0.313036,0.049879;;,
   640;4;0.937668,0.051422,0.338045,0.062123;;,
   800;4;0.933559,0.055375,0.347743,0.066898;;,
   960;4;0.939238,0.051461,0.333645,0.062170;;,
   1120;4;0.951825,0.041374,0.299698,0.049984;;,
   1280;4;0.965006,0.027647,0.258617,0.033400;;,
   1440;4;0.974430,0.012940,0.223773,0.015632;;,
   1600;4;0.977904,0.000000,0.209054,-0.000001;;,
   1760;4;0.974430,-0.012940,0.223773,-0.015634;;,
   1920;4;0.965006,-0.027647,0.258617,-0.033402;;,
   2080;4;0.951825,-0.041374,0.299698,-0.049986;;,
   2240;4;0.939238,-0.051461,0.333644,-0.062172;;,
   2400;4;0.933559,-0.055375,0.347743,-0.066900;;,
   2560;4;0.937668,-0.051422,0.338045,-0.062125;;,
   2720;4;0.947532,-0.041287,0.313036,-0.049881;;,
   2880;4;0.959361,-0.027566,0.278849,-0.033303;;,
   3040;4;0.970086,-0.012906,0.241915,-0.015592;;,
   3200;4;0.977904,0.000000,0.209054,-0.000001;;;
  }

  AnimationKey T {
   2;
   21;
   0;3;0.183378,-0.000000,-0.000120;;,
   160;3;0.183386,-0.000004,-0.000116;;,
   320;3;0.183395,-0.000009,-0.000111;;,
   480;3;0.183402,-0.000014,-0.000105;;,
   640;3;0.183407,-0.000018,-0.000101;;,
   800;3;0.183409,-0.000020,-0.000099;;,
   960;3;0.183406,-0.000018,-0.000102;;,
   1120;3;0.183399,-0.000014,-0.000108;;,
   1280;3;0.183390,-0.000009,-0.000114;;,
   1440;3;0.183382,-0.000004,-0.000118;;,
   1600;3;0.183378,-0.000000,-0.000120;;,
   1760;3;0.183382,0.000004,-0.000118;;,
   1920;3;0.183390,0.000009,-0.000114;;,
   2080;3;0.183399,0.000014,-0.000108;;,
   2240;3;0.183406,0.000018,-0.000102;;,
   2400;3;0.183409,0.000020,-0.000099;;,
   2560;3;0.183407,0.000018,-0.000101;;,
   2720;3;0.183402,0.000014,-0.000105;;,
   2880;3;0.183395,0.000009,-0.000111;;,
   3040;3;0.183386,0.000004,-0.000116;;,
   3200;3;0.183378,-0.000000,-0.000120;;;
  }
 }

 Animation {
  
  { Bip01_DressFrontNub }

  AnimationKey S {
   1;
   2;
   0;3;1.000000,1.000000,1.000000;;,
   3200;3;1.000000,1.000000,1.000000;;;
  }

  AnimationKey R {
   0;
   2;
   0;4;-0.000001,0.707388,0.000001,0.706825;;,
   3200;4;-0.000001,0.707388,0.000001,0.706825;;;
  }

  AnimationKey T {
   2;
   2;
   0;3;0.165302,0.000000,0.000000;;,
   3200;3;0.165302,0.000000,0.000000;;;
  }
 }

 Animation {
  
  { Bip01_DressBack }

  AnimationKey S {
   1;
   2;
   0;3;1.000000,1.000000,1.000000;;,
   3200;3;1.000000,1.000000,1.000000;;;
  }

  AnimationKey R {
   0;
   21;
   0;4;0.231058,0.060008,0.956762,0.166188;;,
   160;4;0.194288,0.043307,0.972044,0.124524;;,
   320;4;0.152712,0.025987,0.984593,0.081119;;,
   480;4;0.112588,0.008792,0.992875,0.038030;;,
   640;4;0.080331,-0.007496,0.996737,-0.002571;;,
   800;4;0.062328,-0.022098,0.997068,-0.038501;;,
   960;4;0.064110,-0.036395,0.994635,-0.072567;;,
   1120;4;0.081608,-0.050844,0.989702,-0.106047;;,
   1280;4;0.106642,-0.063320,0.983110,-0.134586;;,
   1440;4;0.131062,-0.071777,0.976705,-0.154004;;,
   1600;4;0.146791,-0.074266,0.973259,-0.160327;;,
   1760;4;0.151246,-0.069129,0.974535,-0.150425;;,
   1920;4;0.149800,-0.057671,0.978834,-0.126954;;,
   2080;4;0.146317,-0.042424,0.983780,-0.094703;;,
   2240;4;0.144734,-0.025958,0.987395,-0.058556;;,
   2400;4;0.149087,-0.010888,0.988485,-0.023503;;,
   2560;4;0.160733,0.002886,0.986930,0.011251;;,
   2720;4;0.176868,0.017075,0.982868,0.048955;;,
   2880;4;0.195362,0.031464,0.976246,0.088249;;,
   3040;4;0.214107,0.045841,0.967332,0.127772;;,
   3200;4;0.231058,0.060008,0.956762,0.166188;;;
  }

  AnimationKey T {
   2;
   21;
   0;3;-0.047673,-0.000048,-0.078302;;,
   160;3;-0.047681,-0.000036,-0.078294;;,
   320;3;-0.047691,-0.000023,-0.078288;;,
   480;3;-0.047701,-0.000011,-0.078283;;,
   640;3;-0.047710,0.000001,-0.078281;;,
   800;3;-0.047715,0.000011,-0.078281;;,
   960;3;-0.047715,0.000021,-0.078282;;,
   1120;3;-0.047711,0.000031,-0.078284;;,
   1280;3;-0.047705,0.000039,-0.078287;;,
   1440;3;-0.047700,0.000045,-0.078291;;,
   1600;3;-0.047696,0.000047,-0.078292;;,
   1760;3;-0.047694,0.000044,-0.078292;;,
   1920;3;-0.047693,0.000037,-0.078290;;,
   2080;3;-0.047693,0.000028,-0.078288;;,
   2240;3;-0.047693,0.000017,-0.078286;;,
   2400;3;-0.047691,0.000007,-0.078285;;,
   2560;3;-0.047688,-0.000003,-0.078286;;,
   2720;3;-0.047684,-0.000014,-0.078289;;,
   2880;3;-0.047680,-0.000026,-0.078292;;,
   3040;3;-0.047676,-0.000037,-0.078297;;,
   3200;3;-0.047673,-0.000048,-0.078302;;;
  }
 }

 Animation {
  
  { Bip01_DressBack02 }

  AnimationKey S {
   1;
   2;
   0;3;1.000000,1.000000,1.000000;;,
   3200;3;1.000000,1.000000,1.000000;;;
  }

  AnimationKey R {
   0;
   21;
   0;4;0.983990,-0.013740,-0.155091,-0.086723;;,
   160;4;0.993842,-0.008853,-0.089121,-0.065251;;,
   320;4;0.998981,-0.003634,-0.013528,-0.042909;;,
   480;4;0.998129,0.001467,0.057563,-0.020563;;,
   640;4;0.993901,0.005981,0.110111,0.000732;;,
   800;4;0.991195,0.009449,0.130572,0.019842;;,
   960;4;0.994147,0.011819,0.100211,0.038587;;,
   1120;4;0.997877,0.013330,0.027770,0.057377;;,
   1280;4;0.995523,0.014014,-0.058192,0.073152;;,
   1440;4;0.988078,0.014046,-0.128588,0.083488;;,
   1600;4;0.983990,0.013740,-0.155091,0.086724;;,
   1760;4;0.989602,0.013210,-0.117632,0.081705;;,
   1920;4;0.996925,0.012210,-0.034611,0.069235;;,
   2080;4;0.996631,0.010600,0.063140,0.051271;;,
   2240;4;0.989061,0.008393,0.144028,0.030716;;,
   2400;4;0.984029,0.005740,0.177563,0.011190;;,
   2560;4;0.988061,0.002515,0.153864,-0.007434;;,
   2720;4;0.995305,-0.001342,0.092861,-0.027270;;,
   2880;4;0.998805,-0.005528,0.010083,-0.047500;;,
   3040;4;0.994613,-0.009747,-0.078107,-0.067446;;,
   3200;4;0.983990,-0.013740,-0.155091,-0.086723;;;
  }

  AnimationKey T {
   2;
   21;
   0;3;0.176125,0.000000,-0.000103;;,
   160;3;0.176139,0.000001,-0.000107;;,
   320;3;0.176156,0.000001,-0.000109;;,
   480;3;0.176171,-0.000000,-0.000108;;,
   640;3;0.176183,-0.000001,-0.000106;;,
   800;3;0.176187,-0.000003,-0.000105;;,
   960;3;0.176180,-0.000003,-0.000106;;,
   1120;3;0.176165,-0.000003,-0.000108;;,
   1280;3;0.176146,-0.000002,-0.000108;;,
   1440;3;0.176131,-0.000001,-0.000105;;,
   1600;3;0.176125,-0.000000,-0.000103;;,
   1760;3;0.176133,-0.000001,-0.000106;;,
   1920;3;0.176151,-0.000002,-0.000108;;,
   2080;3;0.176172,-0.000003,-0.000108;;,
   2240;3;0.176190,-0.000003,-0.000104;;,
   2400;3;0.176197,-0.000002,-0.000102;;,
   2560;3;0.176192,-0.000000,-0.000104;;,
   2720;3;0.176179,0.000001,-0.000107;;,
   2880;3;0.176161,0.000001,-0.000109;;,
   3040;3;0.176142,0.000001,-0.000107;;,
   3200;3;0.176125,0.000000,-0.000103;;;
  }
 }

 Animation {
  
  { Bip01_DressBackNub }

  AnimationKey S {
   1;
   2;
   0;3;1.000000,1.000000,1.000000;;,
   3200;3;1.000000,1.000000,1.000000;;;
  }

  AnimationKey R {
   0;
   2;
   0;4;-0.000001,0.707388,0.000001,0.706825;;,
   3200;4;-0.000001,0.707388,0.000001,0.706825;;;
  }

  AnimationKey T {
   2;
   2;
   0;3;0.136508,0.000000,0.000000;;,
   3200;3;0.136508,-0.000000,0.000000;;;
  }
 }

 Animation {
  
  { Bip01_Prop1 }

  AnimationKey S {
   1;
   2;
   0;3;1.000000,1.000000,1.000000;;,
   3200;3;1.000000,1.000000,1.000000;;;
  }

  AnimationKey R {
   0;
   21;
   0;4;0.584126,0.204529,0.707886,0.340386;;,
   160;4;0.583673,0.207824,0.709635,0.335489;;,
   320;4;0.579727,0.234529,0.702096,0.340551;;,
   480;4;0.574784,0.271336,0.687421,0.351358;;,
   640;4;0.570798,0.305767,0.669759,0.363482;;,
   800;4;0.570077,0.326210,0.655876,0.372057;;,
   960;4;0.565697,0.349911,0.640185,0.384335;;,
   1120;4;0.550928,0.392681,0.613897,0.406708;;,
   1280;4;0.529307,0.441793,0.580718,0.432920;;,
   1440;4;0.505613,0.485999,0.546602,0.457588;;,
   1600;4;0.486390,0.515574,0.520076,0.476580;;,
   1760;4;0.477751,0.522649,0.510112,0.488240;;,
   1920;4;0.478494,0.511810,0.514012,0.494859;;,
   2080;4;0.485076,0.491215,0.525024,0.497754;;,
   2240;4;0.492815,0.468875,0.538050,0.497788;;,
   2400;4;0.496321,0.453361,0.549778,0.495856;;,
   2560;4;0.507546,0.425008,0.574969,0.480808;;,
   2720;4;0.532484,0.367959,0.617761,0.446585;;,
   2880;4;0.558207,0.298555,0.660976,0.402963;;,
   3040;4;0.576527,0.236473,0.693010,0.362538;;,
   3200;4;0.584126,0.204529,0.707886,0.340386;;;
  }

  AnimationKey T {
   2;
   21;
   0;3;0.076452,-0.048658,-0.145664;;,
   160;3;0.071673,-0.049867,-0.143023;;,
   320;3;0.050229,-0.055717,-0.139328;;,
   480;3;0.021255,-0.062157,-0.136029;;,
   640;3;-0.005902,-0.067093,-0.134226;;,
   800;3;-0.021423,-0.070681,-0.134949;;,
   960;3;-0.037732,-0.074550,-0.135307;;,
   1120;3;-0.067907,-0.077577,-0.132602;;,
   1280;3;-0.102863,-0.077036,-0.128342;;,
   1440;3;-0.133592,-0.072925,-0.124217;;,
   1600;3;-0.151448,-0.068415,-0.122203;;,
   1760;3;-0.149157,-0.066954,-0.124632;;,
   1920;3;-0.131251,-0.067350,-0.130687;;,
   2080;3;-0.106132,-0.067166,-0.137681;;,
   2240;3;-0.082221,-0.065339,-0.142918;;,
   2400;3;-0.068190,-0.062591,-0.143815;;,
   2560;3;-0.050185,-0.062097,-0.143049;;,
   2720;3;-0.015394,-0.062552,-0.143970;;,
   2880;3;0.025046,-0.059596,-0.145269;;,
   3040;3;0.059455,-0.053335,-0.146012;;,
   3200;3;0.076452,-0.048658,-0.145664;;;
  }
 }

 Animation {
  
  { Bip01_Prop2 }

  AnimationKey S {
   1;
   2;
   0;3;1.000000,1.000000,1.000000;;,
   3200;3;1.000000,1.000000,1.000000;;;
  }

  AnimationKey R {
   0;
   21;
   0;4;0.641912,0.078278,0.059128,0.760477;;,
   160;4;0.632264,0.082867,0.058650,0.768073;;,
   320;4;0.646138,0.094618,0.058521,0.755069;;,
   480;4;0.671445,0.109444,0.059137,0.730539;;,
   640;4;0.697289,0.123207,0.059105,0.703644;;,
   800;4;0.714474,0.131643,0.055500,0.684921;;,
   960;4;0.740767,0.138250,0.049612,0.655508;;,
   1120;4;0.786605,0.147640,0.044709,0.597877;;,
   1280;4;0.834590,0.156974,0.040573,0.526472;;,
   1440;4;0.872472,0.163647,0.037163,0.458946;;,
   1600;4;0.893446,0.165197,0.034772,0.416240;;,
   1760;4;0.894278,0.159268,0.033005,0.416907;;,
   1920;4;0.879354,0.148087,0.031999,0.451424;;,
   2080;4;0.854380,0.135093,0.033860,0.500638;;,
   2240;4;0.827301,0.123234,0.040095,0.546607;;,
   2400;4;0.809913,0.115444,0.050428,0.572862;;,
   2560;4;0.789543,0.108743,0.058584,0.601136;;,
   2720;4;0.751706,0.099284,0.061665,0.649059;;,
   2880;4;0.707296,0.089449,0.061527,0.698531;;,
   3040;4;0.667083,0.081610,0.060091,0.738058;;,
   3200;4;0.641912,0.078278,0.059127,0.760477;;;
  }

  AnimationKey T {
   2;
   21;
   0;3;-0.138405,-0.102098,0.114818;;,
   160;3;-0.132280,-0.102304,0.117597;;,
   320;3;-0.106946,-0.104043,0.124238;;,
   480;3;-0.073007,-0.103915,0.131767;;,
   640;3;-0.041288,-0.100862,0.137213;;,
   800;3;-0.022918,-0.096746,0.137743;;,
   960;3;-0.003948,-0.092478,0.135864;;,
   1120;3;0.029913,-0.085467,0.135068;;,
   1280;3;0.067986,-0.074371,0.134377;;,
   1440;3;0.100214,-0.061443,0.133262;;,
   1600;3;0.117753,-0.052654,0.131638;;,
   1760;3;0.111674,-0.054896,0.129362;;,
   1920;3;0.085873,-0.065404,0.126862;;,
   2080;3;0.050847,-0.077382,0.125071;;,
   2240;3;0.017884,-0.086855,0.124918;;,
   2400;3;-0.000697,-0.093218,0.127312;;,
   2560;3;-0.019757,-0.099657,0.128774;;,
   2720;3;-0.054007,-0.105382,0.126300;;,
   2880;3;-0.091539,-0.106848,0.121611;;,
   3040;3;-0.122421,-0.104564,0.116961;;,
   3200;3;-0.138405,-0.102098,0.114818;;;
  }
 }

 Animation {
  
  { Translation_Data }

  AnimationKey S {
   1;
   2;
   0;3;1.000000,1.000000,1.000000;;,
   3200;3;1.000000,1.000000,1.000000;;;
  }

  AnimationKey R {
   0;
   2;
   0;4;-0.500000,-0.500000,0.500000,0.500000;;,
   3200;4;-0.500000,-0.500000,0.500000,0.500000;;;
  }

  AnimationKey T {
   2;
   2;
   0;3;0.000000,-0.000000,0.000000;;,
   3200;3;0.000000,-0.000000,0.000000;;;
  }
 }
}