# Project Zomboid Mesh
# File Version:
1.00000000
# Model Name:
Vehicle_Wheel04
# Vertex Stride Element Count:
3
# Vertex Stride Size (in bytes):
76
# Vertex Stride Data:
# (Int)    Offset
# (String) Type
0
VertexArray
12
NormalArray
24
TextureCoordArray
# Vertex Count:
52
# Vertex Buffer:
0.07087200, 0.15803400, 0.00000000
-0.00000020, 1.00000000, -0.00000019
0.17558320, 0.18401920
-0.07139900, 0.13686100, 0.07901700
-0.00000017, 0.86602540, 0.50000000
0.03423860, 0.26367240
0.07087200, 0.13686100, 0.07901700
-0.00000017, 0.86602540, 0.50000000
0.17558320, 0.26367240
-0.07139900, 0.15803400, 0.00000000
-0.00000020, 1.00000000, -0.00000019
0.03423860, 0.18401930
-0.07139900, 0.07901700, 0.13686100
-0.00000009, 0.50000000, 0.86602540
0.03423855, 0.34332540
0.07087200, 0.07901700, 0.13686100
-0.00000008, 0.49999990, 0.86602540
0.17558320, 0.34332540
-0.07139900, 0.00000000, 0.15803400
0.00000000, 0.00000001, 1.00000000
0.03423855, 0.42297850
0.07087200, 0.00000000, 0.15803400
0.00000000, -0.00000001, 1.00000000
0.17558320, 0.42297850
-0.07139900, -0.07901700, 0.13686100
0.00000008, -0.49999990, 0.86602540
0.03423855, 0.50263140
0.07087200, -0.07901700, 0.13686100
0.00000011, -0.50000000, 0.86602540
0.17558320, 0.50263140
-0.07139900, -0.13686100, 0.07901700
0.00000021, -0.86602540, 0.50000000
0.03423849, 0.58228450
0.07087200, -0.13686100, 0.07901700
0.00000021, -0.86602540, 0.50000000
0.17558320, 0.58228460
-0.07139900, -0.15803400, 0.00000000
0.00000022, -1.00000000, 0.00000009
0.03423849, 0.66193750
0.07087200, -0.15803400, 0.00000000
0.00000020, -1.00000000, 0.00000012
0.17558310, 0.66193750
-0.07139900, -0.13686100, -0.07901700
0.00000017, -0.86602560, -0.49999970
0.03423849, 0.74159060
0.07087200, -0.13686100, -0.07901700
0.00000017, -0.86602550, -0.49999980
0.17558310, 0.74159060
-0.07139900, -0.07901700, -0.13686100
0.00000009, -0.50000030, -0.86602530
0.03423849, 0.82124350
0.07087200, -0.07901700, -0.13686100
0.00000008, -0.50000030, -0.86602530
0.17558310, 0.82124350
-0.07139900, 0.00000000, -0.15803400
0.00000000, -0.00000042, -1.00000000
0.03423849, 0.90089670
0.07087200, 0.00000000, -0.15803400
0.00000000, -0.00000042, -1.00000000
0.17558310, 0.90089670
-0.07139900, 0.07901700, -0.13686100
-0.00000008, 0.49999950, -0.86602570
0.03423849, 0.98054960
0.07087200, 0.07901700, -0.13686100
-0.00000009, 0.49999950, -0.86602570
0.17558310, 0.98054960
0.07087200, 0.07901700, -0.13686100
-0.00000009, 0.49999950, -0.86602570
0.17558310, 0.02471304
-0.07139900, 0.13686100, -0.07901700
-0.00000017, 0.86602520, -0.50000040
0.03423855, 0.10436620
0.07087200, 0.13686100, -0.07901700
-0.00000017, 0.86602520, -0.50000040
0.17558320, 0.10436620
-0.07139900, 0.07901700, -0.13686100
-0.00000008, 0.49999950, -0.86602570
0.03423855, 0.02471304
0.07087200, 0.13686100, 0.07901700
1.00000000, 0.00000012, 0.00000003
0.31656820, 0.48413590
0.07087200, 0.00000000, 0.00000000
1.00000000, 0.00000016, 0.00000000
0.38662370, 0.60547560
0.07087200, 0.15803400, 0.00000000
1.00000000, 0.00000012, 0.00000000
0.38662370, 0.46536460
0.07087200, 0.07901700, 0.13686100
1.00000000, 0.00000015, 0.00000002
0.26528400, 0.53542010
0.07087200, 0.00000000, 0.15803400
1.00000000, 0.00000021, 0.00000000
0.24651270, 0.60547560
0.07087200, -0.07901700, 0.13686100
1.00000000, 0.00000019, -0.00000003
0.26528400, 0.67553110
0.07087200, -0.13686100, 0.07901700
1.00000000, 0.00000015, -0.00000005
0.31656820, 0.72681530
0.07087200, -0.15803400, 0.00000000
1.00000000, 0.00000015, 0.00000000
0.38662370, 0.74558660
0.07087200, -0.13686100, -0.07901700
1.00000000, 0.00000015, 0.00000005
0.45667920, 0.72681530
0.07087200, -0.07901700, -0.13686100
1.00000000, 0.00000019, 0.00000003
0.50796340, 0.67553110
0.07087200, 0.00000000, -0.15803400
1.00000000, 0.00000021, 0.00000000
0.52673470, 0.60547560
0.07087200, 0.07901700, -0.13686100
1.00000000, 0.00000015, -0.00000002
0.50796340, 0.53542010
0.07087200, 0.13686100, -0.07901700
1.00000000, 0.00000012, -0.00000003
0.45667930, 0.48413600
-0.07139900, 0.15803400, 0.00000000
-1.00000000, -0.00000021, 0.00000000
0.38662370, 0.46536460
-0.07139900, 0.00000000, 0.00000000
-1.00000000, -0.00000016, 0.00000000
0.38662370, 0.60547560
-0.07139900, 0.13686100, 0.07901700
-1.00000000, -0.00000015, 0.00000002
0.31656820, 0.48413590
-0.07139900, 0.07901700, 0.13686100
-1.00000000, -0.00000016, -0.00000004
0.26528400, 0.53542010
-0.07139900, 0.00000000, 0.15803400
-1.00000000, -0.00000021, 0.00000000
0.24651270, 0.60547560
-0.07139900, -0.07901700, 0.13686100
-1.00000000, -0.00000012, 0.00000003
0.26528400, 0.67553110
-0.07139900, -0.13686100, 0.07901700
-1.00000000, -0.00000012, -0.00000003
0.31656820, 0.72681530
-0.07139900, -0.15803400, 0.00000000
-1.00000000, -0.00000018, 0.00000000
0.38662370, 0.74558660
-0.07139900, -0.13686100, -0.07901700
-1.00000000, -0.00000012, 0.00000003
0.45667920, 0.72681530
-0.07139900, -0.07901700, -0.13686100
-1.00000000, -0.00000012, -0.00000003
0.50796340, 0.67553110
-0.07139900, 0.00000000, -0.15803400
-1.00000000, -0.00000021, 0.00000000
0.52673470, 0.60547560
-0.07139900, 0.07901700, -0.13686100
-1.00000000, -0.00000016, 0.00000004
0.50796340, 0.53542010
-0.07139900, 0.13686100, -0.07901700
-1.00000000, -0.00000015, -0.00000002
0.45667930, 0.48413600
# Number of Faces:
48
# Face Data:
0, 1, 2
1, 0, 3
2, 4, 5
4, 2, 1
5, 6, 7
6, 5, 4
7, 8, 9
8, 7, 6
9, 10, 11
10, 9, 8
11, 12, 13
12, 11, 10
13, 14, 15
14, 13, 12
15, 16, 17
16, 15, 14
17, 18, 19
18, 17, 16
19, 20, 21
20, 19, 18
22, 23, 24
23, 22, 25
24, 3, 0
3, 24, 23
26, 27, 28
29, 27, 26
30, 27, 29
31, 27, 30
32, 27, 31
33, 27, 32
34, 27, 33
35, 27, 34
36, 27, 35
37, 27, 36
38, 27, 37
28, 27, 38
39, 40, 41
41, 40, 42
42, 40, 43
43, 40, 44
44, 40, 45
45, 40, 46
46, 40, 47
47, 40, 48
48, 40, 49
49, 40, 50
50, 40, 51
51, 40, 39
