xof 0303txt 0032
template ColorRGBA {
 <35ff44e0-6c7c-11cf-8f52-0040333594a3>
 FLOAT red;
 FLOAT green;
 FLOAT blue;
 FLOAT alpha;
}

template ColorRGB {
 <d3e16e81-7835-11cf-8f52-0040333594a3>
 FLOAT red;
 FLOAT green;
 FLOAT blue;
}

template Material {
 <3d82ab4d-62da-11cf-ab39-0020af71e433>
 ColorRGBA faceColor;
 FLOAT power;
 ColorRGB specularColor;
 ColorRGB emissiveColor;
 [...]
}

template TextureFilename {
 <a42790e1-7810-11cf-8f52-0040333594a3>
 STRING filename;
}

template Frame {
 <3d82ab46-62da-11cf-ab39-0020af71e433>
 [...]
}

template Matrix4x4 {
 <f6f23f45-7686-11cf-8f52-0040333594a3>
 array FLOAT matrix[16];
}

template FrameTransformMatrix {
 <f6f23f41-7686-11cf-8f52-0040333594a3>
 Matrix4x4 frameMatrix;
}

template Vector {
 <3d82ab5e-62da-11cf-ab39-0020af71e433>
 FLOAT x;
 FLOAT y;
 FLOAT z;
}

template MeshFace {
 <3d82ab5f-62da-11cf-ab39-0020af71e433>
 DWORD nFaceVertexIndices;
 array DWORD faceVertexIndices[nFaceVertexIndices];
}

template Mesh {
 <3d82ab44-62da-11cf-ab39-0020af71e433>
 DWORD nVertices;
 array Vector vertices[nVertices];
 DWORD nFaces;
 array MeshFace faces[nFaces];
 [...]
}

template MeshNormals {
 <f6f23f43-7686-11cf-8f52-0040333594a3>
 DWORD nNormals;
 array Vector normals[nNormals];
 DWORD nFaceNormals;
 array MeshFace faceNormals[nFaceNormals];
}

template MeshMaterialList {
 <f6f23f42-7686-11cf-8f52-0040333594a3>
 DWORD nMaterials;
 DWORD nFaceIndexes;
 array DWORD faceIndexes[nFaceIndexes];
 [Material <3d82ab4d-62da-11cf-ab39-0020af71e433>]
}

template Coords2d {
 <f6f23f44-7686-11cf-8f52-0040333594a3>
 FLOAT u;
 FLOAT v;
}

template MeshTextureCoords {
 <f6f23f40-7686-11cf-8f52-0040333594a3>
 DWORD nTextureCoords;
 array Coords2d textureCoords[nTextureCoords];
}


Material _21_-_Default {
 1.000000;1.000000;1.000000;1.000000;;
 9.999999;
 0.000000;0.000000;0.000000;;
 0.000000;0.000000;0.000000;;

 TextureFilename {
  "9mm.png";
 }
}

Frame Handgun03 {
 

 FrameTransformMatrix {
  1.000000,0.000000,-0.000000,0.000000,0.000000,1.000000,0.000000,0.000000,0.000000,0.000000,1.000000,0.000000,0.000000,0.000000,0.000000,1.000000;;
 }

 Mesh Handgun03 {
  323;
  -0.004087;-0.000091;-0.002825;,
  0.000000;-0.011548;-0.003775;,
  0.000000;-0.001301;-0.001603;,
  0.000000;0.044179;-0.001338;,
  -0.004087;0.038355;0.010126;,
  0.000000;0.039249;0.010126;,
  -0.005763;0.042684;-0.002860;,
  -0.005684;0.131449;-0.015706;,
  -0.005684;0.119464;-0.005796;,
  -0.005763;0.131449;-0.008141;,
  -0.009933;0.119568;-0.015702;,
  -0.009933;0.119534;-0.027145;,
  -0.009933;0.039458;-0.027189;,
  -0.005763;0.019903;-0.031614;,
  -0.005763;0.019903;-0.031614;,
  -0.005763;0.131449;-0.031614;,
  -0.005763;0.019903;-0.031614;,
  -0.005763;0.010083;-0.031614;,
  -0.005763;0.019903;-0.031614;,
  -0.005763;0.019903;-0.031614;,
  -0.005763;0.015243;-0.036338;,
  -0.005763;0.010083;-0.031614;,
  -0.007456;-0.000227;0.061888;,
  -0.007456;0.020074;0.062505;,
  -0.007456;0.018804;0.048187;,
  -0.009933;0.003550;-0.007324;,
  -0.009933;-0.014725;-0.008783;,
  -0.007456;0.012228;-0.003172;,
  -0.004087;0.003230;0.000797;,
  -0.007456;0.010051;0.006932;,
  -0.004087;0.004238;0.006695;,
  -0.007456;0.004204;0.022349;,
  -0.004087;-0.001296;0.020525;,
  -0.007456;-0.003103;0.052136;,
  -0.004087;-0.009562;0.043528;,
  -0.004087;-0.009044;0.058046;,
  -0.004087;0.024796;0.062662;,
  -0.004087;0.024798;0.048263;,
  -0.007456;0.036215;-0.003556;,
  -0.005763;0.131449;-0.027143;,
  -0.005763;0.131449;-0.031614;,
  -0.009933;0.119534;-0.027145;,
  -0.005763;0.131449;-0.031614;,
  -0.005763;0.019903;-0.031614;,
  -0.009933;0.039458;-0.027189;,
  -0.005684;0.131449;-0.015706;,
  -0.009933;0.119568;-0.015702;,
  -0.007456;0.036215;-0.003556;,
  -0.007456;0.012228;-0.003172;,
  -0.007456;0.010051;0.006932;,
  -0.007456;0.028146;0.022104;,
  -0.007456;0.004204;0.022349;,
  -0.007456;0.018804;0.048187;,
  -0.007456;-0.003103;0.052136;,
  -0.005763;0.042684;-0.002860;,
  -0.009933;0.037514;-0.007685;,
  -0.007456;0.036215;-0.003556;,
  -0.009933;-0.002684;-0.015646;,
  -0.007456;0.028146;0.022104;,
  -0.004087;0.034027;0.023111;,
  -0.004087;0.038355;0.010126;,
  -0.003276;0.039844;0.014974;,
  0.000000;0.039249;0.010126;,
  -0.004087;0.034027;0.023111;,
  -0.003276;0.039844;0.014974;,
  -0.004087;0.038355;0.010126;,
  -0.003276;0.037721;0.021452;,
  -0.002513;0.044204;0.017650;,
  -0.001696;0.057818;0.020078;,
  -0.001696;0.057710;0.018156;,
  -0.001696;0.068796;0.017278;,
  -0.001696;0.067815;0.015677;,
  -0.001696;0.073748;0.015173;,
  -0.001696;0.071271;0.012507;,
  -0.001696;0.071950;0.004606;,
  0.000000;0.071695;0.004606;,
  -0.001696;0.071271;0.012507;,
  -0.001696;0.074126;0.004545;,
  -0.000000;0.066074;-0.002166;,
  -0.002633;0.068355;-0.003919;,
  -0.002633;0.079274;-0.004271;,
  -0.005763;0.042684;-0.002860;,
  0.000000;0.044179;-0.001338;,
  -0.002633;0.068355;-0.003919;,
  -0.005684;0.119464;-0.005796;,
  -0.005763;0.042684;-0.002860;,
  -0.002633;0.079274;-0.004271;,
  -0.009933;0.042928;-0.015663;,
  -0.005763;0.010083;-0.031614;,
  -0.009933;0.004201;-0.027959;,
  -0.009933;0.004201;-0.027959;,
  -0.009933;0.119534;-0.027145;,
  -0.005684;0.119568;-0.015702;,
  -0.009933;0.042928;-0.015663;,
  -0.005684;0.042835;-0.015663;,
  -0.009933;0.119568;-0.015702;,
  -0.005684;0.042835;-0.015663;,
  -0.005684;0.119568;-0.015702;,
  -0.005763;0.042684;-0.002860;,
  -0.005684;0.042835;-0.015663;,
  -0.005684;0.131449;-0.015706;,
  0.004087;-0.000091;-0.002825;,
  0.004087;0.004238;0.006695;,
  0.004087;0.003230;0.000797;,
  0.004087;-0.001296;0.020525;,
  0.004087;-0.009562;0.043528;,
  0.004087;-0.009044;0.058046;,
  0.004087;0.024798;0.048263;,
  0.004087;0.024796;0.062662;,
  0.004087;0.038355;0.010126;,
  0.005763;0.042684;-0.002860;,
  -0.005684;0.131449;-0.015706;,
  0.005763;0.131449;-0.008141;,
  0.005684;0.131449;-0.015706;,
  -0.005763;0.131449;-0.008141;,
  0.005763;0.019903;-0.031614;,
  -0.005763;0.019903;-0.031614;,
  0.005763;0.131449;-0.031614;,
  -0.005763;0.019903;-0.031614;,
  0.005763;0.015243;-0.036338;,
  -0.005763;0.015243;-0.036338;,
  0.005763;0.019903;-0.031614;,
  -0.005763;0.015243;-0.036338;,
  0.005763;0.010083;-0.031614;,
  -0.005763;0.010083;-0.031614;,
  0.005763;0.015243;-0.036338;,
  -0.005763;0.131449;-0.031614;,
  0.005763;0.131449;-0.027143;,
  0.005763;0.131449;-0.031614;,
  -0.005763;0.131449;-0.027143;,
  0.005684;0.119464;-0.005796;,
  0.005684;0.131449;-0.015706;,
  0.005763;0.131449;-0.008141;,
  0.009933;0.119568;-0.015702;,
  0.009933;0.039458;-0.027189;,
  0.009933;0.119534;-0.027145;,
  0.005763;0.019903;-0.031614;,
  0.005763;0.019903;-0.031614;,
  0.005763;0.131449;-0.031614;,
  0.005763;0.019903;-0.031614;,
  0.005763;0.010083;-0.031614;,
  0.005763;0.015243;-0.036338;,
  0.005763;0.019903;-0.031614;,
  0.005763;0.010083;-0.031614;,
  0.005763;0.019903;-0.031614;,
  0.007456;-0.000227;0.061888;,
  0.007456;0.018804;0.048187;,
  0.007456;0.020074;0.062505;,
  -0.009933;-0.002684;-0.015646;,
  0.009933;-0.014725;-0.008783;,
  -0.009933;-0.014725;-0.008783;,
  0.009933;-0.002684;-0.015646;,
  0.009933;0.003550;-0.007324;,
  0.009933;-0.014725;-0.008783;,
  0.007456;0.012228;-0.003172;,
  0.007456;0.010051;0.006932;,
  0.007456;0.004204;0.022349;,
  0.007456;-0.003103;0.052136;,
  0.007456;0.036215;-0.003556;,
  0.005763;0.131449;-0.027143;,
  0.009933;0.119534;-0.027145;,
  0.005763;0.131449;-0.031614;,
  0.009933;0.039458;-0.027189;,
  0.005763;0.019903;-0.031614;,
  0.005684;0.131449;-0.015706;,
  0.009933;0.119568;-0.015702;,
  0.007456;0.036215;-0.003556;,
  0.007456;0.010051;0.006932;,
  0.007456;0.012228;-0.003172;,
  0.007456;0.028146;0.022104;,
  0.007456;0.004204;0.022349;,
  0.007456;0.018804;0.048187;,
  0.007456;-0.003103;0.052136;,
  0.005763;0.042684;-0.002860;,
  0.007456;0.036215;-0.003556;,
  0.009933;0.037514;-0.007685;,
  0.009933;-0.002684;-0.015646;,
  0.005763;0.131449;-0.008141;,
  -0.005763;0.131449;-0.008141;,
  0.005684;0.119464;-0.005796;,
  0.007456;0.028146;0.022104;,
  0.004087;0.034027;0.023111;,
  0.003276;0.039844;0.014974;,
  0.004087;0.038355;0.010126;,
  0.003276;0.039844;0.014974;,
  0.004087;0.034027;0.023111;,
  0.004087;0.038355;0.010126;,
  0.003276;0.037721;0.021452;,
  0.002513;0.044204;0.017650;,
  -0.002513;0.044204;0.017650;,
  0.002513;0.044204;0.017650;,
  0.001696;0.057710;0.018156;,
  -0.001696;0.057710;0.018156;,
  0.001696;0.057818;0.020078;,
  0.001696;0.057710;0.018156;,
  0.001696;0.067815;0.015677;,
  -0.001696;0.067815;0.015677;,
  0.001696;0.068796;0.017278;,
  0.001696;0.067815;0.015677;,
  0.001696;0.071271;0.012507;,
  0.001696;0.073748;0.015173;,
  0.001696;0.071271;0.012507;,
  0.001696;0.071950;0.004606;,
  0.001696;0.074126;0.004545;,
  0.002633;0.068355;-0.003919;,
  0.002633;0.079274;-0.004271;,
  0.005763;0.042684;-0.002860;,
  0.002633;0.068355;-0.003919;,
  0.002633;0.079274;-0.004271;,
  0.005763;0.042684;-0.002860;,
  0.009933;0.042928;-0.015663;,
  0.009933;0.004201;-0.027959;,
  0.005763;0.010083;-0.031614;,
  0.009933;0.004201;-0.027959;,
  0.009933;0.119534;-0.027145;,
  0.005684;0.119568;-0.015702;,
  0.009933;0.042928;-0.015663;,
  0.009933;0.119568;-0.015702;,
  0.005684;0.042835;-0.015663;,
  0.005684;0.042835;-0.015663;,
  0.005763;0.042684;-0.002860;,
  0.005684;0.119568;-0.015702;,
  0.005684;0.042835;-0.015663;,
  0.005684;0.131449;-0.015706;,
  0.003815;0.131262;-0.031600;,
  -0.003815;0.121111;-0.031600;,
  0.003815;0.121111;-0.031600;,
  -0.003815;0.131262;-0.031600;,
  0.003815;0.124224;-0.035565;,
  -0.003815;0.121111;-0.031600;,
  -0.003815;0.124224;-0.035565;,
  0.003815;0.121111;-0.031600;,
  0.003815;0.121111;-0.031600;,
  0.003815;0.124224;-0.035565;,
  0.003815;0.131262;-0.031600;,
  -0.003815;0.124224;-0.035565;,
  0.003815;0.131262;-0.031600;,
  0.003815;0.124224;-0.035565;,
  -0.003815;0.131262;-0.031600;,
  -0.003815;0.131262;-0.031600;,
  -0.003815;0.124224;-0.035565;,
  -0.003815;0.121111;-0.031600;,
  0.002869;0.136647;-0.021415;,
  0.005738;0.130656;-0.026385;,
  0.005738;0.136647;-0.026385;,
  0.002869;0.130656;-0.021415;,
  -0.002869;0.136647;-0.021415;,
  -0.002869;0.130656;-0.021415;,
  -0.005738;0.136647;-0.026385;,
  -0.005738;0.130656;-0.026385;,
  -0.002869;0.136647;-0.031354;,
  -0.002869;0.130656;-0.031354;,
  0.002869;0.136647;-0.031354;,
  0.002869;0.130656;-0.031354;,
  0.005738;0.136647;-0.026385;,
  -0.002869;0.136647;-0.021415;,
  0.002869;0.136647;-0.021415;,
  -0.005738;0.136647;-0.026385;,
  -0.002869;0.136647;-0.031354;,
  0.002869;0.136647;-0.031354;,
  0.007456;0.020074;0.062505;,
  -0.007456;-0.000227;0.061888;,
  0.007456;-0.000227;0.061888;,
  -0.007456;0.020074;0.062505;,
  -0.004087;0.024796;0.062662;,
  0.004087;0.024796;0.062662;,
  0.004087;-0.009044;0.058046;,
  -0.004087;-0.009044;0.058046;,
  -0.009933;0.004201;-0.027959;,
  0.005763;0.010083;-0.031614;,
  0.009933;0.004201;-0.027959;,
  -0.005763;0.010083;-0.031614;,
  -0.002851;0.000220;-0.019541;,
  0.002851;0.005439;-0.028329;,
  -0.002851;0.005439;-0.028329;,
  0.002851;0.000220;-0.019541;,
  -0.002851;-0.002454;-0.026844;,
  0.002851;-0.000477;-0.029460;,
  0.002851;-0.002454;-0.026844;,
  -0.002851;-0.000477;-0.029460;,
  -0.002851;0.000220;-0.019541;,
  0.002851;0.000220;-0.019541;,
  0.002851;0.000220;-0.019541;,
  0.002851;-0.000477;-0.029460;,
  0.002851;0.005439;-0.028329;,
  0.002851;-0.002454;-0.026844;,
  0.002851;0.005439;-0.028329;,
  -0.002851;0.005439;-0.028329;,
  -0.002851;0.005439;-0.028329;,
  -0.002851;-0.002454;-0.026844;,
  -0.002851;0.000220;-0.019541;,
  -0.002851;-0.000477;-0.029460;,
  -0.009933;-0.014725;-0.008783;,
  0.009933;-0.014725;-0.008783;,
  0.000000;-0.011548;-0.003775;,
  -0.000761;0.059076;0.015097;,
  0.000761;0.060858;0.013834;,
  -0.000761;0.060858;0.013834;,
  0.000761;0.059076;0.015097;,
  -0.000761;0.047900;-0.001306;,
  0.000761;0.053800;-0.001306;,
  0.000761;0.047900;-0.001306;,
  -0.000761;0.053800;-0.001306;,
  0.000761;0.051499;0.009555;,
  -0.000761;0.051499;0.009555;,
  0.000761;0.047900;-0.001306;,
  -0.000761;0.047900;-0.001306;,
  0.000761;0.059076;0.015097;,
  0.000761;0.053941;0.007936;,
  0.000761;0.060858;0.013834;,
  0.000761;0.051499;0.009555;,
  0.000761;0.053800;-0.001306;,
  0.000761;0.047900;-0.001306;,
  -0.000761;0.053941;0.007936;,
  0.000761;0.053941;0.007936;,
  -0.000761;0.053800;-0.001306;,
  0.000761;0.053800;-0.001306;,
  -0.000761;0.060858;0.013834;,
  -0.000761;0.051499;0.009555;,
  -0.000761;0.059076;0.015097;,
  -0.000761;0.053941;0.007936;,
  -0.000761;0.047900;-0.001306;,
  -0.000761;0.053800;-0.001306;;
  280;
  3;0,1,2;,
  3;3,4,5;,
  3;4,3,6;,
  3;7,8,9;,
  3;10,11,12;,
  3;13,14,15;,
  3;16,17,18;,
  3;19,20,21;,
  3;22,23,24;,
  3;1,25,26;,
  3;25,1,0;,
  3;0,27,25;,
  3;27,0,28;,
  3;28,29,27;,
  3;29,28,30;,
  3;30,31,29;,
  3;31,30,32;,
  3;32,33,31;,
  3;33,32,34;,
  3;34,22,33;,
  3;22,34,35;,
  3;36,24,23;,
  3;24,36,37;,
  3;4,6,38;,
  3;39,40,41;,
  3;42,43,44;,
  3;41,45,39;,
  3;45,41,46;,
  3;47,48,49;,
  3;50,47,51;,
  3;52,51,53;,
  3;54,55,56;,
  3;57,26,25;,
  3;58,4,38;,
  3;4,58,59;,
  3;51,52,50;,
  3;58,37,59;,
  3;37,58,24;,
  3;60,61,62;,
  3;63,64,65;,
  3;64,63,66;,
  3;66,67,64;,
  3;67,68,69;,
  3;68,67,66;,
  3;69,70,71;,
  3;70,69,68;,
  3;71,72,73;,
  3;72,71,70;,
  3;74,75,76;,
  3;73,77,74;,
  3;77,73,72;,
  3;78,74,79;,
  3;74,78,75;,
  3;79,77,80;,
  3;77,79,74;,
  3;81,78,79;,
  3;78,81,82;,
  3;83,84,85;,
  3;84,83,86;,
  3;87,55,54;,
  3;88,89,43;,
  3;12,57,87;,
  3;57,12,90;,
  3;49,51,47;,
  3;55,87,57;,
  3;89,44,43;,
  3;24,33,22;,
  3;44,91,42;,
  3;12,87,10;,
  3;55,57,25;,
  3;56,25,27;,
  3;25,56,55;,
  3;92,93,94;,
  3;93,92,95;,
  3;96,8,97;,
  3;8,96,98;,
  3;99,87,54;,
  3;7,97,8;,
  3;92,100,95;,
  3;101,2,1;,
  3;28,102,30;,
  3;102,28,103;,
  3;30,104,32;,
  3;104,30,102;,
  3;32,105,34;,
  3;105,32,104;,
  3;34,106,35;,
  3;106,34,105;,
  3;36,107,37;,
  3;107,36,108;,
  3;3,109,110;,
  3;109,3,5;,
  3;111,112,113;,
  3;112,111,114;,
  3;40,115,116;,
  3;115,40,117;,
  3;118,119,120;,
  3;119,118,121;,
  3;122,123,124;,
  3;123,122,125;,
  3;126,127,128;,
  3;127,126,129;,
  3;130,131,132;,
  3;133,134,135;,
  3;113,129,111;,
  3;129,113,127;,
  3;136,137,138;,
  3;139,140,141;,
  3;142,143,144;,
  3;145,146,147;,
  3;148,149,150;,
  3;149,148,151;,
  3;1,152,101;,
  3;152,1,153;,
  3;101,154,103;,
  3;154,101,152;,
  3;103,155,102;,
  3;155,103,154;,
  3;102,156,104;,
  3;156,102,155;,
  3;104,157,105;,
  3;157,104,156;,
  3;105,145,106;,
  3;145,105,157;,
  3;108,146,107;,
  3;146,108,147;,
  3;109,158,110;,
  3;159,160,117;,
  3;161,162,163;,
  3;160,164,165;,
  3;164,160,159;,
  3;166,167,168;,
  3;166,169,170;,
  3;171,172,170;,
  3;173,174,175;,
  3;152,153,176;,
  3;84,177,178;,
  3;177,84,179;,
  3;180,109,181;,
  3;109,180,158;,
  3;170,169,171;,
  3;180,107,146;,
  3;107,180,181;,
  3;181,37,107;,
  3;37,181,59;,
  3;62,182,183;,
  3;182,62,61;,
  3;184,185,186;,
  3;185,184,187;,
  3;185,66,63;,
  3;66,185,187;,
  3;61,188,182;,
  3;188,61,189;,
  3;190,187,184;,
  3;189,191,188;,
  3;191,189,192;,
  3;190,193,187;,
  3;193,190,194;,
  3;187,68,66;,
  3;68,187,193;,
  3;192,195,191;,
  3;195,192,196;,
  3;194,197,193;,
  3;197,194,198;,
  3;193,70,68;,
  3;70,193,197;,
  3;196,199,195;,
  3;199,196,76;,
  3;198,200,197;,
  3;200,198,201;,
  3;197,72,70;,
  3;72,197,200;,
  3;76,202,199;,
  3;202,76,75;,
  3;201,203,200;,
  3;203,201,202;,
  3;200,77,72;,
  3;77,200,203;,
  3;78,202,75;,
  3;202,78,204;,
  3;204,203,202;,
  3;203,204,205;,
  3;203,80,77;,
  3;80,203,205;,
  3;206,78,82;,
  3;78,206,204;,
  3;207,179,208;,
  3;179,207,209;,
  3;210,173,175;,
  3;211,212,163;,
  3;134,176,213;,
  3;176,134,210;,
  3;167,166,170;,
  3;175,176,210;,
  3;211,163,162;,
  3;146,145,157;,
  3;162,161,214;,
  3;134,133,210;,
  3;175,152,176;,
  3;174,152,175;,
  3;152,174,154;,
  3;215,216,217;,
  3;216,215,218;,
  3;219,130,220;,
  3;130,219,221;,
  3;222,173,210;,
  3;131,130,221;,
  3;215,217,223;,
  3;224,225,226;,
  3;225,224,227;,
  3;228,229,230;,
  3;229,228,231;,
  3;232,233,234;,
  3;235,236,237;,
  3;236,235,238;,
  3;239,240,241;,
  3;242,243,244;,
  3;243,242,245;,
  3;246,245,242;,
  3;245,246,247;,
  3;248,247,246;,
  3;247,248,249;,
  3;250,249,248;,
  3;249,250,251;,
  3;252,251,250;,
  3;251,252,253;,
  3;244,253,252;,
  3;253,244,243;,
  3;254,255,256;,
  3;257,255,258;,
  3;258,255,259;,
  3;259,255,254;,
  3;260,261,262;,
  3;261,260,263;,
  3;264,260,265;,
  3;260,264,263;,
  3;266,261,267;,
  3;261,266,262;,
  3;268,269,270;,
  3;269,268,271;,
  3;268,151,148;,
  3;151,268,270;,
  3;272,273,274;,
  3;273,272,275;,
  3;276,277,278;,
  3;277,276,279;,
  3;280,278,281;,
  3;278,280,276;,
  3;282,283,284;,
  3;283,282,285;,
  3;286,279,287;,
  3;279,286,277;,
  3;288,289,290;,
  3;289,288,291;,
  3;208,84,86;,
  3;84,208,179;,
  3;28,0,2;,
  3;101,103,2;,
  3;28,2,103;,
  3;292,293,294;,
  3;295,296,297;,
  3;296,295,298;,
  3;299,300,301;,
  3;300,299,302;,
  3;295,303,298;,
  3;303,295,304;,
  3;304,305,303;,
  3;305,304,306;,
  3;307,308,309;,
  3;308,307,310;,
  3;310,311,308;,
  3;311,310,312;,
  3;296,313,297;,
  3;313,296,314;,
  3;314,315,313;,
  3;315,314,316;,
  3;317,318,319;,
  3;318,317,320;,
  3;320,321,318;,
  3;321,320,322;;

  MeshNormals {
   323;
   -0.631982;-0.370415;0.680729;,
   -0.000000;-0.157231;0.987562;,
   0.000000;-0.408809;0.912620;,
   -0.000000;0.931927;0.362645;,
   -0.723973;0.642345;0.251507;,
   0.000000;0.918664;0.395041;,
   -0.730181;0.614358;0.298998;,
   -0.999971;-0.004817;-0.005823;,
   -0.999997;-0.001389;-0.002073;,
   -0.999909;-0.008597;-0.010394;,
   -1.000000;0.000000;-0.000000;,
   -1.000000;0.000000;-0.000000;,
   -1.000000;0.000000;-0.000000;,
   1.000000;0.000000;0.000000;,
   1.000000;0.000000;0.000000;,
   1.000000;0.000000;0.000000;,
   0.000000;0.000000;1.000000;,
   0.000000;0.000000;1.000000;,
   0.000000;0.000000;1.000000;,
   -1.000000;0.000000;0.000000;,
   -1.000000;0.000000;0.000000;,
   -1.000000;0.000000;0.000000;,
   -0.988803;-0.147872;0.020052;,
   -0.944768;0.326459;-0.028943;,
   -0.940514;0.336159;0.049301;,
   -0.908931;-0.080273;0.409147;,
   -0.708419;-0.056153;0.703555;,
   -0.901912;-0.126505;0.412978;,
   -0.659753;-0.667455;0.345298;,
   -0.885573;-0.455545;-0.090768;,
   -0.541827;-0.835687;-0.089728;,
   -0.863136;-0.481240;-0.152982;,
   -0.503347;-0.812196;-0.294922;,
   -0.899684;-0.428664;0.082561;,
   -0.531730;-0.835272;-0.139942;,
   -0.629326;-0.776647;0.027710;,
   -0.466812;0.884117;-0.020592;,
   -0.528583;0.835020;0.152782;,
   -0.937031;0.296650;0.184315;,
   -0.943848;0.330365;0.003248;,
   -0.582060;0.203733;-0.787209;,
   -0.942868;0.333159;0.002058;,
   -0.731079;0.000319;-0.682293;,
   -0.692033;0.012556;-0.721757;,
   -0.724670;0.001450;-0.689095;,
   -0.942793;0.333366;0.002973;,
   -0.941589;0.336763;-0.001012;,
   -1.000000;0.000000;-0.000000;,
   -1.000000;0.000000;-0.000000;,
   -1.000000;0.000000;-0.000000;,
   -1.000000;0.000000;0.000000;,
   -1.000000;0.000000;0.000000;,
   -1.000000;0.000000;-0.000000;,
   -1.000000;0.000000;-0.000000;,
   -0.783552;0.491685;0.379858;,
   -0.946095;0.150259;0.286927;,
   -0.845079;0.074582;0.529414;,
   -1.000000;0.000000;-0.000000;,
   -0.868425;0.468237;0.163073;,
   -0.655092;0.711393;0.254509;,
   -0.206630;0.944462;-0.255532;,
   -0.054984;0.846427;-0.529659;,
   0.000000;0.977728;-0.209878;,
   -0.469742;0.445724;0.762019;,
   -0.974170;0.214346;0.071054;,
   -0.964116;0.251857;0.083952;,
   -0.682770;0.308896;0.662124;,
   -0.994944;0.093625;-0.036334;,
   -0.678538;0.137596;0.721563;,
   -0.999564;0.029481;-0.001661;,
   -0.690385;0.231578;0.685376;,
   -1.000000;0.000000;0.000000;,
   -0.603911;0.656848;0.451488;,
   -1.000000;0.000000;-0.000000;,
   -0.824594;-0.529832;0.198301;,
   0.010477;-0.944946;0.327059;,
   -0.000885;-0.899056;-0.437834;,
   -0.747681;0.622223;0.231975;,
   0.000000;-0.293241;0.956038;,
   -0.857355;-0.217297;0.466609;,
   -0.547169;0.696210;0.464648;,
   -0.291023;0.043339;0.955734;,
   0.000000;0.037797;0.999286;,
   0.022992;0.038059;0.999011;,
   0.000099;0.115417;0.993317;,
   0.024954;0.038175;0.998960;,
   -0.048405;0.034191;0.998242;,
   -0.948977;0.312641;0.041201;,
   -0.659133;0.000000;-0.752027;,
   -0.674414;0.007250;-0.738318;,
   -1.000000;0.000000;0.000000;,
   -0.731611;0.000371;-0.681722;,
   0.000000;0.000427;1.000000;,
   0.000011;0.000507;1.000000;,
   0.000011;0.000507;1.000000;,
   0.000000;0.000437;1.000000;,
   -0.999984;0.000726;-0.005638;,
   -1.000000;-0.000001;0.000001;,
   -0.999981;0.000790;-0.006137;,
   0.021953;0.999688;0.011920;,
   0.000000;0.000346;1.000000;,
   0.631982;-0.370415;0.680729;,
   0.541827;-0.835687;-0.089728;,
   0.659753;-0.667455;0.345298;,
   0.503347;-0.812196;-0.294922;,
   0.531730;-0.835272;-0.139942;,
   0.629326;-0.776647;0.027710;,
   0.528583;0.835020;0.152782;,
   0.466812;0.884117;-0.020592;,
   0.723973;0.642345;0.251507;,
   0.730181;0.614358;0.298998;,
   0.000000;1.000000;0.000000;,
   0.000000;1.000000;0.000000;,
   0.000000;1.000000;0.000000;,
   0.000000;1.000000;0.000000;,
   0.000000;-0.000000;-1.000000;,
   0.000000;-0.000000;-1.000000;,
   0.582060;0.203733;-0.787209;,
   0.000000;0.711886;-0.702296;,
   0.000000;0.711886;-0.702296;,
   0.000000;0.711886;-0.702296;,
   0.000000;0.711886;-0.702296;,
   0.000000;-0.675188;-0.737646;,
   0.000000;-0.675188;-0.737646;,
   0.000000;-0.675188;-0.737646;,
   0.000000;-0.675188;-0.737646;,
   0.000000;1.000000;0.000000;,
   0.000000;1.000000;0.000000;,
   0.000000;1.000000;0.000000;,
   0.000000;1.000000;0.000000;,
   0.999997;-0.001389;-0.002073;,
   0.999971;-0.004818;-0.005823;,
   0.999909;-0.008597;-0.010394;,
   1.000000;0.000000;-0.000000;,
   1.000000;0.000000;-0.000000;,
   1.000000;0.000000;-0.000000;,
   -1.000000;0.000000;0.000000;,
   -1.000000;0.000000;0.000000;,
   -1.000000;0.000000;0.000000;,
   1.000000;0.000000;0.000000;,
   1.000000;0.000000;0.000000;,
   1.000000;0.000000;0.000000;,
   0.000000;0.000000;1.000000;,
   0.000000;0.000000;1.000000;,
   0.000000;0.000000;1.000000;,
   0.988803;-0.147872;0.020052;,
   0.940514;0.336159;0.049301;,
   0.944768;0.326459;-0.028943;,
   0.000000;-0.709983;-0.704219;,
   0.000000;-0.495167;-0.868798;,
   0.000000;-0.495167;-0.868798;,
   -0.000000;-0.709983;-0.704219;,
   0.908931;-0.080273;0.409147;,
   0.708419;-0.056153;0.703555;,
   0.901912;-0.126505;0.412978;,
   0.885573;-0.455545;-0.090768;,
   0.863136;-0.481240;-0.152982;,
   0.899684;-0.428664;0.082562;,
   0.937031;0.296650;0.184315;,
   0.943847;0.330366;0.003248;,
   0.942868;0.333159;0.002058;,
   0.731079;0.000319;-0.682293;,
   0.724670;0.001450;-0.689095;,
   0.692033;0.012556;-0.721757;,
   0.942793;0.333366;0.002973;,
   0.941589;0.336762;-0.001012;,
   1.000000;0.000000;-0.000000;,
   1.000000;0.000000;-0.000000;,
   1.000000;0.000000;-0.000000;,
   1.000000;0.000000;-0.000000;,
   1.000000;0.000000;-0.000000;,
   1.000000;0.000000;-0.000000;,
   1.000000;0.000000;-0.000000;,
   0.783552;0.491685;0.379858;,
   0.845079;0.074582;0.529414;,
   0.946095;0.150259;0.286927;,
   1.000000;0.000000;-0.000000;,
   0.000000;0.192014;0.981392;,
   0.000000;0.192014;0.981392;,
   -0.000099;0.115417;0.993317;,
   0.868425;0.468237;0.163073;,
   0.655092;0.711393;0.254509;,
   0.054984;0.846427;-0.529659;,
   0.206630;0.944462;-0.255532;,
   0.974170;0.214346;0.071054;,
   0.469742;0.445724;0.762019;,
   0.964116;0.251857;0.083952;,
   0.682770;0.308896;0.662124;,
   0.000000;0.305926;-0.952056;,
   0.000000;0.305926;-0.952056;,
   0.994944;0.093625;-0.036334;,
   0.000000;-0.098779;-0.995109;,
   0.000000;-0.098779;-0.995109;,
   0.678538;0.137596;0.721563;,
   0.999564;0.029481;-0.001661;,
   0.000000;-0.471882;-0.881662;,
   0.000000;-0.471882;-0.881662;,
   0.690385;0.231578;0.685376;,
   1.000000;0.000000;0.000000;,
   0.000000;-0.897320;-0.441380;,
   0.603911;0.656848;0.451488;,
   1.000000;0.000000;-0.000000;,
   0.817469;-0.535007;0.213333;,
   0.747681;0.622223;0.231975;,
   0.857355;-0.217297;0.466609;,
   0.547169;0.696210;0.464648;,
   0.291023;0.043339;0.955734;,
   -0.022992;0.038059;0.999011;,
   0.048405;0.034191;0.998242;,
   -0.024954;0.038175;0.998960;,
   0.948977;0.312641;0.041201;,
   0.674414;0.007250;-0.738318;,
   0.659133;0.000000;-0.752027;,
   1.000000;0.000000;0.000000;,
   0.731611;0.000371;-0.681722;,
   -0.000000;0.000427;1.000000;,
   -0.000011;0.000507;1.000000;,
   0.000000;0.000437;1.000000;,
   -0.000011;0.000507;1.000000;,
   0.999984;0.000726;-0.005638;,
   0.999981;0.000790;-0.006137;,
   1.000000;-0.000001;0.000001;,
   -0.021953;0.999688;0.011920;,
   0.000000;0.000346;1.000000;,
   0.000000;0.000000;1.000000;,
   0.000000;0.000000;1.000000;,
   0.000000;0.000000;1.000000;,
   0.000000;0.000000;1.000000;,
   0.000000;-0.786514;-0.617573;,
   0.000000;-0.786514;-0.617573;,
   0.000000;-0.786514;-0.617573;,
   0.000000;-0.786514;-0.617573;,
   1.000000;0.000000;-0.000000;,
   1.000000;0.000000;-0.000000;,
   1.000000;0.000000;-0.000000;,
   0.000000;0.490800;-0.871272;,
   0.000000;0.490800;-0.871272;,
   0.000000;0.490800;-0.871272;,
   0.000000;0.490800;-0.871272;,
   -1.000000;-0.000000;0.000000;,
   -1.000000;-0.000000;0.000000;,
   -1.000000;-0.000000;0.000000;,
   0.500000;0.000000;0.866025;,
   1.000000;0.000000;0.000000;,
   1.000000;0.000000;-0.000000;,
   0.500000;0.000000;0.866025;,
   -0.500000;-0.000000;0.866025;,
   -0.500000;-0.000000;0.866025;,
   -1.000000;-0.000000;-0.000000;,
   -1.000000;-0.000000;-0.000000;,
   -0.500000;-0.000000;-0.866025;,
   -0.500000;-0.000000;-0.866025;,
   0.500000;0.000000;-0.866025;,
   0.500000;0.000000;-0.866025;,
   0.000000;1.000000;0.000000;,
   0.000000;1.000000;0.000000;,
   0.000000;1.000000;0.000000;,
   0.000000;1.000000;0.000000;,
   0.000000;1.000000;0.000000;,
   0.000000;1.000000;0.000000;,
   0.000000;-0.031450;0.999505;,
   0.000000;-0.196241;0.980556;,
   0.000000;-0.196241;0.980556;,
   0.000000;-0.031450;0.999505;,
   0.000000;-0.033168;0.999450;,
   0.000000;-0.033168;0.999450;,
   0.000000;-0.399423;0.916767;,
   0.000000;-0.399423;0.916767;,
   -0.000000;-0.759289;-0.650754;,
   -0.000000;-0.527835;-0.849347;,
   -0.000000;-0.759289;-0.650754;,
   0.000000;-0.527835;-0.849347;,
   0.000000;0.859803;0.510626;,
   0.000000;0.859803;0.510626;,
   0.000000;0.859803;0.510626;,
   0.000000;0.859803;0.510626;,
   0.000000;-0.989052;-0.147565;,
   0.000000;-0.359137;-0.933285;,
   0.000000;-0.989052;-0.147565;,
   0.000000;-0.359137;-0.933285;,
   0.000000;-0.939037;0.343816;,
   0.000000;-0.939037;0.343816;,
   1.000000;0.000000;-0.000000;,
   1.000000;0.000000;-0.000000;,
   1.000000;0.000000;-0.000000;,
   1.000000;0.000000;0.000000;,
   0.000000;0.187799;-0.982207;,
   0.000000;0.187799;-0.982207;,
   -1.000000;-0.000000;-0.000000;,
   -1.000000;-0.000000;-0.000000;,
   -1.000000;-0.000000;0.000000;,
   -1.000000;-0.000000;-0.000000;,
   0.000000;-0.844350;0.535793;,
   0.000000;-0.844350;0.535793;,
   0.000000;-0.844350;0.535793;,
   0.000000;-0.007410;0.999973;,
   0.000000;0.999001;0.044679;,
   0.000000;0.999001;0.044679;,
   0.000000;-0.007410;0.999973;,
   0.000000;0.000000;-1.000000;,
   0.000000;0.000000;-1.000000;,
   0.000000;0.000000;-1.000000;,
   0.000000;0.000000;-1.000000;,
   0.000000;-0.808248;0.588842;,
   0.000000;-0.808248;0.588842;,
   0.000003;-0.949251;0.314520;,
   0.000003;-0.949251;0.314520;,
   1.000000;0.000000;-0.000000;,
   1.000000;0.000000;-0.000000;,
   1.000000;0.000000;-0.000000;,
   1.000000;0.000000;-0.000000;,
   1.000000;0.000000;-0.000000;,
   1.000000;0.000000;-0.000000;,
   0.000000;0.904763;-0.425915;,
   0.000000;0.904763;-0.425915;,
   0.000000;0.999884;-0.015213;,
   0.000000;0.999884;-0.015213;,
   -1.000000;-0.000000;0.000000;,
   -1.000000;-0.000000;0.000000;,
   -1.000000;-0.000000;0.000000;,
   -1.000000;-0.000000;0.000000;,
   -1.000000;-0.000000;0.000000;,
   -1.000000;-0.000000;-0.000000;;
   280;
   3;0,1,2;,
   3;3,4,5;,
   3;4,3,6;,
   3;7,8,9;,
   3;10,11,12;,
   3;13,14,15;,
   3;16,17,18;,
   3;19,20,21;,
   3;22,23,24;,
   3;1,25,26;,
   3;25,1,0;,
   3;0,27,25;,
   3;27,0,28;,
   3;28,29,27;,
   3;29,28,30;,
   3;30,31,29;,
   3;31,30,32;,
   3;32,33,31;,
   3;33,32,34;,
   3;34,22,33;,
   3;22,34,35;,
   3;36,24,23;,
   3;24,36,37;,
   3;4,6,38;,
   3;39,40,41;,
   3;42,43,44;,
   3;41,45,39;,
   3;45,41,46;,
   3;47,48,49;,
   3;50,47,51;,
   3;52,51,53;,
   3;54,55,56;,
   3;57,26,25;,
   3;58,4,38;,
   3;4,58,59;,
   3;51,52,50;,
   3;58,37,59;,
   3;37,58,24;,
   3;60,61,62;,
   3;63,64,65;,
   3;64,63,66;,
   3;66,67,64;,
   3;67,68,69;,
   3;68,67,66;,
   3;69,70,71;,
   3;70,69,68;,
   3;71,72,73;,
   3;72,71,70;,
   3;74,75,76;,
   3;73,77,74;,
   3;77,73,72;,
   3;78,74,79;,
   3;74,78,75;,
   3;79,77,80;,
   3;77,79,74;,
   3;81,78,79;,
   3;78,81,82;,
   3;83,84,85;,
   3;84,83,86;,
   3;87,55,54;,
   3;88,89,43;,
   3;12,57,87;,
   3;57,12,90;,
   3;49,51,47;,
   3;55,87,57;,
   3;89,44,43;,
   3;24,33,22;,
   3;44,91,42;,
   3;12,87,10;,
   3;55,57,25;,
   3;56,25,27;,
   3;25,56,55;,
   3;92,93,94;,
   3;93,92,95;,
   3;96,8,97;,
   3;8,96,98;,
   3;99,87,54;,
   3;7,97,8;,
   3;92,100,95;,
   3;101,2,1;,
   3;28,102,30;,
   3;102,28,103;,
   3;30,104,32;,
   3;104,30,102;,
   3;32,105,34;,
   3;105,32,104;,
   3;34,106,35;,
   3;106,34,105;,
   3;36,107,37;,
   3;107,36,108;,
   3;3,109,110;,
   3;109,3,5;,
   3;111,112,113;,
   3;112,111,114;,
   3;40,115,116;,
   3;115,40,117;,
   3;118,119,120;,
   3;119,118,121;,
   3;122,123,124;,
   3;123,122,125;,
   3;126,127,128;,
   3;127,126,129;,
   3;130,131,132;,
   3;133,134,135;,
   3;113,129,111;,
   3;129,113,127;,
   3;136,137,138;,
   3;139,140,141;,
   3;142,143,144;,
   3;145,146,147;,
   3;148,149,150;,
   3;149,148,151;,
   3;1,152,101;,
   3;152,1,153;,
   3;101,154,103;,
   3;154,101,152;,
   3;103,155,102;,
   3;155,103,154;,
   3;102,156,104;,
   3;156,102,155;,
   3;104,157,105;,
   3;157,104,156;,
   3;105,145,106;,
   3;145,105,157;,
   3;108,146,107;,
   3;146,108,147;,
   3;109,158,110;,
   3;159,160,117;,
   3;161,162,163;,
   3;160,164,165;,
   3;164,160,159;,
   3;166,167,168;,
   3;166,169,170;,
   3;171,172,170;,
   3;173,174,175;,
   3;152,153,176;,
   3;84,177,178;,
   3;177,84,179;,
   3;180,109,181;,
   3;109,180,158;,
   3;170,169,171;,
   3;180,107,146;,
   3;107,180,181;,
   3;181,37,107;,
   3;37,181,59;,
   3;62,182,183;,
   3;182,62,61;,
   3;184,185,186;,
   3;185,184,187;,
   3;185,66,63;,
   3;66,185,187;,
   3;61,188,182;,
   3;188,61,189;,
   3;190,187,184;,
   3;189,191,188;,
   3;191,189,192;,
   3;190,193,187;,
   3;193,190,194;,
   3;187,68,66;,
   3;68,187,193;,
   3;192,195,191;,
   3;195,192,196;,
   3;194,197,193;,
   3;197,194,198;,
   3;193,70,68;,
   3;70,193,197;,
   3;196,199,195;,
   3;199,196,76;,
   3;198,200,197;,
   3;200,198,201;,
   3;197,72,70;,
   3;72,197,200;,
   3;76,202,199;,
   3;202,76,75;,
   3;201,203,200;,
   3;203,201,202;,
   3;200,77,72;,
   3;77,200,203;,
   3;78,202,75;,
   3;202,78,204;,
   3;204,203,202;,
   3;203,204,205;,
   3;203,80,77;,
   3;80,203,205;,
   3;206,78,82;,
   3;78,206,204;,
   3;207,179,208;,
   3;179,207,209;,
   3;210,173,175;,
   3;211,212,163;,
   3;134,176,213;,
   3;176,134,210;,
   3;167,166,170;,
   3;175,176,210;,
   3;211,163,162;,
   3;146,145,157;,
   3;162,161,214;,
   3;134,133,210;,
   3;175,152,176;,
   3;174,152,175;,
   3;152,174,154;,
   3;215,216,217;,
   3;216,215,218;,
   3;219,130,220;,
   3;130,219,221;,
   3;222,173,210;,
   3;131,130,221;,
   3;215,217,223;,
   3;224,225,226;,
   3;225,224,227;,
   3;228,229,230;,
   3;229,228,231;,
   3;232,233,234;,
   3;235,236,237;,
   3;236,235,238;,
   3;239,240,241;,
   3;242,243,244;,
   3;243,242,245;,
   3;246,245,242;,
   3;245,246,247;,
   3;248,247,246;,
   3;247,248,249;,
   3;250,249,248;,
   3;249,250,251;,
   3;252,251,250;,
   3;251,252,253;,
   3;244,253,252;,
   3;253,244,243;,
   3;254,255,256;,
   3;257,255,258;,
   3;258,255,259;,
   3;259,255,254;,
   3;260,261,262;,
   3;261,260,263;,
   3;264,260,265;,
   3;260,264,263;,
   3;266,261,267;,
   3;261,266,262;,
   3;268,269,270;,
   3;269,268,271;,
   3;268,151,148;,
   3;151,268,270;,
   3;272,273,274;,
   3;273,272,275;,
   3;276,277,278;,
   3;277,276,279;,
   3;280,278,281;,
   3;278,280,276;,
   3;282,283,284;,
   3;283,282,285;,
   3;286,279,287;,
   3;279,286,277;,
   3;288,289,290;,
   3;289,288,291;,
   3;208,84,86;,
   3;84,208,179;,
   3;28,0,2;,
   3;101,103,2;,
   3;28,2,103;,
   3;292,293,294;,
   3;295,296,297;,
   3;296,295,298;,
   3;299,300,301;,
   3;300,299,302;,
   3;295,303,298;,
   3;303,295,304;,
   3;304,305,303;,
   3;305,304,306;,
   3;307,308,309;,
   3;308,307,310;,
   3;310,311,308;,
   3;311,310,312;,
   3;296,313,297;,
   3;313,296,314;,
   3;314,315,313;,
   3;315,314,316;,
   3;317,318,319;,
   3;318,317,320;,
   3;320,321,318;,
   3;321,320,322;;
  }

  MeshMaterialList {
   1;
   280;
   0,
   0,
   0,
   0,
   0,
   0,
   0,
   0,
   0,
   0,
   0,
   0,
   0,
   0,
   0,
   0,
   0,
   0,
   0,
   0,
   0,
   0,
   0,
   0,
   0,
   0,
   0,
   0,
   0,
   0,
   0,
   0,
   0,
   0,
   0,
   0,
   0,
   0,
   0,
   0,
   0,
   0,
   0,
   0,
   0,
   0,
   0,
   0,
   0,
   0,
   0,
   0,
   0,
   0,
   0,
   0,
   0,
   0,
   0,
   0,
   0,
   0,
   0,
   0,
   0,
   0,
   0,
   0,
   0,
   0,
   0,
   0,
   0,
   0,
   0,
   0,
   0,
   0,
   0,
   0,
   0,
   0,
   0,
   0,
   0,
   0,
   0,
   0,
   0,
   0,
   0,
   0,
   0,
   0,
   0,
   0,
   0,
   0,
   0,
   0,
   0,
   0,
   0,
   0,
   0,
   0,
   0,
   0,
   0,
   0,
   0,
   0,
   0,
   0,
   0,
   0,
   0,
   0,
   0,
   0,
   0,
   0,
   0,
   0,
   0,
   0,
   0,
   0,
   0,
   0,
   0,
   0,
   0,
   0,
   0,
   0,
   0,
   0,
   0,
   0,
   0,
   0,
   0,
   0,
   0,
   0,
   0,
   0,
   0,
   0,
   0,
   0,
   0,
   0,
   0,
   0,
   0,
   0,
   0,
   0,
   0,
   0,
   0,
   0,
   0,
   0,
   0,
   0,
   0,
   0,
   0,
   0,
   0,
   0,
   0,
   0,
   0,
   0,
   0,
   0,
   0,
   0,
   0,
   0,
   0,
   0,
   0,
   0,
   0,
   0,
   0,
   0,
   0,
   0,
   0,
   0,
   0,
   0,
   0,
   0,
   0,
   0,
   0,
   0,
   0,
   0,
   0,
   0,
   0,
   0,
   0,
   0,
   0,
   0,
   0,
   0,
   0,
   0,
   0,
   0,
   0,
   0,
   0,
   0,
   0,
   0,
   0,
   0,
   0,
   0,
   0,
   0,
   0,
   0,
   0,
   0,
   0,
   0,
   0,
   0,
   0,
   0,
   0,
   0,
   0,
   0,
   0,
   0,
   0,
   0,
   0,
   0,
   0,
   0,
   0,
   0,
   0,
   0,
   0,
   0,
   0,
   0,
   0,
   0,
   0,
   0,
   0,
   0,
   0,
   0,
   0,
   0,
   0,
   0,
   0,
   0,
   0,
   0,
   0,
   0;
   { _21_-_Default }
  }

  MeshTextureCoords c1 {
   323;
   0.903320;0.234768;,
   0.978722;0.231323;,
   0.911314;0.242854;,
   0.610866;0.244613;,
   0.649338;0.320469;,
   0.643430;0.320469;,
   0.620743;0.234540;,
   0.032958;0.149905;,
   0.157132;0.210990;,
   0.034342;0.199593;,
   0.118133;0.149563;,
   0.113052;0.073833;,
   0.642050;0.073545;,
   0.771237;0.044260;,
   0.771237;0.044260;,
   0.034342;0.044260;,
   0.771237;0.044260;,
   0.836112;0.044260;,
   0.771237;0.044260;,
   0.771237;0.044260;,
   0.802021;0.013003;,
   0.836112;0.044260;,
   0.904223;0.662999;,
   0.770110;0.667086;,
   0.778497;0.572336;,
   0.878608;0.204169;,
   1.000000;0.195344;,
   0.821938;0.232474;,
   0.881380;0.258739;,
   0.836320;0.299334;,
   0.874721;0.297769;,
   0.874959;0.401366;,
   0.911280;0.389289;,
   0.923218;0.598466;,
   0.965891;0.541508;,
   0.962470;0.637579;,
   0.738916;0.668123;,
   0.738902;0.572841;,
   0.663667;0.230124;,
   0.034981;0.073396;,
   0.034342;0.044260;,
   0.113052;0.073833;,
   0.034342;0.044260;,
   0.771237;0.044260;,
   0.642050;0.073545;,
   0.032958;0.149905;,
   0.118133;0.149563;,
   0.663667;0.230124;,
   0.821938;0.232474;,
   0.836320;0.299334;,
   0.716783;0.399734;,
   0.874959;0.401366;,
   0.778497;0.572336;,
   0.923218;0.598466;,
   0.620743;0.234540;,
   0.654896;0.202607;,
   0.663667;0.230124;,
   0.920268;0.149923;,
   0.716783;0.399734;,
   0.677932;0.406399;,
   0.649338;0.320469;,
   0.639499;0.346853;,
   0.643430;0.320469;,
   0.677932;0.406399;,
   0.639499;0.346853;,
   0.649338;0.320469;,
   0.620776;0.390590;,
   0.610697;0.364562;,
   0.520761;0.386330;,
   0.521476;0.372284;,
   0.448239;0.367802;,
   0.455899;0.355612;,
   0.415525;0.353872;,
   0.433021;0.334949;,
   0.427403;0.283944;,
   0.429089;0.283944;,
   0.433021;0.334949;,
   0.413029;0.283541;,
   0.467100;0.242630;,
   0.451446;0.229064;,
   0.378460;0.230146;,
   0.620743;0.234540;,
   0.610866;0.244613;,
   0.451446;0.229064;,
   0.157132;0.210990;,
   0.620743;0.234540;,
   0.378460;0.230146;,
   0.619129;0.149814;,
   0.836112;0.044260;,
   0.872305;0.070971;,
   0.872305;0.070971;,
   0.113052;0.073833;,
   0.137978;0.149562;,
   0.619129;0.149814;,
   0.619746;0.149814;,
   0.118133;0.149563;,
   0.619746;0.149814;,
   0.137978;0.149562;,
   0.620743;0.234540;,
   0.619746;0.149814;,
   0.032958;0.149905;,
   0.903320;0.234768;,
   0.874721;0.297769;,
   0.881380;0.258739;,
   0.911280;0.389289;,
   0.965891;0.541508;,
   0.962470;0.637579;,
   0.738902;0.572841;,
   0.738916;0.668123;,
   0.649338;0.320469;,
   0.620743;0.234540;,
   0.032958;0.149905;,
   0.034342;0.199594;,
   0.031655;0.151441;,
   0.034342;0.199593;,
   0.771237;0.044260;,
   0.771237;0.044260;,
   0.034342;0.044260;,
   0.771237;0.044260;,
   0.802021;0.013003;,
   0.802021;0.013003;,
   0.771237;0.044260;,
   0.802021;0.013003;,
   0.836112;0.044260;,
   0.836112;0.044260;,
   0.802021;0.013003;,
   0.034342;0.044260;,
   0.034905;0.073610;,
   0.034342;0.044260;,
   0.034981;0.073396;,
   0.127489;0.212364;,
   0.031655;0.151441;,
   0.034342;0.199594;,
   0.115266;0.149210;,
   0.642050;0.073545;,
   0.113052;0.073833;,
   0.771237;0.044260;,
   0.771237;0.044260;,
   0.034342;0.044260;,
   0.771237;0.044260;,
   0.836112;0.044260;,
   0.802021;0.013003;,
   0.771237;0.044260;,
   0.836112;0.044260;,
   0.771237;0.044260;,
   0.904223;0.662999;,
   0.778497;0.572336;,
   0.770110;0.667086;,
   0.920268;0.149923;,
   1.000000;0.195344;,
   1.000000;0.195344;,
   0.920468;0.149802;,
   0.878653;0.204174;,
   1.000000;0.195344;,
   0.821938;0.232474;,
   0.836320;0.299334;,
   0.874958;0.401365;,
   0.923218;0.598466;,
   0.657872;0.236155;,
   0.034905;0.073610;,
   0.113052;0.073833;,
   0.034342;0.044260;,
   0.642050;0.073545;,
   0.771237;0.044260;,
   0.031655;0.151441;,
   0.115266;0.149210;,
   0.657872;0.236155;,
   0.836320;0.299334;,
   0.821938;0.232474;,
   0.716783;0.399734;,
   0.874958;0.401365;,
   0.778497;0.572336;,
   0.923218;0.598466;,
   0.620743;0.234540;,
   0.657872;0.236155;,
   0.654896;0.202607;,
   0.920468;0.149802;,
   0.034342;0.199594;,
   0.034342;0.199593;,
   0.127489;0.212364;,
   0.716783;0.399734;,
   0.677932;0.406399;,
   0.639500;0.352552;,
   0.649338;0.320469;,
   0.639500;0.352552;,
   0.677932;0.406399;,
   0.649338;0.320469;,
   0.653525;0.395422;,
   0.610697;0.370261;,
   0.610697;0.364562;,
   0.610697;0.370261;,
   0.521476;0.373612;,
   0.521476;0.372284;,
   0.520761;0.386330;,
   0.521476;0.373612;,
   0.454718;0.357202;,
   0.455899;0.355612;,
   0.448239;0.367802;,
   0.454718;0.357202;,
   0.431886;0.336227;,
   0.415525;0.353872;,
   0.431886;0.336227;,
   0.427403;0.283944;,
   0.413029;0.283541;,
   0.451623;0.230349;,
   0.378547;0.230067;,
   0.620743;0.234540;,
   0.451623;0.230349;,
   0.378547;0.230067;,
   0.620743;0.234540;,
   0.619129;0.149814;,
   0.872177;0.071092;,
   0.836112;0.044260;,
   0.872177;0.071092;,
   0.113052;0.073833;,
   0.125407;0.162144;,
   0.619129;0.149814;,
   0.115266;0.149210;,
   0.619746;0.149814;,
   0.619746;0.149814;,
   0.620743;0.234540;,
   0.125407;0.162144;,
   0.619746;0.149814;,
   0.031655;0.151441;,
   0.035574;0.044353;,
   0.102637;0.044353;,
   0.102637;0.044353;,
   0.035574;0.044353;,
   0.082071;0.018117;,
   0.102637;0.044353;,
   0.082071;0.018117;,
   0.102637;0.044353;,
   0.102637;0.044353;,
   0.082071;0.018117;,
   0.035574;0.044353;,
   0.082071;0.018117;,
   0.035574;0.044353;,
   0.082071;0.018117;,
   0.035574;0.044353;,
   0.035574;0.044353;,
   0.082071;0.018117;,
   0.102637;0.044353;,
   0.000000;0.111751;,
   0.039581;0.078865;,
   0.000000;0.078865;,
   0.039581;0.111751;,
   0.000000;0.111751;,
   0.039581;0.111751;,
   0.000000;0.078865;,
   0.039581;0.078865;,
   0.000000;0.045980;,
   0.039581;0.045980;,
   0.000000;0.045980;,
   0.039581;0.045980;,
   0.205970;0.333333;,
   0.081352;0.415460;,
   0.182023;0.415460;,
   0.031016;0.333333;,
   0.081352;0.251207;,
   0.182023;0.251207;,
   0.770110;0.667086;,
   0.904223;0.662999;,
   0.904223;0.662999;,
   0.770110;0.667086;,
   0.738916;0.668123;,
   0.738916;0.668123;,
   0.962470;0.637579;,
   0.962470;0.637579;,
   0.872305;0.070971;,
   0.836112;0.044260;,
   0.872177;0.071092;,
   0.836112;0.044260;,
   0.901271;0.124156;,
   0.866790;0.065998;,
   0.866790;0.065998;,
   0.901271;0.124156;,
   0.918935;0.075829;,
   0.905871;0.058513;,
   0.918935;0.075829;,
   0.905871;0.058513;,
   0.901271;0.124156;,
   0.901271;0.124156;,
   0.901271;0.124156;,
   0.905871;0.058513;,
   0.866790;0.065998;,
   0.918935;0.075829;,
   0.866790;0.065998;,
   0.866790;0.065998;,
   0.866790;0.065998;,
   0.918935;0.075829;,
   0.901271;0.124156;,
   0.905871;0.058513;,
   1.000000;0.195344;,
   1.000000;0.195344;,
   0.978722;0.231323;,
   0.512455;0.353368;,
   0.500682;0.345009;,
   0.500682;0.345009;,
   0.512455;0.353368;,
   0.586282;0.244824;,
   0.547303;0.244824;,
   0.586282;0.244824;,
   0.547303;0.244824;,
   0.562509;0.316696;,
   0.562509;0.316696;,
   0.586282;0.244824;,
   0.586282;0.244824;,
   0.512455;0.353368;,
   0.546374;0.305980;,
   0.500682;0.345009;,
   0.562509;0.316696;,
   0.547303;0.244824;,
   0.586282;0.244824;,
   0.546374;0.305980;,
   0.546374;0.305980;,
   0.547303;0.244824;,
   0.547303;0.244824;,
   0.500682;0.345009;,
   0.562509;0.316696;,
   0.512455;0.353368;,
   0.546374;0.305980;,
   0.586282;0.244824;,
   0.547303;0.244824;;
  }
 }
}