xof 0303txt 0032
template ColorRGBA {
 <35ff44e0-6c7c-11cf-8f52-0040333594a3>
 FLOAT red;
 FLOAT green;
 FLOAT blue;
 FLOAT alpha;
}

template ColorRGB {
 <d3e16e81-7835-11cf-8f52-0040333594a3>
 FLOAT red;
 FLOAT green;
 FLOAT blue;
}

template Material {
 <3d82ab4d-62da-11cf-ab39-0020af71e433>
 ColorRGBA faceColor;
 FLOAT power;
 ColorRGB specularColor;
 ColorRGB emissiveColor;
 [...]
}

template TextureFilename {
 <a42790e1-7810-11cf-8f52-0040333594a3>
 STRING filename;
}

template Frame {
 <3d82ab46-62da-11cf-ab39-0020af71e433>
 [...]
}

template Matrix4x4 {
 <f6f23f45-7686-11cf-8f52-0040333594a3>
 array FLOAT matrix[16];
}

template FrameTransformMatrix {
 <f6f23f41-7686-11cf-8f52-0040333594a3>
 Matrix4x4 frameMatrix;
}

template Vector {
 <3d82ab5e-62da-11cf-ab39-0020af71e433>
 FLOAT x;
 FLOAT y;
 FLOAT z;
}

template MeshFace {
 <3d82ab5f-62da-11cf-ab39-0020af71e433>
 DWORD nFaceVertexIndices;
 array DWORD faceVertexIndices[nFaceVertexIndices];
}

template Mesh {
 <3d82ab44-62da-11cf-ab39-0020af71e433>
 DWORD nVertices;
 array Vector vertices[nVertices];
 DWORD nFaces;
 array MeshFace faces[nFaces];
 [...]
}

template MeshNormals {
 <f6f23f43-7686-11cf-8f52-0040333594a3>
 DWORD nNormals;
 array Vector normals[nNormals];
 DWORD nFaceNormals;
 array MeshFace faceNormals[nFaceNormals];
}

template MeshMaterialList {
 <f6f23f42-7686-11cf-8f52-0040333594a3>
 DWORD nMaterials;
 DWORD nFaceIndexes;
 array DWORD faceIndexes[nFaceIndexes];
 [Material <3d82ab4d-62da-11cf-ab39-0020af71e433>]
}

template Coords2d {
 <f6f23f44-7686-11cf-8f52-0040333594a3>
 FLOAT u;
 FLOAT v;
}

template MeshTextureCoords {
 <f6f23f40-7686-11cf-8f52-0040333594a3>
 DWORD nTextureCoords;
 array Coords2d textureCoords[nTextureCoords];
}


Material _08_-_Default {
 1.000000;1.000000;1.000000;1.000000;;
 9.999999;
 0.000000;0.000000;0.000000;;
 0.000000;0.000000;0.000000;;

 TextureFilename {
  "Handgun02_Light.png";
 }
}

Frame Handgun02_Light {
 

 FrameTransformMatrix {
  1.000000,0.000000,-0.000000,0.000000,0.000000,1.000000,0.000000,0.000000,0.000000,0.000000,1.000000,0.000000,0.000000,0.000000,0.000000,1.000000;;
 }

 Mesh Handgun02_Light {
  272;
  -0.000000;-0.002684;-0.015646;,
  0.009933;-0.014143;-0.008353;,
  -0.000000;-0.014725;-0.008783;,
  0.009933;-0.002684;-0.015646;,
  -0.000000;-0.014725;-0.008783;,
  0.004087;-0.013561;-0.005795;,
  -0.000000;-0.013561;-0.005795;,
  0.009933;-0.014143;-0.008353;,
  -0.000000;-0.013561;-0.005795;,
  0.004087;0.003550;-0.005196;,
  -0.000000;0.002340;-0.003974;,
  0.004087;-0.013561;-0.005795;,
  0.004087;0.006519;-0.000977;,
  -0.000000;0.004729;-0.000480;,
  0.004087;0.005295;0.004922;,
  -0.000000;0.003863;0.004922;,
  0.004087;0.000310;0.011204;,
  -0.000000;-0.000919;0.011204;,
  0.004087;-0.006980;0.024850;,
  -0.000000;-0.008209;0.024850;,
  0.004087;-0.011536;0.052727;,
  -0.000000;-0.012765;0.052727;,
  0.004087;0.026737;0.058650;,
  -0.000000;0.030007;0.058650;,
  0.004087;0.025370;0.049082;,
  -0.000000;0.028640;0.049082;,
  0.000000;0.044179;-0.002860;,
  0.004087;0.038355;0.010126;,
  0.005763;0.042684;-0.002860;,
  -0.000000;0.039249;0.010126;,
  0.000000;0.077479;-0.002860;,
  0.002633;0.076297;-0.002860;,
  0.005763;0.089079;-0.002860;,
  0.000000;0.134605;-0.002860;,
  0.005763;0.134605;-0.002860;,
  0.005763;0.134605;-0.021424;,
  0.000000;0.134605;-0.032476;,
  0.005763;0.020506;-0.032476;,
  0.000000;0.020506;-0.032476;,
  0.005763;0.134605;-0.032476;,
  0.005763;0.008299;-0.037199;,
  0.000000;0.008299;-0.037199;,
  0.000000;0.008299;-0.037199;,
  0.005763;0.006689;-0.032476;,
  0.000000;0.006689;-0.032476;,
  0.005763;0.008299;-0.037199;,
  0.000000;0.134605;-0.032476;,
  0.005763;0.134605;-0.032476;,
  0.005763;0.134605;-0.002860;,
  0.004087;0.124120;-0.015702;,
  0.005763;0.134605;-0.021424;,
  0.005763;0.120091;-0.002860;,
  0.009933;0.092690;-0.015683;,
  0.009933;0.025206;-0.027196;,
  0.009933;0.128312;-0.027145;,
  0.005763;0.020506;-0.032476;,
  0.005763;0.006689;-0.032476;,
  0.005763;0.008299;-0.037199;,
  0.005763;0.020506;-0.032476;,
  0.005763;0.134605;-0.032476;,
  0.004087;0.128313;-0.027198;,
  0.008174;-0.004759;0.053547;,
  0.008174;0.020077;0.047764;,
  0.008174;0.022015;0.057748;,
  0.009933;0.003550;-0.007324;,
  0.009933;-0.014143;-0.008353;,
  0.008174;0.012228;-0.003172;,
  0.008174;0.010051;0.006932;,
  0.008174;0.005932;0.013349;,
  0.008174;-0.000208;0.026282;,
  0.008174;0.036215;-0.003556;,
  0.004087;0.128313;-0.027198;,
  0.009933;0.128312;-0.027145;,
  0.005763;0.134605;-0.032476;,
  0.005763;0.134605;-0.032476;,
  0.009933;0.025206;-0.027196;,
  0.005763;0.020506;-0.032476;,
  0.008674;0.124120;-0.015702;,
  0.009933;0.124120;-0.015702;,
  0.004087;0.124120;-0.015702;,
  0.009933;0.043553;-0.007680;,
  0.008265;0.093141;-0.007638;,
  0.008674;0.124120;-0.015702;,
  0.008265;0.121008;-0.007608;,
  0.008265;0.096816;-0.015683;,
  0.008174;0.028146;0.022104;,
  0.009933;-0.002684;-0.015646;,
  0.009933;0.004791;-0.015649;,
  0.009933;0.089015;-0.007638;,
  0.005763;0.089079;-0.002860;,
  0.000000;0.134605;-0.002860;,
  0.009933;0.124120;-0.015702;,
  0.009933;0.092690;-0.015683;,
  0.008265;0.121008;-0.007608;,
  0.005763;0.120091;-0.002860;,
  0.004087;0.034027;0.023111;,
  -0.000000;0.035504;0.024562;,
  0.003276;0.039497;0.016133;,
  -0.000000;0.039497;0.015272;,
  0.002513;0.043629;0.017541;,
  -0.000000;0.043629;0.016679;,
  0.002513;0.042679;0.020722;,
  -0.000000;0.042679;0.021527;,
  0.001696;0.064341;0.017347;,
  -0.000000;0.064341;0.017347;,
  0.001696;0.065420;0.019121;,
  -0.000000;0.065420;0.019121;,
  0.001696;0.071050;0.004522;,
  0.000000;0.071050;0.004522;,
  0.001696;0.073224;0.004629;,
  0.000000;0.073224;0.004629;,
  0.002633;0.068355;-0.002860;,
  0.000000;0.065881;-0.002860;,
  0.000000;0.077479;-0.002860;,
  0.000000;0.065881;-0.002860;,
  0.009933;0.004514;-0.027206;,
  0.009933;0.004791;-0.015649;,
  0.009933;0.004514;-0.027206;,
  0.005763;0.006689;-0.032476;,
  0.009933;0.128312;-0.027145;,
  0.009933;0.004514;-0.027206;,
  0.009933;0.124120;-0.015702;,
  -0.009933;-0.014143;-0.008353;,
  -0.009933;-0.002684;-0.015646;,
  -0.004087;-0.013561;-0.005795;,
  -0.009933;-0.014143;-0.008353;,
  -0.004087;0.003550;-0.005196;,
  -0.004087;-0.013561;-0.005795;,
  -0.004087;0.006519;-0.000977;,
  -0.004087;0.005295;0.004922;,
  -0.004087;0.000310;0.011204;,
  -0.004087;-0.006980;0.024850;,
  -0.004087;-0.011536;0.052727;,
  -0.004087;0.026737;0.058650;,
  -0.004087;0.025370;0.049082;,
  -0.004087;0.038355;0.010126;,
  -0.005763;0.042684;-0.002860;,
  -0.002633;0.076297;-0.002860;,
  0.000000;0.077479;-0.002860;,
  -0.005763;0.089079;-0.002860;,
  0.000000;0.134605;-0.002860;,
  -0.005763;0.134605;-0.021424;,
  -0.005763;0.134605;-0.002860;,
  -0.005763;0.020506;-0.032476;,
  -0.005763;0.134605;-0.032476;,
  -0.005763;0.008299;-0.037199;,
  -0.005763;0.006689;-0.032476;,
  -0.005763;0.008299;-0.037199;,
  -0.005763;0.134605;-0.032476;,
  -0.005763;0.134605;-0.002860;,
  -0.004087;0.124120;-0.015702;,
  -0.005763;0.120091;-0.002860;,
  -0.005763;0.134605;-0.021424;,
  -0.009933;0.092690;-0.015682;,
  -0.009933;0.128312;-0.027145;,
  -0.009933;0.039458;-0.027189;,
  -0.005763;0.006689;-0.032476;,
  -0.005763;0.020506;-0.032476;,
  -0.005763;0.008299;-0.037199;,
  -0.005763;0.020506;-0.032476;,
  -0.005763;0.134605;-0.032476;,
  -0.004087;0.128313;-0.027198;,
  -0.008174;-0.004759;0.053547;,
  -0.008174;0.022015;0.057748;,
  -0.008174;0.020077;0.047764;,
  -0.009933;0.003550;-0.007324;,
  -0.009933;-0.014143;-0.008353;,
  -0.008174;0.012228;-0.003172;,
  -0.008174;0.010051;0.006932;,
  -0.008174;0.005932;0.013349;,
  -0.008174;-0.000208;0.026282;,
  -0.008174;0.036215;-0.003556;,
  -0.004087;0.128313;-0.027198;,
  -0.005763;0.134605;-0.032476;,
  -0.009933;0.128312;-0.027145;,
  -0.005763;0.134605;-0.032476;,
  -0.005763;0.020506;-0.032476;,
  -0.009933;0.039458;-0.027189;,
  -0.004087;0.124120;-0.015702;,
  -0.008673;0.124120;-0.015702;,
  -0.009933;0.124120;-0.015702;,
  -0.009933;0.043553;-0.007680;,
  -0.008265;0.093141;-0.007638;,
  -0.008673;0.124120;-0.015702;,
  -0.008265;0.096816;-0.015683;,
  -0.008265;0.121008;-0.007608;,
  -0.008174;0.028146;0.022104;,
  -0.009933;-0.002684;-0.015646;,
  -0.009933;0.004791;-0.015649;,
  -0.009933;0.089015;-0.007638;,
  -0.005763;0.089079;-0.002860;,
  0.000000;0.134605;-0.002860;,
  -0.009933;0.124120;-0.015702;,
  -0.009933;0.092690;-0.015682;,
  -0.008265;0.121008;-0.007608;,
  -0.005763;0.120091;-0.002860;,
  -0.004087;0.034027;0.023111;,
  -0.000000;0.035504;0.024562;,
  -0.003276;0.039497;0.016133;,
  -0.002513;0.043629;0.017541;,
  -0.002513;0.042679;0.020722;,
  -0.001696;0.064341;0.017347;,
  -0.001696;0.065420;0.019121;,
  -0.001696;0.071050;0.004522;,
  -0.001696;0.073224;0.004629;,
  -0.002633;0.068355;-0.002860;,
  -0.009933;0.004514;-0.027206;,
  -0.009933;0.004514;-0.027206;,
  -0.005763;0.006689;-0.032476;,
  -0.009933;0.128312;-0.027145;,
  -0.009933;0.004514;-0.027206;,
  -0.009933;0.124120;-0.015702;,
  0.008008;0.076086;0.028766;,
  0.008008;0.120052;0.019519;,
  0.008008;0.149017;0.028766;,
  0.008008;0.076086;0.019519;,
  -0.000000;0.076086;0.033389;,
  0.000000;0.149017;0.033389;,
  -0.008008;0.076086;0.028766;,
  -0.008008;0.149017;0.028766;,
  -0.008008;0.076086;0.019519;,
  -0.008008;0.120052;0.019519;,
  0.007051;0.076086;-0.003112;,
  -0.007051;0.120052;-0.003112;,
  0.007051;0.120052;-0.003112;,
  -0.007051;0.076086;-0.003112;,
  0.000000;0.149017;0.014896;,
  0.010078;0.149520;0.018324;,
  0.008008;0.149017;0.019519;,
  0.000000;0.149520;0.012506;,
  0.010078;0.149520;0.029961;,
  0.008008;0.149017;0.028766;,
  0.000000;0.149520;0.035779;,
  0.000000;0.149017;0.033389;,
  -0.010078;0.149520;0.029961;,
  -0.008008;0.149017;0.028766;,
  -0.010078;0.149520;0.018324;,
  -0.008008;0.149017;0.019519;,
  0.000000;0.149520;0.012506;,
  0.010078;0.178519;0.018324;,
  0.010078;0.149520;0.018324;,
  0.000000;0.178519;0.012506;,
  0.010078;0.178519;0.029961;,
  0.010078;0.149520;0.029961;,
  0.000000;0.178519;0.035779;,
  0.000000;0.149520;0.035779;,
  -0.010078;0.178519;0.029961;,
  -0.010078;0.149520;0.029961;,
  -0.010078;0.178519;0.018324;,
  -0.010078;0.149520;0.018324;,
  -0.008008;0.076086;0.028766;,
  0.008008;0.076086;0.028766;,
  -0.000000;0.076086;0.033389;,
  0.008008;0.076086;0.019519;,
  -0.008008;0.076086;0.019519;,
  0.010078;0.178519;0.018324;,
  0.000000;0.178519;0.035779;,
  0.010078;0.178519;0.029961;,
  -0.010078;0.178519;0.018324;,
  -0.010078;0.178519;0.029961;,
  0.000000;0.178519;0.012506;,
  0.008008;0.149017;0.019519;,
  0.000000;0.120863;0.014896;,
  0.000000;0.149017;0.014896;,
  -0.008008;0.149017;0.019519;,
  0.007051;0.120052;-0.003112;,
  0.007051;0.076086;-0.003112;,
  0.000000;0.120863;0.014896;,
  -0.007051;0.120052;-0.003112;,
  -0.007051;0.076086;-0.003112;,
  0.007051;0.076086;-0.003112;,
  -0.007051;0.076086;-0.003112;;
  340;
  3;0,1,2;,
  3;1,0,3;,
  3;4,5,6;,
  3;5,4,7;,
  3;8,9,10;,
  3;9,8,11;,
  3;10,12,13;,
  3;12,10,9;,
  3;13,14,15;,
  3;14,13,12;,
  3;15,16,17;,
  3;16,15,14;,
  3;17,18,19;,
  3;18,17,16;,
  3;19,20,21;,
  3;20,19,18;,
  3;21,22,23;,
  3;22,21,20;,
  3;23,24,25;,
  3;24,23,22;,
  3;26,27,28;,
  3;27,26,29;,
  3;30,31,32;,
  3;33,34,35;,
  3;36,37,38;,
  3;37,36,39;,
  3;38,40,41;,
  3;40,38,37;,
  3;42,43,44;,
  3;43,42,45;,
  3;44,3,0;,
  3;3,44,43;,
  3;46,35,47;,
  3;48,49,50;,
  3;49,48,51;,
  3;52,53,54;,
  3;35,46,33;,
  3;55,56,57;,
  3;55,58,56;,
  3;59,58,55;,
  3;49,60,50;,
  3;61,62,63;,
  3;11,64,9;,
  3;64,11,65;,
  3;9,66,12;,
  3;66,9,64;,
  3;12,67,14;,
  3;67,12,66;,
  3;14,68,16;,
  3;68,14,67;,
  3;16,69,18;,
  3;69,16,68;,
  3;18,61,20;,
  3;61,18,69;,
  3;20,63,22;,
  3;63,20,61;,
  3;22,62,24;,
  3;62,22,63;,
  3;27,70,28;,
  3;71,72,73;,
  3;74,75,76;,
  3;50,60,59;,
  3;72,77,78;,
  3;72,79,77;,
  3;72,71,79;,
  3;28,70,80;,
  3;81,82,83;,
  3;82,81,84;,
  3;70,67,66;,
  3;62,69,85;,
  3;86,64,65;,
  3;64,86,87;,
  3;88,28,80;,
  3;28,88,89;,
  3;90,51,48;,
  3;91,84,92;,
  3;84,91,82;,
  3;92,81,88;,
  3;81,92,84;,
  3;88,81,89;,
  3;81,51,89;,
  3;51,81,83;,
  3;93,79,94;,
  3;79,93,77;,
  3;85,27,95;,
  3;27,85,70;,
  3;85,24,62;,
  3;24,85,95;,
  3;24,96,25;,
  3;96,24,95;,
  3;29,97,27;,
  3;97,29,98;,
  3;27,97,95;,
  3;98,99,97;,
  3;99,98,100;,
  3;97,101,95;,
  3;101,97,99;,
  3;95,102,96;,
  3;102,95,101;,
  3;100,103,99;,
  3;103,100,104;,
  3;99,105,101;,
  3;105,99,103;,
  3;101,106,102;,
  3;106,101,105;,
  3;104,107,103;,
  3;107,104,108;,
  3;103,109,105;,
  3;109,103,107;,
  3;105,110,106;,
  3;110,105,109;,
  3;108,111,107;,
  3;111,108,112;,
  3;107,31,109;,
  3;31,107,111;,
  3;109,113,110;,
  3;113,109,31;,
  3;28,114,26;,
  3;114,28,111;,
  3;31,89,32;,
  3;111,89,31;,
  3;89,111,28;,
  3;66,87,80;,
  3;115,116,86;,
  3;80,92,88;,
  3;76,117,118;,
  3;117,76,75;,
  3;53,52,116;,
  3;67,85,68;,
  3;67,70,85;,
  3;66,80,70;,
  3;87,66,64;,
  3;53,116,115;,
  3;80,87,92;,
  3;85,69,68;,
  3;62,61,69;,
  3;75,74,119;,
  3;120,3,43;,
  3;52,54,121;,
  3;0,122,123;,
  3;122,0,2;,
  3;4,124,125;,
  3;124,4,6;,
  3;8,126,127;,
  3;126,8,10;,
  3;10,128,126;,
  3;128,10,13;,
  3;13,129,128;,
  3;129,13,15;,
  3;15,130,129;,
  3;130,15,17;,
  3;17,131,130;,
  3;131,17,19;,
  3;19,132,131;,
  3;132,19,21;,
  3;21,133,132;,
  3;133,21,23;,
  3;23,134,133;,
  3;134,23,25;,
  3;26,135,29;,
  3;135,26,136;,
  3;137,138,139;,
  3;140,141,142;,
  3;36,143,144;,
  3;143,36,38;,
  3;38,145,143;,
  3;145,38,41;,
  3;42,146,147;,
  3;146,42,44;,
  3;44,123,146;,
  3;123,44,0;,
  3;141,46,148;,
  3;149,150,151;,
  3;150,149,152;,
  3;153,154,155;,
  3;141,140,46;,
  3;156,157,158;,
  3;159,157,156;,
  3;160,157,159;,
  3;150,152,161;,
  3;162,163,164;,
  3;127,165,166;,
  3;165,127,126;,
  3;126,167,165;,
  3;167,126,128;,
  3;128,168,167;,
  3;168,128,129;,
  3;129,169,168;,
  3;169,129,130;,
  3;130,170,169;,
  3;170,130,131;,
  3;131,162,170;,
  3;162,131,132;,
  3;132,163,162;,
  3;163,132,133;,
  3;133,164,163;,
  3;164,133,134;,
  3;135,136,171;,
  3;172,173,174;,
  3;175,176,177;,
  3;152,160,161;,
  3;174,178,172;,
  3;174,179,178;,
  3;174,180,179;,
  3;136,181,171;,
  3;182,183,184;,
  3;183,182,185;,
  3;171,167,168;,
  3;164,186,170;,
  3;165,187,166;,
  3;187,165,188;,
  3;189,136,190;,
  3;136,189,181;,
  3;151,191,149;,
  3;192,184,183;,
  3;184,192,193;,
  3;193,182,184;,
  3;182,193,189;,
  3;189,190,182;,
  3;182,151,185;,
  3;151,182,190;,
  3;194,178,179;,
  3;178,194,195;,
  3;186,135,171;,
  3;135,186,196;,
  3;186,134,196;,
  3;134,186,164;,
  3;134,197,196;,
  3;197,134,25;,
  3;29,198,98;,
  3;198,29,135;,
  3;135,196,198;,
  3;98,199,100;,
  3;199,98,198;,
  3;198,200,199;,
  3;200,198,196;,
  3;196,102,200;,
  3;102,196,197;,
  3;100,201,104;,
  3;201,100,199;,
  3;199,202,201;,
  3;202,199,200;,
  3;200,106,202;,
  3;106,200,102;,
  3;104,203,108;,
  3;203,104,201;,
  3;201,204,203;,
  3;204,201,202;,
  3;202,110,204;,
  3;110,202,106;,
  3;108,205,112;,
  3;205,108,203;,
  3;203,137,205;,
  3;137,203,204;,
  3;204,113,137;,
  3;113,204,110;,
  3;136,114,205;,
  3;114,136,26;,
  3;137,139,190;,
  3;205,190,136;,
  3;190,205,137;,
  3;165,181,188;,
  3;206,187,188;,
  3;181,189,193;,
  3;176,207,177;,
  3;207,176,208;,
  3;153,155,188;,
  3;168,169,186;,
  3;168,186,171;,
  3;167,181,165;,
  3;181,167,171;,
  3;155,206,188;,
  3;181,193,188;,
  3;186,169,170;,
  3;164,170,162;,
  3;177,209,175;,
  3;210,146,123;,
  3;153,211,154;,
  3;51,32,89;,
  3;51,30,32;,
  3;51,90,30;,
  3;138,190,139;,
  3;138,151,190;,
  3;191,151,138;,
  3;212,213,214;,
  3;213,212,215;,
  3;216,214,217;,
  3;214,216,212;,
  3;218,217,219;,
  3;217,218,216;,
  3;220,219,221;,
  3;219,220,218;,
  3;222,223,224;,
  3;223,222,225;,
  3;226,227,228;,
  3;227,226,229;,
  3;228,230,231;,
  3;230,228,227;,
  3;231,232,233;,
  3;232,231,230;,
  3;233,234,235;,
  3;234,233,232;,
  3;235,236,237;,
  3;236,235,234;,
  3;237,229,226;,
  3;229,237,236;,
  3;238,239,240;,
  3;239,238,241;,
  3;240,242,243;,
  3;242,240,239;,
  3;243,244,245;,
  3;244,243,242;,
  3;245,246,247;,
  3;246,245,244;,
  3;247,248,249;,
  3;248,247,246;,
  3;249,241,238;,
  3;241,249,248;,
  3;250,251,252;,
  3;250,253,251;,
  3;254,253,250;,
  3;255,256,257;,
  3;256,258,259;,
  3;255,258,256;,
  3;260,258,255;,
  3;261,262,263;,
  3;262,261,213;,
  3;214,213,261;,
  3;221,219,264;,
  3;263,221,264;,
  3;221,263,262;,
  3;215,265,213;,
  3;265,215,266;,
  3;213,265,267;,
  3;267,265,268;,
  3;221,269,220;,
  3;269,221,268;,
  3;254,270,253;,
  3;270,254,271;,
  3;267,268,221;;

  MeshNormals {
   272;
   0.000000;-0.720773;-0.693171;,
   0.040244;-0.511403;-0.858398;,
   0.000000;-0.495166;-0.868798;,
   0.015766;-0.725141;-0.688419;,
   -0.000000;-0.939393;0.342841;,
   0.031830;-0.945288;0.324681;,
   -0.000000;-0.931803;0.362964;,
   0.042104;-0.949110;0.312118;,
   -0.000001;-0.046762;0.998906;,
   0.428381;-0.362483;0.827705;,
   -0.000001;-0.488277;0.872689;,
   0.202545;-0.043083;0.978325;,
   0.677337;-0.723656;0.132427;,
   -0.000000;-0.980389;0.197072;,
   0.603397;-0.732235;-0.315824;,
   0.000000;-0.906995;-0.421142;,
   0.566196;-0.692976;-0.446327;,
   0.000000;-0.845733;-0.533606;,
   0.591525;-0.762633;-0.261704;,
   0.000000;-0.950147;-0.311803;,
   0.493377;-0.697832;0.519240;,
   -0.000000;-0.846255;0.532777;,
   0.508298;0.481191;0.714204;,
   0.000000;0.816857;0.576840;,
   0.721249;0.691330;0.043166;,
   0.000000;0.997437;0.071558;,
   -0.000000;0.503015;0.864278;,
   0.632232;0.758639;0.157318;,
   0.637847;0.360557;0.680551;,
   0.000000;0.992419;0.122898;,
   -0.000001;0.415141;0.909757;,
   0.321854;0.244969;0.914549;,
   -0.000574;0.000020;1.000000;,
   0.000000;1.000000;-0.000000;,
   -0.000003;1.000000;-0.000000;,
   -0.000003;1.000000;-0.000000;,
   -0.000000;-0.000000;-1.000000;,
   0.000000;0.183551;-0.983010;,
   -0.000000;0.183551;-0.983010;,
   0.000002;-0.000000;-1.000000;,
   0.000000;0.360866;-0.932618;,
   -0.000000;0.360866;-0.932618;,
   -0.000000;-0.946533;-0.322606;,
   0.025220;-0.904937;-0.424797;,
   -0.000000;-0.913771;-0.406230;,
   -0.000001;-0.946533;-0.322606;,
   -0.000000;1.000000;-0.000001;,
   0.000000;1.000000;-0.000002;,
   0.731275;-0.050940;0.680178;,
   0.991413;-0.117052;-0.058297;,
   0.979535;-0.199354;-0.027723;,
   0.594188;-0.000167;0.804326;,
   1.000000;-0.000000;0.000001;,
   1.000000;-0.000000;0.000000;,
   1.000000;-0.000000;0.000000;,
   -0.602578;-0.000000;-0.798060;,
   1.000000;-0.000000;0.000000;,
   1.000000;-0.000000;0.000000;,
   0.000000;0.000000;-1.000000;,
   0.966328;-0.257315;0.000001;,
   0.972847;-0.229142;-0.032594;,
   0.751264;-0.295481;0.590164;,
   0.961238;0.274645;0.024302;,
   0.756561;0.241025;0.607883;,
   0.860163;-0.030505;0.509106;,
   0.668237;-0.043184;0.742694;,
   0.970376;-0.180624;0.160457;,
   0.955855;-0.271712;-0.111868;,
   0.948587;-0.270915;-0.163673;,
   0.956887;-0.274531;-0.094872;,
   0.938435;0.138351;0.316543;,
   -0.004832;0.828899;0.559377;,
   -0.004100;0.845810;0.533469;,
   -0.006746;0.643674;0.765270;,
   0.787545;0.000279;-0.616257;,
   0.784759;0.000099;-0.619801;,
   0.784592;0.000172;-0.620013;,
   -0.000000;0.937185;0.348833;,
   0.000000;0.939002;0.343912;,
   0.018602;0.939412;0.342286;,
   0.944647;0.029065;0.326800;,
   0.926322;0.169198;0.336600;,
   0.592994;-0.001338;0.805206;,
   0.973117;-0.000252;0.230311;,
   0.721348;0.095156;0.686005;,
   0.954421;0.283515;0.093271;,
   1.000000;-0.000000;0.000000;,
   0.998302;0.032406;0.048402;,
   0.920264;0.144325;0.363710;,
   0.891258;0.072091;-0.447731;,
   -0.000000;0.000000;1.000000;,
   0.000060;0.000717;1.000000;,
   0.944703;0.233575;0.230171;,
   0.142097;0.946245;0.290566;,
   0.173647;0.945882;0.274142;,
   0.750394;0.572161;0.330969;,
   0.000000;0.738784;0.673942;,
   0.825819;0.518831;-0.220993;,
   0.000001;0.851241;-0.524775;,
   0.830385;0.164388;-0.532389;,
   0.000000;0.171896;-0.985115;,
   0.791340;0.201893;0.577079;,
   0.000000;0.227783;0.973712;,
   0.844605;-0.249972;-0.473452;,
   0.000000;-0.504056;-0.863671;,
   0.607744;0.438049;0.662390;,
   -0.000000;0.543656;0.839308;,
   0.798105;-0.602216;0.019102;,
   0.000000;-0.999208;-0.039798;,
   0.683136;0.618574;0.388190;,
   -0.000000;0.875012;0.484102;,
   0.394991;-0.219904;0.891978;,
   -0.000000;-0.256400;0.966571;,
   -0.000001;0.415141;0.909757;,
   -0.000000;-0.256400;0.966571;,
   1.000000;-0.000000;0.000000;,
   1.000000;-0.000000;0.000000;,
   0.784302;0.000096;-0.620380;,
   0.784160;-0.000000;-0.620559;,
   0.787771;0.000301;-0.615968;,
   0.219811;-0.828104;-0.515682;,
   1.000000;-0.000000;0.000000;,
   -0.040243;-0.511403;-0.858398;,
   -0.015765;-0.725142;-0.688419;,
   -0.031830;-0.945288;0.324681;,
   -0.042104;-0.949110;0.312118;,
   -0.428382;-0.362483;0.827705;,
   -0.202546;-0.043083;0.978325;,
   -0.677337;-0.723656;0.132427;,
   -0.603397;-0.732234;-0.315824;,
   -0.566196;-0.692975;-0.446327;,
   -0.591525;-0.762633;-0.261704;,
   -0.493378;-0.697832;0.519239;,
   -0.508299;0.481192;0.714204;,
   -0.721249;0.691330;0.043166;,
   -0.632232;0.758639;0.157317;,
   -0.637847;0.360557;0.680551;,
   -0.321854;0.244970;0.914549;,
   -0.000001;0.415141;0.909757;,
   0.180496;-0.983339;0.021595;,
   0.000000;1.000000;-0.000000;,
   0.000003;1.000000;-0.000000;,
   0.000003;1.000000;0.000000;,
   0.000000;0.183551;-0.983010;,
   -0.000002;-0.000000;-1.000000;,
   -0.000001;0.360866;-0.932618;,
   -0.025221;-0.904937;-0.424798;,
   -0.000000;-0.946533;-0.322607;,
   -0.000000;1.000000;-0.000002;,
   -0.731276;-0.050940;0.680177;,
   -0.991413;-0.117051;-0.058297;,
   -0.594153;-0.000167;0.804352;,
   -0.979535;-0.199354;-0.027723;,
   -1.000000;0.000000;-0.000000;,
   -1.000000;0.000000;-0.000000;,
   -1.000000;0.000000;-0.000000;,
   -1.000000;0.000000;-0.000000;,
   0.694176;0.000000;0.719805;,
   -1.000000;0.000000;-0.000000;,
   0.894427;0.000000;0.447214;,
   -0.966328;-0.257314;0.000000;,
   -0.972847;-0.229141;-0.032594;,
   -0.751264;-0.295481;0.590164;,
   -0.756562;0.241025;0.607883;,
   -0.961238;0.274645;0.024302;,
   -0.846942;-0.094857;0.523156;,
   -0.668237;-0.043183;0.742694;,
   -0.945516;-0.187578;0.266108;,
   -0.955855;-0.271712;-0.111868;,
   -0.948587;-0.270914;-0.163673;,
   -0.956887;-0.274531;-0.094873;,
   -0.938435;0.138351;0.316542;,
   0.004831;0.828899;0.559377;,
   0.006745;0.643674;0.765270;,
   0.004099;0.845810;0.533469;,
   -0.787544;0.000276;-0.616258;,
   -0.784608;0.000232;-0.619992;,
   -0.785139;0.000040;-0.619319;,
   -0.018602;0.939412;0.342286;,
   0.000000;0.937185;0.348833;,
   0.000000;0.939002;0.343912;,
   -0.944583;0.031068;0.326799;,
   -0.926322;0.169198;0.336600;,
   -0.592994;-0.001338;0.805206;,
   -0.721345;0.095157;0.686008;,
   -0.973117;-0.000252;0.230310;,
   -0.954421;0.283516;0.093270;,
   -1.000000;0.000000;-0.000001;,
   -1.000000;0.000000;-0.000001;,
   -0.920264;0.144325;0.363709;,
   -0.419085;0.033668;0.907323;,
   -0.000000;0.000000;1.000000;,
   -0.000060;0.000717;1.000000;,
   -0.944703;0.233576;0.230171;,
   -0.142097;0.946245;0.290565;,
   -0.173647;0.945882;0.274142;,
   -0.750394;0.572161;0.330968;,
   0.000000;0.738784;0.673942;,
   -0.825818;0.518832;-0.220993;,
   -0.830384;0.164389;-0.532389;,
   -0.791340;0.201893;0.577079;,
   -0.844605;-0.249972;-0.473453;,
   -0.607744;0.438049;0.662389;,
   -0.798105;-0.602216;0.019102;,
   -0.683136;0.618574;0.388189;,
   -0.394991;-0.219904;0.891978;,
   -1.000000;0.000000;-0.000000;,
   -0.784301;0.000096;-0.620381;,
   -0.784159;-0.000000;-0.620560;,
   -0.787770;0.000302;-0.615969;,
   -0.219810;-0.828103;-0.515682;,
   -1.000000;0.000000;-0.000000;,
   0.866025;-0.000000;0.500000;,
   0.956949;0.172559;-0.233394;,
   0.866025;-0.000000;0.500000;,
   0.999777;-0.000000;-0.021113;,
   -0.000000;-0.000000;1.000000;,
   -0.000000;-0.000000;1.000000;,
   -0.866026;0.000000;0.500000;,
   -0.866025;0.000000;0.500000;,
   -0.999777;0.000000;-0.021113;,
   -0.956949;0.172559;-0.233394;,
   0.000000;0.000000;-1.000000;,
   0.000000;0.000000;-1.000000;,
   0.000000;0.000000;-1.000000;,
   0.000001;0.000000;-1.000000;,
   0.000000;-0.978589;-0.205824;,
   0.178249;-0.978589;-0.102912;,
   0.178249;-0.978589;-0.102912;,
   0.000000;-0.978589;-0.205824;,
   0.178249;-0.978589;0.102912;,
   0.178249;-0.978589;0.102912;,
   -0.000000;-0.978589;0.205824;,
   -0.000000;-0.978589;0.205824;,
   -0.178249;-0.978589;0.102912;,
   -0.178249;-0.978589;0.102912;,
   -0.178249;-0.978589;-0.102912;,
   -0.178249;-0.978589;-0.102912;,
   0.000000;0.000000;-1.000000;,
   0.866026;-0.000000;-0.500000;,
   0.866025;-0.000000;-0.500000;,
   0.000000;0.000000;-1.000000;,
   0.866025;-0.000000;0.500001;,
   0.866025;-0.000000;0.500000;,
   -0.000000;-0.000000;1.000000;,
   -0.000000;-0.000000;1.000000;,
   -0.866025;0.000000;0.500000;,
   -0.866026;0.000000;0.500000;,
   -0.866025;0.000000;-0.500000;,
   -0.866025;0.000000;-0.500000;,
   -0.000000;-1.000000;-0.000000;,
   -0.000000;-1.000000;-0.000001;,
   -0.000000;-1.000000;-0.000001;,
   -0.000000;-1.000000;-0.000000;,
   -0.000000;-1.000000;-0.000000;,
   0.000000;1.000000;0.000000;,
   0.000000;1.000000;0.000000;,
   0.000000;1.000000;0.000000;,
   0.000000;1.000000;0.000000;,
   0.000000;1.000000;0.000000;,
   0.000000;1.000000;0.000000;,
   0.866026;-0.000000;-0.500000;,
   0.000000;0.000000;-1.000000;,
   0.000000;0.000000;-1.000000;,
   -0.866025;0.000000;-0.500000;,
   0.706232;0.705960;-0.053461;,
   0.999108;-0.000000;-0.042217;,
   0.000001;0.999932;-0.011673;,
   -0.706231;0.705960;-0.053461;,
   -0.999108;0.000000;-0.042217;,
   -0.000000;-1.000000;-0.000000;,
   -0.000001;-1.000000;-0.000000;;
   340;
   3;0,1,2;,
   3;1,0,3;,
   3;4,5,6;,
   3;5,4,7;,
   3;8,9,10;,
   3;9,8,11;,
   3;10,12,13;,
   3;12,10,9;,
   3;13,14,15;,
   3;14,13,12;,
   3;15,16,17;,
   3;16,15,14;,
   3;17,18,19;,
   3;18,17,16;,
   3;19,20,21;,
   3;20,19,18;,
   3;21,22,23;,
   3;22,21,20;,
   3;23,24,25;,
   3;24,23,22;,
   3;26,27,28;,
   3;27,26,29;,
   3;30,31,32;,
   3;33,34,35;,
   3;36,37,38;,
   3;37,36,39;,
   3;38,40,41;,
   3;40,38,37;,
   3;42,43,44;,
   3;43,42,45;,
   3;44,3,0;,
   3;3,44,43;,
   3;46,35,47;,
   3;48,49,50;,
   3;49,48,51;,
   3;52,53,54;,
   3;35,46,33;,
   3;55,56,57;,
   3;55,58,56;,
   3;59,58,55;,
   3;49,60,50;,
   3;61,62,63;,
   3;11,64,9;,
   3;64,11,65;,
   3;9,66,12;,
   3;66,9,64;,
   3;12,67,14;,
   3;67,12,66;,
   3;14,68,16;,
   3;68,14,67;,
   3;16,69,18;,
   3;69,16,68;,
   3;18,61,20;,
   3;61,18,69;,
   3;20,63,22;,
   3;63,20,61;,
   3;22,62,24;,
   3;62,22,63;,
   3;27,70,28;,
   3;71,72,73;,
   3;74,75,76;,
   3;50,60,59;,
   3;72,77,78;,
   3;72,79,77;,
   3;72,71,79;,
   3;28,70,80;,
   3;81,82,83;,
   3;82,81,84;,
   3;70,67,66;,
   3;62,69,85;,
   3;86,64,65;,
   3;64,86,87;,
   3;88,28,80;,
   3;28,88,89;,
   3;90,51,48;,
   3;91,84,92;,
   3;84,91,82;,
   3;92,81,88;,
   3;81,92,84;,
   3;88,81,89;,
   3;81,51,89;,
   3;51,81,83;,
   3;93,79,94;,
   3;79,93,77;,
   3;85,27,95;,
   3;27,85,70;,
   3;85,24,62;,
   3;24,85,95;,
   3;24,96,25;,
   3;96,24,95;,
   3;29,97,27;,
   3;97,29,98;,
   3;27,97,95;,
   3;98,99,97;,
   3;99,98,100;,
   3;97,101,95;,
   3;101,97,99;,
   3;95,102,96;,
   3;102,95,101;,
   3;100,103,99;,
   3;103,100,104;,
   3;99,105,101;,
   3;105,99,103;,
   3;101,106,102;,
   3;106,101,105;,
   3;104,107,103;,
   3;107,104,108;,
   3;103,109,105;,
   3;109,103,107;,
   3;105,110,106;,
   3;110,105,109;,
   3;108,111,107;,
   3;111,108,112;,
   3;107,31,109;,
   3;31,107,111;,
   3;109,113,110;,
   3;113,109,31;,
   3;28,114,26;,
   3;114,28,111;,
   3;31,89,32;,
   3;111,89,31;,
   3;89,111,28;,
   3;66,87,80;,
   3;115,116,86;,
   3;80,92,88;,
   3;76,117,118;,
   3;117,76,75;,
   3;53,52,116;,
   3;67,85,68;,
   3;67,70,85;,
   3;66,80,70;,
   3;87,66,64;,
   3;53,116,115;,
   3;80,87,92;,
   3;85,69,68;,
   3;62,61,69;,
   3;75,74,119;,
   3;120,3,43;,
   3;52,54,121;,
   3;0,122,123;,
   3;122,0,2;,
   3;4,124,125;,
   3;124,4,6;,
   3;8,126,127;,
   3;126,8,10;,
   3;10,128,126;,
   3;128,10,13;,
   3;13,129,128;,
   3;129,13,15;,
   3;15,130,129;,
   3;130,15,17;,
   3;17,131,130;,
   3;131,17,19;,
   3;19,132,131;,
   3;132,19,21;,
   3;21,133,132;,
   3;133,21,23;,
   3;23,134,133;,
   3;134,23,25;,
   3;26,135,29;,
   3;135,26,136;,
   3;137,138,139;,
   3;140,141,142;,
   3;36,143,144;,
   3;143,36,38;,
   3;38,145,143;,
   3;145,38,41;,
   3;42,146,147;,
   3;146,42,44;,
   3;44,123,146;,
   3;123,44,0;,
   3;141,46,148;,
   3;149,150,151;,
   3;150,149,152;,
   3;153,154,155;,
   3;141,140,46;,
   3;156,157,158;,
   3;159,157,156;,
   3;160,157,159;,
   3;150,152,161;,
   3;162,163,164;,
   3;127,165,166;,
   3;165,127,126;,
   3;126,167,165;,
   3;167,126,128;,
   3;128,168,167;,
   3;168,128,129;,
   3;129,169,168;,
   3;169,129,130;,
   3;130,170,169;,
   3;170,130,131;,
   3;131,162,170;,
   3;162,131,132;,
   3;132,163,162;,
   3;163,132,133;,
   3;133,164,163;,
   3;164,133,134;,
   3;135,136,171;,
   3;172,173,174;,
   3;175,176,177;,
   3;152,160,161;,
   3;174,178,172;,
   3;174,179,178;,
   3;174,180,179;,
   3;136,181,171;,
   3;182,183,184;,
   3;183,182,185;,
   3;171,167,168;,
   3;164,186,170;,
   3;165,187,166;,
   3;187,165,188;,
   3;189,136,190;,
   3;136,189,181;,
   3;151,191,149;,
   3;192,184,183;,
   3;184,192,193;,
   3;193,182,184;,
   3;182,193,189;,
   3;189,190,182;,
   3;182,151,185;,
   3;151,182,190;,
   3;194,178,179;,
   3;178,194,195;,
   3;186,135,171;,
   3;135,186,196;,
   3;186,134,196;,
   3;134,186,164;,
   3;134,197,196;,
   3;197,134,25;,
   3;29,198,98;,
   3;198,29,135;,
   3;135,196,198;,
   3;98,199,100;,
   3;199,98,198;,
   3;198,200,199;,
   3;200,198,196;,
   3;196,102,200;,
   3;102,196,197;,
   3;100,201,104;,
   3;201,100,199;,
   3;199,202,201;,
   3;202,199,200;,
   3;200,106,202;,
   3;106,200,102;,
   3;104,203,108;,
   3;203,104,201;,
   3;201,204,203;,
   3;204,201,202;,
   3;202,110,204;,
   3;110,202,106;,
   3;108,205,112;,
   3;205,108,203;,
   3;203,137,205;,
   3;137,203,204;,
   3;204,113,137;,
   3;113,204,110;,
   3;136,114,205;,
   3;114,136,26;,
   3;137,139,190;,
   3;205,190,136;,
   3;190,205,137;,
   3;165,181,188;,
   3;206,187,188;,
   3;181,189,193;,
   3;176,207,177;,
   3;207,176,208;,
   3;153,155,188;,
   3;168,169,186;,
   3;168,186,171;,
   3;167,181,165;,
   3;181,167,171;,
   3;155,206,188;,
   3;181,193,188;,
   3;186,169,170;,
   3;164,170,162;,
   3;177,209,175;,
   3;210,146,123;,
   3;153,211,154;,
   3;51,32,89;,
   3;51,30,32;,
   3;51,90,30;,
   3;138,190,139;,
   3;138,151,190;,
   3;191,151,138;,
   3;212,213,214;,
   3;213,212,215;,
   3;216,214,217;,
   3;214,216,212;,
   3;218,217,219;,
   3;217,218,216;,
   3;220,219,221;,
   3;219,220,218;,
   3;222,223,224;,
   3;223,222,225;,
   3;226,227,228;,
   3;227,226,229;,
   3;228,230,231;,
   3;230,228,227;,
   3;231,232,233;,
   3;232,231,230;,
   3;233,234,235;,
   3;234,233,232;,
   3;235,236,237;,
   3;236,235,234;,
   3;237,229,226;,
   3;229,237,236;,
   3;238,239,240;,
   3;239,238,241;,
   3;240,242,243;,
   3;242,240,239;,
   3;243,244,245;,
   3;244,243,242;,
   3;245,246,247;,
   3;246,245,244;,
   3;247,248,249;,
   3;248,247,246;,
   3;249,241,238;,
   3;241,249,248;,
   3;250,251,252;,
   3;250,253,251;,
   3;254,253,250;,
   3;255,256,257;,
   3;256,258,259;,
   3;255,258,256;,
   3;260,258,255;,
   3;261,262,263;,
   3;262,261,213;,
   3;214,213,261;,
   3;221,219,264;,
   3;263,221,264;,
   3;221,263,262;,
   3;215,265,213;,
   3;265,215,266;,
   3;213,265,267;,
   3;267,265,268;,
   3;221,269,220;,
   3;269,221,268;,
   3;254,270,253;,
   3;270,254,271;,
   3;267,268,221;;
  }

  MeshMaterialList {
   1;
   340;
   0,
   0,
   0,
   0,
   0,
   0,
   0,
   0,
   0,
   0,
   0,
   0,
   0,
   0,
   0,
   0,
   0,
   0,
   0,
   0,
   0,
   0,
   0,
   0,
   0,
   0,
   0,
   0,
   0,
   0,
   0,
   0,
   0,
   0,
   0,
   0,
   0,
   0,
   0,
   0,
   0,
   0,
   0,
   0,
   0,
   0,
   0,
   0,
   0,
   0,
   0,
   0,
   0,
   0,
   0,
   0,
   0,
   0,
   0,
   0,
   0,
   0,
   0,
   0,
   0,
   0,
   0,
   0,
   0,
   0,
   0,
   0,
   0,
   0,
   0,
   0,
   0,
   0,
   0,
   0,
   0,
   0,
   0,
   0,
   0,
   0,
   0,
   0,
   0,
   0,
   0,
   0,
   0,
   0,
   0,
   0,
   0,
   0,
   0,
   0,
   0,
   0,
   0,
   0,
   0,
   0,
   0,
   0,
   0,
   0,
   0,
   0,
   0,
   0,
   0,
   0,
   0,
   0,
   0,
   0,
   0,
   0,
   0,
   0,
   0,
   0,
   0,
   0,
   0,
   0,
   0,
   0,
   0,
   0,
   0,
   0,
   0,
   0,
   0,
   0,
   0,
   0,
   0,
   0,
   0,
   0,
   0,
   0,
   0,
   0,
   0,
   0,
   0,
   0,
   0,
   0,
   0,
   0,
   0,
   0,
   0,
   0,
   0,
   0,
   0,
   0,
   0,
   0,
   0,
   0,
   0,
   0,
   0,
   0,
   0,
   0,
   0,
   0,
   0,
   0,
   0,
   0,
   0,
   0,
   0,
   0,
   0,
   0,
   0,
   0,
   0,
   0,
   0,
   0,
   0,
   0,
   0,
   0,
   0,
   0,
   0,
   0,
   0,
   0,
   0,
   0,
   0,
   0,
   0,
   0,
   0,
   0,
   0,
   0,
   0,
   0,
   0,
   0,
   0,
   0,
   0,
   0,
   0,
   0,
   0,
   0,
   0,
   0,
   0,
   0,
   0,
   0,
   0,
   0,
   0,
   0,
   0,
   0,
   0,
   0,
   0,
   0,
   0,
   0,
   0,
   0,
   0,
   0,
   0,
   0,
   0,
   0,
   0,
   0,
   0,
   0,
   0,
   0,
   0,
   0,
   0,
   0,
   0,
   0,
   0,
   0,
   0,
   0,
   0,
   0,
   0,
   0,
   0,
   0,
   0,
   0,
   0,
   0,
   0,
   0,
   0,
   0,
   0,
   0,
   0,
   0,
   0,
   0,
   0,
   0,
   0,
   0,
   0,
   0,
   0,
   0,
   0,
   0,
   0,
   0,
   0,
   0,
   0,
   0,
   0,
   0,
   0,
   0,
   0,
   0,
   0,
   0,
   0,
   0,
   0,
   0,
   0,
   0,
   0,
   0,
   0,
   0,
   0,
   0,
   0,
   0,
   0,
   0,
   0,
   0,
   0,
   0,
   0,
   0,
   0,
   0,
   0,
   0,
   0,
   0;
   { _08_-_Default }
  }

  MeshTextureCoords c1 {
   272;
   0.096220;0.227697;,
   0.046913;0.314524;,
   0.027228;0.299919;,
   0.103145;0.292383;,
   0.027228;0.299919;,
   0.054980;0.338989;,
   0.035078;0.357954;,
   0.046913;0.314524;,
   0.035078;0.357954;,
   0.158683;0.344603;,
   0.137817;0.367118;,
   0.054980;0.338989;,
   0.176672;0.384147;,
   0.149907;0.388014;,
   0.169256;0.439426;,
   0.144659;0.438636;,
   0.139047;0.498308;,
   0.107714;0.495937;,
   0.094867;0.626202;,
   0.061942;0.619090;,
   0.064866;0.907233;,
   0.024777;0.919876;,
   0.304772;0.960377;,
   0.332552;0.988034;,
   0.290916;0.853315;,
   0.323472;0.860427;,
   0.420826;0.387042;,
   0.369612;0.488201;,
   0.379278;0.328568;,
   0.398117;0.481880;,
   0.608445;0.382673;,
   0.599554;0.372129;,
   0.736473;0.346118;,
   0.983811;0.391383;,
   0.952918;0.366497;,
   0.952918;0.192502;,
   0.982232;0.071145;,
   0.261442;0.088925;,
   0.261442;0.065218;,
   0.952918;0.087044;,
   0.170744;0.045444;,
   0.162783;0.020158;,
   0.162783;0.020158;,
   0.165764;0.090505;,
   0.138698;0.088925;,
   0.170744;0.045444;,
   0.982232;0.071145;,
   0.952918;0.087044;,
   0.952918;0.366497;,
   0.915911;0.246133;,
   0.952918;0.192502;,
   0.892438;0.371200;,
   0.672535;0.257519;,
   0.279747;0.135584;,
   0.912881;0.138884;,
   0.261442;0.088925;,
   0.165764;0.090505;,
   0.170744;0.045444;,
   0.261442;0.088925;,
   0.952918;0.087044;,
   0.931844;0.138388;,
   0.108327;0.895163;,
   0.258837;0.840961;,
   0.270583;0.934539;,
   0.158683;0.324653;,
   0.046913;0.314524;,
   0.204698;0.364546;,
   0.198766;0.458145;,
   0.168093;0.534540;,
   0.135908;0.639624;,
   0.351785;0.349899;,
   0.931844;0.138388;,
   0.912881;0.138884;,
   0.952918;0.087044;,
   0.952918;0.087044;,
   0.279747;0.135584;,
   0.261442;0.088925;,
   0.889377;0.246133;,
   0.889377;0.246133;,
   0.915911;0.246133;,
   0.402825;0.319928;,
   0.701629;0.321710;,
   0.889377;0.246133;,
   0.870512;0.321995;,
   0.723900;0.246317;,
   0.307955;0.597271;,
   0.103145;0.292383;,
   0.164121;0.248833;,
   0.676625;0.321710;,
   0.677012;0.351446;,
   0.983811;0.391383;,
   0.889377;0.246133;,
   0.672535;0.257519;,
   0.870512;0.321995;,
   0.892438;0.371200;,
   0.343354;0.609493;,
   0.364167;0.629585;,
   0.376533;0.544508;,
   0.398027;0.526162;,
   0.401575;0.557698;,
   0.417496;0.531451;,
   0.395814;0.587516;,
   0.404570;0.606918;,
   0.525557;0.552427;,
   0.512820;0.525824;,
   0.531111;0.566893;,
   0.548359;0.584804;,
   0.567754;0.435684;,
   0.543077;0.432523;,
   0.580930;0.436684;,
   0.608792;0.440635;,
   0.545846;0.371465;,
   0.530852;0.392573;,
   0.614676;0.386252;,
   0.527668;0.388622;,
   0.164525;0.138315;,
   0.164121;0.248833;,
   0.164525;0.138315;,
   0.165764;0.090505;,
   0.912881;0.138884;,
   0.164525;0.138315;,
   0.889377;0.246133;,
   0.054246;0.313983;,
   0.109704;0.275267;,
   0.054980;0.338989;,
   0.054246;0.313983;,
   0.158683;0.344603;,
   0.054980;0.338989;,
   0.176672;0.384147;,
   0.169256;0.439426;,
   0.139047;0.498308;,
   0.094867;0.626202;,
   0.064866;0.907233;,
   0.304772;0.960377;,
   0.290916;0.853315;,
   0.369612;0.488201;,
   0.378218;0.327865;,
   0.599554;0.372129;,
   0.618902;0.383545;,
   0.736645;0.341957;,
   0.983781;0.391604;,
   0.952918;0.192502;,
   0.952918;0.366497;,
   0.261442;0.088925;,
   0.952918;0.087044;,
   0.170744;0.045444;,
   0.165764;0.090505;,
   0.170744;0.045444;,
   0.952918;0.087044;,
   0.952918;0.366497;,
   0.915911;0.246133;,
   0.892438;0.371200;,
   0.952918;0.192502;,
   0.702235;0.256602;,
   0.912881;0.138884;,
   0.382089;0.142476;,
   0.165764;0.090505;,
   0.261442;0.088925;,
   0.170744;0.045444;,
   0.261442;0.088925;,
   0.952918;0.087044;,
   0.931844;0.138388;,
   0.108327;0.895163;,
   0.270583;0.934539;,
   0.258837;0.840961;,
   0.157490;0.329871;,
   0.054246;0.313983;,
   0.186969;0.359625;,
   0.198347;0.458470;,
   0.173513;0.520313;,
   0.135908;0.639624;,
   0.352749;0.356714;,
   0.931844;0.138388;,
   0.952918;0.087044;,
   0.912881;0.138884;,
   0.952918;0.087044;,
   0.261442;0.088925;,
   0.382089;0.142476;,
   0.915911;0.246133;,
   0.889377;0.246133;,
   0.889377;0.246133;,
   0.402746;0.320298;,
   0.701629;0.321710;,
   0.889377;0.246133;,
   0.723900;0.246317;,
   0.870512;0.321995;,
   0.306310;0.597673;,
   0.109704;0.275267;,
   0.161811;0.249288;,
   0.676625;0.321710;,
   0.677012;0.351446;,
   0.983781;0.391604;,
   0.889377;0.246133;,
   0.702235;0.256602;,
   0.870512;0.321995;,
   0.892438;0.371200;,
   0.342555;0.612839;,
   0.366472;0.629675;,
   0.376533;0.544508;,
   0.401575;0.557698;,
   0.395814;0.587516;,
   0.525557;0.552427;,
   0.531112;0.566893;,
   0.567754;0.435684;,
   0.580930;0.436684;,
   0.545846;0.371465;,
   0.164525;0.138315;,
   0.164525;0.138315;,
   0.165764;0.090505;,
   0.912881;0.138884;,
   0.164525;0.138315;,
   0.889377;0.246133;,
   0.865968;0.994694;,
   0.823247;0.751742;,
   0.865968;0.591679;,
   0.823247;0.994694;,
   0.946439;0.994694;,
   0.946439;0.591679;,
   0.865968;0.994694;,
   0.865968;0.591679;,
   0.823247;0.994694;,
   0.823247;0.751742;,
   0.718420;0.994694;,
   0.718420;0.751742;,
   0.718420;0.751742;,
   0.718420;0.994694;,
   0.663421;0.591679;,
   0.814119;0.588901;,
   0.823247;0.591679;,
   0.663421;0.588901;,
   0.859996;0.588901;,
   0.865968;0.591679;,
   0.946439;0.588901;,
   0.946439;0.591679;,
   0.859996;0.588901;,
   0.865968;0.591679;,
   0.814119;0.588901;,
   0.823247;0.591679;,
   0.663421;0.588901;,
   0.814119;0.428657;,
   0.814119;0.588901;,
   0.663421;0.428657;,
   0.859996;0.428657;,
   0.859996;0.588901;,
   0.946439;0.428657;,
   0.946439;0.588901;,
   0.859996;0.428657;,
   0.859996;0.588901;,
   0.814119;0.428657;,
   0.814119;0.588901;,
   0.865968;0.994694;,
   0.865968;0.994694;,
   0.946439;0.994694;,
   0.823247;0.994694;,
   0.823247;0.994694;,
   0.654802;0.773930;,
   0.535783;0.986575;,
   0.654802;0.915693;,
   0.416765;0.773930;,
   0.416765;0.915693;,
   0.535783;0.703048;,
   0.823247;0.591679;,
   0.663420;0.747257;,
   0.663421;0.591679;,
   0.823247;0.591679;,
   0.718420;0.751742;,
   0.718420;0.994694;,
   0.663420;0.747257;,
   0.718420;0.751742;,
   0.718420;0.994694;,
   0.718420;0.994694;,
   0.718420;0.994694;;
  }
 }
}