xof 0303txt 0032
template ColorRGBA {
 <35ff44e0-6c7c-11cf-8f52-0040333594a3>
 FLOAT red;
 FLOAT green;
 FLOAT blue;
 FLOAT alpha;
}

template ColorRGB {
 <d3e16e81-7835-11cf-8f52-0040333594a3>
 FLOAT red;
 FLOAT green;
 FLOAT blue;
}

template Material {
 <3d82ab4d-62da-11cf-ab39-0020af71e433>
 ColorRGBA faceColor;
 FLOAT power;
 ColorRGB specularColor;
 ColorRGB emissiveColor;
 [...]
}

template TextureFilename {
 <a42790e1-7810-11cf-8f52-0040333594a3>
 STRING filename;
}

template Frame {
 <3d82ab46-62da-11cf-ab39-0020af71e433>
 [...]
}

template Matrix4x4 {
 <f6f23f45-7686-11cf-8f52-0040333594a3>
 array FLOAT matrix[16];
}

template FrameTransformMatrix {
 <f6f23f41-7686-11cf-8f52-0040333594a3>
 Matrix4x4 frameMatrix;
}

template Vector {
 <3d82ab5e-62da-11cf-ab39-0020af71e433>
 FLOAT x;
 FLOAT y;
 FLOAT z;
}

template MeshFace {
 <3d82ab5f-62da-11cf-ab39-0020af71e433>
 DWORD nFaceVertexIndices;
 array DWORD faceVertexIndices[nFaceVertexIndices];
}

template Mesh {
 <3d82ab44-62da-11cf-ab39-0020af71e433>
 DWORD nVertices;
 array Vector vertices[nVertices];
 DWORD nFaces;
 array MeshFace faces[nFaces];
 [...]
}

template MeshNormals {
 <f6f23f43-7686-11cf-8f52-0040333594a3>
 DWORD nNormals;
 array Vector normals[nNormals];
 DWORD nFaceNormals;
 array MeshFace faceNormals[nFaceNormals];
}

template MeshMaterialList {
 <f6f23f42-7686-11cf-8f52-0040333594a3>
 DWORD nMaterials;
 DWORD nFaceIndexes;
 array DWORD faceIndexes[nFaceIndexes];
 [Material <3d82ab4d-62da-11cf-ab39-0020af71e433>]
}

template Coords2d {
 <f6f23f44-7686-11cf-8f52-0040333594a3>
 FLOAT u;
 FLOAT v;
}

template MeshTextureCoords {
 <f6f23f40-7686-11cf-8f52-0040333594a3>
 DWORD nTextureCoords;
 array Coords2d textureCoords[nTextureCoords];
}


Material _04_-_Default {
 1.000000;1.000000;1.000000;1.000000;;
 9.999999;
 0.000000;0.000000;0.000000;;
 0.000000;0.000000;0.000000;;

 TextureFilename {
  "Revolver.png";
 }
}

Frame Revolver {
 

 FrameTransformMatrix {
  1.000000,0.000000,0.000000,0.000000,0.000000,1.000000,0.000000,0.000000,0.000000,0.000000,1.000000,0.000000,-0.000000,-0.000000,0.000000,1.000000;;
 }

 Mesh Revolver {
  492;
  -0.003098;0.085454;-0.033980;,
  -0.000000;0.094424;-0.034155;,
  0.000000;0.085454;-0.034678;,
  -0.003098;0.094424;-0.033578;,
  0.003098;0.094424;-0.033578;,
  0.003098;0.085454;-0.033980;,
  0.004382;0.085436;-0.028307;,
  0.002916;0.146030;-0.025391;,
  0.003098;0.085436;-0.025209;,
  0.004124;0.146030;-0.028307;,
  -0.003098;0.085436;-0.025209;,
  -0.004124;0.146030;-0.028307;,
  -0.004382;0.085436;-0.028307;,
  -0.002916;0.146030;-0.025391;,
  0.000000;0.145391;-0.033789;,
  -0.002916;0.145403;-0.033396;,
  0.002916;0.145403;-0.033396;,
  -0.003098;0.085436;-0.031808;,
  0.000000;0.085436;-0.031134;,
  -0.004382;0.085436;-0.028307;,
  0.000000;0.056803;-0.033563;,
  0.000000;0.056803;-0.031134;,
  -0.003098;0.056803;-0.031808;,
  0.003098;0.056803;-0.031808;,
  0.004382;0.085436;-0.028307;,
  0.003098;0.085436;-0.031808;,
  0.003098;0.085436;-0.025209;,
  -0.003098;0.085436;-0.025209;,
  0.004124;0.146030;-0.028307;,
  -0.000000;0.146083;-0.028307;,
  0.002916;0.146030;-0.025391;,
  -0.000000;0.146009;-0.021930;,
  -0.002916;0.146030;-0.025391;,
  -0.004124;0.146030;-0.028307;,
  0.000000;0.145391;-0.033789;,
  -0.003098;0.056821;-0.033980;,
  0.000000;0.056821;-0.034678;,
  -0.003098;0.085436;-0.031808;,
  0.000000;0.056803;-0.031134;,
  0.000000;0.085436;-0.031134;,
  -0.003098;0.056803;-0.031808;,
  0.003098;0.056803;-0.031808;,
  0.003098;0.085436;-0.031808;,
  0.003098;0.056821;-0.033980;,
  -0.004382;0.085436;-0.028307;,
  -0.003098;0.085454;-0.033980;,
  -0.003098;0.094424;-0.033578;,
  -0.003098;0.056821;-0.033980;,
  -0.003098;0.056803;-0.031808;,
  0.000000;0.056821;-0.034678;,
  0.000000;0.056803;-0.033563;,
  0.000000;0.056821;-0.034678;,
  -0.003098;0.056803;-0.031808;,
  -0.003098;0.056821;-0.033980;,
  0.000000;0.056803;-0.033563;,
  0.003098;0.056821;-0.033980;,
  0.003098;0.056803;-0.031808;,
  0.003098;0.056821;-0.033980;,
  0.000000;0.056803;-0.033563;,
  0.000000;0.056821;-0.034678;,
  0.003098;0.085454;-0.033980;,
  0.003098;0.056821;-0.033980;,
  0.003098;0.094424;-0.033578;,
  0.004382;0.085436;-0.028307;,
  0.002916;0.145403;-0.033396;,
  0.004124;0.146030;-0.028307;,
  0.004124;0.146030;-0.028307;,
  0.002916;0.145403;-0.033396;,
  0.000000;0.145391;-0.033789;,
  -0.002916;0.145403;-0.033396;,
  -0.004124;0.146030;-0.028307;,
  -0.004124;0.146030;-0.028307;,
  -0.002916;0.145403;-0.033396;,
  0.001892;0.085450;-0.022233;,
  -0.001892;0.085450;-0.022233;,
  -0.001781;0.145967;-0.022433;,
  -0.001892;0.085450;-0.022233;,
  -0.002916;0.146030;-0.025391;,
  -0.001781;0.145967;-0.022433;,
  -0.000000;0.146009;-0.021930;,
  0.001781;0.145967;-0.022433;,
  0.002916;0.146030;-0.025391;,
  0.001892;0.085450;-0.022233;,
  0.001781;0.145967;-0.022433;,
  0.002090;0.085448;-0.016744;,
  0.002956;0.085448;-0.018834;,
  0.002090;0.094414;-0.016744;,
  -0.002090;0.085448;-0.016744;,
  -0.002956;0.094414;-0.018834;,
  -0.002956;0.085448;-0.018834;,
  -0.002090;0.094414;-0.016744;,
  0.002090;0.145514;-0.016744;,
  0.002956;0.145635;-0.018834;,
  -0.000000;0.145397;-0.015879;,
  -0.000000;0.094414;-0.015879;,
  -0.002090;0.145514;-0.016744;,
  -0.002956;0.145635;-0.018834;,
  -0.002090;0.085448;-0.016744;,
  -0.002956;0.085448;-0.018834;,
  -0.000000;0.085448;-0.015879;,
  0.002090;0.085448;-0.016744;,
  0.002956;0.085448;-0.018834;,
  0.002956;0.145635;-0.018834;,
  -0.000000;0.145397;-0.015879;,
  0.002090;0.145514;-0.016744;,
  -0.002956;0.145635;-0.018834;,
  -0.002090;0.145514;-0.016744;,
  0.003436;0.091911;-0.003707;,
  0.002296;0.084857;-0.006007;,
  0.002430;0.091911;-0.006137;,
  0.003247;0.084857;-0.003710;,
  -0.002430;0.091911;-0.006137;,
  -0.003247;0.084857;-0.003710;,
  -0.003436;0.091911;-0.003707;,
  -0.002296;0.084857;-0.006007;,
  -0.002552;0.084857;-0.001414;,
  -0.002430;0.091911;-0.001277;,
  0.000000;0.084857;-0.000463;,
  0.000000;0.091911;-0.000270;,
  0.002552;0.084857;-0.001414;,
  0.002430;0.091911;-0.001277;,
  -0.001717;0.080525;0.002257;,
  0.001274;0.078737;0.011428;,
  0.001717;0.080525;0.002257;,
  -0.001274;0.078737;0.011428;,
  -0.002410;0.049895;0.015219;,
  0.002410;0.051181;0.009531;,
  0.002410;0.049895;0.015219;,
  0.002410;0.051181;0.009531;,
  -0.002410;0.049895;0.015219;,
  -0.002410;0.051181;0.009531;,
  0.003247;0.084857;-0.003710;,
  0.002162;0.056578;-0.005869;,
  0.002296;0.084857;-0.006007;,
  0.002897;0.056578;-0.003707;,
  0.000000;0.056578;-0.006765;,
  0.000000;0.084857;-0.006958;,
  -0.002162;0.056578;-0.005869;,
  -0.002296;0.084857;-0.006007;,
  -0.002897;0.056578;-0.003707;,
  -0.003247;0.084857;-0.003710;,
  -0.003039;0.071006;-0.001262;,
  -0.002552;0.084857;-0.001414;,
  -0.001274;0.077705;0.011052;,
  0.001717;0.076267;0.003623;,
  0.001274;0.077705;0.011052;,
  -0.001717;0.076267;0.003623;,
  0.002552;0.084857;-0.001414;,
  0.003039;0.071006;-0.001262;,
  -0.002865;0.056578;0.000167;,
  -0.003039;0.071006;-0.001262;,
  0.002862;0.056670;0.000385;,
  0.003039;0.071006;-0.001262;,
  -0.002865;0.056578;0.000167;,
  0.002862;0.056670;0.000385;,
  0.000000;0.091911;-0.000270;,
  -0.003436;0.091911;-0.003707;,
  -0.002430;0.091911;-0.001277;,
  0.003436;0.091911;-0.003707;,
  0.002430;0.091911;-0.001277;,
  0.002162;0.056578;-0.005869;,
  -0.002162;0.056578;-0.005869;,
  0.000000;0.056578;-0.006765;,
  -0.002162;0.056578;-0.005869;,
  -0.002865;0.056578;0.000167;,
  -0.002897;0.056578;-0.003707;,
  -0.002162;0.056578;-0.005869;,
  0.002862;0.056670;0.000385;,
  -0.002865;0.056578;0.000167;,
  0.002162;0.056578;-0.005869;,
  0.002862;0.056670;0.000385;,
  -0.002162;0.056578;-0.005869;,
  0.002897;0.056578;-0.003707;,
  0.002862;0.056670;0.000385;,
  0.002162;0.056578;-0.005869;,
  0.000000;0.084857;-0.006958;,
  -0.002296;0.084857;-0.006007;,
  0.002296;0.084857;-0.006007;,
  0.000000;0.084857;-0.000463;,
  -0.002552;0.084857;-0.001414;,
  0.002552;0.084857;-0.001414;,
  -0.006714;0.057187;-0.025687;,
  0.000000;0.054207;-0.026228;,
  0.000000;0.051354;-0.018972;,
  0.000000;0.057187;-0.028468;,
  -0.009495;0.057187;-0.018972;,
  -0.006714;0.057187;-0.012258;,
  0.000000;0.057187;-0.009477;,
  0.006714;0.057187;-0.012258;,
  0.009495;0.057187;-0.018972;,
  0.006714;0.057187;-0.025687;,
  0.003013;0.023829;-0.002323;,
  0.003013;0.031972;-0.016673;,
  0.003013;0.031653;0.009304;,
  0.003013;0.025908;-0.015046;,
  0.003013;0.041282;-0.022057;,
  0.003013;0.040964;0.009304;,
  0.003013;0.049964;-0.033935;,
  0.003013;0.049733;0.008885;,
  0.003013;0.056854;-0.033935;,
  0.003013;0.056854;0.000822;,
  -0.003013;0.056854;0.000723;,
  0.003013;0.056854;-0.033935;,
  -0.003056;0.056837;-0.033957;,
  0.003013;0.056854;0.000822;,
  -0.003013;0.056854;0.000723;,
  -0.003013;0.049964;-0.033935;,
  -0.003013;0.049729;0.008958;,
  -0.003056;0.056837;-0.033957;,
  -0.003013;0.041282;-0.022057;,
  -0.003013;0.040964;0.009304;,
  -0.003013;0.031972;-0.016673;,
  -0.003013;0.031653;0.009304;,
  -0.003013;0.025908;-0.015046;,
  -0.003013;0.023829;-0.002323;,
  0.003013;0.031653;0.009304;,
  -0.003013;0.023829;-0.002323;,
  0.003013;0.023829;-0.002323;,
  -0.003013;0.031653;0.009304;,
  0.003013;0.040964;0.009304;,
  -0.003013;0.031653;0.009304;,
  0.003013;0.031653;0.009304;,
  -0.003013;0.040964;0.009304;,
  0.003013;0.049733;0.008885;,
  -0.003013;0.040964;0.009304;,
  0.003013;0.040964;0.009304;,
  -0.003013;0.040964;0.009304;,
  0.003013;0.049733;0.008885;,
  -0.003013;0.049729;0.008958;,
  -0.003013;0.049729;0.008958;,
  0.003013;0.049733;0.008885;,
  0.003013;0.025908;-0.015046;,
  -0.003013;0.031972;-0.016673;,
  0.003013;0.031972;-0.016673;,
  -0.003013;0.025908;-0.015046;,
  -0.003013;0.041282;-0.022057;,
  0.003013;0.041282;-0.022057;,
  -0.003013;0.049964;-0.033935;,
  0.003013;0.049964;-0.033935;,
  -0.003056;0.056837;-0.033957;,
  0.003013;0.056854;-0.033935;,
  0.003013;0.023829;-0.002323;,
  -0.003013;0.025908;-0.015046;,
  0.003013;0.025908;-0.015046;,
  -0.003013;0.023829;-0.002323;,
  -0.003308;0.000827;0.047630;,
  0.003308;0.009169;0.051182;,
  -0.003308;0.009169;0.051182;,
  0.003308;0.000827;0.047630;,
  0.003308;0.019835;0.051182;,
  -0.003308;0.019835;0.051182;,
  0.003308;0.030107;0.048275;,
  -0.003308;0.030107;0.048275;,
  0.003308;0.037298;0.039630;,
  -0.003308;0.037298;0.039630;,
  -0.003767;0.022851;-0.002555;,
  0.003925;0.039356;-0.000582;,
  0.003767;0.022851;-0.002555;,
  -0.003925;0.039356;-0.000582;,
  0.003308;0.005206;0.033969;,
  -0.003308;0.005206;0.033969;,
  0.003308;0.009424;0.019270;,
  -0.003308;0.009424;0.019270;,
  0.004559;0.018883;0.037459;,
  0.003308;0.034795;0.033969;,
  0.004559;0.021015;0.022409;,
  0.003308;0.038486;0.027800;,
  0.003308;0.035791;0.019859;,
  0.004559;0.023754;0.010482;,
  0.003308;0.039712;0.015047;,
  -0.003308;0.034795;0.033969;,
  -0.003308;0.038486;0.027800;,
  -0.003308;0.035791;0.019859;,
  -0.003308;0.039712;0.015047;,
  0.002877;0.049781;0.017286;,
  -0.003414;0.052075;0.007255;,
  -0.002877;0.049781;0.017286;,
  0.003414;0.052075;0.007255;,
  -0.004559;0.018883;0.037459;,
  -0.004559;0.021015;0.022409;,
  -0.004559;0.023754;0.010482;,
  0.001274;0.074123;0.017664;,
  -0.001274;0.074123;0.017664;,
  0.001274;0.078737;0.011428;,
  0.001274;0.073417;0.016822;,
  0.001274;0.077705;0.011052;,
  0.001274;0.074123;0.017664;,
  -0.001274;0.073417;0.016822;,
  0.001274;0.073417;0.016822;,
  -0.001274;0.077705;0.011052;,
  -0.001274;0.074123;0.017664;,
  -0.001274;0.078737;0.011428;,
  -0.001274;0.073417;0.016822;,
  0.001274;0.064325;0.020627;,
  -0.001274;0.064325;0.020627;,
  0.001274;0.064230;0.019532;,
  0.001274;0.064325;0.020627;,
  -0.001274;0.064230;0.019532;,
  0.001274;0.064230;0.019532;,
  -0.001274;0.064325;0.020627;,
  -0.001274;0.064230;0.019532;,
  0.001274;0.054371;0.019203;,
  -0.001274;0.054371;0.019203;,
  0.001274;0.055001;0.018303;,
  0.001274;0.054371;0.019203;,
  -0.001274;0.055001;0.018303;,
  0.001274;0.055001;0.018303;,
  -0.001274;0.054371;0.019203;,
  -0.001274;0.055001;0.018303;,
  0.002410;0.049895;0.015219;,
  -0.002410;0.049895;0.015219;,
  0.002410;0.051181;0.009531;,
  0.002410;0.049895;0.015219;,
  -0.002410;0.051181;0.009531;,
  0.002410;0.051181;0.009531;,
  -0.002410;0.049895;0.015219;,
  -0.002410;0.051181;0.009531;,
  -0.001540;0.145067;-0.033385;,
  0.001540;0.128202;-0.033385;,
  0.001540;0.145067;-0.033385;,
  -0.001540;0.128202;-0.033385;,
  -0.001540;0.143614;-0.039527;,
  0.001540;0.128202;-0.033385;,
  -0.001540;0.128202;-0.033385;,
  0.001540;0.143614;-0.039527;,
  -0.001540;0.145067;-0.033385;,
  -0.001540;0.143614;-0.039527;,
  -0.001540;0.128202;-0.033385;,
  0.001540;0.128202;-0.033385;,
  0.001540;0.143614;-0.039527;,
  0.001540;0.145067;-0.033385;,
  0.001540;0.145067;-0.033385;,
  -0.001540;0.143614;-0.039527;,
  -0.001540;0.145067;-0.033385;,
  0.001540;0.143614;-0.039527;,
  -0.002348;0.047813;-0.033163;,
  0.002348;0.063130;-0.033163;,
  -0.002348;0.063130;-0.033163;,
  0.002348;0.047813;-0.033163;,
  -0.002348;0.048330;-0.037008;,
  0.002348;0.057864;-0.037008;,
  0.002348;0.048330;-0.037008;,
  -0.002348;0.057864;-0.037008;,
  -0.002348;0.047813;-0.033163;,
  0.002348;0.047813;-0.033163;,
  0.002348;0.047813;-0.033163;,
  0.002348;0.057864;-0.037008;,
  0.002348;0.063130;-0.033163;,
  0.002348;0.048330;-0.037008;,
  0.002348;0.063130;-0.033163;,
  -0.002348;0.063130;-0.033163;,
  -0.002348;0.063130;-0.033163;,
  -0.002348;0.048330;-0.037008;,
  -0.002348;0.047813;-0.033163;,
  -0.002348;0.057864;-0.037008;,
  -0.001101;0.040898;-0.021821;,
  0.001101;0.043570;-0.024611;,
  -0.001101;0.043570;-0.024611;,
  0.001101;0.040898;-0.021821;,
  -0.001101;0.033901;-0.026818;,
  0.001101;0.034201;-0.027918;,
  0.001101;0.033901;-0.026818;,
  -0.001101;0.034201;-0.027918;,
  -0.001101;0.040898;-0.021821;,
  0.001101;0.037871;-0.025229;,
  0.001101;0.040898;-0.021821;,
  -0.001101;0.037871;-0.025229;,
  0.001101;0.033901;-0.026818;,
  -0.001101;0.033901;-0.026818;,
  0.001101;0.040898;-0.021821;,
  0.001101;0.038853;-0.026654;,
  0.001101;0.043570;-0.024611;,
  0.001101;0.037871;-0.025229;,
  0.001101;0.034201;-0.027918;,
  0.001101;0.033901;-0.026818;,
  0.001101;0.043570;-0.024611;,
  -0.001101;0.038853;-0.026654;,
  -0.001101;0.043570;-0.024611;,
  0.001101;0.038853;-0.026654;,
  -0.001101;0.034201;-0.027918;,
  0.001101;0.034201;-0.027918;,
  -0.001101;0.043570;-0.024611;,
  -0.001101;0.037871;-0.025229;,
  -0.001101;0.040898;-0.021821;,
  -0.001101;0.038853;-0.026654;,
  -0.001101;0.033901;-0.026818;,
  -0.001101;0.034201;-0.027918;,
  -0.000634;0.067115;-0.002009;,
  0.000634;0.053824;0.001002;,
  -0.000634;0.053824;0.001002;,
  0.000634;0.067115;-0.002009;,
  -0.000634;0.067115;-0.002009;,
  0.000634;0.063756;0.008642;,
  0.000634;0.067115;-0.002009;,
  -0.000634;0.063756;0.008642;,
  0.000634;0.065404;0.012412;,
  -0.000634;0.065404;0.012412;,
  0.000634;0.069110;0.015543;,
  -0.000634;0.069110;0.015543;,
  0.000634;0.067115;-0.002009;,
  0.000634;0.060683;0.004345;,
  0.000634;0.053824;0.001002;,
  0.000634;0.063756;0.008642;,
  0.000634;0.060809;0.008064;,
  0.000634;0.063047;0.013824;,
  0.000634;0.065404;0.012412;,
  0.000634;0.069110;0.015543;,
  0.000634;0.053824;0.001002;,
  -0.000634;0.060683;0.004345;,
  -0.000634;0.053824;0.001002;,
  0.000634;0.060683;0.004345;,
  -0.000634;0.060809;0.008064;,
  0.000634;0.060809;0.008064;,
  -0.000634;0.063047;0.013824;,
  0.000634;0.063047;0.013824;,
  -0.000634;0.060683;0.004345;,
  -0.000634;0.067115;-0.002009;,
  -0.000634;0.053824;0.001002;,
  -0.000634;0.063756;0.008642;,
  -0.000634;0.060809;0.008064;,
  -0.000634;0.065404;0.012412;,
  -0.000634;0.063047;0.013824;,
  -0.000634;0.069110;0.015543;,
  -0.001717;0.080525;0.002257;,
  -0.001717;0.076267;0.003623;,
  0.001717;0.080525;0.002257;,
  0.001717;0.076267;0.003623;,
  0.010222;0.057478;-0.024780;,
  0.011803;0.084730;-0.018879;,
  0.011803;0.057478;-0.018879;,
  0.010222;0.084730;-0.024780;,
  0.010222;0.084730;-0.012978;,
  0.010222;0.057478;-0.012978;,
  0.010222;0.057478;-0.012978;,
  0.005901;0.084730;-0.008657;,
  0.005901;0.057478;-0.008657;,
  0.010222;0.084730;-0.012978;,
  0.000000;0.084730;-0.007076;,
  0.000000;0.057478;-0.007076;,
  0.000000;0.057478;-0.007076;,
  -0.005901;0.084730;-0.008657;,
  -0.005901;0.057478;-0.008657;,
  0.000000;0.084730;-0.007076;,
  -0.010222;0.084730;-0.012978;,
  -0.010222;0.057478;-0.012978;,
  -0.010222;0.057478;-0.012978;,
  -0.011803;0.084730;-0.018879;,
  -0.011803;0.057478;-0.018879;,
  -0.010222;0.084730;-0.012978;,
  -0.010222;0.084730;-0.024780;,
  -0.010222;0.057478;-0.024780;,
  -0.010222;0.057478;-0.024780;,
  -0.005901;0.084730;-0.029101;,
  -0.005901;0.057478;-0.029101;,
  -0.010222;0.084730;-0.024780;,
  0.000000;0.084730;-0.030682;,
  0.000000;0.057478;-0.030682;,
  0.000000;0.057478;-0.030682;,
  0.005901;0.084730;-0.029101;,
  0.005901;0.057478;-0.029101;,
  0.000000;0.084730;-0.030682;,
  0.010222;0.084730;-0.024780;,
  0.010222;0.057478;-0.024780;,
  0.000000;0.057478;-0.030682;,
  -0.010222;0.057478;-0.024780;,
  -0.005901;0.057478;-0.029101;,
  0.005901;0.057478;-0.008657;,
  0.011803;0.057478;-0.018879;,
  0.010222;0.057478;-0.012978;,
  0.000000;0.057478;-0.007076;,
  -0.005901;0.057478;-0.008657;,
  -0.010222;0.057478;-0.012978;,
  -0.011803;0.057478;-0.018879;,
  0.005901;0.057478;-0.029101;,
  0.010222;0.057478;-0.024780;,
  0.011803;0.084730;-0.018879;,
  0.005901;0.084730;-0.008657;,
  0.010222;0.084730;-0.012978;,
  0.010222;0.084730;-0.024780;,
  -0.005901;0.084730;-0.008657;,
  0.000000;0.084730;-0.007076;,
  -0.010222;0.084730;-0.012978;,
  -0.011803;0.084730;-0.018879;,
  -0.010222;0.084730;-0.024780;,
  -0.005901;0.084730;-0.029101;,
  0.005901;0.084730;-0.008657;,
  0.000000;0.084730;-0.030682;,
  -0.005901;0.084730;-0.029101;,
  0.005901;0.084730;-0.008657;,
  0.005901;0.084730;-0.029101;,
  0.000000;0.084730;-0.030682;,
  0.005901;0.084730;-0.029101;;
  412;
  3;0,1,2;,
  3;1,0,3;,
  3;2,4,5;,
  3;4,2,1;,
  3;6,7,8;,
  3;7,6,9;,
  3;10,11,12;,
  3;11,10,13;,
  3;3,14,1;,
  3;14,3,15;,
  3;1,16,4;,
  3;16,1,14;,
  3;17,18,19;,
  3;20,21,22;,
  3;23,21,20;,
  3;24,18,25;,
  3;26,18,24;,
  3;19,18,27;,
  3;28,29,30;,
  3;30,29,31;,
  3;31,29,32;,
  3;32,29,33;,
  3;33,29,34;,
  3;34,29,28;,
  3;2,35,0;,
  3;35,2,36;,
  3;37,38,39;,
  3;38,37,40;,
  3;39,41,42;,
  3;41,39,38;,
  3;5,36,2;,
  3;36,5,43;,
  3;44,45,37;,
  3;45,44,46;,
  3;37,47,40;,
  3;47,37,45;,
  3;48,49,50;,
  3;51,52,53;,
  3;54,55,56;,
  3;57,58,59;,
  3;41,60,42;,
  3;60,41,61;,
  3;42,62,63;,
  3;62,42,60;,
  3;63,64,65;,
  3;64,63,62;,
  3;66,67,68;,
  3;68,69,70;,
  3;71,46,44;,
  3;46,71,72;,
  3;26,73,18;,
  3;18,74,27;,
  3;10,75,13;,
  3;75,10,76;,
  3;77,78,79;,
  3;79,80,81;,
  3;7,82,8;,
  3;82,7,83;,
  3;84,85,86;,
  3;87,88,89;,
  3;88,87,90;,
  3;89,88,76;,
  3;85,91,86;,
  3;91,85,92;,
  3;86,93,94;,
  3;93,86,91;,
  3;94,95,90;,
  3;95,94,93;,
  3;90,96,88;,
  3;96,90,95;,
  3;88,75,76;,
  3;75,88,96;,
  3;82,92,85;,
  3;92,82,83;,
  3;74,97,98;,
  3;74,99,97;,
  3;18,99,74;,
  3;73,99,18;,
  3;73,100,99;,
  3;73,101,100;,
  3;102,103,104;,
  3;103,105,106;,
  3;103,78,105;,
  3;103,79,78;,
  3;103,80,79;,
  3;102,80,103;,
  3;107,108,109;,
  3;108,107,110;,
  3;111,112,113;,
  3;112,111,114;,
  3;113,115,116;,
  3;115,113,112;,
  3;116,117,118;,
  3;117,116,115;,
  3;118,119,120;,
  3;119,118,117;,
  3;120,110,107;,
  3;110,120,119;,
  3;121,122,123;,
  3;122,121,124;,
  3;125,126,127;,
  3;128,129,130;,
  3;131,132,133;,
  3;132,131,134;,
  3;133,135,136;,
  3;135,133,132;,
  3;136,137,138;,
  3;137,136,135;,
  3;138,139,140;,
  3;139,138,137;,
  3;140,141,142;,
  3;141,140,139;,
  3;143,144,145;,
  3;144,143,146;,
  3;147,134,131;,
  3;134,147,148;,
  3;139,149,141;,
  3;150,151,152;,
  3;151,150,153;,
  3;148,154,134;,
  3;155,156,157;,
  3;155,111,156;,
  3;155,109,111;,
  3;155,158,109;,
  3;159,158,155;,
  3;160,161,162;,
  3;163,164,165;,
  3;166,167,168;,
  3;169,170,171;,
  3;172,173,174;,
  3;108,86,109;,
  3;86,108,84;,
  3;109,86,94;,
  3;109,94,111;,
  3;111,87,114;,
  3;87,111,90;,
  3;97,175,176;,
  3;175,97,99;,
  3;175,100,177;,
  3;100,175,99;,
  3;121,178,179;,
  3;178,121,123;,
  3;178,123,180;,
  3;152,146,150;,
  3;146,152,144;,
  3;181,182,183;,
  3;182,181,184;,
  3;183,185,181;,
  3;185,183,186;,
  3;186,183,187;,
  3;187,183,188;,
  3;183,189,188;,
  3;183,190,189;,
  3;184,183,182;,
  3;183,184,190;,
  3;191,192,193;,
  3;192,191,194;,
  3;193,195,196;,
  3;195,193,192;,
  3;196,197,198;,
  3;197,196,195;,
  3;198,199,200;,
  3;199,198,197;,
  3;201,202,203;,
  3;202,201,204;,
  3;205,206,207;,
  3;206,205,208;,
  3;207,209,210;,
  3;209,207,206;,
  3;210,211,212;,
  3;211,210,209;,
  3;212,213,214;,
  3;213,212,211;,
  3;215,216,217;,
  3;216,215,218;,
  3;219,220,221;,
  3;220,219,222;,
  3;223,224,225;,
  3;226,227,228;,
  3;204,229,230;,
  3;229,204,201;,
  3;231,232,233;,
  3;232,231,234;,
  3;233,235,236;,
  3;235,233,232;,
  3;236,237,238;,
  3;237,236,235;,
  3;238,239,240;,
  3;239,238,237;,
  3;241,242,243;,
  3;242,241,244;,
  3;245,246,247;,
  3;246,245,248;,
  3;247,249,250;,
  3;249,247,246;,
  3;250,251,252;,
  3;251,250,249;,
  3;252,253,254;,
  3;253,252,251;,
  3;255,256,257;,
  3;256,255,258;,
  3;245,259,248;,
  3;259,245,260;,
  3;260,261,259;,
  3;261,260,262;,
  3;262,257,261;,
  3;257,262,255;,
  3;248,263,246;,
  3;263,248,259;,
  3;246,263,249;,
  3;249,263,251;,
  3;251,263,253;,
  3;263,264,253;,
  3;259,265,263;,
  3;263,266,264;,
  3;266,263,265;,
  3;259,261,265;,
  3;265,267,266;,
  3;261,268,265;,
  3;268,261,257;,
  3;268,267,265;,
  3;267,268,269;,
  3;268,256,269;,
  3;256,268,257;,
  3;253,270,254;,
  3;270,253,264;,
  3;264,271,270;,
  3;271,264,266;,
  3;266,272,271;,
  3;272,266,267;,
  3;267,273,272;,
  3;273,267,269;,
  3;274,275,276;,
  3;275,274,277;,
  3;254,278,252;,
  3;252,278,250;,
  3;250,278,247;,
  3;247,260,245;,
  3;260,247,278;,
  3;254,270,278;,
  3;271,278,270;,
  3;278,271,279;,
  3;278,279,260;,
  3;271,272,279;,
  3;279,262,260;,
  3;272,280,279;,
  3;280,272,273;,
  3;279,255,262;,
  3;255,279,280;,
  3;273,255,280;,
  3;255,273,258;,
  3;258,277,256;,
  3;277,258,275;,
  3;256,274,269;,
  3;274,256,277;,
  3;269,276,273;,
  3;276,269,274;,
  3;273,275,258;,
  3;275,273,276;,
  3;124,281,122;,
  3;281,124,282;,
  3;283,284,285;,
  3;284,283,286;,
  3;145,287,143;,
  3;287,145,288;,
  3;289,290,291;,
  3;290,289,292;,
  3;282,293,281;,
  3;293,282,294;,
  3;286,295,284;,
  3;295,286,296;,
  3;288,297,287;,
  3;297,288,298;,
  3;292,299,290;,
  3;299,292,300;,
  3;294,301,293;,
  3;301,294,302;,
  3;296,303,295;,
  3;303,296,304;,
  3;298,305,297;,
  3;305,298,306;,
  3;300,307,299;,
  3;307,300,308;,
  3;302,309,301;,
  3;309,302,310;,
  3;304,311,303;,
  3;311,304,312;,
  3;306,313,305;,
  3;313,306,314;,
  3;308,315,307;,
  3;315,308,316;,
  3;317,318,319;,
  3;318,317,320;,
  3;321,322,323;,
  3;322,321,324;,
  3;325,326,327;,
  3;328,329,330;,
  3;331,332,333;,
  3;332,331,334;,
  3;335,336,337;,
  3;336,335,338;,
  3;339,340,341;,
  3;340,339,342;,
  3;343,341,344;,
  3;341,343,339;,
  3;345,346,347;,
  3;346,345,348;,
  3;349,342,350;,
  3;342,349,340;,
  3;351,352,353;,
  3;352,351,354;,
  3;355,356,357;,
  3;356,355,358;,
  3;359,360,361;,
  3;360,359,362;,
  3;363,364,365;,
  3;364,363,366;,
  3;366,367,364;,
  3;367,366,368;,
  3;369,370,371;,
  3;370,369,372;,
  3;372,373,370;,
  3;373,372,374;,
  3;375,376,377;,
  3;376,375,378;,
  3;378,379,376;,
  3;379,378,380;,
  3;381,382,383;,
  3;382,381,384;,
  3;384,385,382;,
  3;385,384,386;,
  3;387,388,389;,
  3;388,387,390;,
  3;391,392,393;,
  3;392,391,394;,
  3;394,395,392;,
  3;395,394,396;,
  3;396,397,395;,
  3;397,396,398;,
  3;399,400,401;,
  3;400,399,402;,
  3;402,403,400;,
  3;402,404,403;,
  3;404,402,405;,
  3;405,406,404;,
  3;407,408,409;,
  3;408,407,410;,
  3;410,411,408;,
  3;411,410,412;,
  3;412,413,411;,
  3;413,412,414;,
  3;414,398,413;,
  3;398,414,397;,
  3;415,416,417;,
  3;416,415,418;,
  3;415,419,418;,
  3;419,420,418;,
  3;420,419,421;,
  3;421,422,420;,
  3;423,141,424;,
  3;141,423,142;,
  3;291,424,289;,
  3;424,291,423;,
  3;148,425,426;,
  3;425,148,147;,
  3;426,283,285;,
  3;283,426,425;,
  3;111,94,90;,
  3;427,428,429;,
  3;428,427,430;,
  3;429,431,432;,
  3;431,429,428;,
  3;433,434,435;,
  3;434,433,436;,
  3;435,437,438;,
  3;437,435,434;,
  3;439,440,441;,
  3;440,439,442;,
  3;441,443,444;,
  3;443,441,440;,
  3;445,446,447;,
  3;446,445,448;,
  3;447,449,450;,
  3;449,447,446;,
  3;451,452,453;,
  3;452,451,454;,
  3;453,455,456;,
  3;455,453,452;,
  3;457,458,459;,
  3;458,457,460;,
  3;459,461,462;,
  3;461,459,458;,
  3;463,464,465;,
  3;466,467,468;,
  3;469,467,466;,
  3;470,467,469;,
  3;471,467,470;,
  3;472,467,471;,
  3;464,467,472;,
  3;463,467,464;,
  3;473,467,463;,
  3;473,474,467;,
  3;475,476,477;,
  3;478,476,475;,
  3;476,479,480;,
  3;476,481,479;,
  3;476,482,481;,
  3;476,483,482;,
  3;476,484,483;,
  3;485,486,487;,
  3;488,489,490;,
  3;478,491,476;;

  MeshNormals {
   492;
   -0.215753;0.027130;-0.976071;,
   -0.002509;0.029438;-0.999564;,
   -0.001980;0.026390;-0.999650;,
   -0.182091;0.025454;-0.982952;,
   0.186961;0.029201;-0.981933;,
   0.219706;0.021917;-0.975320;,
   0.923873;0.003923;0.382680;,
   0.928640;0.003431;0.370967;,
   0.925313;0.003917;0.379184;,
   0.923872;0.003923;0.382681;,
   -0.925431;0.003448;0.378900;,
   -0.923872;0.003923;0.382682;,
   -0.923872;0.003923;0.382681;,
   -0.928751;0.003902;0.370683;,
   -0.000988;0.005672;-0.999983;,
   -0.133649;0.004014;-0.991021;,
   0.135584;0.006991;-0.990741;,
   -0.000001;-1.000000;0.000003;,
   -0.000000;-1.000000;0.000474;,
   -0.000001;-1.000000;0.000001;,
   0.000000;-1.000000;0.000000;,
   0.000000;-1.000000;0.000000;,
   0.000000;-1.000000;0.000000;,
   0.000000;-1.000000;0.000000;,
   0.000001;-1.000000;0.000001;,
   0.000001;-1.000000;0.000003;,
   -0.003474;-0.999992;0.001819;,
   0.003474;-0.999992;0.001819;,
   0.012983;0.998542;-0.052387;,
   0.000000;0.998289;-0.058473;,
   0.009315;0.999916;0.009070;,
   0.000002;0.999932;0.011692;,
   -0.009313;0.999916;0.009069;,
   -0.012983;0.998542;-0.052389;,
   -0.000000;0.992121;-0.125287;,
   -0.219759;0.000000;-0.975554;,
   -0.000000;0.000000;-1.000000;,
   -0.528269;-0.746416;0.404717;,
   -0.000000;0.000000;1.000000;,
   0.000000;0.000000;1.000000;,
   -0.777334;0.000000;0.629088;,
   0.777334;0.000000;0.629088;,
   0.982247;-0.023661;0.186095;,
   0.219759;0.000000;-0.975554;,
   -0.971894;-0.074041;-0.223471;,
   -0.991659;-0.067199;-0.109982;,
   -0.973586;0.005199;-0.228261;,
   -1.000000;-0.000000;0.000000;,
   -0.008895;-0.999837;-0.015704;,
   -0.008895;-0.999837;-0.015704;,
   -0.008895;-0.999837;-0.015704;,
   -0.001819;-0.999966;-0.008067;,
   -0.001819;-0.999966;-0.008067;,
   -0.001819;-0.999966;-0.008067;,
   0.004569;-0.999957;-0.008067;,
   0.004569;-0.999957;-0.008067;,
   0.004569;-0.999957;-0.008067;,
   0.003539;-0.999870;-0.015705;,
   0.003539;-0.999870;-0.015705;,
   0.003539;-0.999870;-0.015705;,
   1.000000;0.000000;0.000000;,
   1.000000;0.000000;0.000000;,
   0.974152;-0.004082;-0.225856;,
   0.951377;-0.042968;-0.305017;,
   0.972860;0.004140;-0.231359;,
   0.972837;0.004131;-0.231455;,
   0.012918;0.992036;-0.125291;,
   0.012918;0.992036;-0.125291;,
   0.000000;0.992119;-0.125302;,
   -0.012918;0.992036;-0.125291;,
   -0.012918;0.992036;-0.125291;,
   -0.972858;0.004286;-0.231362;,
   -0.972832;0.004298;-0.231474;,
   0.001597;-0.999998;0.000862;,
   -0.001597;-0.999998;0.000862;,
   -0.999230;0.002135;0.039181;,
   -0.999181;0.001659;0.040436;,
   -0.033073;0.998877;0.033919;,
   -0.034442;0.997589;0.060243;,
   0.000008;0.996444;0.084254;,
   0.034457;0.997588;0.060250;,
   0.033093;0.998876;0.033934;,
   0.999193;0.002073;0.040116;,
   0.999251;0.001962;0.038649;,
   0.983274;0.000000;0.182132;,
   0.998997;-0.000000;0.044783;,
   0.846017;0.200298;0.494101;,
   -0.984044;-0.003722;0.177888;,
   -0.999042;0.000346;0.043762;,
   -0.998997;-0.000000;0.044782;,
   -0.846332;0.202042;0.492850;,
   0.716832;0.000000;0.697246;,
   0.999747;0.000388;0.022479;,
   0.000000;0.000000;1.000000;,
   -0.000002;0.706113;0.708099;,
   -0.716832;-0.000000;0.697246;,
   -0.999753;0.000000;0.022215;,
   0.006146;-0.999743;-0.021808;,
   0.000733;-1.000000;-0.000304;,
   0.000000;-0.999145;-0.041342;,
   -0.006146;-0.999743;-0.021808;,
   -0.000733;-1.000000;-0.000304;,
   0.001073;0.996686;0.081333;,
   0.000000;0.997118;0.075863;,
   -0.038507;0.998380;0.041890;,
   -0.001078;0.996686;0.081338;,
   0.038507;0.998380;0.041890;,
   0.999641;-0.026806;0.000121;,
   0.976667;-0.018181;-0.213988;,
   0.694932;0.716531;-0.060436;,
   0.999190;-0.011601;-0.038538;,
   -0.693568;0.718217;-0.055930;,
   -0.998402;-0.026748;-0.049780;,
   -0.999871;-0.012484;-0.010118;,
   -0.977463;-0.022409;-0.209916;,
   -0.726161;-0.016833;0.687318;,
   -0.699569;-0.007628;0.714525;,
   -0.004121;-0.021762;0.999755;,
   -0.004185;-0.021567;0.999759;,
   0.736747;-0.006046;0.676141;,
   0.709745;-0.015581;0.704286;,
   -0.046276;0.817333;0.574304;,
   -0.000000;0.916571;0.399872;,
   0.046275;0.817333;0.574304;,
   0.000000;0.916571;0.399872;,
   0.000000;-0.975393;-0.220472;,
   0.000000;-0.975393;-0.220472;,
   0.000000;-0.975393;-0.220472;,
   -0.000002;-0.975393;-0.220473;,
   -0.000002;-0.975393;-0.220473;,
   -0.000002;-0.975393;-0.220473;,
   0.998818;-0.009730;-0.047633;,
   0.728568;-0.009740;-0.684904;,
   0.707075;-0.006777;-0.707106;,
   0.987129;-0.010528;-0.159579;,
   0.000000;-0.006814;-0.999977;,
   0.000000;-0.006814;-0.999977;,
   -0.729820;-0.006771;-0.683605;,
   -0.708237;-0.009481;-0.705911;,
   -0.986978;-0.008983;-0.160604;,
   -0.997852;0.010566;-0.064647;,
   -0.997708;0.001831;0.067647;,
   -0.958957;0.036807;0.281151;,
   -0.000000;-0.976777;-0.214259;,
   -0.000001;-0.862376;0.506269;,
   -0.000000;-0.976777;-0.214259;,
   -0.000001;-0.862376;0.506269;,
   0.965354;0.005080;0.260893;,
   0.990120;0.032614;-0.136374;,
   -0.999903;-0.011247;0.008193;,
   -0.005539;-0.288334;0.957514;,
   -0.029543;0.102081;0.994337;,
   0.000000;-0.286384;0.958115;,
   -0.039441;0.098014;0.994403;,
   0.999896;-0.011372;0.008888;,
   0.000000;1.000000;0.000000;,
   0.000000;1.000000;0.000000;,
   0.000000;1.000000;0.000000;,
   0.000000;1.000000;0.000000;,
   0.000000;1.000000;0.000000;,
   0.000000;-1.000000;0.000000;,
   0.000000;-1.000000;0.000000;,
   0.000000;-1.000000;0.000000;,
   -0.000003;-1.000000;0.000001;,
   -0.000003;-1.000000;0.000001;,
   -0.000003;-1.000000;0.000001;,
   0.015983;-0.999871;0.001863;,
   0.015983;-0.999871;0.001863;,
   0.015983;-0.999871;0.001863;,
   -0.000000;-0.999892;0.014701;,
   -0.000000;-0.999892;0.014701;,
   -0.000000;-0.999892;0.014701;,
   -0.064368;-0.997687;0.021864;,
   -0.064368;-0.997687;0.021864;,
   -0.064368;-0.997687;0.021864;,
   0.000000;-0.998401;-0.056537;,
   -0.022938;-0.998202;-0.055376;,
   0.022938;-0.998202;-0.055376;,
   -0.000000;0.597964;0.801523;,
   -0.282461;0.587888;0.758026;,
   0.282461;0.587888;0.758026;,
   -0.452810;-0.810037;-0.372563;,
   0.499703;-0.704597;-0.503826;,
   0.005771;-0.999739;0.022102;,
   0.088691;-0.733376;-0.674014;,
   -0.523437;-0.852064;0.000001;,
   -0.370126;-0.852064;0.370127;,
   0.000000;-0.852064;0.523438;,
   0.370126;-0.852064;0.370127;,
   0.523437;-0.852064;0.000001;,
   0.370126;-0.852064;-0.370126;,
   1.000000;0.000000;0.000000;,
   1.000000;0.000000;0.000000;,
   1.000000;0.000000;-0.000000;,
   1.000000;0.000000;0.000000;,
   1.000000;-0.000000;-0.000000;,
   1.000000;0.000000;-0.000000;,
   1.000000;-0.000000;0.000000;,
   1.000000;0.000000;0.000000;,
   1.000000;-0.000000;0.000000;,
   1.000000;-0.000000;0.000000;,
   -0.005831;0.938312;0.345742;,
   -0.002436;0.999997;-0.000424;,
   -0.002736;0.999996;-0.000476;,
   -0.002624;0.935300;0.353847;,
   -1.000000;-0.000499;0.000099;,
   -0.999992;-0.003865;0.000768;,
   -1.000000;0.000000;-0.000000;,
   -0.999980;-0.006186;0.001230;,
   -1.000000;-0.000000;-0.000000;,
   -1.000000;-0.000000;-0.000000;,
   -1.000000;-0.000000;-0.000000;,
   -1.000000;-0.000000;-0.000000;,
   -1.000000;-0.000000;-0.000000;,
   -1.000000;0.000000;-0.000000;,
   0.000000;-0.829651;0.558282;,
   0.000000;-0.829651;0.558282;,
   0.000000;-0.829651;0.558282;,
   0.000000;-0.829651;0.558282;,
   0.000000;0.000000;1.000000;,
   0.000000;0.000000;1.000000;,
   0.000000;0.000000;1.000000;,
   0.000000;0.000000;1.000000;,
   0.000000;0.047672;0.998863;,
   0.000000;0.047672;0.998863;,
   0.000000;0.047672;0.998863;,
   0.012005;0.039436;0.999150;,
   0.012005;0.039436;0.999150;,
   0.012005;0.039436;0.999150;,
   0.001576;0.751732;0.659467;,
   0.007517;0.749524;0.661934;,
   -0.000000;-0.259131;-0.965842;,
   -0.000000;-0.383139;-0.923691;,
   0.000000;-0.383139;-0.923691;,
   -0.000000;-0.259131;-0.965842;,
   0.000000;-0.668315;-0.743878;,
   0.000000;-0.668315;-0.743878;,
   0.000000;-0.453293;-0.891361;,
   0.000959;-0.453507;-0.891253;,
   0.002015;-0.001501;-0.999997;,
   0.003714;-0.000001;-0.999993;,
   -0.000000;-0.986911;-0.161264;,
   -0.000000;-0.986911;-0.161263;,
   -0.000000;-0.986911;-0.161263;,
   -0.000000;-0.986911;-0.161264;,
   -0.582364;-0.739271;0.338128;,
   0.638069;-0.156176;0.753974;,
   -0.649925;-0.165645;0.741728;,
   0.565554;-0.749670;0.343720;,
   0.646174;0.104612;0.755986;,
   -0.646174;0.104612;0.755986;,
   0.619763;0.429142;0.657063;,
   -0.619763;0.429142;0.657063;,
   0.585645;0.802802;0.111935;,
   -0.585645;0.802802;0.111935;,
   -0.597450;-0.343922;-0.724410;,
   0.667540;0.265436;-0.695653;,
   0.584324;-0.354200;-0.730142;,
   -0.679322;0.246841;-0.691080;,
   0.677326;-0.704613;-0.211541;,
   -0.682977;-0.703005;-0.198308;,
   0.638634;-0.707243;-0.303238;,
   -0.639895;-0.705294;-0.305115;,
   0.999639;-0.005628;0.026281;,
   0.793141;0.607241;0.046756;,
   0.999897;-0.012294;-0.007405;,
   0.599434;0.796108;0.083008;,
   0.803346;0.586208;0.104858;,
   0.999590;-0.022556;-0.017656;,
   0.826749;0.215958;0.519469;,
   -0.793141;0.607241;0.046756;,
   -0.599434;0.796108;0.083008;,
   -0.803346;0.586208;0.104859;,
   -0.832341;0.204116;0.515311;,
   0.552275;0.444144;0.705498;,
   -0.597974;0.745072;-0.295456;,
   -0.547827;0.445647;0.708014;,
   0.602742;0.741966;-0.293580;,
   -0.999511;-0.011841;0.028925;,
   -0.999840;-0.013821;-0.011377;,
   -0.998544;-0.041265;-0.034743;,
   0.000002;0.575915;0.817510;,
   0.000002;0.575916;0.817509;,
   0.999500;-0.004862;0.031238;,
   1.000000;-0.000000;-0.000000;,
   0.999345;-0.012374;0.034000;,
   1.000000;-0.000000;-0.000000;,
   -0.000000;-0.572275;-0.820062;,
   -0.000001;-0.572275;-0.820062;,
   -0.999345;-0.012375;0.033999;,
   -1.000000;0.000000;-0.000000;,
   -0.999500;-0.004862;0.031238;,
   -1.000000;0.000000;-0.000000;,
   0.000000;0.075702;0.997131;,
   -0.000000;0.075702;0.997131;,
   1.000000;-0.000001;-0.000000;,
   1.000000;-0.000001;-0.000000;,
   -0.000003;-0.077106;-0.997023;,
   -0.000003;-0.077106;-0.997023;,
   -1.000000;0.000000;-0.000000;,
   -1.000000;0.000000;-0.000000;,
   -0.000001;-0.436482;0.899713;,
   -0.000001;-0.436481;0.899713;,
   0.997536;0.057472;0.040240;,
   0.995741;0.083757;0.038530;,
   -0.000001;0.618389;-0.785872;,
   -0.000001;0.618389;-0.785872;,
   -0.994246;0.087750;0.061441;,
   -0.995428;0.084036;0.045396;,
   -0.000000;-0.664903;0.746929;,
   0.000000;-0.664903;0.746930;,
   0.979831;0.193132;0.051304;,
   0.977361;0.206372;0.046647;,
   -0.000001;0.916811;-0.399322;,
   -0.000001;0.916811;-0.399322;,
   -0.980853;0.188492;0.048973;,
   -0.980476;0.191802;0.043354;,
   0.000000;0.000000;1.000000;,
   0.000000;0.000000;1.000000;,
   0.000000;0.000000;1.000000;,
   0.000000;0.000000;1.000000;,
   0.000000;0.461463;-0.887160;,
   0.000000;-0.370222;-0.928944;,
   0.000000;-0.370222;-0.928944;,
   0.000000;0.461463;-0.887160;,
   -1.000000;0.000000;-0.000000;,
   -1.000000;0.000000;-0.000000;,
   -1.000000;0.000000;-0.000000;,
   1.000000;-0.000000;0.000000;,
   1.000000;-0.000000;0.000000;,
   1.000000;-0.000000;0.000000;,
   0.000000;0.973148;-0.230179;,
   0.000000;0.461463;-0.887160;,
   0.000000;0.973148;-0.230179;,
   0.000000;0.461463;-0.887160;,
   0.000000;0.000000;1.000000;,
   0.000000;0.000000;1.000000;,
   0.000000;0.000000;1.000000;,
   0.000000;0.000000;1.000000;,
   0.000000;-0.658254;-0.752796;,
   0.000000;0.310163;-0.950684;,
   0.000000;-0.658254;-0.752796;,
   0.000000;0.310163;-0.950684;,
   0.000000;-0.991062;-0.133405;,
   0.000000;-0.991062;-0.133405;,
   1.000000;-0.000000;-0.000000;,
   1.000000;-0.000000;-0.000000;,
   1.000000;-0.000000;-0.000000;,
   1.000000;0.000000;0.000000;,
   0.000000;0.589733;-0.807598;,
   0.000000;0.589733;-0.807598;,
   -1.000000;0.000000;0.000000;,
   -1.000000;0.000000;0.000000;,
   -1.000000;0.000000;0.000000;,
   -1.000000;0.000000;0.000000;,
   0.000000;0.722167;0.691719;,
   0.000000;0.722167;0.691719;,
   0.000000;0.722167;0.691719;,
   0.000000;0.722167;0.691719;,
   0.000000;-0.964739;-0.263210;,
   0.000000;-0.964739;-0.263210;,
   0.000000;-0.964739;-0.263210;,
   0.000000;-0.964739;-0.263210;,
   0.000000;-0.747678;0.664062;,
   0.000000;-0.575003;0.818151;,
   0.000000;-0.747678;0.664061;,
   0.000000;-0.575003;0.818151;,
   0.000000;-0.371532;0.928420;,
   0.000000;-0.371532;0.928420;,
   1.000000;-0.000000;0.000000;,
   1.000000;-0.000000;0.000000;,
   1.000000;0.000000;0.000000;,
   1.000000;-0.000000;0.000000;,
   1.000000;0.000000;0.000000;,
   1.000000;0.000000;0.000000;,
   0.000000;0.397517;-0.917595;,
   0.000000;0.330670;-0.943746;,
   0.000000;0.397517;-0.917595;,
   0.000000;0.330670;-0.943746;,
   0.000000;0.262120;-0.965035;,
   0.000000;0.262119;-0.965035;,
   -1.000000;0.000000;-0.000000;,
   -1.000000;0.000000;-0.000000;,
   -1.000000;0.000000;-0.000000;,
   -1.000000;0.000000;-0.000000;,
   -1.000000;0.000000;-0.000000;,
   -1.000000;0.000000;-0.000000;,
   0.000001;-0.220976;-0.975279;,
   0.000001;-0.220976;-0.975279;,
   0.000001;-0.220976;-0.975279;,
   0.000000;-0.220976;-0.975279;,
   0.000000;0.953687;0.300800;,
   0.000000;0.998578;-0.053306;,
   0.000000;0.953687;0.300800;,
   0.000000;0.998578;-0.053306;,
   0.000000;0.801631;-0.597820;,
   0.000000;0.801631;-0.597820;,
   0.000000;0.882884;0.469591;,
   0.000000;0.882884;0.469591;,
   1.000000;-0.000000;-0.000000;,
   1.000000;-0.000000;-0.000000;,
   1.000000;0.000000;0.000000;,
   1.000000;-0.000000;0.000000;,
   1.000000;-0.000000;0.000000;,
   1.000000;0.000000;0.000000;,
   1.000000;0.000000;-0.000000;,
   1.000000;0.000000;-0.000000;,
   0.000001;-0.438067;0.898942;,
   0.000000;-0.838867;0.544336;,
   0.000002;-0.438067;0.898942;,
   0.000000;-0.838868;0.544336;,
   0.000000;-0.979622;0.200852;,
   0.000000;-0.979622;0.200852;,
   0.000000;-0.672961;0.739678;,
   0.000000;-0.672961;0.739678;,
   -1.000000;0.000000;0.000000;,
   -1.000000;0.000000;0.000000;,
   -1.000000;0.000000;0.000000;,
   -1.000000;0.000000;-0.000000;,
   -1.000000;0.000000;-0.000000;,
   -1.000000;-0.000000;0.000000;,
   -1.000000;-0.000000;0.000000;,
   -1.000000;-0.000000;0.000000;,
   -0.980655;0.035923;0.192418;,
   -0.990356;0.041107;0.132309;,
   0.980655;0.035923;0.192418;,
   0.990356;0.041107;0.132309;,
   0.866025;-0.000000;-0.500000;,
   1.000000;-0.000000;0.000000;,
   1.000000;0.000000;-0.000000;,
   0.866026;-0.000000;-0.500000;,
   0.866026;0.000000;0.500000;,
   0.866026;-0.000000;0.500000;,
   0.866026;-0.000000;0.500000;,
   0.500000;0.000000;0.866025;,
   0.500000;0.000000;0.866025;,
   0.866026;0.000000;0.500000;,
   0.000000;0.000000;1.000000;,
   -0.000000;0.000000;1.000000;,
   -0.000000;0.000000;1.000000;,
   -0.500000;0.000000;0.866025;,
   -0.500000;-0.000000;0.866025;,
   0.000000;0.000000;1.000000;,
   -0.866025;0.000000;0.500000;,
   -0.866026;-0.000000;0.500000;,
   -0.866026;-0.000000;0.500000;,
   -1.000000;-0.000000;0.000000;,
   -1.000000;-0.000000;0.000000;,
   -0.866025;0.000000;0.500000;,
   -0.866026;0.000000;-0.500000;,
   -0.866026;0.000000;-0.500000;,
   -0.866026;0.000000;-0.500000;,
   -0.500001;0.000000;-0.866025;,
   -0.500001;0.000000;-0.866025;,
   -0.866026;0.000000;-0.500000;,
   -0.000001;-0.000000;-1.000000;,
   -0.000001;-0.000000;-1.000000;,
   -0.000001;-0.000000;-1.000000;,
   0.500000;-0.000000;-0.866026;,
   0.500000;-0.000000;-0.866026;,
   -0.000001;-0.000000;-1.000000;,
   0.866026;-0.000000;-0.500000;,
   0.866025;-0.000000;-0.500000;,
   0.000000;-1.000000;0.000000;,
   0.000000;-1.000000;0.000000;,
   0.000000;-1.000000;0.000000;,
   0.000000;-1.000000;0.000000;,
   0.000000;-1.000000;0.000000;,
   0.000000;-1.000000;0.000000;,
   0.000000;-1.000000;0.000000;,
   0.000000;-1.000000;0.000000;,
   0.000000;-1.000000;0.000000;,
   0.000000;-1.000000;0.000000;,
   0.000000;-1.000000;0.000000;,
   0.000000;-1.000000;0.000000;,
   0.000000;1.000000;0.000000;,
   0.000000;1.000000;0.000000;,
   0.000000;1.000000;0.000000;,
   0.000000;1.000000;0.000000;,
   0.000000;1.000000;0.000000;,
   0.000000;1.000000;0.000000;,
   0.000000;1.000000;0.000000;,
   0.000000;1.000000;0.000000;,
   0.000000;1.000000;0.000000;,
   0.000000;1.000000;0.000000;,
   0.000001;1.000000;-0.000001;,
   0.000001;1.000000;-0.000001;,
   0.000001;1.000000;-0.000001;,
   -0.000002;1.000000;0.000000;,
   -0.000002;1.000000;0.000000;,
   -0.000002;1.000000;0.000000;,
   0.000000;1.000000;0.000000;;
   412;
   3;0,1,2;,
   3;1,0,3;,
   3;2,4,5;,
   3;4,2,1;,
   3;6,7,8;,
   3;7,6,9;,
   3;10,11,12;,
   3;11,10,13;,
   3;3,14,1;,
   3;14,3,15;,
   3;1,16,4;,
   3;16,1,14;,
   3;17,18,19;,
   3;20,21,22;,
   3;23,21,20;,
   3;24,18,25;,
   3;26,18,24;,
   3;19,18,27;,
   3;28,29,30;,
   3;30,29,31;,
   3;31,29,32;,
   3;32,29,33;,
   3;33,29,34;,
   3;34,29,28;,
   3;2,35,0;,
   3;35,2,36;,
   3;37,38,39;,
   3;38,37,40;,
   3;39,41,42;,
   3;41,39,38;,
   3;5,36,2;,
   3;36,5,43;,
   3;44,45,37;,
   3;45,44,46;,
   3;37,47,40;,
   3;47,37,45;,
   3;48,49,50;,
   3;51,52,53;,
   3;54,55,56;,
   3;57,58,59;,
   3;41,60,42;,
   3;60,41,61;,
   3;42,62,63;,
   3;62,42,60;,
   3;63,64,65;,
   3;64,63,62;,
   3;66,67,68;,
   3;68,69,70;,
   3;71,46,44;,
   3;46,71,72;,
   3;26,73,18;,
   3;18,74,27;,
   3;10,75,13;,
   3;75,10,76;,
   3;77,78,79;,
   3;79,80,81;,
   3;7,82,8;,
   3;82,7,83;,
   3;84,85,86;,
   3;87,88,89;,
   3;88,87,90;,
   3;89,88,76;,
   3;85,91,86;,
   3;91,85,92;,
   3;86,93,94;,
   3;93,86,91;,
   3;94,95,90;,
   3;95,94,93;,
   3;90,96,88;,
   3;96,90,95;,
   3;88,75,76;,
   3;75,88,96;,
   3;82,92,85;,
   3;92,82,83;,
   3;74,97,98;,
   3;74,99,97;,
   3;18,99,74;,
   3;73,99,18;,
   3;73,100,99;,
   3;73,101,100;,
   3;102,103,104;,
   3;103,105,106;,
   3;103,78,105;,
   3;103,79,78;,
   3;103,80,79;,
   3;102,80,103;,
   3;107,108,109;,
   3;108,107,110;,
   3;111,112,113;,
   3;112,111,114;,
   3;113,115,116;,
   3;115,113,112;,
   3;116,117,118;,
   3;117,116,115;,
   3;118,119,120;,
   3;119,118,117;,
   3;120,110,107;,
   3;110,120,119;,
   3;121,122,123;,
   3;122,121,124;,
   3;125,126,127;,
   3;128,129,130;,
   3;131,132,133;,
   3;132,131,134;,
   3;133,135,136;,
   3;135,133,132;,
   3;136,137,138;,
   3;137,136,135;,
   3;138,139,140;,
   3;139,138,137;,
   3;140,141,142;,
   3;141,140,139;,
   3;143,144,145;,
   3;144,143,146;,
   3;147,134,131;,
   3;134,147,148;,
   3;139,149,141;,
   3;150,151,152;,
   3;151,150,153;,
   3;148,154,134;,
   3;155,156,157;,
   3;155,111,156;,
   3;155,109,111;,
   3;155,158,109;,
   3;159,158,155;,
   3;160,161,162;,
   3;163,164,165;,
   3;166,167,168;,
   3;169,170,171;,
   3;172,173,174;,
   3;108,86,109;,
   3;86,108,84;,
   3;109,86,94;,
   3;109,94,111;,
   3;111,87,114;,
   3;87,111,90;,
   3;97,175,176;,
   3;175,97,99;,
   3;175,100,177;,
   3;100,175,99;,
   3;121,178,179;,
   3;178,121,123;,
   3;178,123,180;,
   3;152,146,150;,
   3;146,152,144;,
   3;181,182,183;,
   3;182,181,184;,
   3;183,185,181;,
   3;185,183,186;,
   3;186,183,187;,
   3;187,183,188;,
   3;183,189,188;,
   3;183,190,189;,
   3;184,183,182;,
   3;183,184,190;,
   3;191,192,193;,
   3;192,191,194;,
   3;193,195,196;,
   3;195,193,192;,
   3;196,197,198;,
   3;197,196,195;,
   3;198,199,200;,
   3;199,198,197;,
   3;201,202,203;,
   3;202,201,204;,
   3;205,206,207;,
   3;206,205,208;,
   3;207,209,210;,
   3;209,207,206;,
   3;210,211,212;,
   3;211,210,209;,
   3;212,213,214;,
   3;213,212,211;,
   3;215,216,217;,
   3;216,215,218;,
   3;219,220,221;,
   3;220,219,222;,
   3;223,224,225;,
   3;226,227,228;,
   3;204,229,230;,
   3;229,204,201;,
   3;231,232,233;,
   3;232,231,234;,
   3;233,235,236;,
   3;235,233,232;,
   3;236,237,238;,
   3;237,236,235;,
   3;238,239,240;,
   3;239,238,237;,
   3;241,242,243;,
   3;242,241,244;,
   3;245,246,247;,
   3;246,245,248;,
   3;247,249,250;,
   3;249,247,246;,
   3;250,251,252;,
   3;251,250,249;,
   3;252,253,254;,
   3;253,252,251;,
   3;255,256,257;,
   3;256,255,258;,
   3;245,259,248;,
   3;259,245,260;,
   3;260,261,259;,
   3;261,260,262;,
   3;262,257,261;,
   3;257,262,255;,
   3;248,263,246;,
   3;263,248,259;,
   3;246,263,249;,
   3;249,263,251;,
   3;251,263,253;,
   3;263,264,253;,
   3;259,265,263;,
   3;263,266,264;,
   3;266,263,265;,
   3;259,261,265;,
   3;265,267,266;,
   3;261,268,265;,
   3;268,261,257;,
   3;268,267,265;,
   3;267,268,269;,
   3;268,256,269;,
   3;256,268,257;,
   3;253,270,254;,
   3;270,253,264;,
   3;264,271,270;,
   3;271,264,266;,
   3;266,272,271;,
   3;272,266,267;,
   3;267,273,272;,
   3;273,267,269;,
   3;274,275,276;,
   3;275,274,277;,
   3;254,278,252;,
   3;252,278,250;,
   3;250,278,247;,
   3;247,260,245;,
   3;260,247,278;,
   3;254,270,278;,
   3;271,278,270;,
   3;278,271,279;,
   3;278,279,260;,
   3;271,272,279;,
   3;279,262,260;,
   3;272,280,279;,
   3;280,272,273;,
   3;279,255,262;,
   3;255,279,280;,
   3;273,255,280;,
   3;255,273,258;,
   3;258,277,256;,
   3;277,258,275;,
   3;256,274,269;,
   3;274,256,277;,
   3;269,276,273;,
   3;276,269,274;,
   3;273,275,258;,
   3;275,273,276;,
   3;124,281,122;,
   3;281,124,282;,
   3;283,284,285;,
   3;284,283,286;,
   3;145,287,143;,
   3;287,145,288;,
   3;289,290,291;,
   3;290,289,292;,
   3;282,293,281;,
   3;293,282,294;,
   3;286,295,284;,
   3;295,286,296;,
   3;288,297,287;,
   3;297,288,298;,
   3;292,299,290;,
   3;299,292,300;,
   3;294,301,293;,
   3;301,294,302;,
   3;296,303,295;,
   3;303,296,304;,
   3;298,305,297;,
   3;305,298,306;,
   3;300,307,299;,
   3;307,300,308;,
   3;302,309,301;,
   3;309,302,310;,
   3;304,311,303;,
   3;311,304,312;,
   3;306,313,305;,
   3;313,306,314;,
   3;308,315,307;,
   3;315,308,316;,
   3;317,318,319;,
   3;318,317,320;,
   3;321,322,323;,
   3;322,321,324;,
   3;325,326,327;,
   3;328,329,330;,
   3;331,332,333;,
   3;332,331,334;,
   3;335,336,337;,
   3;336,335,338;,
   3;339,340,341;,
   3;340,339,342;,
   3;343,341,344;,
   3;341,343,339;,
   3;345,346,347;,
   3;346,345,348;,
   3;349,342,350;,
   3;342,349,340;,
   3;351,352,353;,
   3;352,351,354;,
   3;355,356,357;,
   3;356,355,358;,
   3;359,360,361;,
   3;360,359,362;,
   3;363,364,365;,
   3;364,363,366;,
   3;366,367,364;,
   3;367,366,368;,
   3;369,370,371;,
   3;370,369,372;,
   3;372,373,370;,
   3;373,372,374;,
   3;375,376,377;,
   3;376,375,378;,
   3;378,379,376;,
   3;379,378,380;,
   3;381,382,383;,
   3;382,381,384;,
   3;384,385,382;,
   3;385,384,386;,
   3;387,388,389;,
   3;388,387,390;,
   3;391,392,393;,
   3;392,391,394;,
   3;394,395,392;,
   3;395,394,396;,
   3;396,397,395;,
   3;397,396,398;,
   3;399,400,401;,
   3;400,399,402;,
   3;402,403,400;,
   3;402,404,403;,
   3;404,402,405;,
   3;405,406,404;,
   3;407,408,409;,
   3;408,407,410;,
   3;410,411,408;,
   3;411,410,412;,
   3;412,413,411;,
   3;413,412,414;,
   3;414,398,413;,
   3;398,414,397;,
   3;415,416,417;,
   3;416,415,418;,
   3;415,419,418;,
   3;419,420,418;,
   3;420,419,421;,
   3;421,422,420;,
   3;423,141,424;,
   3;141,423,142;,
   3;291,424,289;,
   3;424,291,423;,
   3;148,425,426;,
   3;425,148,147;,
   3;426,283,285;,
   3;283,426,425;,
   3;111,94,90;,
   3;427,428,429;,
   3;428,427,430;,
   3;429,431,432;,
   3;431,429,428;,
   3;433,434,435;,
   3;434,433,436;,
   3;435,437,438;,
   3;437,435,434;,
   3;439,440,441;,
   3;440,439,442;,
   3;441,443,444;,
   3;443,441,440;,
   3;445,446,447;,
   3;446,445,448;,
   3;447,449,450;,
   3;449,447,446;,
   3;451,452,453;,
   3;452,451,454;,
   3;453,455,456;,
   3;455,453,452;,
   3;457,458,459;,
   3;458,457,460;,
   3;459,461,462;,
   3;461,459,458;,
   3;463,464,465;,
   3;466,467,468;,
   3;469,467,466;,
   3;470,467,469;,
   3;471,467,470;,
   3;472,467,471;,
   3;464,467,472;,
   3;463,467,464;,
   3;473,467,463;,
   3;473,474,467;,
   3;475,476,477;,
   3;478,476,475;,
   3;476,479,480;,
   3;476,481,479;,
   3;476,482,481;,
   3;476,483,482;,
   3;476,484,483;,
   3;485,486,487;,
   3;488,489,490;,
   3;478,491,476;;
  }

  MeshMaterialList {
   1;
   412;
   0,
   0,
   0,
   0,
   0,
   0,
   0,
   0,
   0,
   0,
   0,
   0,
   0,
   0,
   0,
   0,
   0,
   0,
   0,
   0,
   0,
   0,
   0,
   0,
   0,
   0,
   0,
   0,
   0,
   0,
   0,
   0,
   0,
   0,
   0,
   0,
   0,
   0,
   0,
   0,
   0,
   0,
   0,
   0,
   0,
   0,
   0,
   0,
   0,
   0,
   0,
   0,
   0,
   0,
   0,
   0,
   0,
   0,
   0,
   0,
   0,
   0,
   0,
   0,
   0,
   0,
   0,
   0,
   0,
   0,
   0,
   0,
   0,
   0,
   0,
   0,
   0,
   0,
   0,
   0,
   0,
   0,
   0,
   0,
   0,
   0,
   0,
   0,
   0,
   0,
   0,
   0,
   0,
   0,
   0,
   0,
   0,
   0,
   0,
   0,
   0,
   0,
   0,
   0,
   0,
   0,
   0,
   0,
   0,
   0,
   0,
   0,
   0,
   0,
   0,
   0,
   0,
   0,
   0,
   0,
   0,
   0,
   0,
   0,
   0,
   0,
   0,
   0,
   0,
   0,
   0,
   0,
   0,
   0,
   0,
   0,
   0,
   0,
   0,
   0,
   0,
   0,
   0,
   0,
   0,
   0,
   0,
   0,
   0,
   0,
   0,
   0,
   0,
   0,
   0,
   0,
   0,
   0,
   0,
   0,
   0,
   0,
   0,
   0,
   0,
   0,
   0,
   0,
   0,
   0,
   0,
   0,
   0,
   0,
   0,
   0,
   0,
   0,
   0,
   0,
   0,
   0,
   0,
   0,
   0,
   0,
   0,
   0,
   0,
   0,
   0,
   0,
   0,
   0,
   0,
   0,
   0,
   0,
   0,
   0,
   0,
   0,
   0,
   0,
   0,
   0,
   0,
   0,
   0,
   0,
   0,
   0,
   0,
   0,
   0,
   0,
   0,
   0,
   0,
   0,
   0,
   0,
   0,
   0,
   0,
   0,
   0,
   0,
   0,
   0,
   0,
   0,
   0,
   0,
   0,
   0,
   0,
   0,
   0,
   0,
   0,
   0,
   0,
   0,
   0,
   0,
   0,
   0,
   0,
   0,
   0,
   0,
   0,
   0,
   0,
   0,
   0,
   0,
   0,
   0,
   0,
   0,
   0,
   0,
   0,
   0,
   0,
   0,
   0,
   0,
   0,
   0,
   0,
   0,
   0,
   0,
   0,
   0,
   0,
   0,
   0,
   0,
   0,
   0,
   0,
   0,
   0,
   0,
   0,
   0,
   0,
   0,
   0,
   0,
   0,
   0,
   0,
   0,
   0,
   0,
   0,
   0,
   0,
   0,
   0,
   0,
   0,
   0,
   0,
   0,
   0,
   0,
   0,
   0,
   0,
   0,
   0,
   0,
   0,
   0,
   0,
   0,
   0,
   0,
   0,
   0,
   0,
   0,
   0,
   0,
   0,
   0,
   0,
   0,
   0,
   0,
   0,
   0,
   0,
   0,
   0,
   0,
   0,
   0,
   0,
   0,
   0,
   0,
   0,
   0,
   0,
   0,
   0,
   0,
   0,
   0,
   0,
   0,
   0,
   0,
   0,
   0,
   0,
   0,
   0,
   0,
   0,
   0,
   0,
   0,
   0,
   0,
   0,
   0,
   0,
   0,
   0,
   0,
   0,
   0,
   0,
   0,
   0,
   0,
   0,
   0,
   0,
   0,
   0,
   0,
   0,
   0,
   0,
   0,
   0,
   0,
   0,
   0,
   0,
   0,
   0,
   0,
   0,
   0,
   0,
   0,
   0,
   0,
   0,
   0,
   0,
   0;
   { _04_-_Default }
  }

  MeshTextureCoords c1 {
   492;
   0.420064;0.059419;,
   0.359322;0.058856;,
   0.420064;0.054645;,
   0.359451;0.062545;,
   0.359573;0.062529;,
   0.420064;0.059419;,
   0.419947;0.098253;,
   0.015896;0.118168;,
   0.419837;0.119428;,
   0.015896;0.098220;,
   0.420182;0.119413;,
   0.015901;0.098152;,
   0.420182;0.098220;,
   0.015896;0.118168;,
   0.015778;0.060456;,
   0.015778;0.063413;,
   0.015778;0.063413;,
   0.420182;0.074277;,
   0.420589;0.089999;,
   0.420182;0.098220;,
   0.613280;0.062274;,
   0.613280;0.078887;,
   0.613280;0.074277;,
   0.613280;0.074277;,
   0.419947;0.098253;,
   0.420182;0.074277;,
   0.419837;0.119428;,
   0.420182;0.119413;,
   0.560374;0.708690;,
   0.480541;0.708717;,
   0.536975;0.764466;,
   0.480543;0.830564;,
   0.424131;0.764469;,
   0.400888;0.707954;,
   0.480224;0.604017;,
   0.613162;0.059419;,
   0.613162;0.054645;,
   0.420182;0.074277;,
   0.613280;0.078887;,
   0.420589;0.089999;,
   0.613280;0.074277;,
   0.613280;0.074277;,
   0.420182;0.074277;,
   0.613162;0.059419;,
   0.420182;0.098220;,
   0.420064;0.059419;,
   0.359451;0.062545;,
   0.613162;0.059419;,
   0.613280;0.074277;,
   0.613162;0.054645;,
   0.613280;0.062274;,
   0.613162;0.054645;,
   0.613280;0.074277;,
   0.613162;0.059419;,
   0.613280;0.062274;,
   0.613162;0.059419;,
   0.613280;0.074277;,
   0.613162;0.059419;,
   0.613280;0.062274;,
   0.613162;0.054645;,
   0.420064;0.059419;,
   0.613162;0.059419;,
   0.359573;0.062529;,
   0.419947;0.098253;,
   0.015778;0.063413;,
   0.015896;0.098220;,
   0.560374;0.708690;,
   0.537001;0.611538;,
   0.480224;0.604017;,
   0.424082;0.611538;,
   0.400888;0.707954;,
   0.015901;0.098152;,
   0.015778;0.063413;,
   0.419760;0.139790;,
   0.420092;0.139765;,
   0.015806;0.138400;,
   0.420092;0.139765;,
   0.424131;0.764469;,
   0.446063;0.820898;,
   0.480543;0.830564;,
   0.515020;0.820898;,
   0.536975;0.764466;,
   0.419760;0.139790;,
   0.015806;0.138400;,
   0.420104;0.177311;,
   0.419919;0.163090;,
   0.359568;0.177182;,
   0.420104;0.177311;,
   0.359631;0.163019;,
   0.420104;0.163016;,
   0.359631;0.177322;,
   0.015813;0.177311;,
   0.015813;0.163016;,
   0.015813;0.183233;,
   0.359557;0.183374;,
   0.015813;0.177311;,
   0.015813;0.163016;,
   0.420104;0.177311;,
   0.420104;0.163016;,
   0.420104;0.183233;,
   0.420104;0.177311;,
   0.419919;0.163090;,
   0.537760;0.889626;,
   0.480541;0.946070;,
   0.521001;0.929538;,
   0.423323;0.889626;,
   0.440082;0.929538;,
   0.376519;0.266488;,
   0.424090;0.250757;,
   0.377123;0.247895;,
   0.424090;0.266463;,
   0.376519;0.249867;,
   0.424090;0.266463;,
   0.376519;0.266488;,
   0.424090;0.250757;,
   0.424090;0.282169;,
   0.376519;0.283109;,
   0.424090;0.288675;,
   0.376519;0.289993;,
   0.424090;0.282169;,
   0.376519;0.283109;,
   0.453307;0.307281;,
   0.464690;0.370104;,
   0.452387;0.307868;,
   0.465359;0.370013;,
   0.659868;0.395939;,
   0.650681;0.357160;,
   0.660133;0.396585;,
   0.650681;0.357160;,
   0.659868;0.395939;,
   0.651198;0.357037;,
   0.424090;0.266463;,
   0.614992;0.250602;,
   0.424090;0.250757;,
   0.614823;0.266313;,
   0.614089;0.245052;,
   0.424090;0.244252;,
   0.614621;0.251662;,
   0.424090;0.250757;,
   0.614395;0.266060;,
   0.424090;0.266463;,
   0.517497;0.283213;,
   0.424090;0.282169;,
   0.472323;0.367442;,
   0.483000;0.317435;,
   0.473013;0.367469;,
   0.482017;0.316625;,
   0.424090;0.282169;,
   0.517716;0.286617;,
   0.614720;0.290155;,
   0.517497;0.283213;,
   0.611978;0.294689;,
   0.517716;0.286617;,
   0.614720;0.290155;,
   0.611978;0.294689;,
   0.376519;0.289993;,
   0.376519;0.266488;,
   0.376519;0.283109;,
   0.376519;0.266488;,
   0.376519;0.283109;,
   0.614992;0.250602;,
   0.614621;0.251662;,
   0.614089;0.245052;,
   0.614621;0.251662;,
   0.614720;0.290155;,
   0.614395;0.266060;,
   0.614621;0.251662;,
   0.611978;0.294689;,
   0.614720;0.290155;,
   0.614992;0.250602;,
   0.611978;0.294689;,
   0.614621;0.251662;,
   0.614823;0.266313;,
   0.611978;0.294689;,
   0.614992;0.250602;,
   0.424090;0.244252;,
   0.424090;0.250757;,
   0.424090;0.250757;,
   0.424090;0.288675;,
   0.424090;0.282169;,
   0.424090;0.282169;,
   0.610691;0.116146;,
   0.630791;0.112443;,
   0.630791;0.197164;,
   0.610691;0.097124;,
   0.610691;0.162071;,
   0.610691;0.207996;,
   0.610691;0.227019;,
   0.610691;0.207996;,
   0.610691;0.162071;,
   0.610691;0.116146;,
   0.835938;0.281250;,
   0.780740;0.177799;,
   0.782888;0.355482;,
   0.821634;0.188927;,
   0.717953;0.140976;,
   0.720101;0.355482;,
   0.659402;0.059727;,
   0.660964;0.352619;,
   0.612938;0.059727;,
   0.612938;0.297463;,
   0.611591;0.297166;,
   0.612938;0.059727;,
   0.611841;0.057826;,
   0.612938;0.297463;,
   0.611591;0.297166;,
   0.658868;0.058109;,
   0.660370;0.352704;,
   0.611841;0.057826;,
   0.718598;0.139462;,
   0.720058;0.355397;,
   0.780715;0.176147;,
   0.783180;0.355065;,
   0.821571;0.187809;,
   0.835844;0.280638;,
   0.782888;0.355482;,
   0.835844;0.280638;,
   0.835938;0.281250;,
   0.783180;0.355065;,
   0.720101;0.355482;,
   0.783180;0.355065;,
   0.782888;0.355482;,
   0.720058;0.355397;,
   0.660964;0.352619;,
   0.720058;0.355397;,
   0.720101;0.355482;,
   0.720058;0.355397;,
   0.660964;0.352619;,
   0.660370;0.352704;,
   0.660370;0.352704;,
   0.660964;0.352619;,
   0.821634;0.188927;,
   0.780715;0.176147;,
   0.780740;0.177799;,
   0.821571;0.187809;,
   0.718598;0.139462;,
   0.717953;0.140976;,
   0.658868;0.058109;,
   0.659402;0.059727;,
   0.611841;0.057826;,
   0.612938;0.059727;,
   0.835938;0.281250;,
   0.821571;0.187809;,
   0.821634;0.188927;,
   0.835844;0.280638;,
   0.990778;0.617630;,
   0.934518;0.641931;,
   0.934518;0.641931;,
   0.990778;0.617630;,
   0.862588;0.641931;,
   0.862588;0.641931;,
   0.793319;0.622045;,
   0.793319;0.622045;,
   0.770547;0.584589;,
   0.770547;0.584589;,
   0.796875;0.281250;,
   0.726563;0.296875;,
   0.896812;0.353962;,
   0.726563;0.296875;,
   0.977877;0.571970;,
   0.947789;0.473920;,
   0.932804;0.423647;,
   0.932803;0.423647;,
   0.869008;0.548066;,
   0.761699;0.524194;,
   0.854633;0.445120;,
   0.736812;0.481995;,
   0.754985;0.427680;,
   0.836160;0.363541;,
   0.728544;0.394762;,
   0.761699;0.524194;,
   0.736812;0.481995;,
   0.754985;0.427680;,
   0.728544;0.394762;,
   0.660641;0.410080;,
   0.640625;0.343750;,
   0.660640;0.410080;,
   0.640625;0.343750;,
   0.869008;0.548066;,
   0.854633;0.445120;,
   0.836160;0.363541;,
   0.495985;0.413080;,
   0.496475;0.412666;,
   0.464690;0.370104;,
   0.501779;0.406429;,
   0.473013;0.367469;,
   0.495985;0.413080;,
   0.501239;0.406908;,
   0.501779;0.406429;,
   0.472323;0.367442;,
   0.496475;0.412666;,
   0.465359;0.370013;,
   0.501239;0.406908;,
   0.562377;0.433596;,
   0.562553;0.432933;,
   0.563410;0.424769;,
   0.562377;0.433596;,
   0.563199;0.425445;,
   0.563410;0.424769;,
   0.562553;0.432933;,
   0.563199;0.425445;,
   0.629886;0.423847;,
   0.629684;0.423191;,
   0.625205;0.416263;,
   0.629886;0.423847;,
   0.625433;0.417034;,
   0.625205;0.416263;,
   0.629684;0.423191;,
   0.625433;0.417034;,
   0.660133;0.396585;,
   0.659868;0.395939;,
   0.650681;0.357160;,
   0.660133;0.396585;,
   0.651198;0.357037;,
   0.650681;0.357160;,
   0.659868;0.395939;,
   0.651198;0.357037;,
   0.018043;0.063489;,
   0.131775;0.063489;,
   0.018043;0.063489;,
   0.131775;0.063489;,
   0.027840;0.021476;,
   0.131775;0.063489;,
   0.131775;0.063489;,
   0.027840;0.021476;,
   0.018043;0.063489;,
   0.027840;0.021476;,
   0.131775;0.063489;,
   0.131775;0.063489;,
   0.027840;0.021476;,
   0.018043;0.063489;,
   0.510348;0.611749;,
   0.450735;0.494451;,
   0.450735;0.611749;,
   0.510348;0.494451;,
   0.673912;0.065006;,
   0.570615;0.065006;,
   0.570615;0.065006;,
   0.673912;0.065006;,
   0.670421;0.038705;,
   0.606127;0.038705;,
   0.670421;0.038705;,
   0.606127;0.038705;,
   0.673912;0.065006;,
   0.673912;0.065006;,
   0.673912;0.065006;,
   0.606127;0.038705;,
   0.570615;0.065006;,
   0.670421;0.038705;,
   0.570615;0.065006;,
   0.570615;0.065006;,
   0.570615;0.065006;,
   0.670421;0.038705;,
   0.673912;0.065006;,
   0.606127;0.038705;,
   0.720546;0.142586;,
   0.702524;0.123503;,
   0.702524;0.123503;,
   0.720546;0.142586;,
   0.767728;0.108410;,
   0.765704;0.100884;,
   0.767728;0.108410;,
   0.765704;0.100884;,
   0.720546;0.142586;,
   0.740959;0.119275;,
   0.720546;0.142586;,
   0.740959;0.119275;,
   0.767728;0.108410;,
   0.767728;0.108410;,
   0.720546;0.142586;,
   0.734333;0.109526;,
   0.702524;0.123503;,
   0.740959;0.119275;,
   0.765704;0.100884;,
   0.767728;0.108410;,
   0.702524;0.123503;,
   0.734333;0.109526;,
   0.702524;0.123503;,
   0.734333;0.109526;,
   0.765704;0.100884;,
   0.765704;0.100884;,
   0.702524;0.123503;,
   0.740959;0.119275;,
   0.720546;0.142586;,
   0.734333;0.109526;,
   0.767728;0.108410;,
   0.765704;0.100884;,
   0.543738;0.278100;,
   0.633370;0.298699;,
   0.633370;0.298699;,
   0.543738;0.278100;,
   0.543738;0.278100;,
   0.562073;0.351174;,
   0.543738;0.278100;,
   0.565025;0.351035;,
   0.555276;0.376742;,
   0.555276;0.376742;,
   0.530285;0.398155;,
   0.530285;0.398155;,
   0.543738;0.278100;,
   0.587114;0.321561;,
   0.633370;0.298699;,
   0.562073;0.351174;,
   0.586265;0.346999;,
   0.571170;0.386399;,
   0.555276;0.376742;,
   0.530285;0.398155;,
   0.633370;0.298699;,
   0.587114;0.321561;,
   0.633370;0.298699;,
   0.587114;0.321561;,
   0.586265;0.346999;,
   0.586265;0.346999;,
   0.571170;0.386399;,
   0.571170;0.386399;,
   0.587114;0.321561;,
   0.543738;0.278100;,
   0.633370;0.298699;,
   0.565025;0.351035;,
   0.586265;0.346999;,
   0.555276;0.376742;,
   0.571170;0.386399;,
   0.530285;0.398155;,
   0.453307;0.307281;,
   0.482017;0.316625;,
   0.452387;0.307868;,
   0.483000;0.317435;,
   0.961724;0.756722;,
   0.603569;0.848371;,
   0.964046;0.847597;,
   0.601865;0.755019;,
   0.600959;0.937753;,
   0.962306;0.936994;,
   0.962413;0.935534;,
   0.601209;0.847011;,
   0.962413;0.847881;,
   0.602079;0.933793;,
   0.600339;0.755443;,
   0.961543;0.756313;,
   0.962325;0.933295;,
   0.601481;0.846700;,
   0.962325;0.846700;,
   0.601481;0.933295;,
   0.601481;0.755305;,
   0.962325;0.755305;,
   0.962620;0.936446;,
   0.602291;0.847892;,
   0.961536;0.848320;,
   0.603375;0.934279;,
   0.602291;0.756120;,
   0.961536;0.758288;,
   0.961809;0.935581;,
   0.602352;0.847962;,
   0.961809;0.847962;,
   0.602352;0.935581;,
   0.602352;0.756893;,
   0.961809;0.756893;,
   0.961960;0.756738;,
   0.601924;0.848051;,
   0.961960;0.848051;,
   0.601924;0.756738;,
   0.598696;0.936239;,
   0.958732;0.936239;,
   0.280474;0.652076;,
   0.113501;0.652076;,
   0.196988;0.628757;,
   0.196988;0.976866;,
   0.341590;0.889839;,
   0.278212;0.958704;,
   0.113501;0.953547;,
   0.052385;0.889839;,
   0.030015;0.802812;,
   0.052385;0.715784;,
   0.341590;0.715784;,
   0.363961;0.802812;,
   0.035361;0.434443;,
   0.114863;0.579415;,
   0.059298;0.525508;,
   0.059342;0.350687;,
   0.280203;0.579281;,
   0.197043;0.601786;,
   0.342060;0.517932;,
   0.366041;0.434176;,
   0.345719;0.350456;,
   0.286540;0.289204;,
   0.114863;0.579415;,
   0.204360;0.266833;,
   0.286540;0.289204;,
   0.114863;0.579415;,
   0.121200;0.289338;,
   0.204360;0.266833;,
   0.121200;0.289338;;
  }
 }
}