xof 0303txt 0032
template ColorRGBA {
 <35ff44e0-6c7c-11cf-8f52-0040333594a3>
 FLOAT red;
 FLOAT green;
 FLOAT blue;
 FLOAT alpha;
}

template ColorRGB {
 <d3e16e81-7835-11cf-8f52-0040333594a3>
 FLOAT red;
 FLOAT green;
 FLOAT blue;
}

template Material {
 <3d82ab4d-62da-11cf-ab39-0020af71e433>
 ColorRGBA faceColor;
 FLOAT power;
 ColorRGB specularColor;
 ColorRGB emissiveColor;
 [...]
}

template TextureFilename {
 <a42790e1-7810-11cf-8f52-0040333594a3>
 STRING filename;
}

template Frame {
 <3d82ab46-62da-11cf-ab39-0020af71e433>
 [...]
}

template Matrix4x4 {
 <f6f23f45-7686-11cf-8f52-0040333594a3>
 array FLOAT matrix[16];
}

template FrameTransformMatrix {
 <f6f23f41-7686-11cf-8f52-0040333594a3>
 Matrix4x4 frameMatrix;
}

template Vector {
 <3d82ab5e-62da-11cf-ab39-0020af71e433>
 FLOAT x;
 FLOAT y;
 FLOAT z;
}

template MeshFace {
 <3d82ab5f-62da-11cf-ab39-0020af71e433>
 DWORD nFaceVertexIndices;
 array DWORD faceVertexIndices[nFaceVertexIndices];
}

template Mesh {
 <3d82ab44-62da-11cf-ab39-0020af71e433>
 DWORD nVertices;
 array Vector vertices[nVertices];
 DWORD nFaces;
 array MeshFace faces[nFaces];
 [...]
}

template MeshNormals {
 <f6f23f43-7686-11cf-8f52-0040333594a3>
 DWORD nNormals;
 array Vector normals[nNormals];
 DWORD nFaceNormals;
 array MeshFace faceNormals[nFaceNormals];
}

template MeshMaterialList {
 <f6f23f42-7686-11cf-8f52-0040333594a3>
 DWORD nMaterials;
 DWORD nFaceIndexes;
 array DWORD faceIndexes[nFaceIndexes];
 [Material <3d82ab4d-62da-11cf-ab39-0020af71e433>]
}

template Coords2d {
 <f6f23f44-7686-11cf-8f52-0040333594a3>
 FLOAT u;
 FLOAT v;
}

template MeshTextureCoords {
 <f6f23f40-7686-11cf-8f52-0040333594a3>
 DWORD nTextureCoords;
 array Coords2d textureCoords[nTextureCoords];
}


Material _23_-_Default {
 1.000000;1.000000;1.000000;1.000000;;
 9.999999;
 0.000000;0.000000;0.000000;;
 0.000000;0.000000;0.000000;;

 TextureFilename {
  "DoubleBarrelShotgun_ImpLight.png";
 }
}

Frame ShotgunDoubleBarrel_ImpLight {
 

 FrameTransformMatrix {
  1.000000,0.000000,0.000000,0.000000,0.000000,1.000000,0.000000,0.000000,0.000000,0.000000,1.000000,0.000000,0.000000,0.000000,0.000000,1.000000;;
 }

 Mesh ShotgunDoubleBarrel_ImpLight {
  588;
  -0.014897;0.090913;0.032495;,
  -0.009564;0.042191;0.002815;,
  -0.009564;0.028818;0.028955;,
  -0.014897;0.090913;0.024953;,
  0.000000;-0.019387;0.017875;,
  -0.005739;-0.005579;0.012332;,
  -0.007651;-0.019661;0.015924;,
  -0.009564;0.054828;0.035554;,
  -0.005739;0.027190;0.032484;,
  -0.005739;0.054367;0.039380;,
  -0.009564;0.028818;0.028955;,
  -0.005739;0.002086;0.014422;,
  -0.005739;0.027190;0.032484;,
  -0.009564;0.003760;0.010913;,
  -0.009564;-0.005812;0.008303;,
  -0.015062;-0.011502;-0.031712;,
  -0.009564;0.001519;-0.036331;,
  -0.015062;-0.011839;-0.034241;,
  -0.009564;0.001856;-0.033803;,
  0.000000;-0.027181;-0.029622;,
  -0.009564;-0.024173;-0.032150;,
  0.000000;-0.027518;-0.032150;,
  -0.009564;-0.023836;-0.029622;,
  -0.015423;-0.143959;-0.040819;,
  -0.009564;-0.023836;-0.029622;,
  -0.010070;-0.137720;-0.075198;,
  -0.008714;-0.150567;-0.004138;,
  -0.005739;0.013689;-0.012669;,
  0.000000;0.004177;-0.033803;,
  -0.009564;0.001856;-0.033803;,
  0.000000;0.003840;-0.036331;,
  0.000000;0.004177;-0.033803;,
  -0.009564;-0.024173;-0.032150;,
  0.000000;0.003840;-0.036331;,
  0.000000;-0.027518;-0.032150;,
  -0.015062;-0.011839;-0.034241;,
  0.000000;-0.135807;-0.085798;,
  0.000000;-0.027181;-0.029622;,
  -0.000190;0.090913;0.037014;,
  -0.002808;0.090913;0.040036;,
  -0.009564;0.010332;-0.010954;,
  -0.005739;0.026595;-0.003624;,
  -0.009564;0.025114;0.000010;,
  -0.005739;0.042503;-0.001011;,
  -0.009564;0.042191;0.002815;,
  -0.004290;0.100728;0.005948;,
  -0.005739;0.042503;-0.001011;,
  -0.008315;0.100728;0.008970;,
  -0.015062;-0.011502;-0.031712;,
  -0.009564;0.001519;-0.036331;,
  -0.011232;0.007046;-0.000020;,
  -0.014897;0.090913;0.037014;,
  -0.011875;0.090913;0.040036;,
  -0.000973;0.078697;0.004892;,
  -0.000973;0.066703;0.001476;,
  -0.000973;0.063012;0.003188;,
  -0.000973;0.068152;-0.000947;,
  -0.000973;0.067381;-0.008821;,
  -0.000973;0.048986;-0.007592;,
  -0.000973;0.043861;-0.000702;,
  -0.000973;0.053707;0.000927;,
  -0.000973;0.046813;-0.012679;,
  -0.000973;0.050316;-0.012802;,
  -0.000973;0.048401;-0.014012;,
  -0.000973;0.063504;-0.011605;,
  -0.000973;0.065337;-0.012730;,
  0.000000;-0.152001;0.003947;,
  -0.015423;-0.143959;-0.040819;,
  0.000000;-0.152001;0.003947;,
  -0.008714;-0.150567;-0.004138;,
  0.000000;-0.152001;0.003947;,
  0.000000;-0.152001;0.003947;,
  -0.015423;-0.143959;-0.040819;,
  0.000000;-0.144022;-0.040271;,
  0.000000;-0.152001;0.003947;,
  0.000000;-0.152001;0.003947;,
  0.014921;0.090913;0.032495;,
  0.009564;0.042191;0.002815;,
  0.014921;0.090913;0.024953;,
  0.009564;0.028818;0.028955;,
  0.005739;0.002086;0.014422;,
  -0.005739;0.027190;0.032484;,
  0.005739;0.027190;0.032484;,
  0.005739;-0.005579;0.012332;,
  0.007651;-0.019661;0.015924;,
  0.009564;0.054828;0.035554;,
  0.005739;0.027190;0.032484;,
  0.005739;0.054367;0.039380;,
  0.009564;0.028818;0.028955;,
  0.009564;0.003760;0.010913;,
  0.009564;-0.005812;0.008303;,
  0.015062;-0.011502;-0.031712;,
  0.009564;0.001519;-0.036331;,
  0.009564;0.001856;-0.033803;,
  0.015062;-0.011839;-0.034241;,
  0.009564;-0.024173;-0.032150;,
  0.009564;-0.023836;-0.029622;,
  0.015423;-0.143959;-0.040819;,
  0.010070;-0.137720;-0.075198;,
  0.009564;-0.023836;-0.029622;,
  0.008714;-0.150567;-0.004138;,
  0.003995;0.100728;0.005948;,
  -0.005739;0.042503;-0.001011;,
  0.005739;0.042503;-0.001011;,
  0.005739;0.042503;-0.001011;,
  -0.005739;0.042503;-0.001011;,
  0.005739;0.026595;-0.003624;,
  0.005739;0.013689;-0.012669;,
  0.009564;-0.024173;-0.032150;,
  0.015062;-0.011839;-0.034241;,
  0.002832;0.090913;0.040036;,
  0.009564;0.010332;-0.010954;,
  0.009564;0.025114;0.000010;,
  0.009564;0.042191;0.002815;,
  0.008128;0.100728;0.008970;,
  0.015062;-0.011502;-0.031712;,
  0.009564;0.001519;-0.036331;,
  0.011232;0.007046;-0.000020;,
  0.009564;0.001856;-0.033803;,
  0.014921;0.090913;0.037014;,
  0.011899;0.090913;0.040036;,
  0.000973;0.043861;-0.000702;,
  0.000973;0.048986;-0.007592;,
  0.000973;0.053707;0.000927;,
  0.000973;0.046813;-0.012679;,
  0.000973;0.050316;-0.012802;,
  0.000973;0.048401;-0.014012;,
  0.000973;0.063504;-0.011605;,
  0.000973;0.065337;-0.012730;,
  0.000973;0.067381;-0.008821;,
  0.000973;0.078697;0.004892;,
  0.000973;0.068152;-0.000947;,
  0.000973;0.066703;0.001476;,
  0.000973;0.063012;0.003188;,
  -0.000973;0.066703;0.001476;,
  0.000973;0.068152;-0.000947;,
  0.000973;0.066703;0.001476;,
  -0.000973;0.068152;-0.000947;,
  0.000973;0.067381;-0.008821;,
  -0.000973;0.067381;-0.008821;,
  0.000973;0.063504;-0.011605;,
  -0.000973;0.063504;-0.011605;,
  0.000973;0.050316;-0.012802;,
  -0.000973;0.050316;-0.012802;,
  0.000973;0.048986;-0.007592;,
  -0.000973;0.048986;-0.007592;,
  0.000973;0.053707;0.000927;,
  -0.000973;0.053707;0.000927;,
  -0.000973;0.043861;-0.000702;,
  0.000973;0.046813;-0.012679;,
  0.000973;0.043861;-0.000702;,
  -0.000973;0.046813;-0.012679;,
  0.000973;0.048401;-0.014012;,
  -0.000973;0.048401;-0.014012;,
  0.000973;0.065337;-0.012730;,
  -0.000973;0.065337;-0.012730;,
  0.000973;0.078697;0.004892;,
  -0.000973;0.078697;0.004892;,
  0.000000;-0.152001;0.003947;,
  0.015423;-0.143959;-0.040819;,
  0.008714;-0.150567;-0.004138;,
  0.000000;-0.152001;0.003947;,
  0.000000;-0.152001;0.003947;,
  0.015423;-0.143959;-0.040819;,
  0.000000;-0.144022;-0.040271;,
  0.000000;-0.152001;0.003947;,
  0.000000;-0.152001;0.003947;,
  -0.000973;0.063012;0.003188;,
  0.000973;0.063012;0.003188;,
  0.007365;0.090913;0.040036;,
  0.002018;0.157069;0.037921;,
  0.002832;0.090913;0.040036;,
  0.007365;0.157069;0.040136;,
  -0.000190;0.090913;0.037014;,
  -0.000196;0.157069;0.032574;,
  -0.000190;0.090913;0.032495;,
  0.002018;0.157069;0.027227;,
  -0.000190;0.090913;0.024953;,
  0.007365;0.157069;0.025012;,
  0.007365;0.090913;0.024953;,
  0.002018;0.540128;0.037921;,
  0.007365;0.540128;0.040136;,
  -0.000196;0.540128;0.032574;,
  0.002018;0.540128;0.027227;,
  0.007365;0.540128;0.025012;,
  0.012712;0.157069;0.037921;,
  0.011899;0.090913;0.040036;,
  0.014927;0.157069;0.032574;,
  0.014921;0.090913;0.037014;,
  0.014921;0.090913;0.032495;,
  0.012712;0.157069;0.027227;,
  0.014921;0.090913;0.024953;,
  0.012712;0.540128;0.037921;,
  0.014927;0.540128;0.032574;,
  0.012712;0.540128;0.027227;,
  0.007365;0.540128;0.040136;,
  0.002790;0.540128;0.037150;,
  0.002018;0.540128;0.037921;,
  0.007365;0.540128;0.039045;,
  0.000894;0.540128;0.032574;,
  -0.000196;0.540128;0.032574;,
  0.002790;0.540128;0.027998;,
  0.002018;0.540128;0.027227;,
  0.007365;0.540128;0.026103;,
  0.007365;0.540128;0.025012;,
  0.011941;0.540128;0.027998;,
  0.012712;0.540128;0.027227;,
  0.013837;0.540128;0.032574;,
  0.014927;0.540128;0.032574;,
  0.011941;0.540128;0.037150;,
  0.012712;0.540128;0.037921;,
  0.007365;0.540128;0.039045;,
  0.007365;0.475736;0.032574;,
  0.002790;0.540128;0.037150;,
  0.000894;0.540128;0.032574;,
  0.002790;0.540128;0.027998;,
  0.007365;0.540128;0.026103;,
  0.011941;0.540128;0.027998;,
  0.013837;0.540128;0.032574;,
  0.011941;0.540128;0.037150;,
  -0.007341;0.090913;0.040036;,
  -0.012688;0.157069;0.037921;,
  -0.011875;0.090913;0.040036;,
  -0.007341;0.157069;0.040136;,
  -0.014897;0.090913;0.037014;,
  -0.014903;0.157069;0.032574;,
  -0.014897;0.090913;0.032495;,
  -0.012688;0.157069;0.027227;,
  -0.014897;0.090913;0.024953;,
  -0.007341;0.157069;0.025012;,
  -0.007341;0.090913;0.024953;,
  -0.012688;0.540128;0.037921;,
  -0.007341;0.540128;0.040136;,
  -0.014903;0.540128;0.032574;,
  -0.012688;0.540128;0.027227;,
  -0.007341;0.540128;0.025012;,
  -0.001994;0.157069;0.037921;,
  -0.002808;0.090913;0.040036;,
  0.000220;0.157069;0.032574;,
  0.000214;0.090913;0.032495;,
  -0.001994;0.157069;0.027227;,
  0.000214;0.090913;0.024953;,
  -0.001995;0.540128;0.037921;,
  0.000220;0.540128;0.032574;,
  -0.001995;0.540128;0.027227;,
  -0.007341;0.540128;0.040136;,
  -0.011917;0.540128;0.037150;,
  -0.012688;0.540128;0.037921;,
  -0.007341;0.540128;0.039045;,
  -0.013813;0.540128;0.032574;,
  -0.014903;0.540128;0.032574;,
  -0.011917;0.540128;0.027998;,
  -0.012688;0.540128;0.027227;,
  -0.007341;0.540128;0.026103;,
  -0.007341;0.540128;0.025012;,
  -0.002766;0.540128;0.027998;,
  -0.001995;0.540128;0.027227;,
  -0.000870;0.540128;0.032574;,
  0.000220;0.540128;0.032574;,
  -0.002766;0.540128;0.037150;,
  -0.001995;0.540128;0.037921;,
  -0.007341;0.540128;0.039045;,
  -0.007341;0.475736;0.032574;,
  -0.011917;0.540128;0.037150;,
  -0.013813;0.540128;0.032574;,
  -0.011917;0.540128;0.027998;,
  -0.007341;0.540128;0.026103;,
  -0.002766;0.540128;0.027998;,
  -0.000870;0.540128;0.032574;,
  -0.002766;0.540128;0.037150;,
  -0.007341;0.090913;0.040036;,
  0.007365;0.090913;0.040036;,
  -0.003813;0.047943;0.037234;,
  -0.007646;0.054763;0.036367;,
  -0.003813;0.054763;0.038540;,
  -0.007646;0.047943;0.035472;,
  -0.003813;0.047943;0.037234;,
  -0.007646;0.046621;0.047720;,
  -0.007646;0.047943;0.035472;,
  -0.003813;0.046621;0.047720;,
  -0.007646;0.047943;0.035472;,
  -0.007646;0.046621;0.047720;,
  -0.007646;0.054763;0.036367;,
  -0.007646;0.054763;0.036367;,
  -0.003813;0.046621;0.047720;,
  -0.003813;0.054763;0.038540;,
  -0.007646;0.046621;0.047720;,
  -0.003813;0.054763;0.038540;,
  -0.003813;0.046621;0.047720;,
  -0.003813;0.047943;0.037234;,
  0.007647;0.047943;0.035472;,
  0.003813;0.054763;0.038540;,
  0.007647;0.054763;0.036367;,
  0.003813;0.047943;0.037234;,
  0.007647;0.047943;0.035472;,
  0.003813;0.046621;0.047720;,
  0.003813;0.047943;0.037234;,
  0.007647;0.046621;0.047720;,
  0.003813;0.047943;0.037234;,
  0.003813;0.046621;0.047720;,
  0.003813;0.054763;0.038540;,
  0.003813;0.054763;0.038540;,
  0.007647;0.046621;0.047720;,
  0.007647;0.054763;0.036367;,
  0.003813;0.046621;0.047720;,
  0.007647;0.054763;0.036367;,
  0.007647;0.046621;0.047720;,
  0.007647;0.047943;0.035472;,
  -0.006654;0.531972;0.038485;,
  -0.008086;0.535490;0.038485;,
  -0.006654;0.535490;0.038485;,
  -0.008086;0.531972;0.038485;,
  -0.006654;0.531972;0.044645;,
  -0.008086;0.535490;0.044645;,
  -0.008086;0.531972;0.044645;,
  -0.006654;0.535490;0.044645;,
  -0.006654;0.531972;0.038485;,
  -0.008086;0.531972;0.044645;,
  -0.008086;0.531972;0.038485;,
  -0.006654;0.531972;0.044645;,
  -0.008086;0.531972;0.038485;,
  -0.008086;0.535490;0.044645;,
  -0.008086;0.535490;0.038485;,
  -0.008086;0.531972;0.044645;,
  -0.008086;0.535490;0.038485;,
  -0.006654;0.535490;0.044645;,
  -0.006654;0.535490;0.038485;,
  -0.008086;0.535490;0.044645;,
  -0.006654;0.535490;0.038485;,
  -0.006654;0.531972;0.044645;,
  -0.006654;0.531972;0.038485;,
  -0.006654;0.535490;0.044645;,
  0.008084;0.531972;0.038485;,
  0.006651;0.535490;0.038485;,
  0.008084;0.535490;0.038485;,
  0.006651;0.531972;0.038485;,
  0.008084;0.531972;0.044645;,
  0.006651;0.535490;0.044645;,
  0.006651;0.531972;0.044645;,
  0.008084;0.535490;0.044645;,
  0.008084;0.531972;0.038485;,
  0.006651;0.531972;0.044645;,
  0.006651;0.531972;0.038485;,
  0.008084;0.531972;0.044645;,
  0.006651;0.531972;0.038485;,
  0.006651;0.535490;0.044645;,
  0.006651;0.535490;0.038485;,
  0.006651;0.531972;0.044645;,
  0.006651;0.535490;0.038485;,
  0.008084;0.535490;0.044645;,
  0.008084;0.535490;0.038485;,
  0.006651;0.535490;0.044645;,
  0.008084;0.535490;0.038485;,
  0.008084;0.531972;0.044645;,
  0.008084;0.531972;0.038485;,
  0.008084;0.535490;0.044645;,
  0.000001;0.083377;0.001823;,
  -0.008836;0.139536;0.004924;,
  0.000001;0.139536;0.003030;,
  -0.010311;0.083615;0.004074;,
  -0.008836;0.243961;0.005802;,
  0.000001;0.243961;0.004430;,
  -0.008836;0.263130;0.007335;,
  0.000001;0.263130;0.006141;,
  -0.008836;0.284446;0.014288;,
  0.000001;0.284446;0.013372;,
  0.000001;0.292014;0.022315;,
  -0.007854;0.292014;0.022727;,
  0.000001;0.293516;0.027007;,
  0.000001;0.082834;0.004004;,
  -0.010311;0.083615;0.004074;,
  0.000001;0.083377;0.001823;,
  -0.007756;0.083318;0.006274;,
  -0.012497;0.139536;0.010383;,
  -0.014582;0.085409;0.010566;,
  -0.012497;0.243961;0.009759;,
  -0.012497;0.263130;0.010777;,
  -0.012497;0.284446;0.016929;,
  -0.014582;0.085409;0.010566;,
  -0.010969;0.084628;0.011223;,
  -0.012497;0.139536;0.024797;,
  -0.015555;0.091585;0.024141;,
  -0.012497;0.263130;0.025036;,
  -0.012497;0.284446;0.025224;,
  -0.011108;0.292014;0.027087;,
  -0.015555;0.091585;0.024141;,
  -0.013203;0.090440;0.024141;,
  -0.012497;0.139536;0.026213;,
  -0.015555;0.091585;0.025090;,
  -0.012497;0.143697;0.029813;,
  -0.012497;0.263130;0.028198;,
  -0.012497;0.284446;0.027651;,
  -0.013203;0.090440;0.024141;,
  -0.013203;0.090804;0.025090;,
  -0.012497;0.139536;0.026213;,
  -0.013203;0.090804;0.025090;,
  -0.008968;0.139536;0.026213;,
  -0.015555;0.091585;0.025090;,
  -0.008968;0.143697;0.029813;,
  -0.012497;0.143697;0.029813;,
  -0.012497;0.143697;0.029813;,
  -0.010607;0.263130;0.028198;,
  -0.012497;0.263130;0.028198;,
  -0.008968;0.143697;0.029813;,
  -0.010607;0.284446;0.027651;,
  -0.012497;0.284446;0.027651;,
  0.008838;0.139703;0.004924;,
  0.010312;0.083615;0.004074;,
  0.008838;0.243961;0.005802;,
  0.008838;0.263130;0.007335;,
  0.008838;0.284446;0.014288;,
  0.007855;0.292014;0.022727;,
  0.010312;0.083615;0.004074;,
  0.007757;0.083318;0.006274;,
  0.012498;0.139703;0.010383;,
  0.014583;0.085409;0.010566;,
  0.012498;0.243961;0.009759;,
  0.012498;0.263130;0.010777;,
  0.012498;0.284446;0.016929;,
  0.014583;0.085409;0.010566;,
  0.010970;0.084628;0.011223;,
  0.012498;0.139761;0.024797;,
  0.015556;0.091585;0.024141;,
  0.012498;0.263130;0.025036;,
  0.012498;0.284446;0.025224;,
  0.011109;0.292014;0.027087;,
  0.015556;0.091585;0.024141;,
  0.013204;0.090440;0.024141;,
  0.012498;0.139618;0.026213;,
  0.015556;0.091585;0.025090;,
  0.012498;0.143697;0.029813;,
  0.012498;0.263130;0.028198;,
  0.012498;0.284446;0.027651;,
  0.013204;0.090440;0.024141;,
  0.013204;0.090804;0.025090;,
  0.012498;0.139618;0.026213;,
  0.013204;0.090804;0.025090;,
  0.015556;0.091585;0.025090;,
  0.008969;0.139738;0.026213;,
  0.012498;0.143697;0.029813;,
  0.008969;0.143697;0.029813;,
  0.012498;0.143697;0.029813;,
  0.010608;0.263130;0.028198;,
  0.008969;0.143697;0.029813;,
  0.012498;0.263130;0.028198;,
  0.010608;0.284446;0.027651;,
  0.012498;0.284446;0.027651;,
  0.012498;0.284446;0.027651;,
  0.000001;0.293516;0.027007;,
  0.010608;0.284446;0.027651;,
  0.000001;0.293516;0.027007;,
  0.012498;0.284446;0.027651;,
  0.011109;0.292014;0.027087;,
  -0.010607;0.284446;0.027651;,
  -0.011108;0.292014;0.027087;,
  -0.012497;0.284446;0.027651;,
  -0.011108;0.292014;0.027087;,
  -0.010607;0.284446;0.027651;,
  0.000001;0.293516;0.027007;,
  0.008844;0.062580;0.012551;,
  0.014033;0.074644;0.017088;,
  0.013250;0.062019;0.012489;,
  0.009628;0.075206;0.017150;,
  0.014358;0.079176;0.025337;,
  0.009953;0.079738;0.025399;,
  0.014033;0.072960;0.032404;,
  0.009628;0.073522;0.032466;,
  0.013250;0.059637;0.034150;,
  0.008844;0.060199;0.034212;,
  0.012466;0.047011;0.029551;,
  0.008061;0.047573;0.029613;,
  0.012142;0.042479;0.021302;,
  0.007736;0.043041;0.021364;,
  0.012466;0.048696;0.014235;,
  0.008061;0.049257;0.014297;,
  0.012466;0.048696;0.014235;,
  0.012466;0.047011;0.029551;,
  0.012142;0.042479;0.021302;,
  0.014033;0.072960;0.032404;,
  0.013250;0.059637;0.034150;,
  0.014033;0.074644;0.017088;,
  0.014358;0.079176;0.025337;,
  0.013250;0.062019;0.012489;,
  -0.008848;0.062580;0.012551;,
  -0.014037;0.074644;0.017088;,
  -0.009631;0.075206;0.017150;,
  -0.013253;0.062019;0.012489;,
  -0.014361;0.079176;0.025337;,
  -0.009956;0.079738;0.025399;,
  -0.014037;0.072960;0.032404;,
  -0.009631;0.073522;0.032466;,
  -0.013253;0.059637;0.034150;,
  -0.008848;0.060199;0.034212;,
  -0.012469;0.047011;0.029551;,
  -0.008064;0.047573;0.029613;,
  -0.012145;0.042479;0.021302;,
  -0.007740;0.043041;0.021364;,
  -0.012469;0.048696;0.014235;,
  -0.008064;0.049257;0.014297;,
  -0.014037;0.074644;0.017088;,
  -0.014037;0.072960;0.032404;,
  -0.014361;0.079176;0.025337;,
  -0.012469;0.047011;0.029551;,
  -0.013253;0.059637;0.034150;,
  -0.012469;0.048696;0.014235;,
  -0.012145;0.042479;0.021302;,
  -0.013253;0.062019;0.012489;,
  0.015423;-0.143959;-0.040819;,
  0.000000;-0.135807;-0.085798;,
  0.010070;-0.137720;-0.075198;,
  0.000000;-0.135807;-0.085798;,
  0.015423;-0.143959;-0.040819;,
  0.000000;-0.152001;0.003947;,
  0.000000;-0.135807;-0.085798;,
  -0.015423;-0.143959;-0.040819;,
  -0.010070;-0.137720;-0.075198;,
  -0.015423;-0.143959;-0.040819;,
  0.000000;-0.135807;-0.085798;,
  0.000000;-0.152001;0.003947;,
  0.000472;0.338977;0.010602;,
  0.018917;0.343399;0.010410;,
  0.009723;0.343952;0.026396;,
  -0.008727;0.343930;0.026433;,
  -0.017984;0.343355;0.010483;,
  -0.008790;0.342841;-0.005505;,
  0.009661;0.342863;-0.005542;,
  0.018917;0.343399;0.010410;,
  0.009558;0.473480;0.021819;,
  0.009723;0.343952;0.026396;,
  0.018753;0.472926;0.005832;,
  -0.008892;0.473457;0.021855;,
  -0.008727;0.343930;0.026433;,
  -0.008727;0.343930;0.026433;,
  -0.018148;0.472882;0.005905;,
  -0.017984;0.343355;0.010483;,
  -0.008892;0.473457;0.021855;,
  -0.008954;0.472329;-0.010081;,
  -0.008790;0.342841;-0.005505;,
  0.009496;0.472351;-0.010118;,
  0.009661;0.342863;-0.005542;,
  0.011854;0.482653;0.025476;,
  0.023340;0.481962;0.005504;,
  -0.011195;0.482625;0.025521;,
  -0.022759;0.481906;0.005595;,
  -0.011195;0.482625;0.025521;,
  -0.011273;0.481215;-0.014376;,
  0.011777;0.481243;-0.014422;,
  0.011836;0.497503;0.024951;,
  0.023322;0.496811;0.004979;,
  -0.011214;0.497475;0.024997;,
  -0.022777;0.496756;0.005071;,
  -0.011214;0.497475;0.024997;,
  -0.011291;0.496065;-0.014901;,
  0.011758;0.496093;-0.014947;,
  -0.011214;0.497475;0.024997;,
  0.011836;0.497503;0.024951;,
  -0.022777;0.496756;0.005071;,
  -0.011291;0.496065;-0.014901;,
  0.011758;0.496093;-0.014947;,
  0.023322;0.496811;0.004979;,
  -0.018774;0.460654;0.006759;,
  -0.014153;0.442930;0.040242;,
  -0.014513;0.460711;0.040380;,
  -0.019424;0.442929;0.007387;,
  0.013369;0.439633;0.040524;,
  0.013809;0.457340;0.040519;,
  0.020852;0.438559;0.013029;,
  0.020486;0.456266;0.012401;,
  0.014751;0.438501;-0.008764;,
  0.015725;0.456208;-0.009392;,
  -0.008964;0.441785;-0.010663;,
  -0.010777;0.459503;-0.011286;,
  -0.010777;0.459503;-0.011286;,
  -0.008964;0.441785;-0.010663;,
  -0.018291;0.400379;0.008888;,
  -0.014115;0.387725;0.040128;,
  -0.014046;0.400425;0.040335;,
  -0.018667;0.387662;0.009339;,
  0.013554;0.385497;0.040925;,
  0.013468;0.398197;0.040369;,
  0.019159;0.384779;0.009339;,
  0.019857;0.397479;0.008888;,
  0.016746;0.384979;-0.006867;,
  0.017444;0.397678;-0.007317;,
  -0.008207;0.386498;-0.008710;,
  -0.010293;0.399248;-0.009157;,
  -0.010293;0.399248;-0.009157;,
  -0.008207;0.386498;-0.008710;;
  559;
  3;0,1,2;,
  3;1,0,3;,
  3;4,5,6;,
  3;7,8,9;,
  3;8,7,2;,
  3;10,11,12;,
  3;11,10,13;,
  3;13,5,11;,
  3;5,13,14;,
  3;14,6,5;,
  3;15,16,17;,
  3;16,15,18;,
  3;19,20,21;,
  3;20,19,22;,
  3;23,24,25;,
  3;6,23,26;,
  3;23,6,14;,
  3;23,14,24;,
  3;27,28,29;,
  3;18,30,16;,
  3;30,18,31;,
  3;32,33,34;,
  3;33,32,35;,
  3;24,36,25;,
  3;36,24,37;,
  3;9,38,39;,
  3;40,41,27;,
  3;41,40,42;,
  3;42,43,41;,
  3;43,42,44;,
  3;1,45,46;,
  3;45,1,47;,
  3;14,48,24;,
  3;48,14,13;,
  3;22,17,20;,
  3;17,22,15;,
  3;33,35,49;,
  3;48,40,29;,
  3;40,48,50;,
  3;27,29,40;,
  3;50,48,13;,
  3;10,50,13;,
  3;50,42,40;,
  3;42,10,44;,
  3;0,2,51;,
  3;51,7,52;,
  3;7,51,2;,
  3;1,3,47;,
  3;10,42,50;,
  3;53,54,55;,
  3;53,56,54;,
  3;53,57,56;,
  3;58,59,60;,
  3;58,61,59;,
  3;62,61,58;,
  3;62,63,61;,
  3;64,63,62;,
  3;64,65,63;,
  3;57,65,64;,
  3;53,65,57;,
  3;26,4,6;,
  3;4,26,66;,
  3;67,68,69;,
  3;70,71,72;,
  3;73,74,75;,
  3;76,77,78;,
  3;77,76,79;,
  3;80,81,11;,
  3;81,80,82;,
  3;83,11,5;,
  3;11,83,80;,
  3;4,84,83;,
  3;85,86,79;,
  3;86,85,87;,
  3;88,80,89;,
  3;80,88,82;,
  3;89,83,90;,
  3;83,89,80;,
  3;90,83,84;,
  3;91,92,93;,
  3;92,91,94;,
  3;19,95,96;,
  3;95,19,21;,
  3;97,98,99;,
  3;84,97,90;,
  3;97,84,100;,
  3;90,97,99;,
  3;101,102,45;,
  3;102,101,103;,
  3;104,41,105;,
  3;41,104,106;,
  3;106,27,41;,
  3;27,106,107;,
  3;27,107,28;,
  3;93,30,31;,
  3;30,93,92;,
  3;108,33,109;,
  3;33,108,34;,
  3;99,36,37;,
  3;36,99,98;,
  3;87,38,9;,
  3;38,87,110;,
  3;86,9,8;,
  3;9,86,87;,
  3;111,106,112;,
  3;106,111,107;,
  3;112,104,113;,
  3;104,112,106;,
  3;77,101,114;,
  3;101,77,103;,
  3;90,115,89;,
  3;115,90,99;,
  3;96,94,91;,
  3;94,96,95;,
  3;109,33,116;,
  3;115,111,117;,
  3;111,115,118;,
  3;107,111,118;,
  3;117,89,115;,
  3;88,89,117;,
  3;117,111,112;,
  3;112,113,88;,
  3;76,119,79;,
  3;119,85,79;,
  3;85,119,120;,
  3;77,114,78;,
  3;88,117,112;,
  3;121,122,123;,
  3;124,122,121;,
  3;124,125,122;,
  3;126,125,124;,
  3;126,127,125;,
  3;128,127,126;,
  3;128,129,127;,
  3;130,129,128;,
  3;130,131,129;,
  3;130,132,131;,
  3;130,133,132;,
  3;134,135,136;,
  3;135,134,137;,
  3;137,138,135;,
  3;138,137,139;,
  3;139,140,138;,
  3;140,139,141;,
  3;141,142,140;,
  3;142,141,143;,
  3;143,144,142;,
  3;144,143,145;,
  3;145,146,144;,
  3;146,145,147;,
  3;148,149,150;,
  3;149,148,151;,
  3;151,152,149;,
  3;152,151,153;,
  3;153,154,152;,
  3;154,153,155;,
  3;155,156,154;,
  3;156,155,157;,
  3;100,4,66;,
  3;4,100,84;,
  3;158,159,160;,
  3;161,162,163;,
  3;164,165,166;,
  3;136,167,134;,
  3;167,136,168;,
  3;169,170,171;,
  3;170,169,172;,
  3;173,174,175;,
  3;174,173,170;,
  3;175,176,177;,
  3;176,175,174;,
  3;177,178,179;,
  3;178,177,176;,
  3;172,180,170;,
  3;180,172,181;,
  3;170,182,174;,
  3;182,170,180;,
  3;174,183,176;,
  3;183,174,182;,
  3;176,184,178;,
  3;184,176,183;,
  3;173,171,170;,
  3;169,185,172;,
  3;185,169,186;,
  3;187,188,189;,
  3;188,187,185;,
  3;189,190,187;,
  3;190,189,191;,
  3;191,178,190;,
  3;178,191,179;,
  3;172,192,181;,
  3;192,172,185;,
  3;185,193,192;,
  3;193,185,187;,
  3;187,194,193;,
  3;194,187,190;,
  3;190,184,194;,
  3;184,190,178;,
  3;188,185,186;,
  3;195,196,197;,
  3;196,195,198;,
  3;197,199,200;,
  3;199,197,196;,
  3;200,201,202;,
  3;201,200,199;,
  3;202,203,204;,
  3;203,202,201;,
  3;204,205,206;,
  3;205,204,203;,
  3;206,207,208;,
  3;207,206,205;,
  3;208,209,210;,
  3;209,208,207;,
  3;210,198,195;,
  3;198,210,209;,
  3;211,212,213;,
  3;213,212,214;,
  3;214,212,215;,
  3;215,212,216;,
  3;216,212,217;,
  3;217,212,218;,
  3;218,212,219;,
  3;219,212,211;,
  3;220,221,222;,
  3;221,220,223;,
  3;224,225,226;,
  3;225,224,221;,
  3;226,227,228;,
  3;227,226,225;,
  3;228,229,230;,
  3;229,228,227;,
  3;223,231,221;,
  3;231,223,232;,
  3;221,233,225;,
  3;233,221,231;,
  3;225,234,227;,
  3;234,225,233;,
  3;227,235,229;,
  3;235,227,234;,
  3;224,222,221;,
  3;220,236,223;,
  3;236,220,237;,
  3;238,173,239;,
  3;173,238,236;,
  3;239,240,238;,
  3;240,239,241;,
  3;241,229,240;,
  3;229,241,230;,
  3;223,242,232;,
  3;242,223,236;,
  3;236,243,242;,
  3;243,236,238;,
  3;238,244,243;,
  3;244,238,240;,
  3;240,235,244;,
  3;235,240,229;,
  3;173,236,237;,
  3;245,246,247;,
  3;246,245,248;,
  3;247,249,250;,
  3;249,247,246;,
  3;250,251,252;,
  3;251,250,249;,
  3;252,253,254;,
  3;253,252,251;,
  3;254,255,256;,
  3;255,254,253;,
  3;256,257,258;,
  3;257,256,255;,
  3;258,259,260;,
  3;259,258,257;,
  3;260,248,245;,
  3;248,260,259;,
  3;261,262,263;,
  3;263,262,264;,
  3;264,262,265;,
  3;265,262,266;,
  3;266,262,267;,
  3;267,262,268;,
  3;268,262,269;,
  3;269,262,261;,
  3;39,270,9;,
  3;52,9,270;,
  3;9,52,7;,
  3;87,271,110;,
  3;87,120,271;,
  3;120,87,85;,
  3;272,273,274;,
  3;273,272,275;,
  3;276,277,278;,
  3;277,276,279;,
  3;280,281,282;,
  3;283,284,285;,
  3;284,283,286;,
  3;287,288,289;,
  3;290,291,292;,
  3;291,290,293;,
  3;294,295,296;,
  3;295,294,297;,
  3;298,299,300;,
  3;301,302,303;,
  3;302,301,304;,
  3;305,306,307;,
  3;308,309,310;,
  3;309,308,311;,
  3;312,313,314;,
  3;313,312,315;,
  3;316,317,318;,
  3;317,316,319;,
  3;320,321,322;,
  3;321,320,323;,
  3;324,325,326;,
  3;325,324,327;,
  3;328,329,330;,
  3;329,328,331;,
  3;332,333,334;,
  3;333,332,335;,
  3;336,337,338;,
  3;337,336,339;,
  3;340,341,342;,
  3;341,340,343;,
  3;344,345,346;,
  3;345,344,347;,
  3;348,349,350;,
  3;349,348,351;,
  3;352,353,354;,
  3;353,352,355;,
  3;356,357,358;,
  3;357,356,359;,
  3;358,360,361;,
  3;360,358,357;,
  3;361,362,363;,
  3;362,361,360;,
  3;363,364,365;,
  3;364,363,362;,
  3;366,367,368;,
  3;369,370,371;,
  3;370,369,372;,
  3;359,373,357;,
  3;373,359,374;,
  3;357,375,360;,
  3;375,357,373;,
  3;360,376,362;,
  3;376,360,375;,
  3;362,377,364;,
  3;377,362,376;,
  3;372,378,370;,
  3;378,372,379;,
  3;374,380,373;,
  3;380,374,381;,
  3;373,382,375;,
  3;382,373,380;,
  3;375,382,376;,
  3;376,383,377;,
  3;383,376,382;,
  3;367,384,368;,
  3;379,385,378;,
  3;385,379,386;,
  3;381,387,380;,
  3;387,381,388;,
  3;380,387,389;,
  3;380,390,382;,
  3;390,380,389;,
  3;382,391,383;,
  3;391,382,390;,
  3;392,388,381;,
  3;388,392,393;,
  3;394,395,396;,
  3;395,394,397;,
  3;394,398,399;,
  3;398,394,396;,
  3;400,401,402;,
  3;401,400,403;,
  3;402,404,405;,
  3;404,402,401;,
  3;356,406,407;,
  3;406,356,358;,
  3;358,408,406;,
  3;408,358,361;,
  3;361,409,408;,
  3;409,361,363;,
  3;363,410,409;,
  3;410,363,365;,
  3;366,368,411;,
  3;369,412,413;,
  3;412,369,371;,
  3;407,414,415;,
  3;414,407,406;,
  3;406,416,414;,
  3;416,406,408;,
  3;408,417,416;,
  3;417,408,409;,
  3;409,418,417;,
  3;418,409,410;,
  3;413,419,420;,
  3;419,413,412;,
  3;415,421,422;,
  3;421,415,414;,
  3;414,423,421;,
  3;423,414,416;,
  3;416,417,423;,
  3;417,424,423;,
  3;424,417,418;,
  3;411,368,425;,
  3;420,426,427;,
  3;426,420,419;,
  3;422,428,429;,
  3;428,422,421;,
  3;428,421,430;,
  3;421,431,430;,
  3;431,421,423;,
  3;423,432,431;,
  3;432,423,424;,
  3;433,429,434;,
  3;429,433,422;,
  3;435,436,437;,
  3;436,435,438;,
  3;439,438,435;,
  3;438,439,440;,
  3;441,442,443;,
  3;442,441,444;,
  3;444,445,442;,
  3;445,444,446;,
  3;364,366,365;,
  3;366,364,367;,
  3;365,411,410;,
  3;411,365,366;,
  3;410,411,418;,
  3;418,425,424;,
  3;425,418,411;,
  3;424,425,432;,
  3;447,448,449;,
  3;450,451,452;,
  3;453,454,455;,
  3;456,457,458;,
  3;391,384,383;,
  3;383,367,377;,
  3;367,383,384;,
  3;377,367,364;,
  3;459,460,461;,
  3;460,459,462;,
  3;462,463,460;,
  3;463,462,464;,
  3;464,465,463;,
  3;465,464,466;,
  3;466,467,465;,
  3;467,466,468;,
  3;468,469,467;,
  3;469,468,470;,
  3;470,471,469;,
  3;471,470,472;,
  3;472,473,471;,
  3;473,472,474;,
  3;474,461,473;,
  3;461,474,459;,
  3;475,476,477;,
  3;476,478,479;,
  3;475,478,476;,
  3;478,480,481;,
  3;475,480,478;,
  3;482,480,475;,
  3;483,484,485;,
  3;484,483,486;,
  3;485,487,488;,
  3;487,485,484;,
  3;488,489,490;,
  3;489,488,487;,
  3;490,491,492;,
  3;491,490,489;,
  3;492,493,494;,
  3;493,492,491;,
  3;494,495,496;,
  3;495,494,493;,
  3;496,497,498;,
  3;497,496,495;,
  3;498,486,483;,
  3;486,498,497;,
  3;499,500,501;,
  3;500,502,503;,
  3;502,504,505;,
  3;500,504,502;,
  3;499,504,500;,
  3;506,504,499;,
  3;507,508,509;,
  3;510,511,512;,
  3;513,514,515;,
  3;516,517,518;,
  3;28,107,118;,
  3;4,83,5;,
  3;519,520,521;,
  3;519,521,522;,
  3;519,522,523;,
  3;519,523,524;,
  3;519,524,525;,
  3;519,525,520;,
  3;526,527,528;,
  3;527,526,529;,
  3;528,530,531;,
  3;530,528,527;,
  3;532,533,534;,
  3;533,532,535;,
  3;534,536,537;,
  3;536,534,533;,
  3;537,538,539;,
  3;538,537,536;,
  3;539,529,526;,
  3;529,539,538;,
  3;529,540,527;,
  3;540,529,541;,
  3;527,542,530;,
  3;542,527,540;,
  3;535,543,533;,
  3;543,535,544;,
  3;533,545,536;,
  3;545,533,543;,
  3;536,546,538;,
  3;546,536,545;,
  3;538,541,529;,
  3;541,538,546;,
  3;541,547,540;,
  3;547,541,548;,
  3;540,549,542;,
  3;549,540,547;,
  3;544,550,543;,
  3;550,544,551;,
  3;543,552,545;,
  3;552,543,550;,
  3;545,553,546;,
  3;553,545,552;,
  3;546,548,541;,
  3;548,546,553;,
  3;554,555,556;,
  3;556,555,557;,
  3;557,555,558;,
  3;558,555,559;,
  3;560,561,562;,
  3;561,560,563;,
  3;562,564,565;,
  3;564,562,561;,
  3;565,566,567;,
  3;566,565,564;,
  3;567,568,569;,
  3;568,567,566;,
  3;569,570,571;,
  3;570,569,568;,
  3;572,563,560;,
  3;563,572,573;,
  3;574,575,576;,
  3;575,574,577;,
  3;576,578,579;,
  3;578,576,575;,
  3;579,580,581;,
  3;580,579,578;,
  3;581,582,583;,
  3;582,581,580;,
  3;583,584,585;,
  3;584,583,582;,
  3;586,577,574;,
  3;577,586,587;;

  MeshNormals {
   588;
   -0.999219;-0.038550;-0.008631;,
   -0.915492;0.036554;-0.400673;,
   -0.902072;-0.192756;0.386149;,
   -0.923514;-0.012086;-0.383374;,
   -0.000000;0.082078;0.996626;,
   -0.425964;0.044334;0.903653;,
   -0.683708;0.037035;0.728816;,
   -0.758933;-0.148568;0.633994;,
   -0.370897;-0.392177;0.841803;,
   -0.345342;-0.132522;0.929073;,
   -0.902072;-0.192756;0.386149;,
   -0.402875;-0.394008;0.826105;,
   -0.370897;-0.392177;0.841803;,
   -0.908849;-0.180874;0.375870;,
   -0.933614;-0.020724;0.357681;,
   -0.999776;-0.020996;0.002799;,
   -0.653314;0.750446;-0.100059;,
   -0.999977;-0.006745;0.000899;,
   -0.650797;0.752591;-0.100345;,
   -0.000000;-0.991228;0.132164;,
   -0.676944;-0.729578;0.097277;,
   -0.000000;-0.991228;0.132164;,
   -0.679249;-0.727470;0.096996;,
   -0.999642;0.024600;0.010512;,
   -0.961101;0.055974;-0.270466;,
   -0.880497;0.179495;-0.438756;,
   -0.872543;-0.052175;0.485744;,
   -0.389171;0.707351;-0.590085;,
   -0.000000;0.892280;-0.451483;,
   -0.698680;0.650745;-0.297283;,
   -0.000000;0.991228;-0.132164;,
   -0.000000;0.991228;-0.132164;,
   -0.023350;-0.139779;-0.989907;,
   -0.000000;-0.156808;-0.987629;,
   -0.000000;-0.132163;-0.991228;,
   0.027979;-0.158473;-0.986967;,
   -0.000000;0.382174;-0.924090;,
   -0.000000;0.459363;-0.888248;,
   0.033047;-0.030168;0.998998;,
   0.420210;-0.013164;0.907332;,
   -0.888062;0.393277;-0.238073;,
   -0.406709;0.349569;-0.844032;,
   -0.935472;0.161590;-0.314296;,
   -0.387335;0.134350;-0.912098;,
   -0.915492;0.036554;-0.400673;,
   -0.321384;0.113544;-0.940117;,
   -0.387335;0.134350;-0.912098;,
   -0.772526;0.082679;-0.629577;,
   -0.996204;-0.058357;0.064587;,
   0.041518;-0.171133;-0.984373;,
   -0.998278;0.046096;0.036281;,
   -0.918909;-0.054780;0.390648;,
   -0.395926;-0.030464;0.917777;,
   -1.000000;0.000001;0.000000;,
   -1.000000;0.000002;-0.000001;,
   -1.000000;0.000002;-0.000001;,
   -1.000000;0.000001;0.000000;,
   -1.000000;-0.000001;0.000002;,
   -1.000000;-0.000001;0.000000;,
   -1.000000;0.000000;0.000001;,
   -1.000000;0.000001;0.000001;,
   -1.000000;-0.000001;-0.000001;,
   -1.000000;-0.000000;-0.000003;,
   -1.000000;-0.000001;-0.000002;,
   -1.000000;0.000001;-0.000003;,
   -1.000000;0.000002;-0.000001;,
   -0.000000;-0.104452;0.994530;,
   0.003133;-0.984051;-0.177860;,
   0.003133;-0.984051;-0.177860;,
   0.003133;-0.984051;-0.177860;,
   -0.764866;-0.629890;0.134976;,
   -0.764866;-0.629890;0.134976;,
   -0.764866;-0.629890;0.134976;,
   0.645594;0.751544;0.135611;,
   0.645594;0.751544;0.135611;,
   0.645594;0.751544;0.135611;,
   0.999211;-0.038758;-0.008647;,
   0.915230;0.037589;-0.401175;,
   0.922453;-0.011138;-0.385948;,
   0.902044;-0.192848;0.386168;,
   0.402875;-0.394008;0.826105;,
   -0.370897;-0.392177;0.841803;,
   0.370895;-0.392177;0.841804;,
   0.425964;0.044334;0.903653;,
   0.683708;0.037035;0.728815;,
   0.758282;-0.148876;0.634700;,
   0.370895;-0.392177;0.841804;,
   0.345280;-0.132756;0.929063;,
   0.902044;-0.192848;0.386168;,
   0.908849;-0.180875;0.375870;,
   0.933614;-0.020724;0.357681;,
   0.999776;-0.020996;0.002799;,
   0.653314;0.750446;-0.100059;,
   0.650797;0.752591;-0.100345;,
   0.999977;-0.006745;0.000899;,
   0.676944;-0.729578;0.097278;,
   0.679250;-0.727469;0.096997;,
   0.999642;0.024600;0.010511;,
   0.880497;0.179495;-0.438756;,
   0.961101;0.055974;-0.270465;,
   0.872543;-0.052175;0.485744;,
   0.314644;0.114682;-0.942256;,
   -0.387335;0.134350;-0.912098;,
   0.387818;0.135288;-0.911753;,
   0.387818;0.135288;-0.911753;,
   -0.387335;0.134350;-0.912098;,
   0.406709;0.349569;-0.844032;,
   0.389171;0.707351;-0.590085;,
   0.023349;-0.139779;-0.989907;,
   -0.027980;-0.158473;-0.986967;,
   -0.387343;-0.011440;0.921865;,
   0.888062;0.393277;-0.238073;,
   0.935471;0.161590;-0.314296;,
   0.915230;0.037589;-0.401175;,
   0.765018;0.085884;-0.638257;,
   0.996204;-0.058357;0.064587;,
   -0.041517;-0.171132;-0.984373;,
   0.998278;0.046096;0.036281;,
   0.698680;0.650745;-0.297283;,
   0.918893;-0.055001;0.390654;,
   0.395986;-0.030608;0.917746;,
   1.000000;-0.000000;0.000000;,
   1.000000;0.000000;0.000000;,
   1.000000;-0.000000;-0.000000;,
   1.000000;0.000000;0.000000;,
   1.000000;0.000000;0.000000;,
   1.000000;0.000000;-0.000000;,
   1.000000;0.000000;-0.000000;,
   1.000000;0.000000;-0.000000;,
   1.000000;-0.000000;0.000000;,
   1.000000;0.000000;-0.000000;,
   1.000000;0.000000;0.000000;,
   1.000000;0.000000;-0.000000;,
   1.000000;0.000000;-0.000000;,
   -0.000005;-0.669180;-0.743100;,
   -0.000001;-0.975765;-0.218821;,
   -0.000003;-0.669182;-0.743098;,
   -0.000001;-0.975765;-0.218823;,
   0.000000;-0.866397;0.499357;,
   0.000000;-0.866396;0.499357;,
   0.000000;-0.349119;0.937079;,
   0.000000;-0.349118;0.937079;,
   0.000000;0.577071;0.816694;,
   -0.000000;0.577071;0.816694;,
   0.000000;0.991815;-0.127686;,
   0.000000;0.991815;-0.127686;,
   -0.000000;0.874678;-0.484705;,
   -0.000000;0.874678;-0.484705;,
   0.000000;-0.970952;-0.239276;,
   0.000000;-0.848811;-0.528697;,
   0.000000;-0.970952;-0.239276;,
   0.000000;-0.848811;-0.528697;,
   0.000000;-0.306364;-0.951914;,
   0.000000;-0.306364;-0.951915;,
   0.000000;0.478394;-0.878145;,
   -0.000000;0.478394;-0.878145;,
   -0.000003;0.796876;-0.604143;,
   -0.000003;0.796876;-0.604143;,
   -0.003132;-0.984051;-0.177860;,
   -0.003132;-0.984051;-0.177860;,
   -0.003132;-0.984051;-0.177860;,
   0.585704;0.732129;0.347761;,
   0.585704;0.732129;0.347761;,
   0.585704;0.732129;0.347761;,
   -0.645594;-0.751544;-0.135611;,
   -0.645594;-0.751544;-0.135611;,
   -0.645594;-0.751544;-0.135611;,
   0.000006;-0.420728;-0.907187;,
   0.000010;-0.420730;-0.907186;,
   0.000001;0.006145;0.999981;,
   -0.704039;0.006976;0.710127;,
   -0.387343;-0.011440;0.921865;,
   -0.000000;-0.000754;1.000000;,
   0.033047;-0.030168;0.998998;,
   -0.999969;0.006740;-0.004033;,
   -0.999819;0.015806;-0.010631;,
   -0.712044;0.012886;-0.702017;,
   -0.713999;0.025684;-0.699675;,
   -0.000000;0.022379;-0.999750;,
   0.000000;0.000890;-1.000000;,
   -0.707108;-0.000000;0.707106;,
   -0.000000;-0.000000;1.000000;,
   -1.000000;0.000000;0.000000;,
   -0.707108;0.000000;-0.707106;,
   -0.000000;0.000000;-1.000000;,
   0.704039;0.006976;0.710127;,
   0.395986;-0.030608;0.917746;,
   0.999969;0.006740;-0.004034;,
   0.918893;-0.055001;0.390654;,
   0.999211;-0.038758;-0.008647;,
   0.712043;0.012886;-0.702017;,
   0.922453;-0.011138;-0.385948;,
   0.707108;-0.000000;0.707105;,
   1.000000;0.000000;0.000000;,
   0.707109;0.000000;-0.707105;,
   0.000000;1.000000;-0.000035;,
   0.000025;1.000000;-0.000025;,
   0.000025;1.000000;-0.000025;,
   0.000000;1.000000;-0.000035;,
   0.000035;1.000000;-0.000000;,
   0.000035;1.000000;0.000000;,
   0.000025;1.000000;0.000025;,
   0.000025;1.000000;0.000025;,
   -0.000000;1.000000;0.000035;,
   -0.000000;1.000000;0.000035;,
   -0.000025;1.000000;0.000025;,
   -0.000027;1.000000;0.000025;,
   -0.000068;1.000000;-0.000004;,
   -0.000068;1.000000;-0.000002;,
   -0.000029;1.000000;-0.000023;,
   -0.000027;1.000000;-0.000022;,
   0.000001;0.099996;-0.994988;,
   -0.000002;1.000000;0.000008;,
   0.703564;0.099995;-0.703561;,
   0.994988;0.099994;-0.000001;,
   0.703565;0.099994;0.703561;,
   -0.000000;0.099995;0.994988;,
   -0.703565;0.099994;0.703561;,
   -0.994988;0.099994;0.000000;,
   -0.703564;0.099995;-0.703562;,
   0.000001;0.006145;0.999981;,
   -0.704039;0.006976;0.710127;,
   -0.395926;-0.030464;0.917777;,
   0.000000;-0.000754;1.000000;,
   -0.918909;-0.054780;0.390648;,
   -0.999969;0.006740;-0.004034;,
   -0.999219;-0.038550;-0.008631;,
   -0.712044;0.012886;-0.702017;,
   -0.923514;-0.012086;-0.383374;,
   -0.000000;0.022379;-0.999750;,
   0.000000;0.000890;-1.000000;,
   -0.707108;-0.000000;0.707106;,
   0.000000;-0.000000;1.000000;,
   -1.000000;0.000000;0.000000;,
   -0.707108;0.000000;-0.707105;,
   -0.000000;0.000000;-1.000000;,
   0.704691;0.005452;0.709493;,
   0.420210;-0.013164;0.907332;,
   0.999981;0.005268;-0.003126;,
   0.999299;0.015776;0.033961;,
   0.712044;0.012886;-0.702017;,
   0.713999;0.025684;-0.699675;,
   0.707109;-0.000000;0.707105;,
   1.000000;0.000000;0.000000;,
   0.707109;0.000000;-0.707105;,
   -0.000000;1.000000;-0.000035;,
   0.000025;1.000000;-0.000025;,
   0.000025;1.000000;-0.000025;,
   -0.000000;1.000000;-0.000035;,
   0.000035;1.000000;-0.000000;,
   0.000035;1.000000;0.000000;,
   0.000025;1.000000;0.000025;,
   0.000025;1.000000;0.000025;,
   0.000000;1.000000;0.000035;,
   -0.000000;1.000000;0.000035;,
   -0.000025;1.000000;0.000025;,
   -0.000027;1.000000;0.000025;,
   -0.000068;1.000000;-0.000004;,
   -0.000068;1.000000;-0.000002;,
   -0.000029;1.000000;-0.000023;,
   -0.000027;1.000000;-0.000022;,
   0.000000;0.099996;-0.994988;,
   -0.000004;1.000000;0.000003;,
   0.703564;0.099995;-0.703562;,
   0.994988;0.099994;-0.000000;,
   0.703565;0.099994;0.703561;,
   0.000001;0.099995;0.994988;,
   -0.703564;0.099994;0.703561;,
   -0.994988;0.099994;-0.000000;,
   -0.703564;0.099995;-0.703562;,
   0.000001;0.006145;0.999981;,
   0.000001;0.006145;0.999981;,
   0.440852;0.135007;-0.887368;,
   0.462203;0.148677;-0.874222;,
   0.486488;0.164378;-0.858085;,
   0.414682;0.118410;-0.902230;,
   0.040702;-0.993060;-0.110339;,
   0.010927;-0.992573;-0.121161;,
   0.049271;-0.993016;-0.107200;,
   0.000000;-0.992144;-0.125102;,
   -1.000000;0.000000;-0.000000;,
   -1.000000;0.000000;-0.000000;,
   -1.000000;0.000000;-0.000000;,
   -0.275174;0.734821;0.619934;,
   -0.064144;0.800550;0.595823;,
   -0.352119;0.700195;0.621079;,
   0.000000;0.812607;0.582812;,
   1.000000;0.000000;0.000000;,
   1.000000;0.000000;0.000000;,
   1.000000;0.000000;0.000000;,
   -0.440461;0.150615;-0.885048;,
   -0.462742;0.134150;-0.876284;,
   -0.490014;0.113432;-0.864303;,
   -0.411434;0.171480;-0.895163;,
   -0.042270;-0.991837;-0.120302;,
   -0.011042;-0.993788;-0.110740;,
   -0.057404;-0.990508;-0.124895;,
   0.000000;-0.994223;-0.107331;,
   -1.000000;-0.000000;-0.000000;,
   -1.000000;-0.000000;-0.000000;,
   -1.000000;-0.000000;-0.000000;,
   0.267375;0.773583;0.574526;,
   0.063706;0.759645;0.647210;,
   0.313740;0.771578;0.553385;,
   0.000000;0.748107;0.663578;,
   1.000000;-0.000000;0.000000;,
   1.000000;-0.000000;0.000000;,
   1.000000;-0.000000;0.000000;,
   0.000002;0.000000;-1.000000;,
   0.000002;0.000000;-1.000000;,
   0.000002;0.000000;-1.000000;,
   0.000002;0.000000;-1.000000;,
   0.000000;0.000000;1.000000;,
   0.000000;0.000000;1.000000;,
   0.000000;0.000000;1.000000;,
   0.000000;0.000000;1.000000;,
   0.000000;-1.000000;0.000000;,
   0.000000;-1.000000;0.000000;,
   0.000000;-1.000000;0.000000;,
   0.000000;-1.000000;0.000000;,
   -1.000000;0.000000;-0.000000;,
   -1.000000;0.000000;-0.000000;,
   -1.000000;0.000000;-0.000000;,
   -1.000000;0.000000;-0.000000;,
   0.000000;1.000000;0.000000;,
   0.000000;1.000000;0.000000;,
   0.000000;1.000000;0.000000;,
   0.000000;1.000000;0.000000;,
   1.000000;0.000000;0.000000;,
   1.000000;0.000000;0.000000;,
   1.000000;0.000000;0.000000;,
   1.000000;0.000000;0.000000;,
   0.000002;0.000000;-1.000000;,
   0.000002;0.000000;-1.000000;,
   0.000002;0.000000;-1.000000;,
   0.000002;0.000000;-1.000000;,
   0.000000;0.000000;1.000000;,
   0.000000;0.000000;1.000000;,
   0.000000;0.000000;1.000000;,
   0.000000;0.000000;1.000000;,
   0.000000;-1.000000;0.000000;,
   0.000000;-1.000000;0.000000;,
   0.000000;-1.000000;0.000000;,
   0.000000;-1.000000;0.000000;,
   -1.000000;0.000000;-0.000000;,
   -1.000000;0.000000;-0.000000;,
   -1.000000;0.000000;-0.000000;,
   -1.000000;0.000000;-0.000000;,
   0.000000;1.000000;0.000000;,
   0.000000;1.000000;0.000000;,
   0.000000;1.000000;0.000000;,
   0.000000;1.000000;0.000000;,
   1.000000;0.000000;0.000000;,
   1.000000;0.000000;0.000000;,
   1.000000;0.000000;0.000000;,
   1.000000;0.000000;0.000000;,
   -0.000019;0.020955;-0.999780;,
   -0.558203;0.015267;-0.829564;,
   -0.000133;0.015146;-0.999885;,
   -0.536898;0.026865;-0.843219;,
   -0.464876;0.036289;-0.884632;,
   -0.000000;0.047697;-0.998862;,
   -0.414632;0.173207;-0.893353;,
   -0.000000;0.200296;-0.979736;,
   -0.305814;0.519562;-0.797830;,
   -0.002930;0.552030;-0.833819;,
   -0.003797;0.870042;-0.492963;,
   -0.368660;0.830218;-0.418124;,
   -0.000000;0.970679;-0.240381;,
   -0.000000;-0.977114;-0.212715;,
   -0.164827;-0.985494;0.040407;,
   -0.000000;-0.970368;-0.241630;,
   -0.140578;-0.989716;0.026468;,
   -0.956339;0.017160;-0.291756;,
   -0.924379;0.042759;-0.379071;,
   -0.929332;0.011378;-0.369070;,
   -0.906581;0.078355;-0.414694;,
   -0.831866;0.388842;-0.395980;,
   -0.248482;-0.929446;0.272739;,
   -0.252500;-0.941026;0.225199;,
   -0.999638;0.026630;-0.003917;,
   -0.962027;-0.269074;-0.045862;,
   -1.000000;0.000000;0.000001;,
   -0.982244;0.178215;-0.058613;,
   -0.682873;0.604212;-0.410625;,
   -0.387930;-0.861945;0.326438;,
   -0.415650;-0.854185;0.312416;,
   -0.999669;0.025721;-0.000001;,
   -0.858553;-0.510404;0.048733;,
   -1.000000;0.000000;0.000000;,
   -1.000000;-0.000000;0.000002;,
   -0.996144;0.087737;0.000002;,
   -0.334651;-0.905103;0.262294;,
   -0.296114;-0.891869;0.341887;,
   -0.000124;-0.353267;0.935522;,
   -0.007201;-0.022932;0.999711;,
   0.000000;-0.369439;0.929255;,
   -0.007612;-0.022926;0.999708;,
   0.000001;-0.654389;0.756158;,
   0.000002;-0.654390;0.756157;,
   -0.000000;0.013520;0.999909;,
   -0.000000;0.019572;0.999808;,
   0.000000;0.019598;0.999808;,
   -0.000000;0.013520;0.999909;,
   0.000000;0.025676;0.999670;,
   0.000000;0.025676;0.999670;,
   0.558102;0.015204;-0.829633;,
   0.536900;0.026784;-0.843221;,
   0.464876;0.036292;-0.884632;,
   0.414631;0.173208;-0.893353;,
   0.309031;0.516051;-0.798869;,
   0.263708;0.868141;-0.420463;,
   0.164827;-0.985494;0.040408;,
   0.140578;-0.989716;0.026468;,
   0.956329;0.017129;-0.291789;,
   0.924386;0.042605;-0.379073;,
   0.929333;0.011380;-0.369069;,
   0.906581;0.078355;-0.414694;,
   0.828200;0.362761;-0.427189;,
   0.248482;-0.929446;0.272739;,
   0.252500;-0.941026;0.225199;,
   0.999673;0.025454;-0.002417;,
   0.961988;-0.269232;-0.045753;,
   1.000000;0.000000;0.000003;,
   0.995885;0.090631;-0.000000;,
   0.672368;0.710968;-0.206025;,
   0.387931;-0.861945;0.326438;,
   0.415650;-0.854185;0.312416;,
   0.999628;0.027158;0.002716;,
   0.858521;-0.510458;0.048733;,
   1.000000;-0.000000;0.000001;,
   1.000000;-0.000000;0.000006;,
   0.996144;0.087737;-0.000000;,
   0.334651;-0.905102;0.262297;,
   0.296113;-0.891867;0.341891;,
   -0.011805;-0.351368;0.936163;,
   0.007149;-0.022894;0.999712;,
   0.007599;-0.022888;0.999709;,
   -0.008364;-0.383265;0.923601;,
   -0.008347;-0.668687;0.743498;,
   -0.000002;-0.672791;0.739832;,
   0.000000;0.013520;0.999909;,
   0.000000;0.019572;0.999808;,
   0.000000;0.013520;0.999909;,
   0.000000;0.019598;0.999808;,
   0.000000;0.025676;0.999670;,
   0.000000;0.025676;0.999670;,
   0.000000;0.070834;0.997488;,
   0.000000;0.070834;0.997488;,
   0.000000;0.070834;0.997488;,
   0.002884;0.074788;0.997195;,
   0.002884;0.074788;0.997195;,
   0.002884;0.074788;0.997195;,
   0.000000;0.074262;0.997239;,
   0.000000;0.074262;0.997239;,
   0.000000;0.074262;0.997239;,
   -0.002788;0.074078;0.997249;,
   -0.002788;0.074078;0.997249;,
   -0.002788;0.074078;0.997249;,
   0.001301;0.119371;-0.992849;,
   0.070465;0.637161;-0.767503;,
   -0.001300;0.099209;-0.995066;,
   0.073092;0.655978;-0.751233;,
   0.127202;0.985935;0.108407;,
   0.127201;0.985935;0.108408;,
   0.070464;0.455175;0.887609;,
   0.073091;0.477077;0.875817;,
   -0.001301;-0.119370;0.992849;,
   0.001300;-0.099210;0.995066;,
   -0.073092;-0.655978;0.751232;,
   -0.070465;-0.637162;0.767502;,
   -0.127203;-0.985935;-0.108407;,
   -0.127203;-0.985935;-0.108407;,
   -0.073093;-0.477077;-0.875817;,
   -0.070466;-0.455175;-0.887609;,
   0.998203;-0.059566;-0.006549;,
   0.998203;-0.059566;-0.006549;,
   0.998203;-0.059565;-0.006549;,
   0.998203;-0.059566;-0.006549;,
   0.998203;-0.059566;-0.006549;,
   0.998203;-0.059566;-0.006549;,
   0.998203;-0.059565;-0.006549;,
   0.998203;-0.059566;-0.006550;,
   -0.001301;0.119370;-0.992849;,
   -0.070465;0.637162;-0.767502;,
   -0.073092;0.655978;-0.751232;,
   0.001300;0.099211;-0.995066;,
   -0.127202;0.985935;0.108408;,
   -0.127203;0.985935;0.108408;,
   -0.070465;0.455175;0.887609;,
   -0.073092;0.477077;0.875817;,
   0.001301;-0.119371;0.992849;,
   -0.001300;-0.099211;0.995066;,
   0.073090;-0.655978;0.751233;,
   0.070463;-0.637162;0.767502;,
   0.127202;-0.985935;-0.108409;,
   0.127203;-0.985935;-0.108408;,
   0.073092;-0.477076;-0.875817;,
   0.070465;-0.455174;-0.887610;,
   -0.998203;-0.059565;-0.006549;,
   -0.998203;-0.059565;-0.006550;,
   -0.998203;-0.059566;-0.006550;,
   -0.998203;-0.059565;-0.006550;,
   -0.998203;-0.059565;-0.006551;,
   -0.998203;-0.059565;-0.006549;,
   -0.998203;-0.059565;-0.006550;,
   -0.998203;-0.059565;-0.006549;,
   0.001237;-0.983895;-0.178741;,
   0.001237;-0.983895;-0.178741;,
   0.001237;-0.983895;-0.178741;,
   -0.002275;-0.984105;-0.177575;,
   -0.002275;-0.984105;-0.177575;,
   -0.002275;-0.984105;-0.177575;,
   -0.001237;-0.983895;-0.178741;,
   -0.001237;-0.983895;-0.178741;,
   -0.001237;-0.983895;-0.178741;,
   0.002275;-0.984105;-0.177575;,
   0.002275;-0.984105;-0.177575;,
   0.002275;-0.984105;-0.177575;,
   0.001264;-0.999416;0.034162;,
   0.233338;-0.971847;0.032674;,
   0.117676;-0.964843;0.235011;,
   -0.114434;-0.965121;0.235472;,
   -0.230881;-0.972402;0.033598;,
   -0.115148;-0.978930;-0.168634;,
   0.116822;-0.978652;-0.169096;,
   0.999998;0.001211;-0.001591;,
   0.485796;-0.221763;0.845472;,
   0.501681;0.031188;0.864491;,
   0.968018;-0.250786;0.006983;,
   -0.481903;-0.222922;0.847393;,
   -0.498317;0.029991;0.866476;,
   -0.498317;0.029991;0.866476;,
   -0.967379;-0.253102;0.010825;,
   -0.999997;-0.001183;0.002379;,
   -0.481903;-0.222922;0.847393;,
   -0.485157;-0.282125;-0.827664;,
   -0.502021;-0.031181;-0.864293;,
   0.482541;-0.280966;-0.829586;,
   0.498658;-0.029983;-0.866280;,
   0.489894;-0.187391;0.851404;,
   0.976230;-0.216662;0.005761;,
   -0.486060;-0.188560;0.853341;,
   -0.975678;-0.218998;0.009636;,
   -0.486060;-0.188560;0.853341;,
   -0.489342;-0.248268;-0.836007;,
   0.486612;-0.247099;-0.837945;,
   0.501680;0.031188;0.864491;,
   0.999997;0.001197;-0.001986;,
   -0.498317;0.029991;0.866476;,
   -0.999997;-0.001197;0.001985;,
   -0.498317;0.029991;0.866476;,
   -0.501680;-0.031188;-0.864491;,
   0.498317;-0.029990;-0.866476;,
   -0.001268;0.999375;-0.035317;,
   -0.001267;0.999375;-0.035318;,
   -0.001266;0.999375;-0.035319;,
   -0.001268;0.999375;-0.035319;,
   -0.001268;0.999375;-0.035318;,
   -0.001266;0.999375;-0.035318;,
   -0.990478;0.021462;-0.135987;,
   -0.634635;-0.006592;0.772784;,
   -0.692494;-0.017671;0.721207;,
   -0.988637;0.001691;-0.150315;,
   0.628474;-0.017257;0.777639;,
   0.585563;-0.002999;0.810622;,
   0.999872;0.010556;-0.011991;,
   0.999936;0.004118;-0.010503;,
   0.664055;-0.043101;-0.746441;,
   0.636937;-0.059475;-0.768618;,
   -0.414624;-0.077148;-0.906717;,
   -0.546991;-0.047923;-0.835766;,
   -0.546991;-0.047923;-0.835766;,
   -0.414624;-0.077148;-0.906717;,
   -0.990183;0.020365;-0.138287;,
   -0.657423;-0.003814;0.753512;,
   -0.677818;0.002501;0.735226;,
   -0.988472;-0.007951;-0.151193;,
   0.654307;0.026838;0.755753;,
   0.627574;0.028875;0.778021;,
   0.998570;-0.046275;0.026754;,
   0.998274;-0.054076;0.022907;,
   0.686388;-0.063423;-0.724465;,
   0.668823;-0.060231;-0.740978;,
   -0.411597;-0.101805;-0.905662;,
   -0.544545;-0.078251;-0.835073;,
   -0.544545;-0.078251;-0.835073;,
   -0.411597;-0.101805;-0.905662;;
   559;
   3;0,1,2;,
   3;1,0,3;,
   3;4,5,6;,
   3;7,8,9;,
   3;8,7,2;,
   3;10,11,12;,
   3;11,10,13;,
   3;13,5,11;,
   3;5,13,14;,
   3;14,6,5;,
   3;15,16,17;,
   3;16,15,18;,
   3;19,20,21;,
   3;20,19,22;,
   3;23,24,25;,
   3;6,23,26;,
   3;23,6,14;,
   3;23,14,24;,
   3;27,28,29;,
   3;18,30,16;,
   3;30,18,31;,
   3;32,33,34;,
   3;33,32,35;,
   3;24,36,25;,
   3;36,24,37;,
   3;9,38,39;,
   3;40,41,27;,
   3;41,40,42;,
   3;42,43,41;,
   3;43,42,44;,
   3;1,45,46;,
   3;45,1,47;,
   3;14,48,24;,
   3;48,14,13;,
   3;22,17,20;,
   3;17,22,15;,
   3;33,35,49;,
   3;48,40,29;,
   3;40,48,50;,
   3;27,29,40;,
   3;50,48,13;,
   3;10,50,13;,
   3;50,42,40;,
   3;42,10,44;,
   3;0,2,51;,
   3;51,7,52;,
   3;7,51,2;,
   3;1,3,47;,
   3;10,42,50;,
   3;53,54,55;,
   3;53,56,54;,
   3;53,57,56;,
   3;58,59,60;,
   3;58,61,59;,
   3;62,61,58;,
   3;62,63,61;,
   3;64,63,62;,
   3;64,65,63;,
   3;57,65,64;,
   3;53,65,57;,
   3;26,4,6;,
   3;4,26,66;,
   3;67,68,69;,
   3;70,71,72;,
   3;73,74,75;,
   3;76,77,78;,
   3;77,76,79;,
   3;80,81,11;,
   3;81,80,82;,
   3;83,11,5;,
   3;11,83,80;,
   3;4,84,83;,
   3;85,86,79;,
   3;86,85,87;,
   3;88,80,89;,
   3;80,88,82;,
   3;89,83,90;,
   3;83,89,80;,
   3;90,83,84;,
   3;91,92,93;,
   3;92,91,94;,
   3;19,95,96;,
   3;95,19,21;,
   3;97,98,99;,
   3;84,97,90;,
   3;97,84,100;,
   3;90,97,99;,
   3;101,102,45;,
   3;102,101,103;,
   3;104,41,105;,
   3;41,104,106;,
   3;106,27,41;,
   3;27,106,107;,
   3;27,107,28;,
   3;93,30,31;,
   3;30,93,92;,
   3;108,33,109;,
   3;33,108,34;,
   3;99,36,37;,
   3;36,99,98;,
   3;87,38,9;,
   3;38,87,110;,
   3;86,9,8;,
   3;9,86,87;,
   3;111,106,112;,
   3;106,111,107;,
   3;112,104,113;,
   3;104,112,106;,
   3;77,101,114;,
   3;101,77,103;,
   3;90,115,89;,
   3;115,90,99;,
   3;96,94,91;,
   3;94,96,95;,
   3;109,33,116;,
   3;115,111,117;,
   3;111,115,118;,
   3;107,111,118;,
   3;117,89,115;,
   3;88,89,117;,
   3;117,111,112;,
   3;112,113,88;,
   3;76,119,79;,
   3;119,85,79;,
   3;85,119,120;,
   3;77,114,78;,
   3;88,117,112;,
   3;121,122,123;,
   3;124,122,121;,
   3;124,125,122;,
   3;126,125,124;,
   3;126,127,125;,
   3;128,127,126;,
   3;128,129,127;,
   3;130,129,128;,
   3;130,131,129;,
   3;130,132,131;,
   3;130,133,132;,
   3;134,135,136;,
   3;135,134,137;,
   3;137,138,135;,
   3;138,137,139;,
   3;139,140,138;,
   3;140,139,141;,
   3;141,142,140;,
   3;142,141,143;,
   3;143,144,142;,
   3;144,143,145;,
   3;145,146,144;,
   3;146,145,147;,
   3;148,149,150;,
   3;149,148,151;,
   3;151,152,149;,
   3;152,151,153;,
   3;153,154,152;,
   3;154,153,155;,
   3;155,156,154;,
   3;156,155,157;,
   3;100,4,66;,
   3;4,100,84;,
   3;158,159,160;,
   3;161,162,163;,
   3;164,165,166;,
   3;136,167,134;,
   3;167,136,168;,
   3;169,170,171;,
   3;170,169,172;,
   3;173,174,175;,
   3;174,173,170;,
   3;175,176,177;,
   3;176,175,174;,
   3;177,178,179;,
   3;178,177,176;,
   3;172,180,170;,
   3;180,172,181;,
   3;170,182,174;,
   3;182,170,180;,
   3;174,183,176;,
   3;183,174,182;,
   3;176,184,178;,
   3;184,176,183;,
   3;173,171,170;,
   3;169,185,172;,
   3;185,169,186;,
   3;187,188,189;,
   3;188,187,185;,
   3;189,190,187;,
   3;190,189,191;,
   3;191,178,190;,
   3;178,191,179;,
   3;172,192,181;,
   3;192,172,185;,
   3;185,193,192;,
   3;193,185,187;,
   3;187,194,193;,
   3;194,187,190;,
   3;190,184,194;,
   3;184,190,178;,
   3;188,185,186;,
   3;195,196,197;,
   3;196,195,198;,
   3;197,199,200;,
   3;199,197,196;,
   3;200,201,202;,
   3;201,200,199;,
   3;202,203,204;,
   3;203,202,201;,
   3;204,205,206;,
   3;205,204,203;,
   3;206,207,208;,
   3;207,206,205;,
   3;208,209,210;,
   3;209,208,207;,
   3;210,198,195;,
   3;198,210,209;,
   3;211,212,213;,
   3;213,212,214;,
   3;214,212,215;,
   3;215,212,216;,
   3;216,212,217;,
   3;217,212,218;,
   3;218,212,219;,
   3;219,212,211;,
   3;220,221,222;,
   3;221,220,223;,
   3;224,225,226;,
   3;225,224,221;,
   3;226,227,228;,
   3;227,226,225;,
   3;228,229,230;,
   3;229,228,227;,
   3;223,231,221;,
   3;231,223,232;,
   3;221,233,225;,
   3;233,221,231;,
   3;225,234,227;,
   3;234,225,233;,
   3;227,235,229;,
   3;235,227,234;,
   3;224,222,221;,
   3;220,236,223;,
   3;236,220,237;,
   3;238,173,239;,
   3;173,238,236;,
   3;239,240,238;,
   3;240,239,241;,
   3;241,229,240;,
   3;229,241,230;,
   3;223,242,232;,
   3;242,223,236;,
   3;236,243,242;,
   3;243,236,238;,
   3;238,244,243;,
   3;244,238,240;,
   3;240,235,244;,
   3;235,240,229;,
   3;173,236,237;,
   3;245,246,247;,
   3;246,245,248;,
   3;247,249,250;,
   3;249,247,246;,
   3;250,251,252;,
   3;251,250,249;,
   3;252,253,254;,
   3;253,252,251;,
   3;254,255,256;,
   3;255,254,253;,
   3;256,257,258;,
   3;257,256,255;,
   3;258,259,260;,
   3;259,258,257;,
   3;260,248,245;,
   3;248,260,259;,
   3;261,262,263;,
   3;263,262,264;,
   3;264,262,265;,
   3;265,262,266;,
   3;266,262,267;,
   3;267,262,268;,
   3;268,262,269;,
   3;269,262,261;,
   3;39,270,9;,
   3;52,9,270;,
   3;9,52,7;,
   3;87,271,110;,
   3;87,120,271;,
   3;120,87,85;,
   3;272,273,274;,
   3;273,272,275;,
   3;276,277,278;,
   3;277,276,279;,
   3;280,281,282;,
   3;283,284,285;,
   3;284,283,286;,
   3;287,288,289;,
   3;290,291,292;,
   3;291,290,293;,
   3;294,295,296;,
   3;295,294,297;,
   3;298,299,300;,
   3;301,302,303;,
   3;302,301,304;,
   3;305,306,307;,
   3;308,309,310;,
   3;309,308,311;,
   3;312,313,314;,
   3;313,312,315;,
   3;316,317,318;,
   3;317,316,319;,
   3;320,321,322;,
   3;321,320,323;,
   3;324,325,326;,
   3;325,324,327;,
   3;328,329,330;,
   3;329,328,331;,
   3;332,333,334;,
   3;333,332,335;,
   3;336,337,338;,
   3;337,336,339;,
   3;340,341,342;,
   3;341,340,343;,
   3;344,345,346;,
   3;345,344,347;,
   3;348,349,350;,
   3;349,348,351;,
   3;352,353,354;,
   3;353,352,355;,
   3;356,357,358;,
   3;357,356,359;,
   3;358,360,361;,
   3;360,358,357;,
   3;361,362,363;,
   3;362,361,360;,
   3;363,364,365;,
   3;364,363,362;,
   3;366,367,368;,
   3;369,370,371;,
   3;370,369,372;,
   3;359,373,357;,
   3;373,359,374;,
   3;357,375,360;,
   3;375,357,373;,
   3;360,376,362;,
   3;376,360,375;,
   3;362,377,364;,
   3;377,362,376;,
   3;372,378,370;,
   3;378,372,379;,
   3;374,380,373;,
   3;380,374,381;,
   3;373,382,375;,
   3;382,373,380;,
   3;375,382,376;,
   3;376,383,377;,
   3;383,376,382;,
   3;367,384,368;,
   3;379,385,378;,
   3;385,379,386;,
   3;381,387,380;,
   3;387,381,388;,
   3;380,387,389;,
   3;380,390,382;,
   3;390,380,389;,
   3;382,391,383;,
   3;391,382,390;,
   3;392,388,381;,
   3;388,392,393;,
   3;394,395,396;,
   3;395,394,397;,
   3;394,398,399;,
   3;398,394,396;,
   3;400,401,402;,
   3;401,400,403;,
   3;402,404,405;,
   3;404,402,401;,
   3;356,406,407;,
   3;406,356,358;,
   3;358,408,406;,
   3;408,358,361;,
   3;361,409,408;,
   3;409,361,363;,
   3;363,410,409;,
   3;410,363,365;,
   3;366,368,411;,
   3;369,412,413;,
   3;412,369,371;,
   3;407,414,415;,
   3;414,407,406;,
   3;406,416,414;,
   3;416,406,408;,
   3;408,417,416;,
   3;417,408,409;,
   3;409,418,417;,
   3;418,409,410;,
   3;413,419,420;,
   3;419,413,412;,
   3;415,421,422;,
   3;421,415,414;,
   3;414,423,421;,
   3;423,414,416;,
   3;416,417,423;,
   3;417,424,423;,
   3;424,417,418;,
   3;411,368,425;,
   3;420,426,427;,
   3;426,420,419;,
   3;422,428,429;,
   3;428,422,421;,
   3;428,421,430;,
   3;421,431,430;,
   3;431,421,423;,
   3;423,432,431;,
   3;432,423,424;,
   3;433,429,434;,
   3;429,433,422;,
   3;435,436,437;,
   3;436,435,438;,
   3;439,438,435;,
   3;438,439,440;,
   3;441,442,443;,
   3;442,441,444;,
   3;444,445,442;,
   3;445,444,446;,
   3;364,366,365;,
   3;366,364,367;,
   3;365,411,410;,
   3;411,365,366;,
   3;410,411,418;,
   3;418,425,424;,
   3;425,418,411;,
   3;424,425,432;,
   3;447,448,449;,
   3;450,451,452;,
   3;453,454,455;,
   3;456,457,458;,
   3;391,384,383;,
   3;383,367,377;,
   3;367,383,384;,
   3;377,367,364;,
   3;459,460,461;,
   3;460,459,462;,
   3;462,463,460;,
   3;463,462,464;,
   3;464,465,463;,
   3;465,464,466;,
   3;466,467,465;,
   3;467,466,468;,
   3;468,469,467;,
   3;469,468,470;,
   3;470,471,469;,
   3;471,470,472;,
   3;472,473,471;,
   3;473,472,474;,
   3;474,461,473;,
   3;461,474,459;,
   3;475,476,477;,
   3;476,478,479;,
   3;475,478,476;,
   3;478,480,481;,
   3;475,480,478;,
   3;482,480,475;,
   3;483,484,485;,
   3;484,483,486;,
   3;485,487,488;,
   3;487,485,484;,
   3;488,489,490;,
   3;489,488,487;,
   3;490,491,492;,
   3;491,490,489;,
   3;492,493,494;,
   3;493,492,491;,
   3;494,495,496;,
   3;495,494,493;,
   3;496,497,498;,
   3;497,496,495;,
   3;498,486,483;,
   3;486,498,497;,
   3;499,500,501;,
   3;500,502,503;,
   3;502,504,505;,
   3;500,504,502;,
   3;499,504,500;,
   3;506,504,499;,
   3;507,508,509;,
   3;510,511,512;,
   3;513,514,515;,
   3;516,517,518;,
   3;28,107,118;,
   3;4,83,5;,
   3;519,520,521;,
   3;519,521,522;,
   3;519,522,523;,
   3;519,523,524;,
   3;519,524,525;,
   3;519,525,520;,
   3;526,527,528;,
   3;527,526,529;,
   3;528,530,531;,
   3;530,528,527;,
   3;532,533,534;,
   3;533,532,535;,
   3;534,536,537;,
   3;536,534,533;,
   3;537,538,539;,
   3;538,537,536;,
   3;539,529,526;,
   3;529,539,538;,
   3;529,540,527;,
   3;540,529,541;,
   3;527,542,530;,
   3;542,527,540;,
   3;535,543,533;,
   3;543,535,544;,
   3;533,545,536;,
   3;545,533,543;,
   3;536,546,538;,
   3;546,536,545;,
   3;538,541,529;,
   3;541,538,546;,
   3;541,547,540;,
   3;547,541,548;,
   3;540,549,542;,
   3;549,540,547;,
   3;544,550,543;,
   3;550,544,551;,
   3;543,552,545;,
   3;552,543,550;,
   3;545,553,546;,
   3;553,545,552;,
   3;546,548,541;,
   3;548,546,553;,
   3;554,555,556;,
   3;556,555,557;,
   3;557,555,558;,
   3;558,555,559;,
   3;560,561,562;,
   3;561,560,563;,
   3;562,564,565;,
   3;564,562,561;,
   3;565,566,567;,
   3;566,565,564;,
   3;567,568,569;,
   3;568,567,566;,
   3;569,570,571;,
   3;570,569,568;,
   3;572,563,560;,
   3;563,572,573;,
   3;574,575,576;,
   3;575,574,577;,
   3;576,578,579;,
   3;578,576,575;,
   3;579,580,581;,
   3;580,579,578;,
   3;581,582,583;,
   3;582,581,580;,
   3;583,584,585;,
   3;584,583,582;,
   3;586,577,574;,
   3;577,586,587;;
  }

  MeshMaterialList {
   1;
   559;
   0,
   0,
   0,
   0,
   0,
   0,
   0,
   0,
   0,
   0,
   0,
   0,
   0,
   0,
   0,
   0,
   0,
   0,
   0,
   0,
   0,
   0,
   0,
   0,
   0,
   0,
   0,
   0,
   0,
   0,
   0,
   0,
   0,
   0,
   0,
   0,
   0,
   0,
   0,
   0,
   0,
   0,
   0,
   0,
   0,
   0,
   0,
   0,
   0,
   0,
   0,
   0,
   0,
   0,
   0,
   0,
   0,
   0,
   0,
   0,
   0,
   0,
   0,
   0,
   0,
   0,
   0,
   0,
   0,
   0,
   0,
   0,
   0,
   0,
   0,
   0,
   0,
   0,
   0,
   0,
   0,
   0,
   0,
   0,
   0,
   0,
   0,
   0,
   0,
   0,
   0,
   0,
   0,
   0,
   0,
   0,
   0,
   0,
   0,
   0,
   0,
   0,
   0,
   0,
   0,
   0,
   0,
   0,
   0,
   0,
   0,
   0,
   0,
   0,
   0,
   0,
   0,
   0,
   0,
   0,
   0,
   0,
   0,
   0,
   0,
   0,
   0,
   0,
   0,
   0,
   0,
   0,
   0,
   0,
   0,
   0,
   0,
   0,
   0,
   0,
   0,
   0,
   0,
   0,
   0,
   0,
   0,
   0,
   0,
   0,
   0,
   0,
   0,
   0,
   0,
   0,
   0,
   0,
   0,
   0,
   0,
   0,
   0,
   0,
   0,
   0,
   0,
   0,
   0,
   0,
   0,
   0,
   0,
   0,
   0,
   0,
   0,
   0,
   0,
   0,
   0,
   0,
   0,
   0,
   0,
   0,
   0,
   0,
   0,
   0,
   0,
   0,
   0,
   0,
   0,
   0,
   0,
   0,
   0,
   0,
   0,
   0,
   0,
   0,
   0,
   0,
   0,
   0,
   0,
   0,
   0,
   0,
   0,
   0,
   0,
   0,
   0,
   0,
   0,
   0,
   0,
   0,
   0,
   0,
   0,
   0,
   0,
   0,
   0,
   0,
   0,
   0,
   0,
   0,
   0,
   0,
   0,
   0,
   0,
   0,
   0,
   0,
   0,
   0,
   0,
   0,
   0,
   0,
   0,
   0,
   0,
   0,
   0,
   0,
   0,
   0,
   0,
   0,
   0,
   0,
   0,
   0,
   0,
   0,
   0,
   0,
   0,
   0,
   0,
   0,
   0,
   0,
   0,
   0,
   0,
   0,
   0,
   0,
   0,
   0,
   0,
   0,
   0,
   0,
   0,
   0,
   0,
   0,
   0,
   0,
   0,
   0,
   0,
   0,
   0,
   0,
   0,
   0,
   0,
   0,
   0,
   0,
   0,
   0,
   0,
   0,
   0,
   0,
   0,
   0,
   0,
   0,
   0,
   0,
   0,
   0,
   0,
   0,
   0,
   0,
   0,
   0,
   0,
   0,
   0,
   0,
   0,
   0,
   0,
   0,
   0,
   0,
   0,
   0,
   0,
   0,
   0,
   0,
   0,
   0,
   0,
   0,
   0,
   0,
   0,
   0,
   0,
   0,
   0,
   0,
   0,
   0,
   0,
   0,
   0,
   0,
   0,
   0,
   0,
   0,
   0,
   0,
   0,
   0,
   0,
   0,
   0,
   0,
   0,
   0,
   0,
   0,
   0,
   0,
   0,
   0,
   0,
   0,
   0,
   0,
   0,
   0,
   0,
   0,
   0,
   0,
   0,
   0,
   0,
   0,
   0,
   0,
   0,
   0,
   0,
   0,
   0,
   0,
   0,
   0,
   0,
   0,
   0,
   0,
   0,
   0,
   0,
   0,
   0,
   0,
   0,
   0,
   0,
   0,
   0,
   0,
   0,
   0,
   0,
   0,
   0,
   0,
   0,
   0,
   0,
   0,
   0,
   0,
   0,
   0,
   0,
   0,
   0,
   0,
   0,
   0,
   0,
   0,
   0,
   0,
   0,
   0,
   0,
   0,
   0,
   0,
   0,
   0,
   0,
   0,
   0,
   0,
   0,
   0,
   0,
   0,
   0,
   0,
   0,
   0,
   0,
   0,
   0,
   0,
   0,
   0,
   0,
   0,
   0,
   0,
   0,
   0,
   0,
   0,
   0,
   0,
   0,
   0,
   0,
   0,
   0,
   0,
   0,
   0,
   0,
   0,
   0,
   0,
   0,
   0,
   0,
   0,
   0,
   0,
   0,
   0,
   0,
   0,
   0,
   0,
   0,
   0,
   0,
   0,
   0,
   0,
   0,
   0,
   0,
   0,
   0,
   0,
   0,
   0,
   0,
   0,
   0,
   0,
   0,
   0,
   0,
   0,
   0,
   0,
   0,
   0,
   0,
   0,
   0,
   0,
   0,
   0,
   0,
   0,
   0,
   0,
   0,
   0,
   0,
   0,
   0,
   0,
   0,
   0,
   0,
   0,
   0,
   0,
   0,
   0,
   0,
   0,
   0,
   0,
   0,
   0,
   0,
   0,
   0;
   { _23_-_Default }
  }

  MeshTextureCoords c1 {
   588;
   0.507813;0.164063;,
   0.330627;0.285244;,
   0.303380;0.103602;,
   0.507813;0.242188;,
   0.227932;0.168980;,
   0.251220;0.198230;,
   0.230396;0.204736;,
   0.346422;0.059512;,
   0.282513;0.070652;,
   0.346588;0.019335;,
   0.294563;0.122825;,
   0.261957;0.191363;,
   0.272600;0.080094;,
   0.269416;0.230108;,
   0.254981;0.248182;,
   0.246401;0.514721;,
   0.266037;0.557195;,
   0.247067;0.543808;,
   0.266545;0.527446;,
   0.222758;0.562903;,
   0.231846;0.528248;,
   0.233412;0.575690;,
   0.227803;0.494999;,
   0.074635;0.533307;,
   0.227803;0.494999;,
   0.090271;0.771944;,
   0.064670;0.287931;,
   0.295549;0.402067;,
   0.279443;0.534389;,
   0.266545;0.527446;,
   0.265705;0.589120;,
   0.279443;0.534389;,
   0.321276;0.721077;,
   0.300654;0.663055;,
   0.300654;0.728007;,
   0.333130;0.695531;,
   0.095187;0.920088;,
   0.222758;0.562903;,
   0.507813;0.015625;,
   0.507813;0.031250;,
   0.279325;0.381500;,
   0.318536;0.342161;,
   0.301615;0.305594;,
   0.325753;0.329815;,
   0.313320;0.289205;,
   0.507813;0.328125;,
   0.332273;0.328418;,
   0.507813;0.289063;,
   0.246401;0.514721;,
   0.321276;0.667861;,
   0.274370;0.305804;,
   0.507813;0.101563;,
   0.507813;0.062500;,
   0.436376;0.347182;,
   0.472743;0.366268;,
   0.483934;0.356704;,
   0.468350;0.379809;,
   0.470688;0.423804;,
   0.526463;0.416932;,
   0.542001;0.378438;,
   0.512149;0.369335;,
   0.533052;0.445356;,
   0.522429;0.446046;,
   0.528235;0.452807;,
   0.482442;0.439355;,
   0.476885;0.445645;,
   0.042365;0.203696;,
   0.283872;0.854180;,
   0.240672;0.725591;,
   0.265080;0.748814;,
   0.240672;0.725591;,
   0.240672;0.725591;,
   0.283872;0.854180;,
   0.240672;0.852607;,
   0.240672;0.725591;,
   0.240672;0.725591;,
   0.507813;0.164063;,
   0.331558;0.285244;,
   0.507813;0.242188;,
   0.305341;0.103294;,
   0.267714;0.205054;,
   0.272128;0.081038;,
   0.290123;0.094205;,
   0.253688;0.219528;,
   0.230396;0.204736;,
   0.346422;0.059512;,
   0.299801;0.081931;,
   0.344905;0.036068;,
   0.293712;0.125166;,
   0.269416;0.230108;,
   0.254981;0.248182;,
   0.246401;0.514721;,
   0.266037;0.557195;,
   0.266545;0.527446;,
   0.247067;0.543808;,
   0.231846;0.528248;,
   0.227803;0.494999;,
   0.074635;0.533307;,
   0.090271;0.771944;,
   0.227803;0.494999;,
   0.064670;0.287931;,
   0.507813;0.304688;,
   0.332738;0.328418;,
   0.333082;0.311032;,
   0.319577;0.312894;,
   0.324822;0.329815;,
   0.309724;0.323145;,
   0.284387;0.393374;,
   0.280032;0.721077;,
   0.268178;0.695531;,
   0.507813;0.031250;,
   0.279325;0.381500;,
   0.301615;0.305594;,
   0.313320;0.289205;,
   0.507813;0.289063;,
   0.246401;0.514721;,
   0.280032;0.667861;,
   0.274370;0.305804;,
   0.266545;0.527446;,
   0.507813;0.101563;,
   0.507813;0.062500;,
   0.542001;0.378438;,
   0.526463;0.416932;,
   0.512149;0.369335;,
   0.533052;0.445356;,
   0.522429;0.446046;,
   0.528235;0.452807;,
   0.482442;0.439355;,
   0.476885;0.445645;,
   0.470688;0.423804;,
   0.436376;0.347182;,
   0.468350;0.379809;,
   0.472743;0.366268;,
   0.483934;0.356704;,
   0.472743;0.366268;,
   0.468350;0.379809;,
   0.472743;0.366268;,
   0.468350;0.379809;,
   0.470688;0.423804;,
   0.470688;0.423804;,
   0.482442;0.439355;,
   0.482442;0.439355;,
   0.522429;0.446046;,
   0.522429;0.446046;,
   0.526463;0.416932;,
   0.526463;0.416932;,
   0.512149;0.369335;,
   0.512149;0.369335;,
   0.542001;0.378438;,
   0.533052;0.445356;,
   0.542001;0.378438;,
   0.533052;0.445356;,
   0.528235;0.452807;,
   0.528235;0.452807;,
   0.476885;0.445645;,
   0.476885;0.445645;,
   0.436376;0.347182;,
   0.436376;0.347182;,
   0.240672;0.725591;,
   0.197471;0.854180;,
   0.216263;0.748814;,
   0.240672;0.725591;,
   0.240672;0.725591;,
   0.197471;0.854180;,
   0.240672;0.852607;,
   0.240672;0.725591;,
   0.240672;0.725591;,
   0.483934;0.356704;,
   0.483934;0.356704;,
   0.515625;0.078125;,
   0.580544;0.093871;,
   0.515625;0.078125;,
   0.580544;0.077485;,
   0.515625;0.101563;,
   0.580544;0.133429;,
   0.515625;0.132813;,
   0.580544;0.172988;,
   0.515625;0.187500;,
   0.580544;0.189374;,
   0.515625;0.187500;,
   0.987104;0.089411;,
   0.987104;0.074503;,
   0.986312;0.133428;,
   0.987104;0.173779;,
   0.987104;0.191904;,
   0.580544;0.093871;,
   0.515625;0.078125;,
   0.580544;0.133429;,
   0.515625;0.101563;,
   0.515625;0.132813;,
   0.580544;0.172988;,
   0.515625;0.187500;,
   0.987104;0.093196;,
   0.986311;0.133430;,
   0.987103;0.177552;,
   0.987104;0.074503;,
   0.987104;0.099575;,
   0.987104;0.089411;,
   0.987104;0.085552;,
   0.987104;0.133429;,
   0.986312;0.133428;,
   0.987104;0.167283;,
   0.987104;0.173779;,
   0.987104;0.181306;,
   0.987104;0.191904;,
   0.987104;0.167283;,
   0.987103;0.177552;,
   0.987104;0.133429;,
   0.986311;0.133430;,
   0.987104;0.099575;,
   0.987104;0.093196;,
   0.987104;0.085552;,
   0.875827;0.133429;,
   0.987104;0.099575;,
   0.987104;0.133429;,
   0.987104;0.167283;,
   0.987104;0.181306;,
   0.987104;0.167283;,
   0.987104;0.133429;,
   0.987104;0.099575;,
   0.515625;0.078125;,
   0.580544;0.093871;,
   0.515625;0.078125;,
   0.580544;0.077485;,
   0.515625;0.101563;,
   0.580544;0.133429;,
   0.515625;0.132813;,
   0.580544;0.172988;,
   0.515625;0.187500;,
   0.580544;0.189374;,
   0.515625;0.187500;,
   0.987104;0.089379;,
   0.987104;0.074662;,
   0.986312;0.133428;,
   0.987104;0.173713;,
   0.987104;0.191844;,
   0.580544;0.093871;,
   0.515625;0.078125;,
   0.580544;0.133429;,
   0.515625;0.132813;,
   0.580544;0.172988;,
   0.515625;0.187500;,
   0.987104;0.093074;,
   0.986311;0.133430;,
   0.987104;0.177524;,
   0.987104;0.074662;,
   0.987104;0.099575;,
   0.987104;0.089379;,
   0.987104;0.085552;,
   0.987104;0.133429;,
   0.986312;0.133428;,
   0.987104;0.167283;,
   0.987104;0.173713;,
   0.987104;0.181306;,
   0.987104;0.191844;,
   0.987104;0.167283;,
   0.987104;0.177524;,
   0.987104;0.133429;,
   0.986311;0.133430;,
   0.987104;0.099575;,
   0.987104;0.093074;,
   0.987104;0.085552;,
   0.875827;0.133429;,
   0.987104;0.099575;,
   0.987104;0.133429;,
   0.987104;0.167283;,
   0.987104;0.181306;,
   0.987104;0.167283;,
   0.987104;0.133429;,
   0.987104;0.099575;,
   0.507813;0.015625;,
   0.507813;0.015625;,
   0.174084;0.105429;,
   0.248087;0.097580;,
   0.248087;0.097580;,
   0.174084;0.105429;,
   0.174084;0.105429;,
   0.159737;0.017079;,
   0.174084;0.105429;,
   0.159737;0.017079;,
   0.174084;0.105429;,
   0.159737;0.017079;,
   0.248087;0.097580;,
   0.248087;0.097580;,
   0.159737;0.017079;,
   0.248087;0.097580;,
   0.159737;0.017079;,
   0.248087;0.097580;,
   0.159737;0.017079;,
   0.174084;0.105429;,
   0.174084;0.105429;,
   0.248087;0.097580;,
   0.248087;0.097580;,
   0.174084;0.105429;,
   0.174084;0.105429;,
   0.159737;0.017079;,
   0.174084;0.105429;,
   0.159737;0.017079;,
   0.174084;0.105429;,
   0.159737;0.017079;,
   0.248087;0.097580;,
   0.248087;0.097580;,
   0.159737;0.017079;,
   0.248087;0.097580;,
   0.159737;0.017079;,
   0.248087;0.097580;,
   0.159737;0.017079;,
   0.174084;0.105429;,
   0.125676;0.116420;,
   0.033801;0.116420;,
   0.033801;0.116420;,
   0.125676;0.116420;,
   0.125676;0.024545;,
   0.033801;0.024545;,
   0.125676;0.024545;,
   0.033801;0.024545;,
   0.125676;0.116420;,
   0.125676;0.024545;,
   0.125676;0.116420;,
   0.125676;0.024545;,
   0.125676;0.116420;,
   0.033801;0.024545;,
   0.033801;0.116420;,
   0.125676;0.024545;,
   0.033801;0.116420;,
   0.033801;0.024545;,
   0.033801;0.116420;,
   0.033801;0.024545;,
   0.033801;0.116420;,
   0.125676;0.024545;,
   0.125676;0.116420;,
   0.033801;0.024545;,
   0.125676;0.116420;,
   0.033801;0.116420;,
   0.033801;0.116420;,
   0.125676;0.116420;,
   0.125676;0.024545;,
   0.033801;0.024545;,
   0.125676;0.024545;,
   0.033801;0.024545;,
   0.125676;0.116420;,
   0.125676;0.024545;,
   0.125676;0.116420;,
   0.125676;0.024545;,
   0.125676;0.116420;,
   0.033801;0.024545;,
   0.033801;0.116420;,
   0.125676;0.024545;,
   0.033801;0.116420;,
   0.033801;0.024545;,
   0.033801;0.116420;,
   0.033801;0.024545;,
   0.033801;0.116420;,
   0.125676;0.024545;,
   0.125676;0.116420;,
   0.033801;0.024545;,
   0.393211;0.905221;,
   0.437193;0.858654;,
   0.437193;0.887092;,
   0.393397;0.871404;,
   0.518976;0.845456;,
   0.518976;0.866066;,
   0.533988;0.822446;,
   0.533988;0.840375;,
   0.550683;0.718031;,
   0.550683;0.731788;,
   0.556610;0.597488;,
   0.556610;0.591306;,
   0.557786;0.527043;,
   0.392786;0.872467;,
   0.393397;0.871404;,
   0.393211;0.905221;,
   0.393164;0.838382;,
   0.437193;0.776673;,
   0.394802;0.773917;,
   0.518976;0.786041;,
   0.533988;0.770760;,
   0.550683;0.678372;,
   0.394802;0.773917;,
   0.394191;0.764056;,
   0.437193;0.560224;,
   0.399639;0.570075;,
   0.526482;0.557498;,
   0.550683;0.553811;,
   0.556610;0.525835;,
   0.399639;0.570075;,
   0.398742;0.570075;,
   0.437193;0.538967;,
   0.399639;0.555830;,
   0.440452;0.484900;,
   0.526482;0.506459;,
   0.550683;0.517373;,
   0.398742;0.570075;,
   0.399027;0.555830;,
   0.437193;0.538967;,
   0.399027;0.555830;,
   0.437193;0.538967;,
   0.399639;0.555830;,
   0.440452;0.484900;,
   0.440452;0.484900;,
   0.440452;0.484900;,
   0.526482;0.506459;,
   0.526482;0.506459;,
   0.440452;0.484900;,
   0.550683;0.517373;,
   0.550683;0.517373;,
   0.437323;0.858654;,
   0.393397;0.871404;,
   0.518976;0.845456;,
   0.533988;0.822446;,
   0.550683;0.718031;,
   0.556610;0.591306;,
   0.393397;0.871404;,
   0.393164;0.838382;,
   0.437323;0.776673;,
   0.394802;0.773917;,
   0.518976;0.786041;,
   0.533988;0.770760;,
   0.550683;0.678372;,
   0.394802;0.773917;,
   0.394191;0.764056;,
   0.437369;0.560224;,
   0.399639;0.570075;,
   0.526482;0.557498;,
   0.550683;0.553811;,
   0.556610;0.525835;,
   0.399639;0.570075;,
   0.398742;0.570075;,
   0.437257;0.538967;,
   0.399639;0.555830;,
   0.440452;0.484900;,
   0.526482;0.506458;,
   0.550683;0.517373;,
   0.398742;0.570075;,
   0.399027;0.555830;,
   0.437257;0.538967;,
   0.399027;0.555830;,
   0.399639;0.555830;,
   0.437351;0.538967;,
   0.440452;0.484900;,
   0.440452;0.484900;,
   0.440452;0.484900;,
   0.526482;0.506458;,
   0.440452;0.484900;,
   0.526482;0.506458;,
   0.550683;0.517373;,
   0.550683;0.517373;,
   0.550683;0.517373;,
   0.557786;0.527043;,
   0.550683;0.517373;,
   0.557786;0.527043;,
   0.550683;0.517373;,
   0.556610;0.525835;,
   0.550683;0.517373;,
   0.556610;0.525835;,
   0.550683;0.517373;,
   0.556610;0.525835;,
   0.550683;0.517373;,
   0.557786;0.527043;,
   0.658950;0.390641;,
   0.579324;0.375161;,
   0.659410;0.386978;,
   0.575626;0.379640;,
   0.532408;0.309605;,
   0.526478;0.310633;,
   0.569104;0.254299;,
   0.563223;0.248337;,
   0.663154;0.230956;,
   0.662755;0.227515;,
   0.752762;0.252254;,
   0.755585;0.247882;,
   0.793490;0.306124;,
   0.797919;0.306570;,
   0.755502;0.364746;,
   0.758410;0.367479;,
   0.755502;0.364746;,
   0.752762;0.252254;,
   0.793490;0.306124;,
   0.569104;0.254299;,
   0.663154;0.230956;,
   0.579324;0.375161;,
   0.532408;0.309605;,
   0.659410;0.386978;,
   0.658950;0.390641;,
   0.755502;0.364746;,
   0.758410;0.367479;,
   0.659410;0.386978;,
   0.793490;0.306124;,
   0.797919;0.306570;,
   0.752762;0.252254;,
   0.755585;0.247882;,
   0.663154;0.230956;,
   0.662755;0.227515;,
   0.569104;0.254299;,
   0.563223;0.248337;,
   0.532408;0.309605;,
   0.526478;0.310633;,
   0.579324;0.375161;,
   0.575626;0.379640;,
   0.755502;0.364746;,
   0.752762;0.252254;,
   0.793490;0.306124;,
   0.569104;0.254299;,
   0.663154;0.230956;,
   0.579324;0.375161;,
   0.532408;0.309605;,
   0.659410;0.386978;,
   0.197471;0.854180;,
   0.240672;0.983382;,
   0.212467;0.952932;,
   0.240672;0.983382;,
   0.197471;0.854180;,
   0.240672;0.725591;,
   0.240672;0.983382;,
   0.283872;0.854180;,
   0.268877;0.952932;,
   0.283872;0.854180;,
   0.240672;0.983382;,
   0.240672;0.725591;,
   0.933094;0.743858;,
   0.933094;0.663322;,
   0.887053;0.695803;,
   0.888376;0.782419;,
   0.933094;0.819647;,
   0.977812;0.787166;,
   0.978483;0.700550;,
   0.778191;0.990633;,
   0.823607;0.500997;,
   0.824713;0.990733;,
   0.777688;0.499991;,
   0.868136;0.503172;,
   0.871285;0.990523;,
   0.591805;0.990548;,
   0.639568;0.500873;,
   0.638382;0.990750;,
   0.594922;0.503041;,
   0.685464;0.499961;,
   0.684964;0.990718;,
   0.731569;0.499753;,
   0.731550;0.990763;,
   0.824247;0.463395;,
   0.777334;0.462668;,
   0.873618;0.467505;,
   0.638010;0.463471;,
   0.589233;0.467342;,
   0.684740;0.462752;,
   0.731013;0.462683;,
   0.825040;0.411013;,
   0.777410;0.411402;,
   0.874563;0.413494;,
   0.637244;0.411495;,
   0.588295;0.413957;,
   0.684612;0.411658;,
   0.730978;0.411918;,
   0.891214;0.955589;,
   0.891331;0.873928;,
   0.939107;0.997581;,
   0.988865;0.955574;,
   0.988848;0.874170;,
   0.939338;0.829506;,
   0.934218;0.272274;,
   0.899061;0.345415;,
   0.934218;0.345415;,
   0.899061;0.272274;,
   0.899061;0.418556;,
   0.934218;0.418556;,
   0.899061;0.491696;,
   0.934218;0.491696;,
   0.899061;0.564837;,
   0.934218;0.564837;,
   0.899061;0.637978;,
   0.934218;0.637978;,
   0.934218;0.206701;,
   0.899061;0.206701;,
   0.984627;0.272274;,
   0.949470;0.345415;,
   0.984627;0.345415;,
   0.949470;0.272274;,
   0.949470;0.418556;,
   0.984627;0.418556;,
   0.949470;0.491696;,
   0.984627;0.491696;,
   0.949470;0.564837;,
   0.984627;0.564837;,
   0.949470;0.637978;,
   0.984627;0.637978;,
   0.984627;0.206701;,
   0.949470;0.206701;;
  }
 }
}