xof 0303txt 0032
template ColorRGBA {
 <35ff44e0-6c7c-11cf-8f52-0040333594a3>
 FLOAT red;
 FLOAT green;
 FLOAT blue;
 FLOAT alpha;
}

template ColorRGB {
 <d3e16e81-7835-11cf-8f52-0040333594a3>
 FLOAT red;
 FLOAT green;
 FLOAT blue;
}

template Material {
 <3d82ab4d-62da-11cf-ab39-0020af71e433>
 ColorRGBA faceColor;
 FLOAT power;
 ColorRGB specularColor;
 ColorRGB emissiveColor;
 [...]
}

template TextureFilename {
 <a42790e1-7810-11cf-8f52-0040333594a3>
 STRING filename;
}

template Frame {
 <3d82ab46-62da-11cf-ab39-0020af71e433>
 [...]
}

template Matrix4x4 {
 <f6f23f45-7686-11cf-8f52-0040333594a3>
 array FLOAT matrix[16];
}

template FrameTransformMatrix {
 <f6f23f41-7686-11cf-8f52-0040333594a3>
 Matrix4x4 frameMatrix;
}

template Vector {
 <3d82ab5e-62da-11cf-ab39-0020af71e433>
 FLOAT x;
 FLOAT y;
 FLOAT z;
}

template MeshFace {
 <3d82ab5f-62da-11cf-ab39-0020af71e433>
 DWORD nFaceVertexIndices;
 array DWORD faceVertexIndices[nFaceVertexIndices];
}

template Mesh {
 <3d82ab44-62da-11cf-ab39-0020af71e433>
 DWORD nVertices;
 array Vector vertices[nVertices];
 DWORD nFaces;
 array MeshFace faces[nFaces];
 [...]
}

template MeshNormals {
 <f6f23f43-7686-11cf-8f52-0040333594a3>
 DWORD nNormals;
 array Vector normals[nNormals];
 DWORD nFaceNormals;
 array MeshFace faceNormals[nFaceNormals];
}

template MeshMaterialList {
 <f6f23f42-7686-11cf-8f52-0040333594a3>
 DWORD nMaterials;
 DWORD nFaceIndexes;
 array DWORD faceIndexes[nFaceIndexes];
 [Material <3d82ab4d-62da-11cf-ab39-0020af71e433>]
}

template Coords2d {
 <f6f23f44-7686-11cf-8f52-0040333594a3>
 FLOAT u;
 FLOAT v;
}

template MeshTextureCoords {
 <f6f23f40-7686-11cf-8f52-0040333594a3>
 DWORD nTextureCoords;
 array Coords2d textureCoords[nTextureCoords];
}


Material _03_-_Default {
 1.000000;1.000000;1.000000;1.000000;;
 9.999999;
 0.000000;0.000000;0.000000;;
 0.000000;0.000000;0.000000;;

 TextureFilename {
  "HockeyStick.png";
 }
}

Frame HockeyStick {
 

 FrameTransformMatrix {
  1.000000,0.000000,0.000000,0.000000,0.000000,1.000000,0.000000,0.000000,0.000000,0.000000,1.000000,0.000000,0.000000,0.000000,0.000000,1.000000;;
 }

 Mesh HockeyStick {
  51;
  0.008997;-0.056661;0.009272;,
  0.016104;0.564488;0.000083;,
  0.005567;0.564488;0.010811;,
  0.015410;-0.056661;0.000084;,
  -0.009052;-0.056661;0.009272;,
  -0.015507;0.564488;0.010811;,
  -0.014875;-0.056661;0.000084;,
  -0.023634;0.564488;0.000083;,
  -0.009052;-0.056661;-0.009103;,
  -0.015507;0.564488;-0.010644;,
  0.008997;-0.056661;-0.009103;,
  0.005567;0.564488;-0.010644;,
  0.017076;0.566107;0.000083;,
  0.012575;0.579203;0.011836;,
  0.006035;0.573707;0.011399;,
  0.017742;0.568013;0.000053;,
  0.002902;0.600362;0.011562;,
  -0.011731;0.587068;0.011399;,
  -0.002367;0.611361;0.000154;,
  -0.020614;0.593748;0.000083;,
  0.002919;0.600355;-0.010979;,
  -0.011731;0.587068;-0.011232;,
  0.012469;0.579423;-0.011149;,
  0.006035;0.573707;-0.011232;,
  0.020056;0.580020;0.011828;,
  0.019962;0.568715;0.000091;,
  0.020481;0.602244;0.011692;,
  0.020812;0.613163;0.000054;,
  0.020317;0.601858;-0.011442;,
  0.019892;0.579634;-0.011306;,
  0.029910;0.578254;0.011664;,
  0.023617;0.567887;0.000012;,
  0.041877;0.596676;0.011750;,
  0.047163;0.604956;0.000110;,
  0.041889;0.596660;-0.011595;,
  0.030012;0.578213;-0.011524;,
  0.036733;0.571045;0.011797;,
  0.024971;0.565768;0.000087;,
  0.055080;0.582678;0.011589;,
  0.060768;0.586071;0.000152;,
  0.055165;0.582509;-0.011589;,
  0.036686;0.571277;-0.011692;,
  0.039973;0.568041;0.008424;,
  0.027493;0.564496;0.000112;,
  0.055622;0.577502;0.008281;,
  0.061479;0.581841;0.000196;,
  0.056073;0.577413;-0.008186;,
  0.040004;0.567289;-0.008259;,
  0.040838;0.564698;0.000074;,
  0.055757;0.573137;0.000178;,
  -0.000072;-0.059400;0.000174;;
  98;
  3;0,1,2;,
  3;1,0,3;,
  3;4,2,5;,
  3;2,4,0;,
  3;6,5,7;,
  3;5,6,4;,
  3;8,7,9;,
  3;7,8,6;,
  3;10,9,11;,
  3;9,10,8;,
  3;3,11,1;,
  3;11,3,10;,
  3;12,13,14;,
  3;13,12,15;,
  3;14,16,17;,
  3;16,14,13;,
  3;17,18,19;,
  3;18,17,16;,
  3;19,20,21;,
  3;20,19,18;,
  3;21,22,23;,
  3;22,21,20;,
  3;23,15,12;,
  3;15,23,22;,
  3;15,24,13;,
  3;24,15,25;,
  3;13,26,16;,
  3;26,13,24;,
  3;16,27,18;,
  3;27,16,26;,
  3;18,28,20;,
  3;28,18,27;,
  3;20,29,22;,
  3;29,20,28;,
  3;22,25,15;,
  3;25,22,29;,
  3;25,30,24;,
  3;30,25,31;,
  3;24,32,26;,
  3;32,24,30;,
  3;26,33,27;,
  3;33,26,32;,
  3;27,34,28;,
  3;34,27,33;,
  3;28,35,29;,
  3;35,28,34;,
  3;29,31,25;,
  3;31,29,35;,
  3;31,36,30;,
  3;36,31,37;,
  3;30,38,32;,
  3;38,30,36;,
  3;32,39,33;,
  3;39,32,38;,
  3;33,40,34;,
  3;40,33,39;,
  3;34,41,35;,
  3;41,34,40;,
  3;35,37,31;,
  3;37,35,41;,
  3;14,1,12;,
  3;1,14,2;,
  3;17,2,14;,
  3;2,17,5;,
  3;19,5,17;,
  3;5,19,7;,
  3;21,7,19;,
  3;7,21,9;,
  3;23,9,21;,
  3;9,23,11;,
  3;12,11,23;,
  3;11,12,1;,
  3;37,42,36;,
  3;42,37,43;,
  3;36,44,38;,
  3;44,36,42;,
  3;38,45,39;,
  3;45,38,44;,
  3;39,46,40;,
  3;46,39,45;,
  3;40,47,41;,
  3;47,40,46;,
  3;41,43,37;,
  3;43,41,47;,
  3;43,48,42;,
  3;42,49,44;,
  3;49,42,48;,
  3;44,49,45;,
  3;45,49,46;,
  3;46,48,47;,
  3;48,46,49;,
  3;47,48,43;,
  3;0,50,3;,
  3;3,50,10;,
  3;10,50,8;,
  3;8,50,6;,
  3;6,50,4;,
  3;4,50,0;;

  MeshNormals {
   51;
   0.393047;-0.550114;0.736810;,
   0.963949;-0.262452;0.043841;,
   0.378454;-0.033425;0.925016;,
   0.837807;-0.545966;-0.001081;,
   -0.407249;-0.549462;0.729548;,
   -0.461271;0.016781;0.887100;,
   -0.832197;-0.554480;0.000286;,
   -0.998719;0.050427;-0.004285;,
   -0.406241;-0.550631;-0.729228;,
   -0.467991;0.023167;-0.883430;,
   0.393628;-0.549988;-0.736593;,
   0.375692;-0.046320;-0.925586;,
   0.899121;-0.437677;0.004599;,
   0.096136;-0.278253;0.955685;,
   0.196410;-0.169220;0.965809;,
   0.715014;-0.691177;-0.105026;,
   -0.177090;0.395658;0.901163;,
   -0.412424;0.188330;0.891312;,
   -0.413339;0.910569;-0.003884;,
   -0.883766;0.467867;-0.007592;,
   -0.181561;0.390743;-0.902416;,
   -0.415924;0.196451;-0.887927;,
   0.105166;-0.266233;-0.958154;,
   0.235653;-0.140460;-0.961633;,
   -0.003899;-0.355355;0.934723;,
   0.026963;-0.999606;-0.007858;,
   0.038579;0.440421;0.896962;,
   0.091946;0.995761;-0.002591;,
   0.020687;0.413003;-0.910495;,
   -0.042893;-0.373612;-0.926593;,
   -0.142701;-0.272070;0.951638;,
   -0.559729;-0.828632;0.008558;,
   0.270899;0.408986;0.871404;,
   0.561037;0.827608;0.017394;,
   0.245413;0.405994;-0.880307;,
   -0.155417;-0.256906;-0.953858;,
   -0.097762;-0.468216;0.878190;,
   -0.682899;-0.729908;0.029714;,
   0.556455;0.054953;0.829058;,
   0.920255;0.391320;0.000113;,
   0.567102;0.026255;-0.823229;,
   -0.114391;-0.428141;-0.896443;,
   0.188392;-0.789428;0.584219;,
   -0.326933;-0.943681;0.050801;,
   0.625463;-0.520449;0.581317;,
   0.991099;-0.129809;-0.029529;,
   0.669365;-0.488582;-0.559677;,
   0.177334;-0.791097;-0.585422;,
   0.270271;-0.962346;0.029060;,
   0.654022;-0.756297;0.016441;,
   -0.002280;-0.999994;0.002467;;
   98;
   3;0,1,2;,
   3;1,0,3;,
   3;4,2,5;,
   3;2,4,0;,
   3;6,5,7;,
   3;5,6,4;,
   3;8,7,9;,
   3;7,8,6;,
   3;10,9,11;,
   3;9,10,8;,
   3;3,11,1;,
   3;11,3,10;,
   3;12,13,14;,
   3;13,12,15;,
   3;14,16,17;,
   3;16,14,13;,
   3;17,18,19;,
   3;18,17,16;,
   3;19,20,21;,
   3;20,19,18;,
   3;21,22,23;,
   3;22,21,20;,
   3;23,15,12;,
   3;15,23,22;,
   3;15,24,13;,
   3;24,15,25;,
   3;13,26,16;,
   3;26,13,24;,
   3;16,27,18;,
   3;27,16,26;,
   3;18,28,20;,
   3;28,18,27;,
   3;20,29,22;,
   3;29,20,28;,
   3;22,25,15;,
   3;25,22,29;,
   3;25,30,24;,
   3;30,25,31;,
   3;24,32,26;,
   3;32,24,30;,
   3;26,33,27;,
   3;33,26,32;,
   3;27,34,28;,
   3;34,27,33;,
   3;28,35,29;,
   3;35,28,34;,
   3;29,31,25;,
   3;31,29,35;,
   3;31,36,30;,
   3;36,31,37;,
   3;30,38,32;,
   3;38,30,36;,
   3;32,39,33;,
   3;39,32,38;,
   3;33,40,34;,
   3;40,33,39;,
   3;34,41,35;,
   3;41,34,40;,
   3;35,37,31;,
   3;37,35,41;,
   3;14,1,12;,
   3;1,14,2;,
   3;17,2,14;,
   3;2,17,5;,
   3;19,5,17;,
   3;5,19,7;,
   3;21,7,19;,
   3;7,21,9;,
   3;23,9,21;,
   3;9,23,11;,
   3;12,11,23;,
   3;11,12,1;,
   3;37,42,36;,
   3;42,37,43;,
   3;36,44,38;,
   3;44,36,42;,
   3;38,45,39;,
   3;45,38,44;,
   3;39,46,40;,
   3;46,39,45;,
   3;40,47,41;,
   3;47,40,46;,
   3;41,43,37;,
   3;43,41,47;,
   3;43,48,42;,
   3;42,49,44;,
   3;49,42,48;,
   3;44,49,45;,
   3;45,49,46;,
   3;46,48,47;,
   3;48,46,49;,
   3;47,48,43;,
   3;0,50,3;,
   3;3,50,10;,
   3;10,50,8;,
   3;8,50,6;,
   3;6,50,4;,
   3;4,50,0;;
  }

  MeshMaterialList {
   1;
   98;
   0,
   0,
   0,
   0,
   0,
   0,
   0,
   0,
   0,
   0,
   0,
   0,
   0,
   0,
   0,
   0,
   0,
   0,
   0,
   0,
   0,
   0,
   0,
   0,
   0,
   0,
   0,
   0,
   0,
   0,
   0,
   0,
   0,
   0,
   0,
   0,
   0,
   0,
   0,
   0,
   0,
   0,
   0,
   0,
   0,
   0,
   0,
   0,
   0,
   0,
   0,
   0,
   0,
   0,
   0,
   0,
   0,
   0,
   0,
   0,
   0,
   0,
   0,
   0,
   0,
   0,
   0,
   0,
   0,
   0,
   0,
   0,
   0,
   0,
   0,
   0,
   0,
   0,
   0,
   0,
   0,
   0,
   0,
   0,
   0,
   0,
   0,
   0,
   0,
   0,
   0,
   0,
   0,
   0,
   0,
   0,
   0,
   0;
   { _03_-_Default }
  }

  MeshTextureCoords c1 {
   51;
   0.418306;0.984271;,
   0.494147;0.247597;,
   0.381702;0.247597;,
   0.486738;0.984271;,
   0.225695;0.984271;,
   0.156812;0.247597;,
   0.163557;0.984271;,
   0.070088;0.247597;,
   0.225695;0.984271;,
   0.156812;0.247597;,
   0.418306;0.984271;,
   0.381702;0.247597;,
   0.504519;0.215625;,
   0.456485;0.162774;,
   0.386698;0.184955;,
   0.511626;0.207932;,
   0.353262;0.077391;,
   0.197110;0.131038;,
   0.297038;0.033004;,
   0.102316;0.104079;,
   0.353441;0.077416;,
   0.197110;0.131038;,
   0.455361;0.161889;,
   0.386698;0.184955;,
   0.536317;0.159479;,
   0.535314;0.205101;,
   0.540856;0.069797;,
   0.544391;0.025732;,
   0.539108;0.071354;,
   0.534570;0.161038;,
   0.641470;0.166606;,
   0.574315;0.208440;,
   0.769181;0.092264;,
   0.825584;0.058851;,
   0.769303;0.092331;,
   0.642562;0.166772;,
   0.714285;0.195697;,
   0.588765;0.216992;,
   0.910071;0.148754;,
   0.970765;0.135061;,
   0.910980;0.149435;,
   0.713780;0.194759;,
   0.748865;0.207820;,
   0.615680;0.222127;,
   0.915853;0.169641;,
   0.978361;0.152131;,
   0.920663;0.170000;,
   0.749195;0.210854;,
   0.758089;0.221311;,
   0.917300;0.187253;,
   0.321523;0.988219;;
  }
 }
}