xof 0303txt 0032
template ColorRGBA {
 <35ff44e0-6c7c-11cf-8f52-0040333594a3>
 FLOAT red;
 FLOAT green;
 FLOAT blue;
 FLOAT alpha;
}

template ColorRGB {
 <d3e16e81-7835-11cf-8f52-0040333594a3>
 FLOAT red;
 FLOAT green;
 FLOAT blue;
}

template Material {
 <3d82ab4d-62da-11cf-ab39-0020af71e433>
 ColorRGBA faceColor;
 FLOAT power;
 ColorRGB specularColor;
 ColorRGB emissiveColor;
 [...]
}

template TextureFilename {
 <a42790e1-7810-11cf-8f52-0040333594a3>
 STRING filename;
}

template Frame {
 <3d82ab46-62da-11cf-ab39-0020af71e433>
 [...]
}

template Matrix4x4 {
 <f6f23f45-7686-11cf-8f52-0040333594a3>
 array FLOAT matrix[16];
}

template FrameTransformMatrix {
 <f6f23f41-7686-11cf-8f52-0040333594a3>
 Matrix4x4 frameMatrix;
}

template Vector {
 <3d82ab5e-62da-11cf-ab39-0020af71e433>
 FLOAT x;
 FLOAT y;
 FLOAT z;
}

template MeshFace {
 <3d82ab5f-62da-11cf-ab39-0020af71e433>
 DWORD nFaceVertexIndices;
 array DWORD faceVertexIndices[nFaceVertexIndices];
}

template Mesh {
 <3d82ab44-62da-11cf-ab39-0020af71e433>
 DWORD nVertices;
 array Vector vertices[nVertices];
 DWORD nFaces;
 array MeshFace faces[nFaces];
 [...]
}

template MeshNormals {
 <f6f23f43-7686-11cf-8f52-0040333594a3>
 DWORD nNormals;
 array Vector normals[nNormals];
 DWORD nFaceNormals;
 array MeshFace faceNormals[nFaceNormals];
}

template MeshMaterialList {
 <f6f23f42-7686-11cf-8f52-0040333594a3>
 DWORD nMaterials;
 DWORD nFaceIndexes;
 array DWORD faceIndexes[nFaceIndexes];
 [Material <3d82ab4d-62da-11cf-ab39-0020af71e433>]
}

template Coords2d {
 <f6f23f44-7686-11cf-8f52-0040333594a3>
 FLOAT u;
 FLOAT v;
}

template MeshTextureCoords {
 <f6f23f40-7686-11cf-8f52-0040333594a3>
 DWORD nTextureCoords;
 array Coords2d textureCoords[nTextureCoords];
}


Material _08_-_Default {
 1.000000;1.000000;1.000000;1.000000;;
 9.999999;
 0.000000;0.000000;0.000000;;
 0.000000;0.000000;0.000000;;

 TextureFilename {
  "SpearHandFork.png";
 }
}

Frame SpearHandFork {
 

 FrameTransformMatrix {
  1.000000,0.000000,0.000000,0.000000,0.000000,1.000000,0.000000,0.000000,0.000000,0.000000,1.000000,0.000000,0.000018,0.000000,0.000000,1.000000;;
 }

 Mesh SpearHandFork {
  247;
  0.019800;0.455014;-0.026078;,
  -0.002533;0.488731;-0.038626;,
  0.020887;0.488731;-0.026078;,
  -0.002533;0.454477;-0.036698;,
  0.020887;0.488731;-0.026078;,
  -0.001909;0.522962;-0.037155;,
  0.019217;0.522420;-0.025622;,
  -0.002533;0.488731;-0.038626;,
  0.019217;0.522420;-0.025622;,
  0.001037;0.523956;-0.029670;,
  0.013271;0.523956;-0.020799;,
  -0.001909;0.522962;-0.037155;,
  0.013271;0.523956;-0.020799;,
  -0.000931;0.488731;-0.030673;,
  0.014577;0.488731;-0.023655;,
  0.001037;0.523956;-0.029670;,
  -0.000931;0.453185;-0.030673;,
  0.011638;0.452051;-0.021500;,
  0.011638;0.452051;-0.021500;,
  -0.002533;0.454477;-0.036698;,
  0.019800;0.455014;-0.026078;,
  -0.000931;0.453185;-0.030673;,
  -0.021032;0.488731;-0.024691;,
  -0.019221;0.454488;-0.023992;,
  -0.020161;0.523956;-0.024289;,
  -0.021032;0.488731;-0.024691;,
  -0.012097;0.523956;-0.020812;,
  -0.020161;0.523956;-0.024289;,
  -0.016935;0.488731;-0.023836;,
  -0.012097;0.523956;-0.020812;,
  -0.012818;0.453185;-0.023836;,
  -0.019221;0.454488;-0.023992;,
  -0.012818;0.453185;-0.023836;,
  -0.015645;0.488731;0.006701;,
  -0.014510;0.455295;0.006161;,
  -0.014510;0.520712;0.006161;,
  -0.015645;0.488731;0.006701;,
  -0.008609;0.522167;0.003475;,
  -0.014510;0.520712;0.006161;,
  -0.008609;0.488731;0.003475;,
  -0.008609;0.522167;0.003475;,
  -0.008609;0.455295;0.003475;,
  -0.014510;0.455295;0.006161;,
  -0.008609;0.455295;0.003475;,
  0.000155;0.488731;0.015258;,
  -0.000166;0.457356;0.014454;,
  -0.000166;0.520776;0.014323;,
  0.000155;0.488731;0.015258;,
  -0.000125;0.522167;0.007990;,
  -0.000166;0.520776;0.014323;,
  -0.000125;0.488731;0.007990;,
  -0.000125;0.522167;0.007990;,
  -0.000125;0.455295;0.007990;,
  -0.000166;0.457356;0.014454;,
  -0.000125;0.455295;0.007990;,
  0.020825;0.488731;0.000064;,
  0.019796;0.457125;0.000416;,
  0.019796;0.522167;0.000416;,
  0.020825;0.488731;0.000064;,
  0.010020;0.522167;-0.002481;,
  0.019796;0.522167;0.000416;,
  0.012997;0.488731;-0.001363;,
  0.010020;0.522167;-0.002481;,
  0.009238;0.455295;-0.003176;,
  0.019796;0.457125;0.000416;,
  0.009238;0.455295;-0.003176;,
  0.020887;0.488731;-0.026078;,
  0.019800;0.455014;-0.026078;,
  0.019217;0.522420;-0.025622;,
  0.020887;0.488731;-0.026078;,
  0.013271;0.523956;-0.020799;,
  0.019217;0.522420;-0.025622;,
  0.014577;0.488731;-0.023655;,
  0.013271;0.523956;-0.020799;,
  0.011638;0.452051;-0.021500;,
  0.019800;0.455014;-0.026078;,
  0.011638;0.452051;-0.021500;,
  -0.001374;0.578582;-0.023402;,
  0.000059;0.578582;-0.028192;,
  -0.002088;0.578582;-0.026223;,
  0.002101;0.578582;-0.026025;,
  0.001215;0.578582;-0.023279;,
  -0.000368;-0.085395;0.006574;,
  -0.009074;0.497350;0.003816;,
  -0.007418;-0.081705;0.002574;,
  -0.000301;0.496269;0.007547;,
  -0.009074;0.497350;-0.003645;,
  -0.007418;-0.074325;-0.005424;,
  -0.000301;0.496269;-0.007375;,
  -0.000368;-0.069983;-0.009423;,
  0.007148;0.495189;-0.003645;,
  0.006682;-0.074325;-0.005424;,
  0.007148;0.495189;0.003816;,
  0.006682;-0.079465;0.002574;,
  -0.000368;-0.085395;0.006574;,
  -0.000301;0.496269;0.007547;,
  -0.009584;0.547842;0.004035;,
  -0.009074;0.497350;0.003816;,
  -0.000231;0.550722;0.007080;,
  -0.009584;0.547842;-0.004489;,
  -0.009074;0.497350;-0.003645;,
  -0.000231;0.550722;-0.007568;,
  -0.000301;0.496269;-0.007375;,
  0.007658;0.546741;-0.004489;,
  0.007148;0.495189;-0.003645;,
  0.007658;0.546741;0.004035;,
  0.007148;0.495189;0.003816;,
  -0.009584;0.547842;0.004035;,
  -0.000231;0.550722;-0.007568;,
  -0.009584;0.547842;-0.004489;,
  -0.000231;0.550722;0.007080;,
  0.007658;0.546741;-0.004489;,
  0.007658;0.546741;0.004035;,
  0.006682;-0.079465;0.002574;,
  -0.000416;-0.090480;-0.002453;,
  0.006682;-0.074325;-0.005424;,
  -0.000368;-0.069983;-0.009423;,
  -0.007418;-0.074325;-0.005424;,
  -0.007418;-0.081705;0.002574;,
  -0.000368;-0.085395;0.006574;,
  -0.000368;-0.085395;0.006574;,
  0.000494;0.533556;-0.030841;,
  -0.011836;0.444301;-0.021598;,
  -0.013800;0.533556;-0.022236;,
  0.000421;0.444301;-0.028977;,
  0.014081;0.533556;-0.021367;,
  0.012072;0.444301;-0.020853;,
  0.008184;0.533556;-0.006907;,
  0.012072;0.444301;-0.020853;,
  0.014081;0.533556;-0.021367;,
  0.007402;0.444301;-0.008453;,
  -0.009047;0.533556;-0.007444;,
  -0.007761;0.444301;-0.008914;,
  -0.013800;0.533556;-0.022236;,
  -0.011836;0.444301;-0.021598;,
  0.000248;0.536523;-0.024692;,
  -0.007173;0.536523;-0.020225;,
  0.007302;0.536523;-0.019774;,
  0.004240;0.536523;-0.011986;,
  0.007302;0.536523;-0.019774;,
  -0.004705;0.536523;-0.012265;,
  -0.007173;0.536523;-0.020225;,
  0.000142;0.579650;-0.028863;,
  -0.007173;0.536523;-0.020225;,
  -0.004323;0.579650;-0.026550;,
  0.000248;0.536523;-0.024692;,
  0.004386;0.579650;-0.026317;,
  0.007302;0.536523;-0.019774;,
  0.002544;0.579650;-0.023091;,
  0.007302;0.536523;-0.019774;,
  0.004386;0.579650;-0.026317;,
  0.004240;0.536523;-0.011986;,
  -0.002838;0.579650;-0.023236;,
  -0.004705;0.536523;-0.012265;,
  -0.004323;0.579650;-0.026550;,
  -0.007173;0.536523;-0.020225;,
  0.007402;0.444301;-0.008453;,
  -0.007761;0.444301;-0.008914;,
  -0.001374;0.578745;-0.023325;,
  0.000059;0.578745;-0.028115;,
  -0.002088;0.578745;-0.026146;,
  0.002101;0.578745;-0.025948;,
  0.001215;0.578745;-0.023202;,
  -0.020079;0.579675;-0.022579;,
  -0.026024;0.582188;-0.029030;,
  -0.020079;0.579675;-0.029030;,
  -0.026024;0.582188;-0.022579;,
  -0.000018;0.578218;-0.022579;,
  -0.000018;0.578218;-0.029030;,
  0.020044;0.579675;-0.022579;,
  0.020044;0.579675;-0.029030;,
  0.025989;0.582188;-0.022579;,
  0.025989;0.582188;-0.029030;,
  -0.021766;0.591070;-0.029824;,
  -0.026024;0.582188;-0.029030;,
  -0.028103;0.593130;-0.029824;,
  -0.020079;0.579675;-0.029030;,
  -0.011452;0.588980;-0.029824;,
  -0.004633;0.588980;-0.029824;,
  -0.000018;0.578218;-0.029030;,
  0.004477;0.588980;-0.029824;,
  0.011537;0.588980;-0.029824;,
  0.020044;0.579675;-0.029030;,
  0.020757;0.591070;-0.029824;,
  0.028068;0.593130;-0.029824;,
  0.025989;0.582188;-0.029030;,
  -0.023032;0.677266;-0.024776;,
  -0.025151;0.677266;-0.024776;,
  -0.006953;0.677266;-0.024776;,
  -0.009131;0.677266;-0.024776;,
  0.008807;0.677266;-0.024776;,
  0.007207;0.677266;-0.024776;,
  0.024970;0.677266;-0.024776;,
  0.023142;0.677266;-0.024776;,
  0.028068;0.593130;-0.023373;,
  0.025989;0.582188;-0.029030;,
  0.028068;0.593130;-0.029824;,
  0.025989;0.582188;-0.022579;,
  0.024970;0.677266;-0.024776;,
  0.020757;0.591070;-0.023373;,
  0.025989;0.582188;-0.022579;,
  0.028068;0.593130;-0.023373;,
  0.020044;0.579675;-0.022579;,
  0.011537;0.588980;-0.023373;,
  0.004477;0.588980;-0.023373;,
  -0.000018;0.578218;-0.022579;,
  -0.004633;0.588980;-0.023373;,
  -0.011452;0.588980;-0.023373;,
  -0.020079;0.579675;-0.022579;,
  -0.021766;0.591070;-0.023373;,
  -0.028103;0.593130;-0.023373;,
  -0.026024;0.582188;-0.022579;,
  0.023142;0.677266;-0.024776;,
  0.024970;0.677266;-0.024776;,
  0.007207;0.677266;-0.024776;,
  0.008807;0.677266;-0.024776;,
  -0.009131;0.677266;-0.024776;,
  -0.006953;0.677266;-0.024776;,
  -0.025151;0.677266;-0.024776;,
  -0.023032;0.677266;-0.024776;,
  -0.028103;0.593130;-0.029824;,
  -0.026024;0.582188;-0.022579;,
  -0.028103;0.593130;-0.023373;,
  -0.026024;0.582188;-0.029030;,
  -0.025151;0.677266;-0.024776;,
  -0.021766;0.591070;-0.023373;,
  -0.021766;0.591070;-0.029824;,
  -0.023032;0.677266;-0.024776;,
  -0.004633;0.588980;-0.023373;,
  -0.004633;0.588980;-0.029824;,
  -0.006953;0.677266;-0.024776;,
  0.011537;0.588980;-0.023373;,
  0.011537;0.588980;-0.029824;,
  0.008807;0.677266;-0.024776;,
  0.020757;0.591070;-0.023373;,
  0.023142;0.677266;-0.024776;,
  0.020757;0.591070;-0.029824;,
  -0.011452;0.588980;-0.023373;,
  -0.011452;0.588980;-0.029824;,
  -0.004633;0.588980;-0.029824;,
  0.004477;0.588980;-0.023373;,
  0.004477;0.588980;-0.029824;,
  -0.004633;0.588980;-0.023373;,
  0.011537;0.588980;-0.029824;,
  0.011537;0.588980;-0.023373;,
  0.007207;0.677266;-0.024776;,
  -0.009131;0.677266;-0.024776;;
  209;
  3;0,1,2;,
  3;1,0,3;,
  3;4,5,6;,
  3;5,4,7;,
  3;8,9,10;,
  3;9,8,11;,
  3;12,13,14;,
  3;13,12,15;,
  3;14,16,17;,
  3;16,14,13;,
  3;18,19,20;,
  3;19,18,21;,
  3;3,22,1;,
  3;22,3,23;,
  3;7,24,5;,
  3;24,7,25;,
  3;11,26,9;,
  3;26,11,27;,
  3;15,28,13;,
  3;28,15,29;,
  3;13,30,16;,
  3;30,13,28;,
  3;21,31,19;,
  3;31,21,32;,
  3;23,33,22;,
  3;33,23,34;,
  3;25,35,24;,
  3;35,25,36;,
  3;27,37,26;,
  3;37,27,38;,
  3;29,39,28;,
  3;39,29,40;,
  3;28,41,30;,
  3;41,28,39;,
  3;32,42,31;,
  3;42,32,43;,
  3;34,44,33;,
  3;44,34,45;,
  3;36,46,35;,
  3;46,36,47;,
  3;38,48,37;,
  3;48,38,49;,
  3;40,50,39;,
  3;50,40,51;,
  3;39,52,41;,
  3;52,39,50;,
  3;43,53,42;,
  3;53,43,54;,
  3;45,55,44;,
  3;55,45,56;,
  3;47,57,46;,
  3;57,47,58;,
  3;49,59,48;,
  3;59,49,60;,
  3;51,61,50;,
  3;61,51,62;,
  3;50,63,52;,
  3;63,50,61;,
  3;54,64,53;,
  3;64,54,65;,
  3;56,66,55;,
  3;66,56,67;,
  3;58,68,57;,
  3;68,58,69;,
  3;60,70,59;,
  3;70,60,71;,
  3;62,72,61;,
  3;72,62,73;,
  3;61,74,63;,
  3;74,61,72;,
  3;65,75,64;,
  3;75,65,76;,
  3;77,78,79;,
  3;77,80,78;,
  3;77,81,80;,
  3;82,83,84;,
  3;83,82,85;,
  3;84,86,87;,
  3;86,84,83;,
  3;87,88,89;,
  3;88,87,86;,
  3;89,90,91;,
  3;90,89,88;,
  3;91,92,93;,
  3;92,91,90;,
  3;93,85,94;,
  3;85,93,92;,
  3;95,96,97;,
  3;96,95,98;,
  3;97,99,100;,
  3;99,97,96;,
  3;100,101,102;,
  3;101,100,99;,
  3;102,103,104;,
  3;103,102,101;,
  3;104,105,106;,
  3;105,104,103;,
  3;106,98,95;,
  3;98,106,105;,
  3;107,108,109;,
  3;108,107,110;,
  3;111,110,112;,
  3;110,111,108;,
  3;113,114,115;,
  3;115,114,116;,
  3;116,114,117;,
  3;117,114,118;,
  3;118,114,119;,
  3;120,114,113;,
  3;121,122,123;,
  3;122,121,124;,
  3;125,124,121;,
  3;124,125,126;,
  3;127,128,129;,
  3;128,127,130;,
  3;131,130,127;,
  3;130,131,132;,
  3;133,132,131;,
  3;132,133,134;,
  3;135,123,136;,
  3;123,135,121;,
  3;137,121,135;,
  3;121,137,125;,
  3;138,129,139;,
  3;129,138,127;,
  3;140,127,138;,
  3;127,140,131;,
  3;141,131,140;,
  3;131,141,133;,
  3;142,143,144;,
  3;143,142,145;,
  3;146,145,142;,
  3;145,146,147;,
  3;148,149,150;,
  3;149,148,151;,
  3;152,151,148;,
  3;151,152,153;,
  3;154,153,152;,
  3;153,154,155;,
  3;126,122,124;,
  3;122,156,157;,
  3;126,156,122;,
  3;158,159,160;,
  3;158,161,159;,
  3;158,162,161;,
  3;163,164,165;,
  3;164,163,166;,
  3;167,165,168;,
  3;165,167,163;,
  3;169,168,170;,
  3;168,169,167;,
  3;171,170,172;,
  3;170,171,169;,
  3;173,174,175;,
  3;174,173,176;,
  3;176,173,177;,
  3;178,176,177;,
  3;176,178,179;,
  3;179,178,180;,
  3;181,179,180;,
  3;179,181,182;,
  3;182,181,183;,
  3;184,182,183;,
  3;182,184,185;,
  3;186,175,187;,
  3;175,186,173;,
  3;188,177,189;,
  3;177,188,178;,
  3;190,180,191;,
  3;180,190,181;,
  3;192,183,193;,
  3;183,192,184;,
  3;194,195,196;,
  3;195,194,197;,
  3;196,198,194;,
  3;199,200,201;,
  3;200,199,202;,
  3;202,199,203;,
  3;204,202,203;,
  3;202,204,205;,
  3;205,204,206;,
  3;207,205,206;,
  3;205,207,208;,
  3;208,207,209;,
  3;210,208,209;,
  3;208,210,211;,
  3;212,201,213;,
  3;201,212,199;,
  3;214,203,215;,
  3;203,214,204;,
  3;216,206,217;,
  3;206,216,207;,
  3;218,209,219;,
  3;209,218,210;,
  3;220,221,222;,
  3;221,220,223;,
  3;222,224,220;,
  3;225,226,227;,
  3;228,229,230;,
  3;231,232,233;,
  3;234,235,236;,
  3;226,237,238;,
  3;237,226,225;,
  3;239,240,241;,
  3;240,239,242;,
  3;243,234,236;,
  3;234,243,244;,
  3;241,240,245;,
  3;238,237,246;;

  MeshNormals {
   247;
   0.837067;-0.040154;-0.545625;,
   -0.080178;-0.003878;-0.996773;,
   0.861478;0.009671;-0.507703;,
   -0.107532;-0.057162;-0.992557;,
   0.861478;0.009671;-0.507703;,
   -0.065055;0.046277;-0.996808;,
   0.851011;0.043090;-0.523377;,
   -0.080178;-0.003878;-0.996773;,
   0.179544;0.979349;-0.092950;,
   0.043005;0.988195;-0.147039;,
   0.165406;0.984419;-0.059673;,
   0.014518;0.992745;-0.119361;,
   -0.916656;-0.024526;0.398925;,
   -0.009033;-0.020878;0.999741;,
   -0.864077;-0.017842;0.503044;,
   -0.065646;-0.062932;0.995857;,
   -0.037241;0.041306;0.998452;,
   -0.904745;0.113660;0.410510;,
   0.316940;-0.947781;-0.035493;,
   -0.025005;-0.976393;-0.214550;,
   0.261436;-0.963450;-0.058445;,
   -0.013234;-0.976934;-0.213130;,
   -0.930285;-0.011676;-0.366652;,
   -0.925901;-0.052716;-0.374069;,
   -0.923520;0.035456;-0.381908;,
   -0.930285;-0.011676;-0.366652;,
   -0.015450;0.999838;0.009249;,
   -0.021582;0.999559;0.020411;,
   0.907672;-0.026789;0.418824;,
   0.919774;-0.117496;0.374448;,
   0.875987;0.074641;0.476524;,
   -0.189460;-0.980763;-0.047007;,
   -0.181438;-0.968989;-0.167755;,
   -0.815531;-0.003065;0.578705;,
   -0.833360;-0.032372;0.551782;,
   -0.823005;0.034026;0.567014;,
   -0.815531;-0.003065;0.578705;,
   -0.142236;0.971486;0.189692;,
   -0.156457;0.971910;0.175821;,
   0.781041;-0.017799;-0.624226;,
   0.824922;-0.000000;-0.565247;,
   0.801666;0.036844;-0.596636;,
   0.023196;-0.994854;0.098627;,
   0.024874;-0.991685;0.126263;,
   0.066931;-0.004332;0.997748;,
   0.024674;-0.020302;0.999489;,
   0.056973;0.034326;0.997785;,
   0.066931;-0.004332;0.997748;,
   0.059024;0.974411;0.216884;,
   -0.011330;0.982690;0.184913;,
   -0.080966;0.024152;-0.996424;,
   -0.129336;-0.038355;-0.990859;,
   -0.190804;-0.000000;-0.981628;,
   0.057123;-0.960596;0.272015;,
   0.028223;-0.959062;0.281787;,
   0.894952;-0.000066;0.446164;,
   0.889848;-0.023817;0.455634;,
   0.895269;0.029512;0.444548;,
   0.894952;-0.000066;0.446164;,
   -0.008766;0.995986;0.089075;,
   0.012243;0.997343;0.071811;,
   -0.876235;0.022355;-0.481365;,
   -0.899587;-0.069613;-0.431157;,
   -0.899927;0.080894;-0.428472;,
   0.147704;-0.982202;0.116030;,
   0.165714;-0.980220;0.108198;,
   0.861478;0.009671;-0.507703;,
   0.837067;-0.040154;-0.545625;,
   0.851011;0.043090;-0.523377;,
   0.861478;0.009671;-0.507703;,
   0.165406;0.984419;-0.059673;,
   0.179544;0.979349;-0.092950;,
   -0.864077;-0.017842;0.503044;,
   -0.916656;-0.024526;0.398925;,
   -0.904745;0.113660;0.410510;,
   0.261436;-0.963450;-0.058445;,
   0.316940;-0.947781;-0.035493;,
   0.000000;1.000000;0.000010;,
   -0.000001;1.000000;0.000008;,
   0.000010;1.000000;0.000011;,
   -0.000005;1.000000;0.000008;,
   -0.000001;1.000000;0.000014;,
   -0.055033;-0.002834;0.998481;,
   -0.834127;-0.006865;0.551530;,
   -0.723111;-0.003560;0.690723;,
   0.033515;-0.000399;0.999438;,
   -0.833845;-0.004889;-0.551976;,
   -0.948766;-0.001079;-0.315977;,
   0.027692;-0.004619;-0.999606;,
   -0.000454;0.003174;-0.999995;,
   0.851665;-0.007299;-0.524036;,
   0.943287;0.000271;-0.331979;,
   0.849345;-0.002378;0.527832;,
   0.737428;-0.001465;0.675424;,
   -0.055033;-0.002834;0.998481;,
   0.033515;-0.000399;0.999438;,
   -0.776611;-0.001100;0.629980;,
   -0.834127;-0.006865;0.551530;,
   0.007602;0.002045;0.999969;,
   -0.769525;-0.018455;-0.638350;,
   -0.833845;-0.004889;-0.551976;,
   -0.000126;-0.011370;-0.999935;,
   0.027692;-0.004619;-0.999606;,
   0.775902;-0.008604;-0.630795;,
   0.851665;-0.007299;-0.524036;,
   0.773149;-0.010334;0.634140;,
   0.849345;-0.002378;0.527832;,
   -0.294291;0.955716;0.000000;,
   0.079318;0.996849;0.000000;,
   -0.294291;0.955716;0.000000;,
   0.079373;0.996845;-0.000000;,
   0.450503;0.892775;-0.000000;,
   0.450502;0.892775;-0.000000;,
   0.853626;-0.515262;-0.076347;,
   0.026955;-0.950919;-0.308264;,
   0.545467;-0.377299;-0.748405;,
   0.000239;-0.321940;-0.946760;,
   -0.494619;-0.359857;-0.791110;,
   -0.808656;-0.575560;-0.121684;,
   0.119530;-0.865315;0.486767;,
   0.119530;-0.865315;0.486767;,
   0.030206;0.453311;-0.890840;,
   -0.749501;-0.599109;-0.281633;,
   -0.833097;0.458758;-0.309015;,
   0.026503;-0.610541;-0.791541;,
   0.852995;0.458464;-0.249419;,
   0.764829;-0.599284;-0.236422;,
   0.488695;0.455675;0.744001;,
   0.764829;-0.599284;-0.236422;,
   0.852995;0.458464;-0.249419;,
   0.444092;-0.603886;0.661894;,
   -0.539301;0.456451;0.707677;,
   -0.478121;-0.605615;0.636107;,
   -0.833097;0.458758;-0.309015;,
   -0.749501;-0.599109;-0.281633;,
   0.012903;0.900702;-0.434246;,
   -0.364092;0.917686;-0.159026;,
   0.371127;0.919025;-0.132880;,
   0.210222;0.907080;0.364708;,
   0.371127;0.919025;-0.132880;,
   -0.234977;0.907842;0.347288;,
   -0.364092;0.917686;-0.159026;,
   0.025656;-0.102516;-0.994400;,
   -0.953729;0.023075;-0.299782;,
   -0.915727;0.014436;-0.401542;,
   0.032797;-0.100430;-0.994403;,
   0.947354;0.024621;-0.319241;,
   0.973637;0.039843;-0.224597;,
   0.514125;0.218723;0.829359;,
   0.973637;0.039843;-0.224597;,
   0.947354;0.024621;-0.319241;,
   0.506830;0.233322;0.829870;,
   -0.572006;0.225797;0.788559;,
   -0.558184;0.222145;0.799427;,
   -0.915727;0.014436;-0.401542;,
   -0.953729;0.023075;-0.299782;,
   0.444092;-0.603886;0.661894;,
   -0.478121;-0.605615;0.636107;,
   0.000000;1.000000;0.000010;,
   -0.000001;1.000000;0.000008;,
   0.000010;1.000000;0.000011;,
   -0.000005;1.000000;0.000008;,
   -0.000001;1.000000;0.000014;,
   -0.234023;-0.972231;0.000000;,
   -0.785398;-0.618991;0.000000;,
   -0.234023;-0.972231;0.000000;,
   -0.770151;-0.637862;0.000000;,
   -0.000000;-1.000000;0.000000;,
   -0.000000;-1.000000;0.000000;,
   0.234023;-0.972231;0.000000;,
   0.234023;-0.972231;0.000000;,
   0.770151;-0.637862;0.000000;,
   0.785398;-0.618991;0.000000;,
   -0.010838;-0.037762;-0.999228;,
   -0.029479;-0.074956;-0.996751;,
   0.002754;0.008987;-0.999956;,
   -0.017215;-0.074800;-0.997050;,
   -0.003049;-0.037358;-0.999297;,
   -0.001687;-0.032616;-0.999467;,
   -0.000701;-0.075827;-0.997121;,
   0.000000;-0.030651;-0.999530;,
   0.005285;-0.033907;-0.999411;,
   0.017263;-0.075334;-0.997009;,
   0.008468;-0.033754;-0.999394;,
   -0.001179;0.008907;-0.999960;,
   0.033227;-0.078599;-0.996352;,
   0.011828;0.999688;0.021982;,
   0.003256;0.999746;0.022289;,
   0.000000;0.999781;0.020942;,
   0.000000;0.999781;0.020946;,
   0.000000;0.999779;0.021007;,
   0.000000;0.999779;0.021006;,
   -0.011814;0.999701;0.021430;,
   -0.003316;0.999768;0.021277;,
   0.996914;-0.078505;0.000000;,
   0.785398;-0.618991;0.000000;,
   0.997184;-0.074995;0.000000;,
   0.770151;-0.637862;0.000000;,
   0.999323;0.036803;0.000000;,
   -0.016277;0.056990;0.998242;,
   -0.027288;0.073032;0.996956;,
   -0.011024;0.039241;0.999169;,
   -0.017635;0.073501;0.997139;,
   -0.003437;0.060209;0.998180;,
   -0.001677;0.056636;0.998394;,
   -0.000708;0.075806;0.997122;,
   0.000000;0.054578;0.998510;,
   0.004892;0.056902;0.998368;,
   0.017230;0.075957;0.996962;,
   0.016122;0.057029;0.998242;,
   0.013235;0.037878;0.999195;,
   0.033227;0.078599;0.996352;,
   -0.003316;0.999768;0.021277;,
   -0.011814;0.999701;0.021430;,
   0.000000;0.999779;0.021006;,
   0.000000;0.999779;0.021007;,
   0.000000;0.999781;0.020946;,
   0.000000;0.999781;0.020942;,
   0.003256;0.999746;0.022289;,
   0.011828;0.999688;0.021982;,
   -0.997119;-0.075860;0.000000;,
   -0.770151;-0.637862;0.000000;,
   -0.996847;-0.079343;0.000000;,
   -0.785398;-0.618991;0.000000;,
   -0.999385;0.035076;0.000000;,
   0.766785;0.641904;-0.000001;,
   0.759624;0.650363;-0.000001;,
   0.999892;0.014687;-0.000001;,
   0.694200;0.719782;-0.000000;,
   0.684730;0.728797;-0.000000;,
   0.999655;0.026276;-0.000000;,
   0.607031;0.794678;-0.000000;,
   0.594013;0.804456;-0.000000;,
   0.999522;0.030908;-0.000000;,
   -0.770088;0.637938;0.000000;,
   -0.999617;0.027667;0.000000;,
   -0.763231;0.646126;0.000000;,
   -0.618041;0.786146;-0.000000;,
   -0.605398;0.795923;0.000000;,
   0.684730;0.728797;-0.000000;,
   -0.692547;0.721373;0.000000;,
   -0.683101;0.730324;0.000000;,
   0.694200;0.719782;-0.000000;,
   0.594013;0.804456;-0.000000;,
   0.607031;0.794678;-0.000000;,
   -0.999522;0.030908;0.000000;,
   -0.999655;0.026276;0.000000;;
   209;
   3;0,1,2;,
   3;1,0,3;,
   3;4,5,6;,
   3;5,4,7;,
   3;8,9,10;,
   3;9,8,11;,
   3;12,13,14;,
   3;13,12,15;,
   3;14,16,17;,
   3;16,14,13;,
   3;18,19,20;,
   3;19,18,21;,
   3;3,22,1;,
   3;22,3,23;,
   3;7,24,5;,
   3;24,7,25;,
   3;11,26,9;,
   3;26,11,27;,
   3;15,28,13;,
   3;28,15,29;,
   3;13,30,16;,
   3;30,13,28;,
   3;21,31,19;,
   3;31,21,32;,
   3;23,33,22;,
   3;33,23,34;,
   3;25,35,24;,
   3;35,25,36;,
   3;27,37,26;,
   3;37,27,38;,
   3;29,39,28;,
   3;39,29,40;,
   3;28,41,30;,
   3;41,28,39;,
   3;32,42,31;,
   3;42,32,43;,
   3;34,44,33;,
   3;44,34,45;,
   3;36,46,35;,
   3;46,36,47;,
   3;38,48,37;,
   3;48,38,49;,
   3;40,50,39;,
   3;50,40,51;,
   3;39,52,41;,
   3;52,39,50;,
   3;43,53,42;,
   3;53,43,54;,
   3;45,55,44;,
   3;55,45,56;,
   3;47,57,46;,
   3;57,47,58;,
   3;49,59,48;,
   3;59,49,60;,
   3;51,61,50;,
   3;61,51,62;,
   3;50,63,52;,
   3;63,50,61;,
   3;54,64,53;,
   3;64,54,65;,
   3;56,66,55;,
   3;66,56,67;,
   3;58,68,57;,
   3;68,58,69;,
   3;60,70,59;,
   3;70,60,71;,
   3;62,72,61;,
   3;72,62,73;,
   3;61,74,63;,
   3;74,61,72;,
   3;65,75,64;,
   3;75,65,76;,
   3;77,78,79;,
   3;77,80,78;,
   3;77,81,80;,
   3;82,83,84;,
   3;83,82,85;,
   3;84,86,87;,
   3;86,84,83;,
   3;87,88,89;,
   3;88,87,86;,
   3;89,90,91;,
   3;90,89,88;,
   3;91,92,93;,
   3;92,91,90;,
   3;93,85,94;,
   3;85,93,92;,
   3;95,96,97;,
   3;96,95,98;,
   3;97,99,100;,
   3;99,97,96;,
   3;100,101,102;,
   3;101,100,99;,
   3;102,103,104;,
   3;103,102,101;,
   3;104,105,106;,
   3;105,104,103;,
   3;106,98,95;,
   3;98,106,105;,
   3;107,108,109;,
   3;108,107,110;,
   3;111,110,112;,
   3;110,111,108;,
   3;113,114,115;,
   3;115,114,116;,
   3;116,114,117;,
   3;117,114,118;,
   3;118,114,119;,
   3;120,114,113;,
   3;121,122,123;,
   3;122,121,124;,
   3;125,124,121;,
   3;124,125,126;,
   3;127,128,129;,
   3;128,127,130;,
   3;131,130,127;,
   3;130,131,132;,
   3;133,132,131;,
   3;132,133,134;,
   3;135,123,136;,
   3;123,135,121;,
   3;137,121,135;,
   3;121,137,125;,
   3;138,129,139;,
   3;129,138,127;,
   3;140,127,138;,
   3;127,140,131;,
   3;141,131,140;,
   3;131,141,133;,
   3;142,143,144;,
   3;143,142,145;,
   3;146,145,142;,
   3;145,146,147;,
   3;148,149,150;,
   3;149,148,151;,
   3;152,151,148;,
   3;151,152,153;,
   3;154,153,152;,
   3;153,154,155;,
   3;126,122,124;,
   3;122,156,157;,
   3;126,156,122;,
   3;158,159,160;,
   3;158,161,159;,
   3;158,162,161;,
   3;163,164,165;,
   3;164,163,166;,
   3;167,165,168;,
   3;165,167,163;,
   3;169,168,170;,
   3;168,169,167;,
   3;171,170,172;,
   3;170,171,169;,
   3;173,174,175;,
   3;174,173,176;,
   3;176,173,177;,
   3;178,176,177;,
   3;176,178,179;,
   3;179,178,180;,
   3;181,179,180;,
   3;179,181,182;,
   3;182,181,183;,
   3;184,182,183;,
   3;182,184,185;,
   3;186,175,187;,
   3;175,186,173;,
   3;188,177,189;,
   3;177,188,178;,
   3;190,180,191;,
   3;180,190,181;,
   3;192,183,193;,
   3;183,192,184;,
   3;194,195,196;,
   3;195,194,197;,
   3;196,198,194;,
   3;199,200,201;,
   3;200,199,202;,
   3;202,199,203;,
   3;204,202,203;,
   3;202,204,205;,
   3;205,204,206;,
   3;207,205,206;,
   3;205,207,208;,
   3;208,207,209;,
   3;210,208,209;,
   3;208,210,211;,
   3;212,201,213;,
   3;201,212,199;,
   3;214,203,215;,
   3;203,214,204;,
   3;216,206,217;,
   3;206,216,207;,
   3;218,209,219;,
   3;209,218,210;,
   3;220,221,222;,
   3;221,220,223;,
   3;222,224,220;,
   3;225,226,227;,
   3;228,229,230;,
   3;231,232,233;,
   3;234,235,236;,
   3;226,237,238;,
   3;237,226,225;,
   3;239,240,241;,
   3;240,239,242;,
   3;243,234,236;,
   3;234,243,244;,
   3;241,240,245;,
   3;238,237,246;;
  }

  MeshMaterialList {
   1;
   209;
   0,
   0,
   0,
   0,
   0,
   0,
   0,
   0,
   0,
   0,
   0,
   0,
   0,
   0,
   0,
   0,
   0,
   0,
   0,
   0,
   0,
   0,
   0,
   0,
   0,
   0,
   0,
   0,
   0,
   0,
   0,
   0,
   0,
   0,
   0,
   0,
   0,
   0,
   0,
   0,
   0,
   0,
   0,
   0,
   0,
   0,
   0,
   0,
   0,
   0,
   0,
   0,
   0,
   0,
   0,
   0,
   0,
   0,
   0,
   0,
   0,
   0,
   0,
   0,
   0,
   0,
   0,
   0,
   0,
   0,
   0,
   0,
   0,
   0,
   0,
   0,
   0,
   0,
   0,
   0,
   0,
   0,
   0,
   0,
   0,
   0,
   0,
   0,
   0,
   0,
   0,
   0,
   0,
   0,
   0,
   0,
   0,
   0,
   0,
   0,
   0,
   0,
   0,
   0,
   0,
   0,
   0,
   0,
   0,
   0,
   0,
   0,
   0,
   0,
   0,
   0,
   0,
   0,
   0,
   0,
   0,
   0,
   0,
   0,
   0,
   0,
   0,
   0,
   0,
   0,
   0,
   0,
   0,
   0,
   0,
   0,
   0,
   0,
   0,
   0,
   0,
   0,
   0,
   0,
   0,
   0,
   0,
   0,
   0,
   0,
   0,
   0,
   0,
   0,
   0,
   0,
   0,
   0,
   0,
   0,
   0,
   0,
   0,
   0,
   0,
   0,
   0,
   0,
   0,
   0,
   0,
   0,
   0,
   0,
   0,
   0,
   0,
   0,
   0,
   0,
   0,
   0,
   0,
   0,
   0,
   0,
   0,
   0,
   0,
   0,
   0,
   0,
   0,
   0,
   0,
   0,
   0,
   0,
   0,
   0,
   0,
   0,
   0,
   0,
   0,
   0,
   0,
   0,
   0;
   { _08_-_Default }
  }

  MeshTextureCoords c1 {
   247;
   0.111217;0.310198;,
   0.051621;0.392325;,
   0.054022;0.310198;,
   0.116741;0.392325;,
   0.119413;0.310198;,
   0.038257;0.392325;,
   0.037777;0.310198;,
   0.119413;0.392325;,
   0.037777;0.310198;,
   0.023227;0.392325;,
   0.023227;0.310198;,
   0.038257;0.392325;,
   -0.049718;0.754397;,
   0.033042;0.679311;,
   0.033042;0.754397;,
   -0.049718;0.679311;,
   0.118166;0.679311;,
   0.118166;0.754397;,
   0.118166;0.754397;,
   0.125260;0.679311;,
   0.125260;0.754397;,
   0.118166;0.679311;,
   0.051621;0.474452;,
   0.116741;0.474452;,
   0.038257;0.474452;,
   0.119413;0.474452;,
   0.023227;0.474452;,
   0.038257;0.474452;,
   0.033042;0.604224;,
   -0.049718;0.604224;,
   0.118166;0.604224;,
   0.125260;0.604224;,
   0.118166;0.604224;,
   0.051621;0.556579;,
   0.116741;0.556579;,
   0.038257;0.556579;,
   0.119413;0.556579;,
   0.023227;0.556579;,
   0.038257;0.556579;,
   0.033042;0.529137;,
   -0.049718;0.529137;,
   0.118166;0.529137;,
   0.125260;0.529137;,
   0.118166;0.529137;,
   0.051621;0.638706;,
   0.116741;0.638706;,
   0.038257;0.638706;,
   0.119413;0.638706;,
   0.023227;0.638706;,
   0.038257;0.638706;,
   0.033042;0.454050;,
   -0.049718;0.454050;,
   0.118166;0.454051;,
   0.125260;0.454051;,
   0.118166;0.454051;,
   0.051621;0.720832;,
   0.116741;0.720832;,
   0.038257;0.720832;,
   0.119413;0.720832;,
   0.023227;0.720832;,
   0.038257;0.720832;,
   0.033042;0.378964;,
   -0.049718;0.378964;,
   0.118166;0.378964;,
   0.125260;0.378964;,
   0.118166;0.378964;,
   0.049939;0.802959;,
   0.120103;0.802959;,
   0.035375;0.802959;,
   0.127339;0.802959;,
   0.023227;0.802959;,
   0.035375;0.802959;,
   0.033042;0.303877;,
   -0.049718;0.303877;,
   0.118166;0.303877;,
   0.125260;0.303877;,
   0.118166;0.303877;,
   0.755461;0.333389;,
   0.212776;0.333693;,
   0.257412;0.333693;,
   0.675494;0.333389;,
   0.695884;0.333389;,
   0.925395;0.926814;,
   0.930682;0.366259;,
   0.923490;0.929951;,
   0.952284;0.368762;,
   0.887477;0.366259;,
   0.877175;0.920266;,
   0.865875;0.368762;,
   0.860804;0.919418;,
   0.887477;0.371265;,
   0.877174;0.920266;,
   0.930682;0.371265;,
   0.923490;0.927011;,
   0.923563;0.926695;,
   0.519708;0.979102;,
   0.504083;0.854102;,
   0.496271;0.979102;,
   0.519708;0.830665;,
   0.441583;0.854102;,
   0.457208;0.979102;,
   0.433771;0.830665;,
   0.433771;0.979102;,
   0.441583;0.854102;,
   0.457208;0.979102;,
   0.504083;0.854102;,
   0.496271;0.979102;,
   0.504083;0.854102;,
   0.433771;0.830665;,
   0.441583;0.854102;,
   0.519708;0.830665;,
   0.441583;0.854102;,
   0.504083;0.854102;,
   0.923490;0.927011;,
   0.892582;0.948634;,
   0.877174;0.920266;,
   0.860804;0.919418;,
   0.877175;0.920266;,
   0.923490;0.929951;,
   0.925395;0.926814;,
   0.923563;0.926695;,
   0.213205;0.529118;,
   0.245412;0.839208;,
   0.245872;0.529118;,
   0.211952;0.833543;,
   0.182154;0.529118;,
   0.179549;0.825286;,
   0.703487;0.537445;,
   0.689162;0.863840;,
   0.688565;0.537445;,
   0.703037;0.858244;,
   0.747090;0.537445;,
   0.748566;0.852756;,
   0.759116;0.537445;,
   0.760023;0.842573;,
   0.212776;0.500595;,
   0.257412;0.500595;,
   0.170349;0.500595;,
   0.695884;0.507818;,
   0.675494;0.507818;,
   0.755461;0.507818;,
   0.771893;0.507818;,
   0.212776;0.333693;,
   0.257412;0.500595;,
   0.257412;0.333693;,
   0.212776;0.500595;,
   0.170349;0.333693;,
   0.170349;0.500595;,
   0.695884;0.333389;,
   0.675494;0.507818;,
   0.675494;0.333389;,
   0.695884;0.507818;,
   0.755461;0.333389;,
   0.755461;0.507818;,
   0.771893;0.333389;,
   0.771893;0.507818;,
   0.195631;0.856965;,
   0.235011;0.856965;,
   0.755461;0.333389;,
   0.212776;0.333693;,
   0.257412;0.333693;,
   0.675494;0.333389;,
   0.695884;0.333389;,
   0.813904;0.977859;,
   0.853551;0.982526;,
   0.774258;0.982526;,
   0.853551;0.977859;,
   0.714788;0.977859;,
   0.714788;0.982526;,
   0.655318;0.977859;,
   0.615671;0.982526;,
   0.576024;0.977859;,
   0.576024;0.982526;,
   0.105706;0.246135;,
   0.059249;0.296867;,
   0.059249;0.261412;,
   0.152162;0.296867;,
   0.152162;0.212527;,
   0.198618;0.212527;,
   0.221846;0.296867;,
   0.245074;0.212527;,
   0.291531;0.212527;,
   0.337987;0.296867;,
   0.337987;0.246135;,
   0.384443;0.258357;,
   0.384443;0.296867;,
   0.105706;0.122076;,
   0.059249;0.183182;,
   0.198618;0.055878;,
   0.152162;0.081339;,
   0.291531;0.081339;,
   0.245074;0.055878;,
   0.384443;0.183182;,
   0.337987;0.122076;,
   0.221127;0.267295;,
   0.206438;0.295708;,
   0.204376;0.267295;,
   0.223188;0.295708;,
   0.217483;0.048817;,
   0.586515;0.255119;,
   0.534451;0.287626;,
   0.534451;0.277268;,
   0.638580;0.287626;,
   0.638580;0.227858;,
   0.690644;0.204005;,
   0.716677;0.287626;,
   0.742709;0.204005;,
   0.794773;0.227858;,
   0.846838;0.287626;,
   0.846838;0.255119;,
   0.898903;0.277268;,
   0.898903;0.287626;,
   0.586515;0.111527;,
   0.534451;0.164344;,
   0.690644;0.038264;,
   0.638580;0.065524;,
   0.794773;0.065524;,
   0.742709;0.038264;,
   0.898903;0.162641;,
   0.846838;0.109823;,
   0.204376;0.267295;,
   0.223188;0.295708;,
   0.221127;0.267295;,
   0.206438;0.295708;,
   0.217483;0.048817;,
   0.236849;0.289533;,
   0.218458;0.289533;,
   0.232849;0.043780;,
   0.637543;0.604634;,
   0.573258;0.604634;,
   0.570848;0.445628;,
   0.529743;0.428994;,
   0.529743;0.548709;,
   0.481141;0.455035;,
   0.236849;0.289533;,
   0.232849;0.043780;,
   0.218458;0.289533;,
   0.236849;0.295492;,
   0.218458;0.295492;,
   0.218458;0.295492;,
   0.236849;0.295492;,
   0.218458;0.295492;,
   0.236849;0.295492;,
   0.218458;0.295492;,
   0.236849;0.295492;,
   0.232849;0.043780;,
   0.232849;0.043780;;
  }
 }
}