xof 0303txt 0032
template ColorRGBA {
 <35ff44e0-6c7c-11cf-8f52-0040333594a3>
 FLOAT red;
 FLOAT green;
 FLOAT blue;
 FLOAT alpha;
}

template ColorRGB {
 <d3e16e81-7835-11cf-8f52-0040333594a3>
 FLOAT red;
 FLOAT green;
 FLOAT blue;
}

template Material {
 <3d82ab4d-62da-11cf-ab39-0020af71e433>
 ColorRGBA faceColor;
 FLOAT power;
 ColorRGB specularColor;
 ColorRGB emissiveColor;
 [...]
}

template TextureFilename {
 <a42790e1-7810-11cf-8f52-0040333594a3>
 STRING filename;
}

template Frame {
 <3d82ab46-62da-11cf-ab39-0020af71e433>
 [...]
}

template Matrix4x4 {
 <f6f23f45-7686-11cf-8f52-0040333594a3>
 array FLOAT matrix[16];
}

template FrameTransformMatrix {
 <f6f23f41-7686-11cf-8f52-0040333594a3>
 Matrix4x4 frameMatrix;
}

template Vector {
 <3d82ab5e-62da-11cf-ab39-0020af71e433>
 FLOAT x;
 FLOAT y;
 FLOAT z;
}

template MeshFace {
 <3d82ab5f-62da-11cf-ab39-0020af71e433>
 DWORD nFaceVertexIndices;
 array DWORD faceVertexIndices[nFaceVertexIndices];
}

template Mesh {
 <3d82ab44-62da-11cf-ab39-0020af71e433>
 DWORD nVertices;
 array Vector vertices[nVertices];
 DWORD nFaces;
 array MeshFace faces[nFaces];
 [...]
}

template MeshNormals {
 <f6f23f43-7686-11cf-8f52-0040333594a3>
 DWORD nNormals;
 array Vector normals[nNormals];
 DWORD nFaceNormals;
 array MeshFace faceNormals[nFaceNormals];
}

template MeshMaterialList {
 <f6f23f42-7686-11cf-8f52-0040333594a3>
 DWORD nMaterials;
 DWORD nFaceIndexes;
 array DWORD faceIndexes[nFaceIndexes];
 [Material <3d82ab4d-62da-11cf-ab39-0020af71e433>]
}

template Coords2d {
 <f6f23f44-7686-11cf-8f52-0040333594a3>
 FLOAT u;
 FLOAT v;
}

template MeshTextureCoords {
 <f6f23f40-7686-11cf-8f52-0040333594a3>
 DWORD nTextureCoords;
 array Coords2d textureCoords[nTextureCoords];
}


Material Material__101 {
 1.000000;1.000000;1.000000;1.000000;;
 9.999999;
 0.000000;0.000000;0.000000;;
 0.000000;0.000000;0.000000;;

 TextureFilename {
  "ArmyHelmet.png";
 }
}

Frame F_ArmyHelmet {
 

 FrameTransformMatrix {
  1.000000,0.000000,0.000000,0.000000,0.000000,1.000000,-0.000001,0.000000,-0.000000,0.000001,1.000000,0.000000,0.000000,0.000000,0.000000,1.000000;;
 }

 Mesh F_ArmyHelmet {
  199;
  0.166018;0.000001;0.001942;,
  0.157987;-0.028159;-0.024041;,
  0.157579;0.000001;-0.036259;,
  0.158868;-0.038709;0.002285;,
  0.159749;-0.025999;0.032190;,
  0.160158;0.000001;0.048945;,
  0.134400;-0.035767;-0.054594;,
  0.133987;0.000001;-0.063538;,
  0.135529;-0.054552;-0.030158;,
  0.137072;-0.059143;0.003222;,
  0.139179;-0.035677;0.050352;,
  0.140157;0.000001;0.068443;,
  0.100533;-0.041301;-0.063200;,
  0.100055;0.000001;-0.073660;,
  0.101837;-0.062991;-0.034621;,
  0.103618;-0.068292;0.004418;,
  0.105399;-0.055594;0.044009;,
  0.107197;-0.027759;0.070259;,
  0.108510;0.000001;0.078375;,
  0.089462;-0.045295;-0.066780;,
  0.089048;0.000001;-0.077682;,
  0.090591;-0.069082;-0.036994;,
  0.092133;-0.074896;0.003693;,
  0.093676;-0.059917;0.046829;,
  0.094805;-0.030443;0.081546;,
  0.096803;0.000001;0.091869;,
  0.051948;-0.046543;-0.067181;,
  0.058862;0.000001;-0.076633;,
  0.048493;-0.070986;-0.037582;,
  0.049941;-0.074939;0.003501;,
  0.060400;-0.068738;0.024902;,
  0.094805;-0.030443;0.081546;,
  0.084699;-0.050679;0.047099;,
  0.084488;-0.056660;0.050914;,
  0.094731;-0.027090;0.074636;,
  0.096803;0.000001;0.091869;,
  0.094731;-0.027090;0.074636;,
  0.096223;0.000001;0.084040;,
  0.051948;-0.046543;-0.067181;,
  0.060687;0.000001;-0.070226;,
  0.058862;0.000001;-0.076633;,
  0.055522;-0.041754;-0.061616;,
  0.048493;-0.070986;-0.037582;,
  0.055522;-0.041754;-0.061616;,
  0.052942;-0.064018;-0.034656;,
  0.049941;-0.074939;0.003501;,
  0.052942;-0.064018;-0.034656;,
  0.052717;-0.067620;0.002766;,
  0.060400;-0.068738;0.024902;,
  0.052717;-0.067620;0.002766;,
  0.061115;-0.061971;0.021923;,
  0.126313;-0.018848;0.041599;,
  0.125878;-0.039516;0.020253;,
  0.094731;-0.027090;0.074636;,
  0.096223;0.000001;0.084040;,
  0.127083;0.000001;0.047616;,
  0.055522;-0.041754;-0.061616;,
  0.108751;0.000001;-0.047464;,
  0.060687;0.000001;-0.070226;,
  0.105421;-0.044341;-0.033720;,
  0.052942;-0.064018;-0.034656;,
  0.052717;-0.067620;0.002766;,
  0.108874;-0.046386;0.005457;,
  0.061115;-0.061971;0.021923;,
  0.084488;-0.056660;0.050914;,
  0.084699;-0.050679;0.047099;,
  0.061115;-0.061971;0.021923;,
  0.084699;-0.050679;0.047099;,
  0.157987;0.028160;-0.024041;,
  0.158868;0.038711;0.002285;,
  0.159749;0.026000;0.032190;,
  0.134400;0.035769;-0.054594;,
  0.135529;0.054553;-0.030158;,
  0.137072;0.059144;0.003222;,
  0.139179;0.035678;0.050352;,
  0.100533;0.041302;-0.063200;,
  0.101837;0.062992;-0.034621;,
  0.103618;0.068294;0.004418;,
  0.105399;0.055595;0.044009;,
  0.107197;0.027760;0.070259;,
  0.089462;0.045296;-0.066780;,
  0.090591;0.069084;-0.036994;,
  0.092134;0.074898;0.003693;,
  0.093676;0.059919;0.046829;,
  0.094805;0.030445;0.081546;,
  0.051948;0.046544;-0.067181;,
  0.048493;0.070987;-0.037582;,
  0.049941;0.074941;0.003501;,
  0.060400;0.068740;0.024902;,
  0.094805;0.030445;0.081546;,
  0.084699;0.050681;0.047099;,
  0.094731;0.027091;0.074636;,
  0.084488;0.056661;0.050914;,
  0.094731;0.027091;0.074636;,
  0.096223;0.000001;0.084040;,
  0.051948;0.046544;-0.067181;,
  0.060687;0.000001;-0.070226;,
  0.055522;0.041756;-0.061616;,
  0.048493;0.070987;-0.037582;,
  0.055522;0.041756;-0.061616;,
  0.052942;0.064020;-0.034656;,
  0.049941;0.074941;0.003501;,
  0.052942;0.064020;-0.034656;,
  0.052717;0.067621;0.002766;,
  0.060400;0.068740;0.024902;,
  0.052717;0.067621;0.002766;,
  0.061115;0.061973;0.021923;,
  0.125878;0.039517;0.020253;,
  0.126313;0.018849;0.041599;,
  0.094731;0.027091;0.074636;,
  0.055522;0.041756;-0.061616;,
  0.105421;0.044342;-0.033720;,
  0.052942;0.064020;-0.034656;,
  0.052717;0.067621;0.002766;,
  0.108874;0.046388;0.005457;,
  0.061115;0.061973;0.021923;,
  0.084488;0.056661;0.050914;,
  0.084699;0.050681;0.047099;,
  0.084699;0.050681;0.047099;,
  0.061077;0.067455;0.016009;,
  -0.002550;0.020855;0.052757;,
  0.003160;0.020941;0.059992;,
  0.055709;0.067455;0.008611;,
  -0.007220;0.000005;0.060817;,
  -0.003041;0.000005;0.069008;,
  0.061996;0.065834;0.015342;,
  0.001881;0.019410;0.051770;,
  0.056628;0.065834;0.007944;,
  0.007735;0.019791;0.058822;,
  -0.001940;0.000005;0.059616;,
  0.002127;0.000005;0.067837;,
  0.061077;0.067455;0.016009;,
  0.007735;0.019791;0.058822;,
  0.061996;0.065834;0.015342;,
  0.003160;0.020941;0.059992;,
  0.002127;0.000005;0.067837;,
  -0.003041;0.000005;0.069008;,
  -0.007220;0.000005;0.060817;,
  0.001881;0.019410;0.051770;,
  -0.001940;0.000005;0.059616;,
  -0.002550;0.020855;0.052757;,
  0.056628;0.065834;0.007944;,
  0.055709;0.067455;0.008611;,
  0.061077;-0.067453;0.016009;,
  -0.002550;-0.020845;0.052757;,
  0.055709;-0.067453;0.008611;,
  0.003160;-0.020931;0.059992;,
  0.061996;-0.065831;0.015342;,
  0.001881;-0.019400;0.051770;,
  0.007735;-0.019781;0.058822;,
  0.056628;-0.065831;0.007944;,
  0.061077;-0.067453;0.016009;,
  0.007735;-0.019781;0.058822;,
  0.003160;-0.020931;0.059992;,
  0.061996;-0.065831;0.015342;,
  0.001881;-0.019400;0.051770;,
  -0.002550;-0.020845;0.052757;,
  0.056628;-0.065831;0.007944;,
  0.055709;-0.067453;0.008611;,
  0.004699;0.015108;0.056115;,
  0.013111;0.013512;0.063486;,
  0.005622;0.009142;0.065044;,
  0.007819;0.025011;0.051717;,
  0.015440;0.000005;0.069822;,
  0.006977;0.000005;0.068405;,
  0.004748;0.016770;0.060088;,
  0.013248;0.013215;0.068326;,
  0.007356;0.023123;0.056546;,
  0.005759;0.008845;0.068243;,
  0.015136;0.000005;0.073238;,
  0.007106;0.000005;0.073158;,
  0.004699;0.015108;0.056115;,
  0.005759;0.008845;0.068243;,
  0.004748;0.016770;0.060088;,
  0.005622;0.009142;0.065044;,
  0.007106;0.000005;0.073158;,
  0.006977;0.000005;0.068405;,
  0.015440;0.000005;0.069822;,
  0.013248;0.013215;0.068326;,
  0.015136;0.000005;0.073238;,
  0.013111;0.013512;0.063486;,
  0.007356;0.023123;0.056546;,
  0.007819;0.025011;0.051717;,
  0.004699;-0.014850;0.056115;,
  0.013111;-0.013503;0.063486;,
  0.007819;-0.024753;0.051717;,
  0.005622;-0.009133;0.065044;,
  0.004748;-0.016511;0.060088;,
  0.013248;-0.013206;0.068326;,
  0.005759;-0.008836;0.069884;,
  0.007356;-0.022864;0.056546;,
  0.004699;-0.014850;0.056115;,
  0.005759;-0.008836;0.069884;,
  0.005622;-0.009133;0.065044;,
  0.004748;-0.016511;0.060088;,
  0.013248;-0.013206;0.068326;,
  0.013111;-0.013503;0.063486;,
  0.007356;-0.022864;0.056546;,
  0.007819;-0.024753;0.051717;;
  208;
  3;0,1,2;,
  3;0,3,1;,
  3;0,4,3;,
  3;0,5,4;,
  3;2,6,7;,
  3;6,2,1;,
  3;8,6,1;,
  3;1,9,8;,
  3;9,1,3;,
  3;3,10,9;,
  3;10,3,4;,
  3;4,11,10;,
  3;11,4,5;,
  3;7,12,13;,
  3;12,7,6;,
  3;6,14,12;,
  3;14,6,8;,
  3;8,15,14;,
  3;15,8,9;,
  3;9,16,15;,
  3;16,9,10;,
  3;17,16,10;,
  3;11,17,10;,
  3;17,11,18;,
  3;13,19,20;,
  3;19,13,12;,
  3;12,21,19;,
  3;21,12,14;,
  3;14,22,21;,
  3;22,14,15;,
  3;15,23,22;,
  3;23,15,16;,
  3;16,24,23;,
  3;24,16,17;,
  3;17,25,24;,
  3;25,17,18;,
  3;20,26,27;,
  3;26,20,19;,
  3;19,28,26;,
  3;28,19,21;,
  3;21,29,28;,
  3;29,21,22;,
  3;22,30,29;,
  3;30,22,23;,
  3;31,32,33;,
  3;32,31,34;,
  3;35,36,31;,
  3;36,35,37;,
  3;38,39,40;,
  3;39,38,41;,
  3;42,43,38;,
  3;43,42,44;,
  3;45,46,42;,
  3;46,45,47;,
  3;48,49,45;,
  3;49,48,50;,
  3;51,52,53;,
  3;54,51,53;,
  3;51,54,55;,
  3;56,57,58;,
  3;57,56,59;,
  3;59,56,60;,
  3;61,59,60;,
  3;59,61,62;,
  3;62,63,52;,
  3;62,61,63;,
  3;24,64,23;,
  3;23,64,30;,
  3;48,65,66;,
  3;65,48,33;,
  3;63,67,52;,
  3;52,67,53;,
  3;0,2,68;,
  3;0,68,69;,
  3;0,69,70;,
  3;0,70,5;,
  3;2,71,68;,
  3;71,2,7;,
  3;72,68,71;,
  3;68,73,69;,
  3;73,68,72;,
  3;69,74,70;,
  3;74,69,73;,
  3;70,11,5;,
  3;11,70,74;,
  3;7,75,71;,
  3;75,7,13;,
  3;71,76,72;,
  3;76,71,75;,
  3;72,77,73;,
  3;77,72,76;,
  3;73,78,74;,
  3;78,73,77;,
  3;79,74,78;,
  3;79,11,74;,
  3;11,79,18;,
  3;13,80,75;,
  3;80,13,20;,
  3;75,81,76;,
  3;81,75,80;,
  3;76,82,77;,
  3;82,76,81;,
  3;77,83,78;,
  3;83,77,82;,
  3;78,84,79;,
  3;84,78,83;,
  3;79,25,18;,
  3;25,79,84;,
  3;20,85,80;,
  3;85,20,27;,
  3;80,86,81;,
  3;86,80,85;,
  3;81,87,82;,
  3;87,81,86;,
  3;82,88,83;,
  3;88,82,87;,
  3;89,90,91;,
  3;90,89,92;,
  3;35,93,94;,
  3;93,35,89;,
  3;95,96,97;,
  3;96,95,40;,
  3;98,99,100;,
  3;99,98,95;,
  3;101,102,103;,
  3;102,101,98;,
  3;104,105,106;,
  3;105,104,101;,
  3;107,108,109;,
  3;54,108,55;,
  3;108,54,109;,
  3;110,57,111;,
  3;57,110,58;,
  3;110,111,112;,
  3;113,111,114;,
  3;111,113,112;,
  3;114,107,115;,
  3;113,114,115;,
  3;84,83,116;,
  3;83,88,116;,
  3;104,117,92;,
  3;117,104,106;,
  3;115,107,118;,
  3;107,109,118;,
  3;119,120,121;,
  3;120,119,122;,
  3;121,123,124;,
  3;123,121,120;,
  3;125,126,127;,
  3;126,125,128;,
  3;128,129,126;,
  3;129,128,130;,
  3;131,132,133;,
  3;132,131,134;,
  3;134,135,132;,
  3;135,134,136;,
  3;137,138,139;,
  3;138,137,140;,
  3;140,141,138;,
  3;141,140,142;,
  3;143,144,145;,
  3;144,143,146;,
  3;146,123,144;,
  3;123,146,124;,
  3;147,148,149;,
  3;148,147,150;,
  3;149,129,130;,
  3;129,149,148;,
  3;151,152,153;,
  3;152,151,154;,
  3;153,135,136;,
  3;135,153,152;,
  3;137,155,156;,
  3;155,137,139;,
  3;156,157,158;,
  3;157,156,155;,
  3;159,160,161;,
  3;160,159,162;,
  3;161,163,164;,
  3;163,161,160;,
  3;165,166,167;,
  3;166,165,168;,
  3;168,169,166;,
  3;169,168,170;,
  3;171,172,173;,
  3;172,171,174;,
  3;174,175,172;,
  3;175,174,176;,
  3;177,178,179;,
  3;178,177,180;,
  3;180,181,178;,
  3;181,180,182;,
  3;183,184,185;,
  3;184,183,186;,
  3;186,163,184;,
  3;163,186,164;,
  3;187,188,189;,
  3;188,187,190;,
  3;189,169,170;,
  3;169,189,188;,
  3;191,192,193;,
  3;192,191,194;,
  3;193,175,176;,
  3;175,193,192;,
  3;177,195,196;,
  3;195,177,179;,
  3;196,197,198;,
  3;197,196,195;;

  MeshNormals {
   199;
   0.999157;0.000000;-0.041060;,
   0.880089;-0.353814;-0.316638;,
   0.882526;0.000000;-0.470263;,
   0.841966;-0.539419;-0.010982;,
   0.848429;-0.423469;0.317558;,
   0.848690;0.000000;0.528891;,
   0.524457;-0.455546;-0.719321;,
   0.521874;0.000000;-0.853023;,
   0.519561;-0.783836;-0.340084;,
   0.506188;-0.858969;0.077110;,
   0.529294;-0.605481;0.594340;,
   0.539220;-0.000000;0.842165;,
   0.364550;-0.491554;-0.790871;,
   0.319511;0.000000;-0.947583;,
   0.398988;-0.839390;-0.369098;,
   0.384390;-0.919874;0.077953;,
   0.382951;-0.802955;0.456741;,
   0.518197;-0.461603;0.719996;,
   0.566046;-0.000000;0.824373;,
   0.220154;-0.526202;-0.821367;,
   0.162856;-0.000000;-0.986650;,
   0.263640;-0.886362;-0.380600;,
   0.253041;-0.964615;0.074081;,
   0.196514;-0.855230;0.479546;,
   0.607400;-0.453198;0.652439;,
   0.738809;-0.000000;0.673915;,
   0.018168;-0.550613;-0.834563;,
   -0.034726;0.000000;-0.999397;,
   0.044259;-0.926601;-0.373433;,
   0.014483;-0.998861;0.045455;,
   0.006649;-0.947930;0.318409;,
   -0.987014;0.136894;0.084047;,
   -0.889325;0.270216;0.368895;,
   -0.885779;0.271406;0.376476;,
   -0.982892;0.159930;0.091359;,
   -0.997773;0.000000;0.066700;,
   -0.982892;0.159930;0.091359;,
   -0.997268;0.000000;0.073873;,
   -0.900939;0.316523;0.296854;,
   -0.958080;0.000000;0.286500;,
   -0.961721;0.000000;0.274031;,
   -0.897388;0.291079;0.331615;,
   -0.863951;0.472761;0.173451;,
   -0.897388;0.291079;0.331615;,
   -0.866470;0.466984;0.176508;,
   -0.909774;0.377053;0.173615;,
   -0.866470;0.466984;0.176508;,
   -0.917249;0.353854;0.182873;,
   -0.840684;0.303724;0.448333;,
   -0.917249;0.353854;0.182873;,
   -0.845108;0.287589;0.450650;,
   -0.710657;0.412847;-0.569669;,
   -0.488571;0.816853;-0.306674;,
   -0.671095;0.464758;-0.577608;,
   -0.757511;0.000000;-0.652822;,
   -0.762975;0.000000;-0.646428;,
   -0.388942;0.493476;0.777949;,
   -0.456122;-0.000000;0.889917;,
   -0.427996;-0.000000;0.903780;,
   -0.431051;0.736560;0.521223;,
   -0.337102;0.883567;0.325071;,
   -0.351936;0.936023;0.001562;,
   -0.341092;0.939920;-0.014403;,
   -0.339074;0.933883;-0.113537;,
   -0.036061;-0.819275;0.572265;,
   -0.889325;0.270216;0.368895;,
   -0.845108;0.287589;0.450650;,
   -0.416894;0.864801;-0.279855;,
   0.880089;0.353814;-0.316638;,
   0.841966;0.539419;-0.010982;,
   0.848428;0.423469;0.317558;,
   0.524457;0.455546;-0.719321;,
   0.519561;0.783837;-0.340083;,
   0.506188;0.858969;0.077110;,
   0.529295;0.605481;0.594340;,
   0.364551;0.491555;-0.790871;,
   0.398988;0.839390;-0.369097;,
   0.384390;0.919874;0.077953;,
   0.382951;0.802955;0.456741;,
   0.518196;0.461603;0.719997;,
   0.220155;0.526203;-0.821366;,
   0.263640;0.886362;-0.380599;,
   0.253041;0.964615;0.074081;,
   0.196514;0.855230;0.479546;,
   0.607399;0.453198;0.652440;,
   0.018167;0.550613;-0.834563;,
   0.044259;0.926601;-0.373433;,
   0.014483;0.998861;0.045455;,
   0.006649;0.947930;0.318410;,
   -0.987014;-0.136895;0.084045;,
   -0.889326;-0.270217;0.368894;,
   -0.982892;-0.159931;0.091357;,
   -0.885779;-0.271407;0.376476;,
   -0.982892;-0.159931;0.091357;,
   -0.997268;0.000000;0.073873;,
   -0.900939;-0.316523;0.296853;,
   -0.958080;0.000000;0.286500;,
   -0.897388;-0.291078;0.331614;,
   -0.863951;-0.472761;0.173450;,
   -0.897388;-0.291078;0.331614;,
   -0.866471;-0.466984;0.176508;,
   -0.909774;-0.377053;0.173615;,
   -0.866471;-0.466984;0.176508;,
   -0.917249;-0.353854;0.182872;,
   -0.840683;-0.303727;0.448332;,
   -0.917249;-0.353854;0.182872;,
   -0.845108;-0.287592;0.450648;,
   -0.488571;-0.816853;-0.306674;,
   -0.710657;-0.412847;-0.569669;,
   -0.671095;-0.464757;-0.577609;,
   -0.388942;-0.493477;0.777949;,
   -0.431051;-0.736560;0.521223;,
   -0.337102;-0.883567;0.325071;,
   -0.351937;-0.936023;0.001563;,
   -0.341092;-0.939919;-0.014403;,
   -0.339074;-0.933883;-0.113537;,
   -0.036061;0.819275;0.572265;,
   -0.889326;-0.270217;0.368894;,
   -0.416894;-0.864801;-0.279856;,
   -0.434684;0.843120;0.316541;,
   -0.599298;0.651984;0.464499;,
   -0.621112;0.638202;0.454883;,
   -0.435172;0.843164;0.315752;,
   -0.870308;-0.000000;0.492509;,
   -0.890813;-0.000000;0.454370;,
   0.447080;-0.833558;-0.324501;,
   0.607335;-0.640885;-0.469478;,
   0.447128;-0.833561;-0.324425;,
   0.627752;-0.632372;-0.453908;,
   0.872647;-0.000000;-0.488351;,
   0.896310;0.000000;-0.443428;,
   0.607034;0.033810;0.793957;,
   0.318941;0.371779;0.871813;,
   0.613267;0.022870;0.789544;,
   0.305138;0.352303;0.884745;,
   0.233235;-0.000000;0.972420;,
   0.221039;0.000000;0.975265;,
   -0.235987;-0.000000;-0.971756;,
   -0.308343;-0.365098;-0.878424;,
   -0.221717;-0.000000;-0.975111;,
   -0.310797;-0.333981;-0.889866;,
   -0.592764;-0.022211;-0.805070;,
   -0.598803;-0.010044;-0.800833;,
   -0.434735;-0.843081;0.316576;,
   -0.599317;-0.651955;0.464514;,
   -0.435223;-0.843125;0.315788;,
   -0.621130;-0.638174;0.454898;,
   0.447129;0.833516;-0.324539;,
   0.607354;0.640855;-0.469495;,
   0.627769;0.632344;-0.453924;,
   0.447178;0.833520;-0.324463;,
   0.607031;-0.033810;0.793959;,
   0.318938;-0.371754;0.871824;,
   0.305137;-0.352291;0.884750;,
   0.613265;-0.022871;0.789546;,
   -0.308334;0.365078;-0.878435;,
   -0.310790;0.333972;-0.889872;,
   -0.592764;0.022207;-0.805070;,
   -0.598803;0.010043;-0.800833;,
   0.471907;-0.579812;-0.664170;,
   0.280957;-0.587059;-0.759226;,
   0.188283;-0.553986;-0.810956;,
   0.525734;-0.478100;-0.703580;,
   0.118916;-0.000000;-0.992904;,
   0.165102;-0.000000;-0.986276;,
   -0.421910;0.588834;0.689396;,
   -0.316827;0.498915;0.806662;,
   -0.437720;0.568208;0.696808;,
   -0.241275;0.493158;0.835812;,
   -0.053643;0.037602;0.997852;,
   -0.009945;0.075261;0.997114;,
   -0.995592;-0.082651;0.044331;,
   -0.991676;-0.124725;0.031977;,
   -0.995756;-0.079828;0.045803;,
   -0.993005;-0.113743;0.031691;,
   -0.999601;0.010542;0.026207;,
   -0.999631;-0.000000;0.027177;,
   0.997459;-0.000001;0.071246;,
   0.965665;0.259784;-0.001879;,
   0.996077;-0.000001;0.088487;,
   0.905152;0.424660;0.019083;,
   0.712880;0.637662;0.291872;,
   0.693699;0.645770;0.319003;,
   0.480036;0.583996;-0.654610;,
   0.287477;0.590189;-0.754343;,
   0.534313;0.477961;-0.697182;,
   0.192277;0.559191;-0.806433;,
   -0.409394;-0.618605;0.670615;,
   -0.216789;-0.575947;0.788218;,
   -0.123530;-0.513507;0.849147;,
   -0.447735;-0.568584;0.690106;,
   -0.995670;0.083915;0.039999;,
   -0.990606;0.135011;0.021731;,
   -0.990964;0.132530;0.020634;,
   -0.996206;0.075172;0.043859;,
   0.965109;-0.261843;-0.001692;,
   0.901175;-0.432998;0.019926;,
   0.700730;-0.649543;0.295078;,
   0.680887;-0.657606;0.322407;;
   208;
   3;0,1,2;,
   3;0,3,1;,
   3;0,4,3;,
   3;0,5,4;,
   3;2,6,7;,
   3;6,2,1;,
   3;8,6,1;,
   3;1,9,8;,
   3;9,1,3;,
   3;3,10,9;,
   3;10,3,4;,
   3;4,11,10;,
   3;11,4,5;,
   3;7,12,13;,
   3;12,7,6;,
   3;6,14,12;,
   3;14,6,8;,
   3;8,15,14;,
   3;15,8,9;,
   3;9,16,15;,
   3;16,9,10;,
   3;17,16,10;,
   3;11,17,10;,
   3;17,11,18;,
   3;13,19,20;,
   3;19,13,12;,
   3;12,21,19;,
   3;21,12,14;,
   3;14,22,21;,
   3;22,14,15;,
   3;15,23,22;,
   3;23,15,16;,
   3;16,24,23;,
   3;24,16,17;,
   3;17,25,24;,
   3;25,17,18;,
   3;20,26,27;,
   3;26,20,19;,
   3;19,28,26;,
   3;28,19,21;,
   3;21,29,28;,
   3;29,21,22;,
   3;22,30,29;,
   3;30,22,23;,
   3;31,32,33;,
   3;32,31,34;,
   3;35,36,31;,
   3;36,35,37;,
   3;38,39,40;,
   3;39,38,41;,
   3;42,43,38;,
   3;43,42,44;,
   3;45,46,42;,
   3;46,45,47;,
   3;48,49,45;,
   3;49,48,50;,
   3;51,52,53;,
   3;54,51,53;,
   3;51,54,55;,
   3;56,57,58;,
   3;57,56,59;,
   3;59,56,60;,
   3;61,59,60;,
   3;59,61,62;,
   3;62,63,52;,
   3;62,61,63;,
   3;24,64,23;,
   3;23,64,30;,
   3;48,65,66;,
   3;65,48,33;,
   3;63,67,52;,
   3;52,67,53;,
   3;0,2,68;,
   3;0,68,69;,
   3;0,69,70;,
   3;0,70,5;,
   3;2,71,68;,
   3;71,2,7;,
   3;72,68,71;,
   3;68,73,69;,
   3;73,68,72;,
   3;69,74,70;,
   3;74,69,73;,
   3;70,11,5;,
   3;11,70,74;,
   3;7,75,71;,
   3;75,7,13;,
   3;71,76,72;,
   3;76,71,75;,
   3;72,77,73;,
   3;77,72,76;,
   3;73,78,74;,
   3;78,73,77;,
   3;79,74,78;,
   3;79,11,74;,
   3;11,79,18;,
   3;13,80,75;,
   3;80,13,20;,
   3;75,81,76;,
   3;81,75,80;,
   3;76,82,77;,
   3;82,76,81;,
   3;77,83,78;,
   3;83,77,82;,
   3;78,84,79;,
   3;84,78,83;,
   3;79,25,18;,
   3;25,79,84;,
   3;20,85,80;,
   3;85,20,27;,
   3;80,86,81;,
   3;86,80,85;,
   3;81,87,82;,
   3;87,81,86;,
   3;82,88,83;,
   3;88,82,87;,
   3;89,90,91;,
   3;90,89,92;,
   3;35,93,94;,
   3;93,35,89;,
   3;95,96,97;,
   3;96,95,40;,
   3;98,99,100;,
   3;99,98,95;,
   3;101,102,103;,
   3;102,101,98;,
   3;104,105,106;,
   3;105,104,101;,
   3;107,108,109;,
   3;54,108,55;,
   3;108,54,109;,
   3;110,57,111;,
   3;57,110,58;,
   3;110,111,112;,
   3;113,111,114;,
   3;111,113,112;,
   3;114,107,115;,
   3;113,114,115;,
   3;84,83,116;,
   3;83,88,116;,
   3;104,117,92;,
   3;117,104,106;,
   3;115,107,118;,
   3;107,109,118;,
   3;119,120,121;,
   3;120,119,122;,
   3;121,123,124;,
   3;123,121,120;,
   3;125,126,127;,
   3;126,125,128;,
   3;128,129,126;,
   3;129,128,130;,
   3;131,132,133;,
   3;132,131,134;,
   3;134,135,132;,
   3;135,134,136;,
   3;137,138,139;,
   3;138,137,140;,
   3;140,141,138;,
   3;141,140,142;,
   3;143,144,145;,
   3;144,143,146;,
   3;146,123,144;,
   3;123,146,124;,
   3;147,148,149;,
   3;148,147,150;,
   3;149,129,130;,
   3;129,149,148;,
   3;151,152,153;,
   3;152,151,154;,
   3;153,135,136;,
   3;135,153,152;,
   3;137,155,156;,
   3;155,137,139;,
   3;156,157,158;,
   3;157,156,155;,
   3;159,160,161;,
   3;160,159,162;,
   3;161,163,164;,
   3;163,161,160;,
   3;165,166,167;,
   3;166,165,168;,
   3;168,169,166;,
   3;169,168,170;,
   3;171,172,173;,
   3;172,171,174;,
   3;174,175,172;,
   3;175,174,176;,
   3;177,178,179;,
   3;178,177,180;,
   3;180,181,178;,
   3;181,180,182;,
   3;183,184,185;,
   3;184,183,186;,
   3;186,163,184;,
   3;163,186,164;,
   3;187,188,189;,
   3;188,187,190;,
   3;189,169,170;,
   3;169,189,188;,
   3;191,192,193;,
   3;192,191,194;,
   3;193,175,176;,
   3;175,193,192;,
   3;177,195,196;,
   3;195,177,179;,
   3;196,197,198;,
   3;197,196,195;;
  }

  MeshMaterialList {
   1;
   208;
   0,
   0,
   0,
   0,
   0,
   0,
   0,
   0,
   0,
   0,
   0,
   0,
   0,
   0,
   0,
   0,
   0,
   0,
   0,
   0,
   0,
   0,
   0,
   0,
   0,
   0,
   0,
   0,
   0,
   0,
   0,
   0,
   0,
   0,
   0,
   0,
   0,
   0,
   0,
   0,
   0,
   0,
   0,
   0,
   0,
   0,
   0,
   0,
   0,
   0,
   0,
   0,
   0,
   0,
   0,
   0,
   0,
   0,
   0,
   0,
   0,
   0,
   0,
   0,
   0,
   0,
   0,
   0,
   0,
   0,
   0,
   0,
   0,
   0,
   0,
   0,
   0,
   0,
   0,
   0,
   0,
   0,
   0,
   0,
   0,
   0,
   0,
   0,
   0,
   0,
   0,
   0,
   0,
   0,
   0,
   0,
   0,
   0,
   0,
   0,
   0,
   0,
   0,
   0,
   0,
   0,
   0,
   0,
   0,
   0,
   0,
   0,
   0,
   0,
   0,
   0,
   0,
   0,
   0,
   0,
   0,
   0,
   0,
   0,
   0,
   0,
   0,
   0,
   0,
   0,
   0,
   0,
   0,
   0,
   0,
   0,
   0,
   0,
   0,
   0,
   0,
   0,
   0,
   0,
   0,
   0,
   0,
   0,
   0,
   0,
   0,
   0,
   0,
   0,
   0,
   0,
   0,
   0,
   0,
   0,
   0,
   0,
   0,
   0,
   0,
   0,
   0,
   0,
   0,
   0,
   0,
   0,
   0,
   0,
   0,
   0,
   0,
   0,
   0,
   0,
   0,
   0,
   0,
   0,
   0,
   0,
   0,
   0,
   0,
   0,
   0,
   0,
   0,
   0,
   0,
   0,
   0,
   0,
   0,
   0,
   0,
   0,
   0,
   0,
   0,
   0,
   0,
   0;
   { Material__101 }
  }

  MeshTextureCoords c1 {
   199;
   0.499366;0.432054;,
   0.412179;0.377218;,
   0.498886;0.343185;,
   0.371265;0.426910;,
   0.415434;0.496869;,
   0.499865;0.546343;,
   0.373603;0.281770;,
   0.497660;0.247913;,
   0.309699;0.342262;,
   0.284585;0.422199;,
   0.373077;0.551530;,
   0.500881;0.614804;,
   0.319084;0.189865;,
   0.496601;0.141729;,
   0.220895;0.286074;,
   0.187896;0.421209;,
   0.240028;0.561559;,
   0.359561;0.668787;,
   0.502325;0.708682;,
   0.306836;0.180573;,
   0.496429;0.126750;,
   0.207227;0.277740;,
   0.172124;0.405878;,
   0.204668;0.564034;,
   0.331269;0.704492;,
   0.503059;0.750531;,
   0.241582;0.068970;,
   0.495612;0.024452;,
   0.089356;0.190511;,
   0.029259;0.358986;,
   0.070931;0.470092;,
   0.331269;0.704492;,
   0.192168;0.628969;,
   0.184593;0.591494;,
   0.299312;0.711796;,
   0.503059;0.750531;,
   0.355841;0.735849;,
   0.468606;0.765531;,
   0.241582;0.068970;,
   0.460807;0.009327;,
   0.495612;0.024452;,
   0.285819;0.038086;,
   0.089356;0.190511;,
   0.204362;0.060172;,
   0.106598;0.138140;,
   0.029259;0.358986;,
   0.045989;0.208175;,
   0.009765;0.318348;,
   0.070931;0.470092;,
   0.013002;0.398749;,
   0.037020;0.466082;,
   0.750292;0.779879;,
   0.796623;0.729131;,
   0.678583;0.759642;,
   0.658174;0.826159;,
   0.737232;0.826159;,
   0.974320;0.723635;,
   0.943603;0.826159;,
   0.993007;0.826159;,
   0.913771;0.717284;,
   0.915802;0.668968;,
   0.834579;0.660126;,
   0.828738;0.712261;,
   0.792997;0.673994;,
   0.184593;0.591494;,
   0.156269;0.601545;,
   0.065347;0.506148;,
   0.738354;0.701721;,
   0.585810;0.376786;,
   0.627397;0.426095;,
   0.583820;0.496423;,
   0.622114;0.279996;,
   0.686988;0.339328;,
   0.713633;0.418925;,
   0.627676;0.549915;,
   0.674788;0.186935;,
   0.774472;0.281315;,
   0.809770;0.415719;,
   0.761300;0.556914;,
   0.644330;0.666354;,
   0.686812;0.177416;,
   0.787793;0.272840;,
   0.824345;0.400297;,
   0.797036;0.558507;,
   0.674311;0.700989;,
   0.750345;0.064920;,
   0.904346;0.184358;,
   0.966058;0.352410;,
   0.924261;0.458228;,
   0.674311;0.700989;,
   0.812559;0.621649;,
   0.707307;0.706868;,
   0.820174;0.583308;,
   0.650160;0.732884;,
   0.538003;0.764788;,
   0.750345;0.064920;,
   0.530185;0.008777;,
   0.705609;0.034745;,
   0.904346;0.184358;,
   0.787475;0.055627;,
   0.886329;0.132208;,
   0.966058;0.352410;,
   0.947903;0.201689;,
   0.985148;0.311521;,
   0.924261;0.458228;,
   0.980197;0.398806;,
   0.942403;0.474058;,
   0.796623;0.923186;,
   0.750292;0.872438;,
   0.678583;0.892675;,
   0.974320;0.928682;,
   0.913771;0.935033;,
   0.915802;0.983349;,
   0.834579;0.992191;,
   0.828738;0.940056;,
   0.792997;0.978322;,
   0.820174;0.583308;,
   0.854198;0.588578;,
   0.738354;0.950596;,
   0.436323;0.773801;,
   0.311332;0.963087;,
   0.300074;0.942066;,
   0.448231;0.793893;,
   0.227192;0.989134;,
   0.227192;0.970006;,
   0.431295;0.770858;,
   0.284169;0.915315;,
   0.409930;0.761422;,
   0.296070;0.927723;,
   0.227192;0.934645;,
   0.227192;0.953828;,
   0.436323;0.773801;,
   0.296070;0.927723;,
   0.431295;0.770858;,
   0.300074;0.942066;,
   0.227192;0.953828;,
   0.227192;0.970006;,
   0.227192;0.970006;,
   0.296070;0.927723;,
   0.227192;0.953828;,
   0.300074;0.942066;,
   0.431295;0.770858;,
   0.436323;0.773801;,
   0.018061;0.773801;,
   0.140836;0.961740;,
   0.004041;0.792480;,
   0.154310;0.942066;,
   0.023089;0.770858;,
   0.170067;0.914928;,
   0.158314;0.927723;,
   0.044114;0.760685;,
   0.018061;0.773801;,
   0.158314;0.927723;,
   0.154310;0.942066;,
   0.023089;0.770858;,
   0.158314;0.927723;,
   0.154310;0.942066;,
   0.023089;0.770858;,
   0.018061;0.773801;,
   0.287575;0.852633;,
   0.275202;0.827736;,
   0.259989;0.850703;,
   0.309691;0.844035;,
   0.229214;0.821252;,
   0.229214;0.847253;,
   0.287575;0.852633;,
   0.275202;0.827736;,
   0.309691;0.844035;,
   0.259989;0.850703;,
   0.229214;0.821252;,
   0.229214;0.847253;,
   0.281792;0.861706;,
   0.259989;0.850703;,
   0.287575;0.852633;,
   0.261023;0.858020;,
   0.229214;0.847253;,
   0.229214;0.858116;,
   0.229214;0.810389;,
   0.275202;0.827736;,
   0.229214;0.821252;,
   0.276235;0.816675;,
   0.309691;0.844035;,
   0.316265;0.833062;,
   0.171720;0.852633;,
   0.183226;0.827737;,
   0.149605;0.844035;,
   0.198439;0.850945;,
   0.171720;0.852633;,
   0.183226;0.827737;,
   0.198439;0.850945;,
   0.149605;0.844035;,
   0.177504;0.861706;,
   0.198439;0.850945;,
   0.197405;0.862006;,
   0.171720;0.852633;,
   0.183226;0.827737;,
   0.182192;0.816675;,
   0.149605;0.844035;,
   0.143030;0.833062;;
  }
 }
}