xof 0303txt 0032
template ColorRGBA {
 <35ff44e0-6c7c-11cf-8f52-0040333594a3>
 FLOAT red;
 FLOAT green;
 FLOAT blue;
 FLOAT alpha;
}

template ColorRGB {
 <d3e16e81-7835-11cf-8f52-0040333594a3>
 FLOAT red;
 FLOAT green;
 FLOAT blue;
}

template Material {
 <3d82ab4d-62da-11cf-ab39-0020af71e433>
 ColorRGBA faceColor;
 FLOAT power;
 ColorRGB specularColor;
 ColorRGB emissiveColor;
 [...]
}

template TextureFilename {
 <a42790e1-7810-11cf-8f52-0040333594a3>
 STRING filename;
}

template Frame {
 <3d82ab46-62da-11cf-ab39-0020af71e433>
 [...]
}

template Matrix4x4 {
 <f6f23f45-7686-11cf-8f52-0040333594a3>
 array FLOAT matrix[16];
}

template FrameTransformMatrix {
 <f6f23f41-7686-11cf-8f52-0040333594a3>
 Matrix4x4 frameMatrix;
}

template Vector {
 <3d82ab5e-62da-11cf-ab39-0020af71e433>
 FLOAT x;
 FLOAT y;
 FLOAT z;
}

template MeshFace {
 <3d82ab5f-62da-11cf-ab39-0020af71e433>
 DWORD nFaceVertexIndices;
 array DWORD faceVertexIndices[nFaceVertexIndices];
}

template Mesh {
 <3d82ab44-62da-11cf-ab39-0020af71e433>
 DWORD nVertices;
 array Vector vertices[nVertices];
 DWORD nFaces;
 array MeshFace faces[nFaces];
 [...]
}

template MeshNormals {
 <f6f23f43-7686-11cf-8f52-0040333594a3>
 DWORD nNormals;
 array Vector normals[nNormals];
 DWORD nFaceNormals;
 array MeshFace faceNormals[nFaceNormals];
}

template MeshMaterialList {
 <f6f23f42-7686-11cf-8f52-0040333594a3>
 DWORD nMaterials;
 DWORD nFaceIndexes;
 array DWORD faceIndexes[nFaceIndexes];
 [Material <3d82ab4d-62da-11cf-ab39-0020af71e433>]
}

template Coords2d {
 <f6f23f44-7686-11cf-8f52-0040333594a3>
 FLOAT u;
 FLOAT v;
}

template MeshTextureCoords {
 <f6f23f40-7686-11cf-8f52-0040333594a3>
 DWORD nTextureCoords;
 array Coords2d textureCoords[nTextureCoords];
}


Material Material__134 {
 1.000000;1.000000;1.000000;1.000000;;
 9.999999;
 0.000000;0.000000;0.000000;;
 0.000000;0.000000;0.000000;;

 TextureFilename {
  "BaseballCapSPIFFO.png";
 }
}

Frame Dummy002 {
 

 FrameTransformMatrix {
  1.000000,-0.000000,-0.000000,0.000000,0.000000,1.000000,0.000000,0.000000,-0.000000,0.000000,1.000000,0.000000,0.000000,0.000000,0.000000,1.000000;;
 }

 Frame F_BaseballCap {
  

  FrameTransformMatrix {
   1.000000,0.000000,0.000000,0.000000,-0.000000,1.000000,-0.000001,0.000000,0.000000,0.000001,1.000000,0.000000,0.000000,0.000000,0.000000,1.000000;;
  }

  Mesh F_BaseballCap {
   100;
   0.161810;-0.001585;-0.001449;,
   0.149363;-0.020455;-0.036324;,
   0.148880;-0.001585;-0.041845;,
   0.150683;-0.034269;-0.021239;,
   0.161810;-0.001585;-0.001449;,
   0.152358;-0.037687;-0.002093;,
   0.150683;-0.034269;-0.021239;,
   0.154160;-0.032631;0.018513;,
   0.161810;-0.001585;-0.001449;,
   0.155480;-0.018817;0.033598;,
   0.154160;-0.032631;0.018513;,
   0.155963;0.000053;0.039119;,
   0.161810;-0.001585;-0.001449;,
   0.155480;0.018923;0.033598;,
   0.155963;0.000053;0.039119;,
   0.154160;0.032737;0.018513;,
   0.161810;-0.001585;-0.001449;,
   0.152358;0.037794;-0.002093;,
   0.154160;0.032737;0.018513;,
   0.150555;0.032737;-0.022699;,
   0.161810;-0.001585;-0.001449;,
   0.149235;0.018923;-0.037784;,
   0.150555;0.032737;-0.022699;,
   0.148880;-0.001585;-0.041845;,
   0.124225;-0.029571;-0.050805;,
   0.123539;-0.001408;-0.058642;,
   0.126098;-0.050189;-0.029394;,
   0.127548;-0.053607;0.000159;,
   0.126098;-0.050189;-0.029394;,
   0.130107;-0.046430;0.029408;,
   0.131980;-0.026822;0.050820;,
   0.130107;-0.046430;0.029408;,
   0.133572;-0.000038;0.059611;,
   0.131980;0.026747;0.050820;,
   0.133572;-0.000038;0.059611;,
   0.130107;0.046355;0.029408;,
   0.127548;0.053531;0.000159;,
   0.130107;0.046355;0.029408;,
   0.125994;0.048785;-0.030590;,
   0.124120;0.028167;-0.052002;,
   0.125994;0.048785;-0.030590;,
   0.123539;-0.001408;-0.058642;,
   0.086995;-0.001408;-0.064233;,
   0.083949;-0.033770;-0.054892;,
   0.080729;-0.057461;-0.029818;,
   0.080729;-0.057461;-0.029818;,
   0.083394;-0.061593;0.004022;,
   0.091044;-0.054760;0.037220;,
   0.091044;-0.054760;0.037220;,
   0.111302;-0.030816;0.060239;,
   0.121548;-0.000038;0.068417;,
   0.121548;-0.000038;0.068417;,
   0.111302;0.030740;0.060239;,
   0.091044;0.054685;0.037220;,
   0.091044;0.054685;0.037220;,
   0.083394;0.061518;0.004022;,
   0.080625;0.056057;-0.031015;,
   0.080625;0.056057;-0.031015;,
   0.083845;0.032366;-0.056088;,
   0.086995;-0.001408;-0.064233;,
   0.102383;-0.042648;0.089154;,
   0.110579;-0.028915;0.102283;,
   0.098927;-0.042099;0.090004;,
   0.114062;-0.028118;0.101751;,
   0.118688;-0.000059;0.109980;,
   0.122156;-0.000059;0.109275;,
   0.110579;0.028797;0.102283;,
   0.114062;0.028000;0.101751;,
   0.098927;0.043566;0.090004;,
   0.102383;0.044114;0.089154;,
   0.106126;-0.031690;0.062359;,
   0.098927;-0.042099;0.090004;,
   0.110579;-0.028915;0.102283;,
   0.091044;-0.054760;0.037220;,
   0.118688;-0.000059;0.109980;,
   0.116242;-0.000038;0.069050;,
   0.110579;0.028797;0.102283;,
   0.106126;0.031614;0.062359;,
   0.098927;0.043566;0.090004;,
   0.091044;0.054685;0.037220;,
   0.091044;0.054685;0.037220;,
   0.091044;0.054685;0.037220;,
   0.111302;0.030740;0.060239;,
   0.121548;-0.000038;0.068417;,
   0.111302;-0.030816;0.060239;,
   0.091044;-0.054760;0.037220;,
   0.091044;-0.054760;0.037220;,
   0.108031;-0.000039;0.001867;,
   0.086995;-0.001408;-0.064233;,
   0.083949;-0.033770;-0.054892;,
   0.080729;-0.057461;-0.029818;,
   0.083394;-0.061593;0.004022;,
   0.083394;0.061518;0.004022;,
   0.080625;0.056057;-0.031015;,
   0.083845;0.032366;-0.056088;,
   0.091044;-0.054760;0.037220;,
   0.091044;0.054685;0.037220;,
   0.106126;-0.031690;0.062359;,
   0.116242;-0.000038;0.069050;,
   0.106126;0.031614;0.062359;;
   98;
   3;0,1,2;,
   3;0,3,1;,
   3;4,5,6;,
   3;4,7,5;,
   3;8,9,10;,
   3;8,11,9;,
   3;12,13,14;,
   3;12,15,13;,
   3;16,17,18;,
   3;16,19,17;,
   3;20,21,22;,
   3;20,23,21;,
   3;2,24,25;,
   3;24,2,1;,
   3;1,26,24;,
   3;26,1,3;,
   3;6,27,28;,
   3;27,6,5;,
   3;5,29,27;,
   3;29,5,7;,
   3;10,30,31;,
   3;30,10,9;,
   3;9,32,30;,
   3;32,9,11;,
   3;14,33,34;,
   3;33,14,13;,
   3;13,35,33;,
   3;35,13,15;,
   3;18,36,37;,
   3;36,18,17;,
   3;17,38,36;,
   3;38,17,19;,
   3;22,39,40;,
   3;39,22,21;,
   3;21,41,39;,
   3;41,21,23;,
   3;24,42,25;,
   3;42,24,43;,
   3;26,43,24;,
   3;43,26,44;,
   3;27,45,28;,
   3;45,27,46;,
   3;29,46,27;,
   3;46,29,47;,
   3;30,48,31;,
   3;48,30,49;,
   3;32,49,30;,
   3;49,32,50;,
   3;33,51,34;,
   3;51,33,52;,
   3;35,52,33;,
   3;52,35,53;,
   3;36,54,37;,
   3;54,36,55;,
   3;38,55,36;,
   3;55,38,56;,
   3;39,57,40;,
   3;57,39,58;,
   3;41,58,39;,
   3;58,41,59;,
   3;60,61,62;,
   3;61,60,63;,
   3;63,64,61;,
   3;64,63,65;,
   3;65,66,64;,
   3;66,65,67;,
   3;67,68,66;,
   3;68,67,69;,
   3;70,71,72;,
   3;71,70,73;,
   3;74,70,72;,
   3;70,74,75;,
   3;76,75,74;,
   3;75,76,77;,
   3;78,77,76;,
   3;77,78,79;,
   3;80,68,69;,
   3;67,81,69;,
   3;81,67,82;,
   3;65,82,67;,
   3;82,65,83;,
   3;63,83,65;,
   3;83,63,84;,
   3;60,84,63;,
   3;84,60,85;,
   3;86,60,62;,
   3;87,88,89;,
   3;87,89,90;,
   3;87,90,91;,
   3;87,92,93;,
   3;87,93,94;,
   3;87,94,88;,
   3;87,91,95;,
   3;87,96,92;,
   3;87,95,97;,
   3;87,97,98;,
   3;87,98,99;,
   3;87,99,96;;

   MeshNormals {
    100;
    0.996748;-0.003248;-0.080519;,
    0.776395;-0.300967;-0.553742;,
    0.758182;-0.162134;-0.631564;,
    0.786785;-0.419372;-0.452876;,
    0.996668;-0.016458;-0.079890;,
    0.785284;-0.617205;-0.048854;,
    0.755554;-0.636124;-0.156473;,
    0.774109;-0.627161;0.086164;,
    0.996748;-0.003248;-0.080519;,
    0.838458;-0.328251;0.435017;,
    0.822410;-0.453563;0.343399;,
    0.844686;-0.170120;0.507509;,
    0.996668;-0.016458;-0.079890;,
    0.837173;0.324592;0.440207;,
    0.842530;0.183355;0.506481;,
    0.821860;0.454129;0.343967;,
    0.996748;-0.003248;-0.080519;,
    0.792947;0.606903;-0.053882;,
    0.781438;0.618389;0.083371;,
    0.785176;0.582032;-0.211510;,
    0.996668;-0.016458;-0.079890;,
    0.772645;0.284948;-0.567295;,
    0.785466;0.416461;-0.457825;,
    0.772569;0.110438;-0.625253;,
    0.347373;-0.469732;-0.811594;,
    0.334299;-0.245100;-0.910039;,
    0.345641;-0.668111;-0.658908;,
    0.364115;-0.931009;0.025341;,
    0.351511;-0.927860;-0.124563;,
    0.369766;-0.912448;0.175247;,
    0.506127;-0.510983;0.694790;,
    0.434095;-0.682976;0.587457;,
    0.569676;-0.310861;0.760812;,
    0.535203;0.494428;0.684908;,
    0.604208;0.280677;0.745757;,
    0.455997;0.695119;0.555767;,
    0.361580;0.932317;0.006800;,
    0.385169;0.903494;0.187997;,
    0.344326;0.921741;-0.178416;,
    0.339910;0.453094;-0.824116;,
    0.339627;0.662504;-0.667639;,
    0.331106;0.204399;-0.921190;,
    0.134080;-0.276466;-0.951624;,
    0.133105;-0.539085;-0.831667;,
    0.123185;-0.729179;-0.673144;,
    0.162586;-0.978339;-0.128138;,
    0.192150;-0.981265;0.014045;,
    0.233857;-0.961545;0.144022;,
    0.321633;-0.751607;0.575881;,
    0.432461;-0.632941;0.642156;,
    0.546514;-0.380205;0.746168;,
    0.516266;0.320673;0.794127;,
    0.386845;0.610515;0.691102;,
    0.278551;0.777588;0.563708;,
    0.209922;0.961592;0.176843;,
    0.175781;0.984374;-0.010435;,
    0.157625;0.973748;-0.164224;,
    0.134271;0.720975;-0.679828;,
    0.146114;0.522991;-0.839721;,
    0.146618;0.244795;-0.958425;,
    0.376510;-0.868266;0.323038;,
    0.244305;-0.613763;0.750740;,
    -0.021839;-0.878133;0.477918;,
    0.682501;-0.520355;0.513248;,
    0.200055;-0.001370;0.979784;,
    0.776175;0.003560;0.630507;,
    0.253071;0.604892;0.755024;,
    0.692707;0.510381;0.509577;,
    -0.006021;0.869409;0.494056;,
    0.416006;0.849557;0.324333;,
    -0.878495;0.477014;0.026537;,
    -0.787254;0.616040;0.026950;,
    -0.924141;0.374199;0.077057;,
    -0.832752;0.553582;-0.008416;,
    -0.997612;0.006557;0.068749;,
    -0.997596;0.009761;0.068602;,
    -0.924544;-0.375700;0.063777;,
    -0.884179;-0.465074;0.043970;,
    -0.815613;-0.577400;0.037227;,
    -0.843238;-0.537390;0.012736;,
    0.739434;0.673199;-0.006307;,
    0.739434;0.673199;-0.006307;,
    0.848745;0.528575;-0.015493;,
    0.999655;0.010432;-0.024106;,
    0.850871;-0.524639;-0.027813;,
    0.720597;-0.693340;0.004381;,
    0.720597;-0.693340;0.004381;,
    -0.982734;-0.001040;0.185019;,
    -0.952923;0.006475;0.303142;,
    -0.935308;0.255025;0.245280;,
    -0.922749;0.351422;0.158233;,
    -0.919453;0.372425;0.126121;,
    -0.918573;-0.372290;0.132755;,
    -0.920921;-0.352631;0.165999;,
    -0.935273;-0.249983;0.250545;,
    -0.909938;0.383889;0.156979;,
    -0.909942;-0.383878;0.156985;,
    -0.929725;0.337505;0.147313;,
    -0.992614;-0.000003;0.121315;,
    -0.929725;-0.337501;0.147325;;
    98;
    3;0,1,2;,
    3;0,3,1;,
    3;4,5,6;,
    3;4,7,5;,
    3;8,9,10;,
    3;8,11,9;,
    3;12,13,14;,
    3;12,15,13;,
    3;16,17,18;,
    3;16,19,17;,
    3;20,21,22;,
    3;20,23,21;,
    3;2,24,25;,
    3;24,2,1;,
    3;1,26,24;,
    3;26,1,3;,
    3;6,27,28;,
    3;27,6,5;,
    3;5,29,27;,
    3;29,5,7;,
    3;10,30,31;,
    3;30,10,9;,
    3;9,32,30;,
    3;32,9,11;,
    3;14,33,34;,
    3;33,14,13;,
    3;13,35,33;,
    3;35,13,15;,
    3;18,36,37;,
    3;36,18,17;,
    3;17,38,36;,
    3;38,17,19;,
    3;22,39,40;,
    3;39,22,21;,
    3;21,41,39;,
    3;41,21,23;,
    3;24,42,25;,
    3;42,24,43;,
    3;26,43,24;,
    3;43,26,44;,
    3;27,45,28;,
    3;45,27,46;,
    3;29,46,27;,
    3;46,29,47;,
    3;30,48,31;,
    3;48,30,49;,
    3;32,49,30;,
    3;49,32,50;,
    3;33,51,34;,
    3;51,33,52;,
    3;35,52,33;,
    3;52,35,53;,
    3;36,54,37;,
    3;54,36,55;,
    3;38,55,36;,
    3;55,38,56;,
    3;39,57,40;,
    3;57,39,58;,
    3;41,58,39;,
    3;58,41,59;,
    3;60,61,62;,
    3;61,60,63;,
    3;63,64,61;,
    3;64,63,65;,
    3;65,66,64;,
    3;66,65,67;,
    3;67,68,66;,
    3;68,67,69;,
    3;70,71,72;,
    3;71,70,73;,
    3;74,70,72;,
    3;70,74,75;,
    3;76,75,74;,
    3;75,76,77;,
    3;78,77,76;,
    3;77,78,79;,
    3;80,68,69;,
    3;67,81,69;,
    3;81,67,82;,
    3;65,82,67;,
    3;82,65,83;,
    3;63,83,65;,
    3;83,63,84;,
    3;60,84,63;,
    3;84,60,85;,
    3;86,60,62;,
    3;87,88,89;,
    3;87,89,90;,
    3;87,90,91;,
    3;87,92,93;,
    3;87,93,94;,
    3;87,94,88;,
    3;87,91,95;,
    3;87,96,92;,
    3;87,95,97;,
    3;87,97,98;,
    3;87,98,99;,
    3;87,99,96;;
   }

   MeshMaterialList {
    1;
    98;
    0,
    0,
    0,
    0,
    0,
    0,
    0,
    0,
    0,
    0,
    0,
    0,
    0,
    0,
    0,
    0,
    0,
    0,
    0,
    0,
    0,
    0,
    0,
    0,
    0,
    0,
    0,
    0,
    0,
    0,
    0,
    0,
    0,
    0,
    0,
    0,
    0,
    0,
    0,
    0,
    0,
    0,
    0,
    0,
    0,
    0,
    0,
    0,
    0,
    0,
    0,
    0,
    0,
    0,
    0,
    0,
    0,
    0,
    0,
    0,
    0,
    0,
    0,
    0,
    0,
    0,
    0,
    0,
    0,
    0,
    0,
    0,
    0,
    0,
    0,
    0,
    0,
    0,
    0,
    0,
    0,
    0,
    0,
    0,
    0,
    0,
    0,
    0,
    0,
    0,
    0,
    0,
    0,
    0,
    0,
    0,
    0,
    0;
    { Material__134 }
   }

   MeshTextureCoords c1 {
    100;
    0.784561;0.001914;,
    0.779158;0.164977;,
    0.628906;0.166718;,
    0.937920;0.163237;,
    0.784438;-0.000213;,
    0.781323;0.165767;,
    0.623825;0.166037;,
    0.936515;0.165497;,
    0.254729;0.029138;,
    0.176361;0.179726;,
    0.053011;0.179028;,
    0.255101;0.179726;,
    0.254729;0.029138;,
    0.333841;0.179726;,
    0.255101;0.179726;,
    0.428298;0.181378;,
    0.785063;0.000179;,
    0.781990;0.164927;,
    0.625207;0.166926;,
    0.936722;0.165574;,
    0.785372;0.002262;,
    0.780892;0.168512;,
    0.627262;0.169065;,
    0.936323;0.167958;,
    0.779158;0.311676;,
    0.628906;0.312256;,
    0.937920;0.311096;,
    0.783087;0.315024;,
    0.623825;0.313896;,
    0.936515;0.316153;,
    0.142956;0.306018;,
    0.010562;0.305952;,
    0.254721;0.306929;,
    0.366486;0.306018;,
    0.254721;0.306929;,
    0.485725;0.306009;,
    0.783149;0.315609;,
    0.626089;0.315576;,
    0.935840;0.317076;,
    0.780892;0.315268;,
    0.627262;0.317039;,
    0.936323;0.313496;,
    0.628906;0.461131;,
    0.779158;0.460714;,
    0.937920;0.460298;,
    0.623825;0.463098;,
    0.781323;0.464062;,
    0.936515;0.465027;,
    0.011930;0.444518;,
    0.127057;0.390069;,
    0.256246;0.378040;,
    0.256246;0.378040;,
    0.383148;0.393882;,
    0.489845;0.438375;,
    0.624325;0.465537;,
    0.780944;0.463590;,
    0.935840;0.466052;,
    0.627262;0.462488;,
    0.781359;0.462429;,
    0.936323;0.462370;,
    0.594083;0.638323;,
    0.635230;0.743091;,
    0.595726;0.779302;,
    0.637619;0.675407;,
    0.721691;0.720198;,
    0.721691;0.697824;,
    0.808152;0.743091;,
    0.805764;0.675407;,
    0.852402;0.779302;,
    0.854046;0.638323;,
    0.626915;0.852865;,
    0.595726;0.779302;,
    0.635230;0.743091;,
    0.562027;0.924912;,
    0.721691;0.720198;,
    0.721754;0.832234;,
    0.808152;0.743091;,
    0.816593;0.852864;,
    0.852402;0.779302;,
    0.881481;0.924912;,
    0.913398;0.710496;,
    0.881481;0.494205;,
    0.813972;0.561714;,
    0.721754;0.586424;,
    0.629535;0.561714;,
    0.562027;0.494205;,
    0.539953;0.706396;,
    0.252328;0.739080;,
    0.247898;0.938793;,
    0.146231;0.911552;,
    0.071807;0.837127;,
    0.049000;0.739080;,
    0.455664;0.739080;,
    0.428423;0.840746;,
    0.353998;0.915171;,
    0.076241;0.637414;,
    0.428423;0.637414;,
    0.147777;0.557986;,
    0.252332;0.535243;,
    0.356886;0.557986;;
   }
  }
 }
}