xof 0303txt 0032
template ColorRGBA {
 <35ff44e0-6c7c-11cf-8f52-0040333594a3>
 FLOAT red;
 FLOAT green;
 FLOAT blue;
 FLOAT alpha;
}

template ColorRGB {
 <d3e16e81-7835-11cf-8f52-0040333594a3>
 FLOAT red;
 FLOAT green;
 FLOAT blue;
}

template Material {
 <3d82ab4d-62da-11cf-ab39-0020af71e433>
 ColorRGBA faceColor;
 FLOAT power;
 ColorRGB specularColor;
 ColorRGB emissiveColor;
 [...]
}

template TextureFilename {
 <a42790e1-7810-11cf-8f52-0040333594a3>
 STRING filename;
}

template Frame {
 <3d82ab46-62da-11cf-ab39-0020af71e433>
 [...]
}

template Matrix4x4 {
 <f6f23f45-7686-11cf-8f52-0040333594a3>
 array FLOAT matrix[16];
}

template FrameTransformMatrix {
 <f6f23f41-7686-11cf-8f52-0040333594a3>
 Matrix4x4 frameMatrix;
}

template Vector {
 <3d82ab5e-62da-11cf-ab39-0020af71e433>
 FLOAT x;
 FLOAT y;
 FLOAT z;
}

template MeshFace {
 <3d82ab5f-62da-11cf-ab39-0020af71e433>
 DWORD nFaceVertexIndices;
 array DWORD faceVertexIndices[nFaceVertexIndices];
}

template Mesh {
 <3d82ab44-62da-11cf-ab39-0020af71e433>
 DWORD nVertices;
 array Vector vertices[nVertices];
 DWORD nFaces;
 array MeshFace faces[nFaces];
 [...]
}

template MeshNormals {
 <f6f23f43-7686-11cf-8f52-0040333594a3>
 DWORD nNormals;
 array Vector normals[nNormals];
 DWORD nFaceNormals;
 array MeshFace faceNormals[nFaceNormals];
}

template MeshMaterialList {
 <f6f23f42-7686-11cf-8f52-0040333594a3>
 DWORD nMaterials;
 DWORD nFaceIndexes;
 array DWORD faceIndexes[nFaceIndexes];
 [Material <3d82ab4d-62da-11cf-ab39-0020af71e433>]
}

template Coords2d {
 <f6f23f44-7686-11cf-8f52-0040333594a3>
 FLOAT u;
 FLOAT v;
}

template MeshTextureCoords {
 <f6f23f40-7686-11cf-8f52-0040333594a3>
 DWORD nTextureCoords;
 array Coords2d textureCoords[nTextureCoords];
}


Material Material__99 {
 1.000000;1.000000;1.000000;1.000000;;
 9.999999;
 0.000000;0.000000;0.000000;;
 0.000000;0.000000;0.000000;;

 TextureFilename {
  "CrashHelmetBlack.png";
 }
}

Frame Dummy002 {
 

 FrameTransformMatrix {
  1.000000,-0.000000,-0.000000,0.000000,0.000000,1.000000,0.000000,0.000000,-0.000000,0.000000,1.000000,0.000000,0.000000,0.000000,0.000000,1.000000;;
 }

 Frame F_CrashHelmet {
  

  FrameTransformMatrix {
   1.000000,0.000000,0.000000,0.000000,0.000000,1.000000,0.000000,0.000000,0.000000,0.000000,1.000000,0.000000,0.000000,0.000000,0.000000,1.000000;;
  }

  Mesh F_CrashHelmet {
   197;
   0.165114;-0.000004;0.000661;,
   0.160069;-0.019010;-0.023007;,
   0.160069;-0.000004;-0.032810;,
   0.160069;-0.024837;-0.002157;,
   0.160069;-0.021923;0.016973;,
   0.160069;-0.000004;0.034132;,
   0.141894;-0.030636;-0.048189;,
   0.160069;-0.000004;-0.032810;,
   0.160069;-0.019010;-0.023007;,
   0.141894;-0.000004;-0.058752;,
   0.141894;-0.047789;-0.010793;,
   0.160069;-0.019010;-0.023007;,
   0.160069;-0.024837;-0.002157;,
   0.141894;-0.030636;-0.048189;,
   0.141894;-0.040506;0.031438;,
   0.160069;-0.021923;0.016973;,
   0.141894;-0.000004;0.057495;,
   0.160069;-0.021923;0.016973;,
   0.160069;-0.000004;0.034132;,
   0.141894;-0.040506;0.031438;,
   0.111206;-0.035363;-0.061061;,
   0.111206;-0.000004;-0.076880;,
   0.111206;-0.059956;-0.027638;,
   0.111206;-0.035363;-0.061061;,
   0.111206;-0.064895;0.000989;,
   0.109068;-0.061566;0.029714;,
   0.110313;-0.047516;0.054823;,
   0.116260;-0.000004;0.073189;,
   0.110313;-0.047516;0.054823;,
   0.072475;-0.036816;-0.065010;,
   0.111206;-0.000004;-0.076880;,
   0.111206;-0.035363;-0.061061;,
   0.074312;-0.000006;-0.079949;,
   0.069103;-0.062417;-0.029965;,
   0.111206;-0.059956;-0.027638;,
   0.069581;-0.065234;0.015177;,
   0.111206;-0.064895;0.000989;,
   0.032442;-0.031415;-0.059232;,
   0.036163;-0.000002;-0.072282;,
   0.027241;-0.059185;-0.027606;,
   0.025414;-0.057339;0.001022;,
   0.109068;-0.061566;0.029714;,
   0.032391;-0.055750;0.030838;,
   0.071199;-0.055887;0.037043;,
   0.088286;-0.056813;0.041838;,
   0.043969;-0.054255;0.038404;,
   0.160069;0.019003;-0.023007;,
   0.160069;0.024829;-0.002157;,
   0.160069;0.021916;0.016973;,
   0.141894;0.030628;-0.048189;,
   0.160069;0.019003;-0.023007;,
   0.160069;0.019003;-0.023007;,
   0.141894;0.047782;-0.010793;,
   0.160069;0.024829;-0.002157;,
   0.141894;0.030628;-0.048189;,
   0.141894;0.040498;0.031438;,
   0.160069;0.021916;0.016973;,
   0.160069;0.021916;0.016973;,
   0.141894;0.040498;0.031438;,
   0.111206;0.035355;-0.061061;,
   0.111206;0.059948;-0.027638;,
   0.111206;0.035355;-0.061061;,
   0.111206;0.064888;0.000989;,
   0.109068;0.061558;0.029714;,
   0.110313;0.047525;0.054854;,
   0.110313;0.047525;0.054854;,
   0.072475;0.036803;-0.065010;,
   0.111206;0.035355;-0.061061;,
   0.069103;0.062405;-0.029965;,
   0.111206;0.059948;-0.027638;,
   0.069581;0.065221;0.015177;,
   0.111206;0.064888;0.000989;,
   0.032442;0.031412;-0.059232;,
   0.027241;0.053261;-0.027606;,
   0.025414;0.059093;0.001022;,
   0.109068;0.061558;0.029714;,
   0.032391;0.055906;0.030838;,
   0.071199;0.055875;0.037043;,
   0.088286;0.056805;0.041838;,
   0.043941;0.055391;0.038404;,
   0.035621;-0.000002;-0.067060;,
   0.032442;-0.031415;-0.059232;,
   0.032145;-0.028357;-0.054969;,
   0.036163;-0.000002;-0.072282;,
   0.027241;-0.059185;-0.027606;,
   0.027956;-0.053666;-0.025775;,
   0.025414;-0.057339;0.001022;,
   0.026071;-0.054536;0.000928;,
   0.088286;-0.056813;0.041838;,
   0.095315;-0.051622;0.063637;,
   0.087865;-0.051429;0.039285;,
   0.071246;-0.051249;0.033825;,
   0.071199;-0.055887;0.037043;,
   0.033060;-0.050613;0.028587;,
   0.043969;-0.054255;0.038404;,
   0.044490;-0.049716;0.034901;,
   0.032391;-0.055750;0.030838;,
   0.032145;0.028354;-0.054969;,
   0.032442;0.031412;-0.059232;,
   0.027956;0.048342;-0.025775;,
   0.027241;0.053261;-0.027606;,
   0.026071;0.053819;0.000928;,
   0.025414;0.059093;0.001022;,
   0.088286;0.056805;0.041838;,
   0.087865;0.051422;0.039285;,
   0.095315;0.051615;0.063637;,
   0.071199;0.055875;0.037043;,
   0.071246;0.051236;0.033825;,
   0.044490;0.050852;0.034901;,
   0.032391;0.055906;0.030838;,
   0.033060;0.050787;0.028587;,
   0.043941;0.055391;0.038404;,
   0.026071;-0.054536;0.000928;,
   0.033060;-0.050613;0.028587;,
   0.044490;-0.049716;0.034901;,
   0.071246;-0.051249;0.033825;,
   0.026071;0.053819;0.000928;,
   0.044490;0.050852;0.034901;,
   0.033060;0.050787;0.028587;,
   0.071246;0.051236;0.033825;,
   0.108413;0.001385;-0.007263;,
   0.035621;-0.000002;-0.067060;,
   0.032145;-0.028357;-0.054969;,
   0.027956;-0.053666;-0.025775;,
   0.087865;-0.051429;0.039285;,
   0.095315;-0.051622;0.063637;,
   0.101957;-0.000004;0.087020;,
   0.032145;0.028354;-0.054969;,
   0.027956;0.048342;-0.025775;,
   0.095315;0.051615;0.063637;,
   0.087865;0.051422;0.039285;,
   -0.004143;-0.000002;0.043365;,
   0.000791;0.018974;0.024946;,
   0.001324;0.021139;0.038591;,
   -0.005003;-0.000002;0.028877;,
   -0.010016;-0.000002;0.042489;,
   -0.005082;0.020444;0.024727;,
   -0.011027;0.000072;0.028645;,
   -0.003654;0.022434;0.038373;,
   -0.004143;-0.000002;0.043365;,
   -0.003654;0.022434;0.038373;,
   -0.010016;-0.000002;0.042489;,
   0.001324;0.021139;0.038591;,
   0.000791;0.018974;0.024946;,
   -0.011027;0.000072;0.028645;,
   -0.005082;0.020444;0.024727;,
   -0.005003;-0.000002;0.028877;,
   0.020500;0.043589;0.028600;,
   0.018160;0.045231;0.012982;,
   0.014361;0.049946;0.012838;,
   0.017943;0.047525;0.028339;,
   0.017943;0.047525;0.028339;,
   0.020500;0.043589;0.028600;,
   0.018160;0.045231;0.012982;,
   0.014361;0.049946;0.012838;,
   0.032391;0.055906;0.030838;,
   0.033060;0.050787;0.028587;,
   0.025414;0.059093;0.001022;,
   0.032391;0.055906;0.030838;,
   0.026071;0.053819;0.000928;,
   0.025414;0.059093;0.001022;,
   0.033060;0.050787;0.028587;,
   0.026071;0.053819;0.000928;,
   0.000791;-0.019129;0.024946;,
   0.001324;-0.021295;0.038591;,
   -0.005082;-0.020599;0.024727;,
   -0.003655;-0.022590;0.038373;,
   -0.003655;-0.022590;0.038373;,
   0.001324;-0.021295;0.038591;,
   0.000791;-0.019129;0.024946;,
   -0.005082;-0.020599;0.024727;,
   0.020500;-0.042981;0.028600;,
   0.018160;-0.044279;0.012982;,
   0.014361;-0.048994;0.012838;,
   0.017943;-0.046917;0.028339;,
   0.017943;-0.046917;0.028339;,
   0.020500;-0.042981;0.028600;,
   0.018160;-0.044279;0.012982;,
   0.014361;-0.048994;0.012838;,
   0.032391;-0.055750;0.030838;,
   0.033060;-0.050613;0.028587;,
   0.025414;-0.057339;0.001022;,
   0.032391;-0.055750;0.030838;,
   0.026071;-0.054536;0.000928;,
   0.025414;-0.057339;0.001022;,
   0.033060;-0.050613;0.028587;,
   0.026071;-0.054536;0.000928;,
   0.095315;0.051615;0.063637;,
   0.116260;-0.000004;0.073189;,
   0.110313;0.047525;0.054854;,
   0.101957;-0.000004;0.087020;,
   0.088286;0.056805;0.041838;,
   0.109068;0.061558;0.029714;,
   0.088286;-0.056813;0.041838;,
   0.110313;-0.047516;0.054823;,
   0.095315;-0.051622;0.063637;,
   0.109068;-0.061566;0.029714;;
   180;
   3;0,1,2;,
   3;0,3,1;,
   3;0,4,3;,
   3;0,5,4;,
   3;6,7,8;,
   3;7,6,9;,
   3;10,11,12;,
   3;11,10,13;,
   3;14,12,15;,
   3;12,14,10;,
   3;16,17,18;,
   3;17,16,19;,
   3;20,9,6;,
   3;9,20,21;,
   3;22,13,10;,
   3;13,22,23;,
   3;10,24,22;,
   3;25,10,14;,
   3;10,25,24;,
   3;14,26,25;,
   3;27,19,16;,
   3;19,27,28;,
   3;29,30,31;,
   3;30,29,32;,
   3;33,31,34;,
   3;31,33,29;,
   3;35,34,36;,
   3;34,35,33;,
   3;37,32,29;,
   3;32,37,38;,
   3;39,29,33;,
   3;29,39,37;,
   3;40,33,35;,
   3;33,40,39;,
   3;36,41,35;,
   3;35,42,40;,
   3;41,43,35;,
   3;43,41,44;,
   3;35,45,42;,
   3;45,35,43;,
   3;0,2,46;,
   3;0,46,47;,
   3;0,47,48;,
   3;0,48,5;,
   3;7,49,50;,
   3;49,7,9;,
   3;51,52,53;,
   3;52,51,54;,
   3;53,55,56;,
   3;55,53,52;,
   3;57,16,18;,
   3;16,57,58;,
   3;9,59,49;,
   3;59,9,21;,
   3;54,60,52;,
   3;60,54,61;,
   3;62,52,60;,
   3;52,63,55;,
   3;63,52,62;,
   3;64,55,63;,
   3;58,27,16;,
   3;27,58,65;,
   3;30,66,67;,
   3;66,30,32;,
   3;67,68,69;,
   3;68,67,66;,
   3;69,70,71;,
   3;70,69,68;,
   3;32,72,66;,
   3;72,32,38;,
   3;66,73,68;,
   3;73,66,72;,
   3;68,74,70;,
   3;74,68,73;,
   3;70,75,71;,
   3;76,70,74;,
   3;77,75,70;,
   3;75,77,78;,
   3;79,70,76;,
   3;70,79,77;,
   3;80,81,82;,
   3;81,80,83;,
   3;82,84,85;,
   3;84,82,81;,
   3;85,86,87;,
   3;86,85,84;,
   3;88,89,90;,
   3;91,88,90;,
   3;88,91,92;,
   3;93,94,95;,
   3;94,93,96;,
   3;95,92,91;,
   3;92,95,94;,
   3;97,83,80;,
   3;83,97,98;,
   3;99,98,97;,
   3;98,99,100;,
   3;101,100,99;,
   3;100,101,102;,
   3;103,104,105;,
   3;104,106,107;,
   3;106,104,103;,
   3;108,109,110;,
   3;109,108,111;,
   3;107,111,108;,
   3;111,107,106;,
   3;112,113,114;,
   3;115,112,114;,
   3;116,117,118;,
   3;117,116,119;,
   3;120,121,122;,
   3;120,122,123;,
   3;120,124,125;,
   3;120,125,126;,
   3;120,115,124;,
   3;120,127,121;,
   3;120,128,127;,
   3;120,129,130;,
   3;120,126,129;,
   3;120,130,119;,
   3;128,120,119;,
   3;115,120,123;,
   3;128,119,116;,
   3;112,115,123;,
   3;131,132,133;,
   3;132,131,134;,
   3;135,136,137;,
   3;136,135,138;,
   3;139,140,141;,
   3;140,139,142;,
   3;143,144,145;,
   3;144,143,146;,
   3;132,147,133;,
   3;147,132,148;,
   3;138,149,136;,
   3;149,138,150;,
   3;142,151,140;,
   3;151,142,152;,
   3;145,153,143;,
   3;153,145,154;,
   3;152,155,151;,
   3;155,152,156;,
   3;150,157,149;,
   3;157,150,158;,
   3;154,159,153;,
   3;159,154,160;,
   3;148,161,147;,
   3;161,148,162;,
   3;131,163,134;,
   3;163,131,164;,
   3;135,165,166;,
   3;165,135,137;,
   3;139,167,168;,
   3;167,139,141;,
   3;169,144,146;,
   3;144,169,170;,
   3;163,171,172;,
   3;171,163,164;,
   3;166,173,174;,
   3;173,166,165;,
   3;168,175,176;,
   3;175,168,167;,
   3;170,177,178;,
   3;177,170,169;,
   3;176,179,180;,
   3;179,176,175;,
   3;174,181,182;,
   3;181,174,173;,
   3;178,183,184;,
   3;183,178,177;,
   3;172,185,186;,
   3;185,172,171;,
   3;187,188,189;,
   3;188,187,190;,
   3;191,189,192;,
   3;189,191,187;,
   3;193,194,195;,
   3;194,193,196;,
   3;195,188,190;,
   3;188,195,194;;

   MeshNormals {
    197;
    0.999983;-0.000000;0.005903;,
    0.905025;-0.339755;-0.255922;,
    0.914757;0.000000;-0.404004;,
    0.894625;-0.446681;-0.011038;,
    0.886440;-0.397922;0.236396;,
    0.879603;0.000000;0.475709;,
    0.616312;-0.512118;-0.598243;,
    0.914757;0.000000;-0.404004;,
    0.905025;-0.339755;-0.255922;,
    0.640681;0.000001;-0.767807;,
    0.639937;-0.761309;-0.104351;,
    0.905025;-0.339755;-0.255922;,
    0.894625;-0.446681;-0.011038;,
    0.616312;-0.512118;-0.598243;,
    0.666059;-0.621594;0.412294;,
    0.886440;-0.397922;0.236396;,
    0.645927;0.000000;0.763399;,
    0.886440;-0.397922;0.236396;,
    0.879603;0.000000;0.475709;,
    0.666059;-0.621594;0.412294;,
    0.253860;-0.596736;-0.761224;,
    0.295910;0.000010;-0.955216;,
    0.243955;-0.902351;-0.355314;,
    0.253860;-0.596736;-0.761224;,
    0.249976;-0.968093;-0.017534;,
    0.295456;-0.923244;0.245614;,
    0.570754;-0.556212;0.604044;,
    0.583104;-0.000097;0.812397;,
    0.570754;-0.556212;0.604044;,
    -0.035249;-0.606490;-0.794309;,
    0.295910;0.000010;-0.955216;,
    0.253860;-0.596736;-0.761224;,
    -0.051069;-0.000021;-0.998695;,
    -0.022245;-0.941660;-0.335830;,
    0.243955;-0.902351;-0.355314;,
    -0.068403;-0.987744;0.140293;,
    0.249976;-0.968093;-0.017534;,
    -0.192823;-0.564487;-0.802604;,
    -0.197030;0.000034;-0.980398;,
    -0.113146;-0.953897;-0.277990;,
    -0.149703;-0.988072;0.036098;,
    0.295456;-0.923244;0.245614;,
    -0.161541;-0.966084;0.201462;,
    -0.055764;-0.927589;0.369417;,
    -0.108021;-0.974465;0.196851;,
    -0.079992;-0.932371;0.352541;,
    0.905025;0.339756;-0.255922;,
    0.894625;0.446682;-0.011037;,
    0.886439;0.397923;0.236397;,
    0.616311;0.512118;-0.598244;,
    0.905025;0.339756;-0.255922;,
    0.905025;0.339756;-0.255922;,
    0.639937;0.761309;-0.104350;,
    0.894625;0.446682;-0.011037;,
    0.616311;0.512118;-0.598244;,
    0.666187;0.621548;0.412156;,
    0.886439;0.397923;0.236397;,
    0.886439;0.397923;0.236397;,
    0.666187;0.621548;0.412156;,
    0.253818;0.596749;-0.761227;,
    0.243898;0.902366;-0.355316;,
    0.253818;0.596749;-0.761227;,
    0.249915;0.968109;-0.017535;,
    0.295471;0.923300;0.245386;,
    0.571323;0.556044;0.603660;,
    0.571323;0.556044;0.603660;,
    -0.048653;0.615408;-0.786706;,
    0.253818;0.596749;-0.761227;,
    -0.058318;0.932687;-0.355940;,
    0.243898;0.902366;-0.355316;,
    -0.053887;0.988508;0.141236;,
    0.249915;0.968109;-0.017535;,
    -0.193944;0.613977;-0.765126;,
    -0.213708;0.892387;-0.397460;,
    -0.175740;0.983894;-0.032674;,
    0.295471;0.923300;0.245386;,
    -0.159998;0.967543;0.195603;,
    -0.038423;0.928850;0.368458;,
    -0.108232;0.974510;0.196513;,
    -0.091557;0.949309;0.300716;,
    -0.994584;-0.001662;-0.103919;,
    -0.991282;0.064888;-0.114669;,
    -0.991375;0.067399;-0.112398;,
    -0.994551;-0.000869;-0.104248;,
    -0.988685;0.140209;-0.053319;,
    -0.988171;0.145906;-0.047224;,
    -0.974303;0.216320;-0.062762;,
    -0.972277;0.225658;-0.061290;,
    -0.750885;0.251071;0.610848;,
    -0.954150;0.063980;0.292413;,
    -0.610945;0.299625;0.732783;,
    -0.066319;0.554128;0.829786;,
    -0.072878;0.571344;0.817468;,
    -0.512680;0.444451;0.734590;,
    -0.190236;0.592777;0.782577;,
    -0.189652;0.611154;0.768455;,
    -0.537592;0.396146;0.744354;,
    -0.991919;-0.060288;-0.111637;,
    -0.991733;-0.066440;-0.109777;,
    -0.986724;-0.155722;-0.046113;,
    -0.986594;-0.157264;-0.043587;,
    -0.991254;-0.126326;-0.038176;,
    -0.991698;-0.122765;-0.038264;,
    -0.739673;-0.240166;0.628653;,
    -0.583966;-0.330932;0.741261;,
    -0.954150;-0.063963;0.292415;,
    -0.108183;-0.552450;0.826496;,
    -0.095242;-0.570837;0.815521;,
    -0.226042;-0.591689;0.773828;,
    -0.448053;-0.453021;0.770727;,
    -0.439444;-0.409110;0.799699;,
    -0.208906;-0.610448;0.764010;,
    -0.061243;0.997937;-0.019270;,
    -0.000170;0.990098;-0.140377;,
    0.038754;0.986205;-0.160928;,
    -0.328556;0.857160;0.396646;,
    -0.135715;-0.984163;0.114034;,
    0.025070;-0.994626;-0.100453;,
    0.076116;-0.988897;-0.127628;,
    -0.309854;-0.853178;0.419617;,
    -0.880579;-0.020501;0.473455;,
    -0.634792;0.003036;0.772678;,
    -0.588323;0.532354;0.608667;,
    -0.475990;0.800666;0.363824;,
    -0.594085;0.649456;0.474627;,
    -0.951219;0.304161;0.051666;,
    -0.997664;0.000984;-0.068304;,
    -0.570808;-0.571650;0.589402;,
    -0.455103;-0.808112;0.373948;,
    -0.949773;-0.309828;0.044031;,
    -0.582528;-0.668861;0.461829;,
    0.999381;-0.000834;-0.035179;,
    0.882677;-0.469912;-0.008058;,
    0.899618;-0.435360;0.033893;,
    0.998240;-0.001264;-0.059286;,
    -0.997637;0.000571;0.068705;,
    -0.902068;0.430262;0.033884;,
    -0.997334;0.003337;0.072899;,
    -0.896204;0.438482;0.067465;,
    -0.127488;0.000806;0.991840;,
    0.012698;0.268052;0.963321;,
    -0.147659;0.000592;0.989038;,
    0.039245;0.279646;0.959301;,
    -0.034711;-0.296688;-0.954343;,
    0.028446;-0.001977;-0.999593;,
    -0.042801;-0.264621;-0.963402;,
    0.038542;0.001192;-0.999256;,
    0.658905;-0.738305;-0.144048;,
    0.620223;-0.758454;-0.200177;,
    -0.561931;0.795443;0.226944;,
    -0.591919;0.768597;0.242675;,
    0.018141;0.090803;0.995704;,
    0.089438;0.072199;0.993372;,
    -0.378181;-0.346043;-0.858623;,
    -0.443837;-0.330451;-0.832953;,
    0.130828;-0.298082;0.945532;,
    0.212951;-0.369890;0.904341;,
    -0.489592;0.842941;0.223048;,
    -0.517458;0.829597;0.209776;,
    -0.681777;-0.144236;-0.717200;,
    -0.698921;-0.074343;-0.711325;,
    0.512169;-0.837423;-0.190804;,
    0.538583;-0.811949;-0.225094;,
    0.878807;0.477142;-0.005783;,
    0.897025;0.440606;0.034827;,
    -0.898766;-0.437267;0.031906;,
    -0.893285;-0.444703;0.065424;,
    0.013313;-0.270172;0.962720;,
    0.040553;-0.283271;0.958182;,
    -0.036074;0.303023;-0.952300;,
    -0.044243;0.267577;-0.962520;,
    0.661673;0.738561;-0.129290;,
    0.646523;0.734523;-0.206119;,
    -0.545331;-0.811944;0.208235;,
    -0.591721;-0.776353;0.217125;,
    0.020223;-0.092479;0.995509;,
    0.093458;-0.075124;0.992785;,
    -0.364614;0.336471;-0.868242;,
    -0.417999;0.338079;-0.843196;,
    0.139539;0.295557;0.945079;,
    0.223715;0.366591;0.903085;,
    -0.489151;-0.851053;0.190892;,
    -0.535200;-0.827577;0.169342;,
    -0.655282;0.187869;-0.731650;,
    -0.674859;0.133759;-0.725723;,
    0.552368;0.809547;-0.198807;,
    0.594234;0.761725;-0.258188;,
    0.498949;0.720064;0.482242;,
    0.675476;-0.000077;0.737382;,
    0.405642;0.719317;0.563949;,
    0.695177;-0.000000;0.718839;,
    0.177318;0.918090;0.354498;,
    0.082147;0.871952;0.482650;,
    0.178229;-0.917809;0.354769;,
    0.406703;-0.719223;0.563304;,
    0.500029;-0.719763;0.481573;,
    0.082765;-0.871424;0.483498;;
    180;
    3;0,1,2;,
    3;0,3,1;,
    3;0,4,3;,
    3;0,5,4;,
    3;6,7,8;,
    3;7,6,9;,
    3;10,11,12;,
    3;11,10,13;,
    3;14,12,15;,
    3;12,14,10;,
    3;16,17,18;,
    3;17,16,19;,
    3;20,9,6;,
    3;9,20,21;,
    3;22,13,10;,
    3;13,22,23;,
    3;10,24,22;,
    3;25,10,14;,
    3;10,25,24;,
    3;14,26,25;,
    3;27,19,16;,
    3;19,27,28;,
    3;29,30,31;,
    3;30,29,32;,
    3;33,31,34;,
    3;31,33,29;,
    3;35,34,36;,
    3;34,35,33;,
    3;37,32,29;,
    3;32,37,38;,
    3;39,29,33;,
    3;29,39,37;,
    3;40,33,35;,
    3;33,40,39;,
    3;36,41,35;,
    3;35,42,40;,
    3;41,43,35;,
    3;43,41,44;,
    3;35,45,42;,
    3;45,35,43;,
    3;0,2,46;,
    3;0,46,47;,
    3;0,47,48;,
    3;0,48,5;,
    3;7,49,50;,
    3;49,7,9;,
    3;51,52,53;,
    3;52,51,54;,
    3;53,55,56;,
    3;55,53,52;,
    3;57,16,18;,
    3;16,57,58;,
    3;9,59,49;,
    3;59,9,21;,
    3;54,60,52;,
    3;60,54,61;,
    3;62,52,60;,
    3;52,63,55;,
    3;63,52,62;,
    3;64,55,63;,
    3;58,27,16;,
    3;27,58,65;,
    3;30,66,67;,
    3;66,30,32;,
    3;67,68,69;,
    3;68,67,66;,
    3;69,70,71;,
    3;70,69,68;,
    3;32,72,66;,
    3;72,32,38;,
    3;66,73,68;,
    3;73,66,72;,
    3;68,74,70;,
    3;74,68,73;,
    3;70,75,71;,
    3;76,70,74;,
    3;77,75,70;,
    3;75,77,78;,
    3;79,70,76;,
    3;70,79,77;,
    3;80,81,82;,
    3;81,80,83;,
    3;82,84,85;,
    3;84,82,81;,
    3;85,86,87;,
    3;86,85,84;,
    3;88,89,90;,
    3;91,88,90;,
    3;88,91,92;,
    3;93,94,95;,
    3;94,93,96;,
    3;95,92,91;,
    3;92,95,94;,
    3;97,83,80;,
    3;83,97,98;,
    3;99,98,97;,
    3;98,99,100;,
    3;101,100,99;,
    3;100,101,102;,
    3;103,104,105;,
    3;104,106,107;,
    3;106,104,103;,
    3;108,109,110;,
    3;109,108,111;,
    3;107,111,108;,
    3;111,107,106;,
    3;112,113,114;,
    3;115,112,114;,
    3;116,117,118;,
    3;117,116,119;,
    3;120,121,122;,
    3;120,122,123;,
    3;120,124,125;,
    3;120,125,126;,
    3;120,115,124;,
    3;120,127,121;,
    3;120,128,127;,
    3;120,129,130;,
    3;120,126,129;,
    3;120,130,119;,
    3;128,120,119;,
    3;115,120,123;,
    3;128,119,116;,
    3;112,115,123;,
    3;131,132,133;,
    3;132,131,134;,
    3;135,136,137;,
    3;136,135,138;,
    3;139,140,141;,
    3;140,139,142;,
    3;143,144,145;,
    3;144,143,146;,
    3;132,147,133;,
    3;147,132,148;,
    3;138,149,136;,
    3;149,138,150;,
    3;142,151,140;,
    3;151,142,152;,
    3;145,153,143;,
    3;153,145,154;,
    3;152,155,151;,
    3;155,152,156;,
    3;150,157,149;,
    3;157,150,158;,
    3;154,159,153;,
    3;159,154,160;,
    3;148,161,147;,
    3;161,148,162;,
    3;131,163,134;,
    3;163,131,164;,
    3;135,165,166;,
    3;165,135,137;,
    3;139,167,168;,
    3;167,139,141;,
    3;169,144,146;,
    3;144,169,170;,
    3;163,171,172;,
    3;171,163,164;,
    3;166,173,174;,
    3;173,166,165;,
    3;168,175,176;,
    3;175,168,167;,
    3;170,177,178;,
    3;177,170,169;,
    3;176,179,180;,
    3;179,176,175;,
    3;174,181,182;,
    3;181,174,173;,
    3;178,183,184;,
    3;183,178,177;,
    3;172,185,186;,
    3;185,172,171;,
    3;187,188,189;,
    3;188,187,190;,
    3;191,189,192;,
    3;189,191,187;,
    3;193,194,195;,
    3;194,193,196;,
    3;195,188,190;,
    3;188,195,194;;
   }

   MeshMaterialList {
    1;
    180;
    0,
    0,
    0,
    0,
    0,
    0,
    0,
    0,
    0,
    0,
    0,
    0,
    0,
    0,
    0,
    0,
    0,
    0,
    0,
    0,
    0,
    0,
    0,
    0,
    0,
    0,
    0,
    0,
    0,
    0,
    0,
    0,
    0,
    0,
    0,
    0,
    0,
    0,
    0,
    0,
    0,
    0,
    0,
    0,
    0,
    0,
    0,
    0,
    0,
    0,
    0,
    0,
    0,
    0,
    0,
    0,
    0,
    0,
    0,
    0,
    0,
    0,
    0,
    0,
    0,
    0,
    0,
    0,
    0,
    0,
    0,
    0,
    0,
    0,
    0,
    0,
    0,
    0,
    0,
    0,
    0,
    0,
    0,
    0,
    0,
    0,
    0,
    0,
    0,
    0,
    0,
    0,
    0,
    0,
    0,
    0,
    0,
    0,
    0,
    0,
    0,
    0,
    0,
    0,
    0,
    0,
    0,
    0,
    0,
    0,
    0,
    0,
    0,
    0,
    0,
    0,
    0,
    0,
    0,
    0,
    0,
    0,
    0,
    0,
    0,
    0,
    0,
    0,
    0,
    0,
    0,
    0,
    0,
    0,
    0,
    0,
    0,
    0,
    0,
    0,
    0,
    0,
    0,
    0,
    0,
    0,
    0,
    0,
    0,
    0,
    0,
    0,
    0,
    0,
    0,
    0,
    0,
    0,
    0,
    0,
    0,
    0,
    0,
    0,
    0,
    0,
    0,
    0,
    0,
    0,
    0,
    0,
    0,
    0,
    0,
    0,
    0,
    0,
    0,
    0;
    { Material__99 }
   }

   MeshTextureCoords c1 {
    197;
    0.838178;0.835409;,
    0.771697;0.750705;,
    0.839563;0.716966;,
    0.749815;0.824488;,
    0.759547;0.892332;,
    0.836799;0.953846;,
    0.908540;0.217772;,
    0.796710;0.133763;,
    0.862701;0.105645;,
    0.797863;0.241344;,
    0.442618;0.231064;,
    0.488645;0.112844;,
    0.410162;0.127710;,
    0.561504;0.209039;,
    0.262145;0.206059;,
    0.337919;0.114174;,
    0.200395;0.864368;,
    0.138206;0.743079;,
    0.201338;0.772611;,
    0.078734;0.820550;,
    0.927975;0.334542;,
    0.799132;0.352125;,
    0.485581;0.342761;,
    0.594655;0.329668;,
    0.390098;0.346719;,
    0.287541;0.350810;,
    0.187799;0.318171;,
    0.198091;0.962529;,
    0.028133;0.923491;,
    0.688317;0.491079;,
    0.588808;0.399953;,
    0.688317;0.399953;,
    0.588808;0.491079;,
    0.787501;0.491079;,
    0.787501;0.399953;,
    0.882435;0.491079;,
    0.850090;0.399953;,
    0.688317;0.582215;,
    0.588808;0.582215;,
    0.787501;0.582215;,
    0.850090;0.582215;,
    0.914780;0.399953;,
    0.914780;0.582215;,
    0.979957;0.491079;,
    0.974309;0.399953;,
    0.981571;0.582215;,
    0.906620;0.752282;,
    0.927162;0.826455;,
    0.915462;0.894150;,
    0.684536;0.221789;,
    0.721882;0.103703;,
    0.489329;0.112484;,
    0.441276;0.228739;,
    0.409068;0.125772;,
    0.559791;0.207872;,
    0.261657;0.206394;,
    0.337791;0.113738;,
    0.265231;0.745367;,
    0.308133;0.823711;,
    0.669366;0.336054;,
    0.486569;0.342796;,
    0.594292;0.330380;,
    0.388923;0.346995;,
    0.287746;0.350798;,
    0.187823;0.318122;,
    0.371303;0.931823;,
    0.492451;0.491079;,
    0.492451;0.399953;,
    0.396094;0.491079;,
    0.396094;0.399953;,
    0.297637;0.491079;,
    0.329755;0.399953;,
    0.492451;0.582215;,
    0.396094;0.582215;,
    0.329755;0.582215;,
    0.265519;0.399953;,
    0.265519;0.582215;,
    0.199814;0.491079;,
    0.203041;0.399953;,
    0.192552;0.582215;,
    0.097836;0.360617;,
    0.062035;0.351695;,
    0.065521;0.346837;,
    0.097836;0.366569;,
    0.037134;0.315652;,
    0.042740;0.313566;,
    0.032133;0.283026;,
    0.038085;0.283133;,
    0.051170;0.281576;,
    0.060062;0.272717;,
    0.055434;0.281909;,
    0.055577;0.295072;,
    0.051903;0.295110;,
    0.058330;0.325319;,
    0.057461;0.316678;,
    0.060666;0.316265;,
    0.054555;0.325848;,
    0.130152;0.346837;,
    0.133638;0.351695;,
    0.152933;0.313566;,
    0.158539;0.315652;,
    0.157588;0.283133;,
    0.163540;0.283026;,
    0.141164;0.281576;,
    0.136900;0.281909;,
    0.132073;0.270564;,
    0.140427;0.295110;,
    0.136753;0.295072;,
    0.131671;0.316265;,
    0.137782;0.325848;,
    0.134007;0.325319;,
    0.134876;0.316700;,
    0.124054;0.640712;,
    0.098893;0.652848;,
    0.086440;0.648036;,
    0.074330;0.623667;,
    0.121564;0.480861;,
    0.086357;0.474877;,
    0.097795;0.469725;,
    0.074236;0.497834;,
    0.089355;0.558644;,
    0.165665;0.557900;,
    0.158336;0.589900;,
    0.141396;0.620823;,
    0.061776;0.611627;,
    0.037185;0.608585;,
    0.009863;0.558032;,
    0.156444;0.528847;,
    0.137683;0.498260;,
    0.040383;0.511568;,
    0.063070;0.509792;,
    0.030577;0.174030;,
    0.088908;0.158407;,
    0.045695;0.156716;,
    0.076459;0.176755;,
    0.053208;0.178432;,
    0.089743;0.144157;,
    0.081684;0.180513;,
    0.061674;0.141219;,
    0.098667;0.398587;,
    0.132130;0.397859;,
    0.098667;0.407346;,
    0.130198;0.390433;,
    0.068263;0.226016;,
    0.091870;0.240776;,
    0.066427;0.233351;,
    0.091961;0.233252;,
    0.077336;0.095991;,
    0.126799;0.103399;,
    0.110534;0.080950;,
    0.078649;0.073582;,
    0.166219;0.365648;,
    0.160557;0.361834;,
    0.038160;0.204323;,
    0.032481;0.209069;,
    0.160455;0.345292;,
    0.163030;0.344295;,
    0.134841;0.054400;,
    0.073509;0.040048;,
    0.026484;0.192129;,
    0.019961;0.192949;,
    0.077379;0.050343;,
    0.164972;0.072477;,
    0.088908;0.158407;,
    0.045695;0.156716;,
    0.089743;0.144157;,
    0.061674;0.141219;,
    0.064978;0.397859;,
    0.066910;0.390433;,
    0.115850;0.226016;,
    0.117685;0.233351;,
    0.077336;0.095991;,
    0.126799;0.103399;,
    0.110534;0.080950;,
    0.078649;0.073582;,
    0.030395;0.365648;,
    0.036056;0.361834;,
    0.145953;0.204323;,
    0.151631;0.209069;,
    0.020310;0.341334;,
    0.027419;0.340336;,
    0.134841;0.054400;,
    0.073509;0.040048;,
    0.157439;0.192129;,
    0.163961;0.192949;,
    0.077379;0.050343;,
    0.164972;0.072477;,
    0.565261;0.954766;,
    0.485732;0.853633;,
    0.605269;0.886445;,
    0.402075;0.904820;,
    0.601545;0.986784;,
    0.656771;0.892116;,
    0.601545;0.986784;,
    0.605413;0.886444;,
    0.565261;0.954766;,
    0.656771;0.892116;;
   }
  }
 }
}