xof 0303txt 0032
template ColorRGBA {
 <35ff44e0-6c7c-11cf-8f52-0040333594a3>
 FLOAT red;
 FLOAT green;
 FLOAT blue;
 FLOAT alpha;
}

template ColorRGB {
 <d3e16e81-7835-11cf-8f52-0040333594a3>
 FLOAT red;
 FLOAT green;
 FLOAT blue;
}

template Material {
 <3d82ab4d-62da-11cf-ab39-0020af71e433>
 ColorRGBA faceColor;
 FLOAT power;
 ColorRGB specularColor;
 ColorRGB emissiveColor;
 [...]
}

template TextureFilename {
 <a42790e1-7810-11cf-8f52-0040333594a3>
 STRING filename;
}

template Frame {
 <3d82ab46-62da-11cf-ab39-0020af71e433>
 [...]
}

template Matrix4x4 {
 <f6f23f45-7686-11cf-8f52-0040333594a3>
 array FLOAT matrix[16];
}

template FrameTransformMatrix {
 <f6f23f41-7686-11cf-8f52-0040333594a3>
 Matrix4x4 frameMatrix;
}

template Vector {
 <3d82ab5e-62da-11cf-ab39-0020af71e433>
 FLOAT x;
 FLOAT y;
 FLOAT z;
}

template MeshFace {
 <3d82ab5f-62da-11cf-ab39-0020af71e433>
 DWORD nFaceVertexIndices;
 array DWORD faceVertexIndices[nFaceVertexIndices];
}

template Mesh {
 <3d82ab44-62da-11cf-ab39-0020af71e433>
 DWORD nVertices;
 array Vector vertices[nVertices];
 DWORD nFaces;
 array MeshFace faces[nFaces];
 [...]
}

template MeshNormals {
 <f6f23f43-7686-11cf-8f52-0040333594a3>
 DWORD nNormals;
 array Vector normals[nNormals];
 DWORD nFaceNormals;
 array MeshFace faceNormals[nFaceNormals];
}

template MeshMaterialList {
 <f6f23f42-7686-11cf-8f52-0040333594a3>
 DWORD nMaterials;
 DWORD nFaceIndexes;
 array DWORD faceIndexes[nFaceIndexes];
 [Material <3d82ab4d-62da-11cf-ab39-0020af71e433>]
}

template Coords2d {
 <f6f23f44-7686-11cf-8f52-0040333594a3>
 FLOAT u;
 FLOAT v;
}

template MeshTextureCoords {
 <f6f23f40-7686-11cf-8f52-0040333594a3>
 DWORD nTextureCoords;
 array Coords2d textureCoords[nTextureCoords];
}


Material Material__136 {
 1.000000;1.000000;1.000000;1.000000;;
 9.999999;
 0.000000;0.000000;0.000000;;
 0.000000;0.000000;0.000000;;

 TextureFilename {
  "Bandage.png";
 }
}

Frame F_HeadBandage {
 

 FrameTransformMatrix {
  1.000000,0.000000,0.000000,0.000000,0.000000,1.000000,0.000000,0.000000,0.000000,0.000000,1.000000,0.000000,0.000000,0.000000,0.000000,1.000000;;
 }

 Mesh F_HeadBandage {
  52;
  0.100488;-0.000000;-0.063250;,
  0.106131;0.025229;-0.051271;,
  0.104606;-0.000000;-0.059917;,
  0.101761;0.029651;-0.057709;,
  0.073380;0.024896;-0.046199;,
  0.069175;-0.000000;-0.054731;,
  0.072921;0.033786;-0.057763;,
  0.069343;-0.000000;-0.061701;,
  0.110296;0.043697;-0.029633;,
  0.107180;0.051357;-0.032395;,
  0.080641;0.043122;-0.024871;,
  0.081255;0.055011;-0.026988;,
  0.115985;0.050457;-0.001579;,
  0.113825;0.057748;-0.000489;,
  0.086969;0.049793;0.002757;,
  0.088711;0.057066;0.003583;,
  0.121674;0.043697;0.027336;,
  0.119531;0.048752;0.031562;,
  0.092584;0.043122;0.034598;,
  0.094627;0.048176;0.038824;,
  0.125839;0.025229;0.050957;,
  0.124177;0.028147;0.057915;,
  0.092928;0.024896;0.057907;,
  0.095453;0.027814;0.064865;,
  0.127364;0.000000;0.059603;,
  0.125878;0.000000;0.067561;,
  0.088424;0.000000;0.066439;,
  0.091125;0.000000;0.074397;,
  0.125839;-0.025229;0.050957;,
  0.124177;-0.028147;0.057915;,
  0.081827;-0.024896;0.057907;,
  0.084352;-0.027814;0.064865;,
  0.121674;-0.043697;0.027336;,
  0.119531;-0.048752;0.031563;,
  0.072704;-0.043122;0.034598;,
  0.074747;-0.048176;0.038824;,
  0.115985;-0.050457;-0.001579;,
  0.113825;-0.057748;-0.000489;,
  0.066532;-0.051981;0.002757;,
  0.068273;-0.059255;0.003583;,
  0.110296;-0.046041;-0.032531;,
  0.107180;-0.052389;-0.032395;,
  0.065279;-0.043122;-0.024871;,
  0.065992;-0.057200;-0.026988;,
  0.106131;-0.031748;-0.050794;,
  0.101761;-0.033853;-0.054072;,
  0.065547;-0.024896;-0.046199;,
  0.068351;-0.033700;-0.056405;,
  0.104606;-0.000000;-0.059917;,
  0.100488;-0.000000;-0.063250;,
  0.069175;-0.000000;-0.054731;,
  0.069343;-0.000000;-0.061701;;
  96;
  3;0,1,2;,
  3;1,0,3;,
  3;2,4,5;,
  3;4,2,1;,
  3;5,6,7;,
  3;6,5,4;,
  3;7,3,0;,
  3;3,7,6;,
  3;3,8,1;,
  3;8,3,9;,
  3;1,10,4;,
  3;10,1,8;,
  3;4,11,6;,
  3;11,4,10;,
  3;6,9,3;,
  3;9,6,11;,
  3;9,12,8;,
  3;12,9,13;,
  3;8,14,10;,
  3;14,8,12;,
  3;10,15,11;,
  3;15,10,14;,
  3;11,13,9;,
  3;13,11,15;,
  3;13,16,12;,
  3;16,13,17;,
  3;12,18,14;,
  3;18,12,16;,
  3;14,19,15;,
  3;19,14,18;,
  3;15,17,13;,
  3;17,15,19;,
  3;17,20,16;,
  3;20,17,21;,
  3;16,22,18;,
  3;22,16,20;,
  3;18,23,19;,
  3;23,18,22;,
  3;19,21,17;,
  3;21,19,23;,
  3;21,24,20;,
  3;24,21,25;,
  3;20,26,22;,
  3;26,20,24;,
  3;22,27,23;,
  3;27,22,26;,
  3;23,25,21;,
  3;25,23,27;,
  3;25,28,24;,
  3;28,25,29;,
  3;24,30,26;,
  3;30,24,28;,
  3;26,31,27;,
  3;31,26,30;,
  3;27,29,25;,
  3;29,27,31;,
  3;29,32,28;,
  3;32,29,33;,
  3;28,34,30;,
  3;34,28,32;,
  3;30,35,31;,
  3;35,30,34;,
  3;31,33,29;,
  3;33,31,35;,
  3;33,36,32;,
  3;36,33,37;,
  3;32,38,34;,
  3;38,32,36;,
  3;34,39,35;,
  3;39,34,38;,
  3;35,37,33;,
  3;37,35,39;,
  3;37,40,36;,
  3;40,37,41;,
  3;36,42,38;,
  3;42,36,40;,
  3;38,43,39;,
  3;43,38,42;,
  3;43,37,39;,
  3;37,43,41;,
  3;41,44,40;,
  3;44,41,45;,
  3;40,46,42;,
  3;46,40,44;,
  3;42,47,43;,
  3;47,42,46;,
  3;43,45,41;,
  3;45,43,47;,
  3;45,48,44;,
  3;48,45,49;,
  3;44,50,46;,
  3;50,44,48;,
  3;46,51,47;,
  3;51,46,50;,
  3;47,49,45;,
  3;49,47,51;;

  MeshNormals {
   52;
   0.316514;-0.002213;-0.948585;,
   0.937504;-0.291046;0.190732;,
   0.996240;-0.003453;0.086563;,
   0.470874;0.383411;-0.794528;,
   -0.702509;-0.260252;0.662382;,
   -0.737194;0.107273;0.667111;,
   -0.627367;0.472259;-0.619179;,
   -0.676521;0.060841;-0.733906;,
   0.887350;-0.459158;0.042243;,
   0.537981;0.715164;-0.446226;,
   -0.695031;-0.525339;0.490867;,
   -0.623739;0.770655;-0.130541;,
   0.851653;-0.495676;-0.170271;,
   0.552967;0.831431;-0.054313;,
   -0.803220;-0.569628;0.174247;,
   -0.582166;0.791602;0.185605;,
   0.844539;-0.410299;-0.344107;,
   0.577763;0.768040;0.276234;,
   -0.865737;-0.478242;-0.147592;,
   -0.498523;0.749861;0.434952;,
   0.821122;-0.240435;-0.517639;,
   0.648307;0.490603;0.582244;,
   -0.914273;-0.152325;-0.375369;,
   -0.429845;0.531159;0.730139;,
   0.818553;0.004072;-0.574416;,
   0.670676;-0.006156;0.741725;,
   -0.902583;0.211753;-0.374840;,
   -0.437582;0.071517;0.896330;,
   0.830395;0.235526;-0.504947;,
   0.629795;-0.499665;0.594722;,
   -0.858269;0.463242;-0.220865;,
   -0.484329;-0.401262;0.777441;,
   0.847461;0.382025;-0.368602;,
   0.568274;-0.771460;0.286207;,
   -0.838670;0.542238;-0.051104;,
   -0.554456;-0.665236;0.500039;,
   0.840942;0.517753;-0.157317;,
   0.573582;-0.818480;-0.033074;,
   -0.849351;0.508169;0.142716;,
   -0.578115;-0.798806;0.166412;,
   0.929896;0.359217;-0.079099;,
   0.464859;-0.767283;-0.441796;,
   -0.758786;0.592870;0.269719;,
   -0.624744;-0.727349;-0.284004;,
   0.981599;0.190524;-0.012790;,
   0.341447;-0.485973;-0.804515;,
   -0.803339;0.372731;0.464454;,
   -0.553535;-0.422478;-0.717712;,
   0.996240;-0.003453;0.086563;,
   0.316514;-0.002213;-0.948585;,
   -0.737194;0.107273;0.667111;,
   -0.676521;0.060841;-0.733906;;
   96;
   3;0,1,2;,
   3;1,0,3;,
   3;2,4,5;,
   3;4,2,1;,
   3;5,6,7;,
   3;6,5,4;,
   3;7,3,0;,
   3;3,7,6;,
   3;3,8,1;,
   3;8,3,9;,
   3;1,10,4;,
   3;10,1,8;,
   3;4,11,6;,
   3;11,4,10;,
   3;6,9,3;,
   3;9,6,11;,
   3;9,12,8;,
   3;12,9,13;,
   3;8,14,10;,
   3;14,8,12;,
   3;10,15,11;,
   3;15,10,14;,
   3;11,13,9;,
   3;13,11,15;,
   3;13,16,12;,
   3;16,13,17;,
   3;12,18,14;,
   3;18,12,16;,
   3;14,19,15;,
   3;19,14,18;,
   3;15,17,13;,
   3;17,15,19;,
   3;17,20,16;,
   3;20,17,21;,
   3;16,22,18;,
   3;22,16,20;,
   3;18,23,19;,
   3;23,18,22;,
   3;19,21,17;,
   3;21,19,23;,
   3;21,24,20;,
   3;24,21,25;,
   3;20,26,22;,
   3;26,20,24;,
   3;22,27,23;,
   3;27,22,26;,
   3;23,25,21;,
   3;25,23,27;,
   3;25,28,24;,
   3;28,25,29;,
   3;24,30,26;,
   3;30,24,28;,
   3;26,31,27;,
   3;31,26,30;,
   3;27,29,25;,
   3;29,27,31;,
   3;29,32,28;,
   3;32,29,33;,
   3;28,34,30;,
   3;34,28,32;,
   3;30,35,31;,
   3;35,30,34;,
   3;31,33,29;,
   3;33,31,35;,
   3;33,36,32;,
   3;36,33,37;,
   3;32,38,34;,
   3;38,32,36;,
   3;34,39,35;,
   3;39,34,38;,
   3;35,37,33;,
   3;37,35,39;,
   3;37,40,36;,
   3;40,37,41;,
   3;36,42,38;,
   3;42,36,40;,
   3;38,43,39;,
   3;43,38,42;,
   3;43,37,39;,
   3;37,43,41;,
   3;41,44,40;,
   3;44,41,45;,
   3;40,46,42;,
   3;46,40,44;,
   3;42,47,43;,
   3;47,42,46;,
   3;43,45,41;,
   3;45,43,47;,
   3;45,48,44;,
   3;48,45,49;,
   3;44,50,46;,
   3;50,44,48;,
   3;46,51,47;,
   3;51,46,50;,
   3;47,49,45;,
   3;49,47,51;;
  }

  MeshMaterialList {
   1;
   96;
   0,
   0,
   0,
   0,
   0,
   0,
   0,
   0,
   0,
   0,
   0,
   0,
   0,
   0,
   0,
   0,
   0,
   0,
   0,
   0,
   0,
   0,
   0,
   0,
   0,
   0,
   0,
   0,
   0,
   0,
   0,
   0,
   0,
   0,
   0,
   0,
   0,
   0,
   0,
   0,
   0,
   0,
   0,
   0,
   0,
   0,
   0,
   0,
   0,
   0,
   0,
   0,
   0,
   0,
   0,
   0,
   0,
   0,
   0,
   0,
   0,
   0,
   0,
   0,
   0,
   0,
   0,
   0,
   0,
   0,
   0,
   0,
   0,
   0,
   0,
   0,
   0,
   0,
   0,
   0,
   0,
   0,
   0,
   0,
   0,
   0,
   0,
   0,
   0,
   0,
   0,
   0,
   0,
   0,
   0,
   0;
   { Material__136 }
  }

  MeshTextureCoords c1 {
   52;
   0.019531;0.406250;,
   0.078125;0.328125;,
   0.019531;0.343750;,
   0.078125;0.390625;,
   0.082031;0.796875;,
   0.019531;0.859375;,
   0.089844;0.796875;,
   0.019531;0.843750;,
   0.148438;0.265625;,
   0.156250;0.312500;,
   0.156250;0.687500;,
   0.171875;0.687500;,
   0.246094;0.187500;,
   0.250000;0.218750;,
   0.261719;0.593750;,
   0.261719;0.578125;,
   0.351563;0.093750;,
   0.355469;0.125000;,
   0.363281;0.515625;,
   0.363281;0.484375;,
   0.437500;0.046875;,
   0.437500;0.062500;,
   0.441406;0.515625;,
   0.441406;0.468750;,
   0.503906;0.015625;,
   0.503906;0.046875;,
   0.503906;0.578125;,
   0.503906;0.531250;,
   0.570313;0.046875;,
   0.566406;0.062500;,
   0.566406;0.671875;,
   0.566406;0.640625;,
   0.652344;0.093750;,
   0.648438;0.125000;,
   0.640625;0.796875;,
   0.640625;0.781250;,
   0.757813;0.187500;,
   0.750000;0.218750;,
   0.742188;0.890625;,
   0.738281;0.875000;,
   0.859375;0.265625;,
   0.847656;0.312500;,
   0.847656;0.906250;,
   0.832031;0.906250;,
   0.914063;0.328125;,
   0.914063;0.390625;,
   0.925781;0.906250;,
   0.917969;0.875000;,
   0.988281;0.343750;,
   0.988281;0.406250;,
   0.988281;0.859375;,
   0.988281;0.843750;;
  }
 }
}