xof 0303txt 0032
template ColorRGBA {
 <35ff44e0-6c7c-11cf-8f52-0040333594a3>
 FLOAT red;
 FLOAT green;
 FLOAT blue;
 FLOAT alpha;
}

template ColorRGB {
 <d3e16e81-7835-11cf-8f52-0040333594a3>
 FLOAT red;
 FLOAT green;
 FLOAT blue;
}

template Material {
 <3d82ab4d-62da-11cf-ab39-0020af71e433>
 ColorRGBA faceColor;
 FLOAT power;
 ColorRGB specularColor;
 ColorRGB emissiveColor;
 [...]
}

template TextureFilename {
 <a42790e1-7810-11cf-8f52-0040333594a3>
 STRING filename;
}

template Frame {
 <3d82ab46-62da-11cf-ab39-0020af71e433>
 [...]
}

template Matrix4x4 {
 <f6f23f45-7686-11cf-8f52-0040333594a3>
 array FLOAT matrix[16];
}

template FrameTransformMatrix {
 <f6f23f41-7686-11cf-8f52-0040333594a3>
 Matrix4x4 frameMatrix;
}

template Vector {
 <3d82ab5e-62da-11cf-ab39-0020af71e433>
 FLOAT x;
 FLOAT y;
 FLOAT z;
}

template MeshFace {
 <3d82ab5f-62da-11cf-ab39-0020af71e433>
 DWORD nFaceVertexIndices;
 array DWORD faceVertexIndices[nFaceVertexIndices];
}

template Mesh {
 <3d82ab44-62da-11cf-ab39-0020af71e433>
 DWORD nVertices;
 array Vector vertices[nVertices];
 DWORD nFaces;
 array MeshFace faces[nFaces];
 [...]
}

template MeshNormals {
 <f6f23f43-7686-11cf-8f52-0040333594a3>
 DWORD nNormals;
 array Vector normals[nNormals];
 DWORD nFaceNormals;
 array MeshFace faceNormals[nFaceNormals];
}

template MeshMaterialList {
 <f6f23f42-7686-11cf-8f52-0040333594a3>
 DWORD nMaterials;
 DWORD nFaceIndexes;
 array DWORD faceIndexes[nFaceIndexes];
 [Material <3d82ab4d-62da-11cf-ab39-0020af71e433>]
}

template Coords2d {
 <f6f23f44-7686-11cf-8f52-0040333594a3>
 FLOAT u;
 FLOAT v;
}

template MeshTextureCoords {
 <f6f23f40-7686-11cf-8f52-0040333594a3>
 DWORD nTextureCoords;
 array Coords2d textureCoords[nTextureCoords];
}


Material _01_-_Defaultuuuu {
 1.000000;1.000000;1.000000;1.000000;;
 9.999999;
 0.000000;0.000000;0.000000;;
 0.000000;0.000000;0.000000;;

 TextureFilename {
  "JayChickenHat.png";
 }
}

Frame F_JayChickenHat {
 

 FrameTransformMatrix {
  1.000000,0.000000,0.000000,0.000000,0.000000,1.000000,-0.000000,0.000000,0.000000,0.000000,1.000000,0.000000,0.000000,0.000000,0.000000,1.000000;;
 }

 Mesh F_JayChickenHat {
  264;
  0.109425;-0.000007;0.059632;,
  0.124635;-0.022158;0.040206;,
  0.106886;-0.017101;0.055796;,
  0.132057;-0.000006;0.045915;,
  0.110980;-0.032788;0.030504;,
  0.100844;-0.034680;0.049022;,
  0.076046;-0.043148;0.037073;,
  0.076045;0.043299;0.037074;,
  0.110980;0.032776;0.030504;,
  0.100843;0.033546;0.049022;,
  0.124635;0.022146;0.040206;,
  0.106886;0.017089;0.055796;,
  0.134838;-0.032233;0.043039;,
  0.155273;0.000000;0.005889;,
  0.143378;0.000000;0.047774;,
  0.143659;-0.034279;0.006015;,
  0.120644;-0.055897;0.006013;,
  0.117799;-0.045286;0.039954;,
  0.073704;-0.046743;0.000383;,
  0.043039;-0.052006;0.001417;,
  0.043324;-0.046834;0.032800;,
  -0.014545;-0.054834;0.004228;,
  -0.010013;-0.045038;0.039011;,
  -0.010012;0.045153;0.039012;,
  0.043039;0.053381;0.001417;,
  0.043324;0.046822;0.032802;,
  -0.014545;0.054949;0.004229;,
  0.073704;0.046894;0.000383;,
  0.117752;0.045287;0.039922;,
  0.143659;0.034279;0.006015;,
  0.120644;0.055898;0.006013;,
  0.134862;0.032233;0.042992;,
  0.138745;-0.033998;-0.035001;,
  0.148926;0.000000;-0.035010;,
  0.114483;-0.051587;-0.035202;,
  0.077745;-0.057517;-0.035120;,
  0.077731;-0.061736;0.006094;,
  0.045235;-0.060722;0.005939;,
  0.049376;-0.053340;-0.035085;,
  0.048513;-0.044105;-0.032607;,
  0.003446;-0.033721;-0.039354;,
  0.048513;0.044092;-0.032607;,
  0.003447;0.033708;-0.039353;,
  0.045235;0.060207;0.005939;,
  0.077745;0.057681;-0.035120;,
  0.049376;0.052824;-0.035085;,
  0.077731;0.061899;0.006094;,
  0.114483;0.051588;-0.035202;,
  0.138745;0.033998;-0.035001;,
  0.106476;-0.023273;-0.058357;,
  0.117106;0.000000;-0.058228;,
  0.069839;-0.034296;-0.058313;,
  0.041455;-0.017681;-0.045136;,
  0.036984;-0.000006;-0.044872;,
  0.022630;-0.000006;-0.047402;,
  0.010935;-0.008584;-0.048178;,
  0.036984;-0.000006;-0.044872;,
  0.010935;0.008572;-0.048177;,
  0.022630;-0.000006;-0.047402;,
  0.041455;0.017669;-0.045136;,
  0.069839;0.034297;-0.058313;,
  0.106476;0.023273;-0.058357;,
  0.117106;0.000000;-0.058228;,
  0.075224;0.000000;-0.065204;,
  0.041632;-0.022265;-0.058572;,
  0.038528;0.000000;-0.059893;,
  0.075224;0.000000;-0.065204;,
  0.038528;0.000000;-0.059893;,
  0.041632;0.022266;-0.058572;,
  0.109425;-0.000007;0.059632;,
  0.112656;-0.022107;0.061393;,
  0.114496;0.000000;0.066340;,
  0.106886;-0.017101;0.055796;,
  0.105338;-0.040811;0.053471;,
  0.100844;-0.034680;0.049022;,
  0.080589;-0.051337;0.043065;,
  0.076046;-0.043148;0.037073;,
  0.076045;0.043299;0.037074;,
  0.105338;0.039691;0.053471;,
  0.080590;0.051501;0.043065;,
  0.100843;0.033546;0.049022;,
  0.112657;0.022108;0.061393;,
  0.106886;0.017089;0.055796;,
  0.045684;-0.053514;0.038631;,
  0.043324;-0.046834;0.032800;,
  -0.010013;-0.045038;0.039011;,
  -0.013709;-0.063185;0.005686;,
  -0.008086;-0.051090;0.043162;,
  -0.014545;-0.054834;0.004228;,
  -0.008086;-0.051090;0.043162;,
  -0.010013;-0.045038;0.039011;,
  -0.010012;0.045153;0.039012;,
  0.045684;0.052999;0.038630;,
  -0.008088;0.051221;0.043161;,
  0.043324;0.046822;0.032802;,
  -0.014545;0.054949;0.004229;,
  -0.008088;0.051221;0.043161;,
  -0.013710;0.063313;0.005685;,
  -0.010012;0.045153;0.039012;,
  0.005044;-0.044316;-0.041380;,
  0.003446;-0.033721;-0.039354;,
  0.003447;0.033708;-0.039353;,
  0.005043;0.044316;-0.041379;,
  0.016801;-0.008477;-0.053817;,
  0.010935;-0.008584;-0.048178;,
  0.010935;0.008572;-0.048177;,
  0.016801;0.008478;-0.053817;,
  0.114496;0.000000;0.066340;,
  0.112656;-0.022107;0.061393;,
  0.105338;-0.040811;0.053471;,
  0.080589;-0.051337;0.043065;,
  0.080590;0.051501;0.043065;,
  0.105338;0.039691;0.053471;,
  0.112657;0.022108;0.061393;,
  0.045684;-0.053514;0.038631;,
  -0.013709;-0.063185;0.005686;,
  -0.008086;-0.051090;0.043162;,
  -0.008088;0.051221;0.043161;,
  0.045684;0.052999;0.038630;,
  -0.013710;0.063313;0.005685;,
  0.005044;-0.044316;-0.041380;,
  0.005043;0.044316;-0.041379;,
  0.016801;-0.008477;-0.053817;,
  0.016801;0.008478;-0.053817;,
  0.124962;-0.058501;0.009616;,
  0.119783;-0.058961;0.004752;,
  0.123814;-0.056522;0.002818;,
  0.117919;-0.059784;0.009420;,
  0.119315;-0.058507;0.014088;,
  0.123152;-0.055880;0.016022;,
  0.127184;-0.053440;0.014088;,
  0.129048;-0.052618;0.009420;,
  0.127652;-0.053895;0.004752;,
  0.114679;-0.054552;0.002345;,
  0.120381;-0.051102;-0.000390;,
  0.112044;-0.055715;0.008947;,
  0.114017;-0.053910;0.015548;,
  0.119444;-0.050194;0.018283;,
  0.125146;-0.046744;0.015548;,
  0.127782;-0.045582;0.008947;,
  0.125808;-0.047387;0.002345;,
  0.129321;0.000312;0.056982;,
  0.121516;-0.012799;0.063204;,
  0.116688;-0.007381;0.064247;,
  0.127872;-0.012799;0.066858;,
  0.129400;-0.007381;0.071555;,
  0.124572;-0.001963;0.072597;,
  0.118217;-0.001963;0.068943;,
  0.119639;-0.014548;0.067612;,
  0.115563;-0.009972;0.068492;,
  0.125007;-0.014548;0.070698;,
  0.126297;-0.009972;0.074663;,
  0.122221;-0.005397;0.075544;,
  0.116853;-0.005397;0.072458;,
  0.119855;-0.011289;0.073447;,
  0.129321;-0.000193;0.056982;,
  0.116688;0.007501;0.064247;,
  0.121516;0.012919;0.063204;,
  0.127872;0.012919;0.066858;,
  0.129400;0.007501;0.071554;,
  0.124572;0.002082;0.072597;,
  0.118217;0.002082;0.068943;,
  0.119639;0.014667;0.067612;,
  0.115563;0.010092;0.068492;,
  0.125007;0.014667;0.070698;,
  0.126297;0.010092;0.074663;,
  0.122221;0.005516;0.075544;,
  0.116853;0.005516;0.072458;,
  0.119855;0.011409;0.073447;,
  0.137014;-0.020271;0.045739;,
  0.150315;0.000000;0.061480;,
  0.129440;0.000000;0.057205;,
  0.137014;0.020271;0.045739;,
  0.137014;0.020271;0.045739;,
  0.150315;0.000000;0.061480;,
  0.147196;0.000000;0.036260;,
  0.137014;-0.020271;0.045739;,
  0.124956;0.058364;0.009732;,
  0.123938;0.056512;0.002874;,
  0.119870;0.058915;0.004803;,
  0.117917;0.059651;0.009461;,
  0.119223;0.058288;0.014119;,
  0.123024;0.055625;0.016048;,
  0.127092;0.053222;0.014119;,
  0.130052;0.054728;0.009461;,
  0.127739;0.053849;0.004803;,
  0.114814;0.054552;0.002220;,
  0.120567;0.051153;-0.000508;,
  0.112052;0.055593;0.008807;,
  0.113900;0.053665;0.015394;,
  0.119275;0.049899;0.018123;,
  0.125028;0.046500;0.015394;,
  0.127790;0.045459;0.008807;,
  0.125942;0.047387;0.002220;,
  0.179494;-0.001806;-0.006288;,
  0.163056;0.004197;-0.009180;,
  0.179494;0.001807;-0.006287;,
  0.163056;-0.004197;-0.009180;,
  0.175159;0.001881;-0.016288;,
  0.175159;-0.001880;-0.016288;,
  0.172725;-0.001808;-0.029376;,
  0.160475;0.003521;-0.028752;,
  0.172725;0.001809;-0.029376;,
  0.160475;-0.003520;-0.028753;,
  0.151343;-0.003271;0.014809;,
  0.176450;0.001840;0.007657;,
  0.151343;0.003271;0.014809;,
  0.176450;-0.001840;0.007658;,
  0.151343;0.003271;0.014809;,
  0.179494;0.001807;-0.006287;,
  0.151471;0.004280;-0.005753;,
  0.176450;0.001840;0.007657;,
  0.163056;0.004197;-0.009180;,
  0.149183;0.004280;-0.018603;,
  0.175159;0.001881;-0.016288;,
  0.172725;0.001809;-0.029376;,
  0.160475;0.003521;-0.028752;,
  0.146510;0.004280;-0.033892;,
  0.131935;0.003671;-0.044207;,
  0.134665;-0.003346;-0.049477;,
  0.131935;-0.003670;-0.044207;,
  0.134665;0.003347;-0.049477;,
  0.160475;-0.003520;-0.028753;,
  0.149183;-0.004280;-0.018603;,
  0.146510;-0.004280;-0.033892;,
  0.172725;-0.001808;-0.029376;,
  0.175159;-0.001880;-0.016288;,
  0.163056;-0.004197;-0.009180;,
  0.151471;-0.004280;-0.005753;,
  0.179494;-0.001806;-0.006288;,
  0.176450;-0.001840;0.007658;,
  0.151343;-0.003271;0.014809;,
  0.163962;-0.001920;-0.035694;,
  0.163962;0.001920;-0.035694;,
  0.163962;-0.001920;-0.035694;,
  0.163962;0.001920;-0.035694;,
  0.159819;-0.001814;-0.044054;,
  0.159819;0.001814;-0.044053;,
  0.159819;-0.001814;-0.044054;,
  0.159819;0.001814;-0.044053;,
  0.150928;-0.004124;-0.041188;,
  0.150928;0.004124;-0.041189;,
  0.150928;-0.004124;-0.041188;,
  0.150928;0.004124;-0.041189;,
  0.131935;-0.003670;-0.044207;,
  0.149001;-0.001921;-0.047035;,
  0.149001;0.001921;-0.047035;,
  0.149001;-0.001921;-0.047035;,
  0.131935;0.003671;-0.044207;,
  0.149001;0.001921;-0.047035;,
  0.142109;-0.001826;-0.052276;,
  0.142109;0.001826;-0.052276;,
  0.142109;-0.001826;-0.052276;,
  0.142109;0.001826;-0.052276;,
  0.134665;-0.003346;-0.049477;,
  0.134665;0.003347;-0.049477;,
  0.182048;-0.000001;0.001468;,
  0.182048;-0.000001;0.001468;,
  0.178657;0.000000;-0.023765;,
  0.178657;0.000000;-0.023765;,
  0.010935;0.008572;-0.048177;,
  0.016801;0.008478;-0.053817;,
  0.016801;-0.008477;-0.053817;,
  0.010935;-0.008584;-0.048178;;
  306;
  3;0,1,2;,
  3;1,0,3;,
  3;2,4,5;,
  3;4,2,1;,
  3;5,4,6;,
  3;7,8,9;,
  3;9,10,11;,
  3;10,9,8;,
  3;11,3,0;,
  3;3,11,10;,
  3;12,13,14;,
  3;13,12,15;,
  3;12,16,15;,
  3;16,12,17;,
  3;18,6,4;,
  3;6,19,20;,
  3;19,6,18;,
  3;20,21,22;,
  3;21,20,19;,
  3;23,24,25;,
  3;24,23,26;,
  3;25,27,7;,
  3;27,25,24;,
  3;27,8,7;,
  3;28,29,30;,
  3;29,28,31;,
  3;31,13,29;,
  3;13,31,14;,
  3;13,32,33;,
  3;32,13,15;,
  3;16,32,15;,
  3;32,16,34;,
  3;16,35,34;,
  3;35,16,36;,
  3;37,35,36;,
  3;35,37,38;,
  3;21,39,40;,
  3;39,21,19;,
  3;26,41,24;,
  3;41,26,42;,
  3;43,44,45;,
  3;44,43,46;,
  3;46,47,44;,
  3;47,46,30;,
  3;30,48,47;,
  3;48,30,29;,
  3;13,48,29;,
  3;48,13,33;,
  3;33,49,50;,
  3;49,33,32;,
  3;32,34,49;,
  3;34,51,49;,
  3;51,34,35;,
  3;35,38,51;,
  3;39,52,40;,
  3;53,40,52;,
  3;40,54,55;,
  3;53,54,40;,
  3;56,57,58;,
  3;56,42,57;,
  3;56,59,42;,
  3;42,59,41;,
  3;45,44,60;,
  3;47,60,44;,
  3;60,47,61;,
  3;47,48,61;,
  3;33,61,48;,
  3;61,33,62;,
  3;63,50,49;,
  3;63,49,51;,
  3;63,51,64;,
  3;63,64,65;,
  3;66,67,68;,
  3;66,68,60;,
  3;66,60,61;,
  3;66,61,62;,
  3;69,70,71;,
  3;70,69,72;,
  3;72,73,70;,
  3;73,72,74;,
  3;74,75,73;,
  3;75,74,76;,
  3;77,78,79;,
  3;78,77,80;,
  3;80,81,78;,
  3;81,80,82;,
  3;82,71,81;,
  3;71,82,69;,
  3;76,83,75;,
  3;83,76,84;,
  3;85,86,87;,
  3;86,85,88;,
  3;84,89,83;,
  3;89,84,90;,
  3;91,92,93;,
  3;92,91,94;,
  3;95,96,97;,
  3;96,95,98;,
  3;94,79,92;,
  3;79,94,77;,
  3;88,99,86;,
  3;99,88,100;,
  3;101,97,102;,
  3;97,101,95;,
  3;100,103,99;,
  3;103,100,104;,
  3;105,102,106;,
  3;102,105,101;,
  3;12,107,108;,
  3;107,12,14;,
  3;12,109,17;,
  3;109,12,108;,
  3;109,110,17;,
  3;111,112,28;,
  3;112,31,28;,
  3;31,112,113;,
  3;31,107,14;,
  3;107,31,113;,
  3;36,17,110;,
  3;17,36,16;,
  3;37,110,114;,
  3;110,37,36;,
  3;115,114,116;,
  3;114,115,37;,
  3;43,117,118;,
  3;117,43,119;,
  3;46,118,111;,
  3;118,46,43;,
  3;30,111,28;,
  3;111,30,46;,
  3;38,115,120;,
  3;115,38,37;,
  3;45,119,43;,
  3;119,45,121;,
  3;51,120,64;,
  3;120,51,38;,
  3;120,65,64;,
  3;65,120,122;,
  3;67,121,68;,
  3;121,67,123;,
  3;121,60,68;,
  3;60,121,45;,
  3;124,125,126;,
  3;124,127,125;,
  3;124,128,127;,
  3;124,129,128;,
  3;124,130,129;,
  3;124,131,130;,
  3;124,132,131;,
  3;124,126,132;,
  3;133,126,125;,
  3;126,133,134;,
  3;135,125,127;,
  3;125,135,133;,
  3;136,127,128;,
  3;127,136,135;,
  3;137,128,129;,
  3;128,137,136;,
  3;138,129,130;,
  3;129,138,137;,
  3;139,130,131;,
  3;130,139,138;,
  3;140,131,132;,
  3;131,140,139;,
  3;134,132,126;,
  3;132,134,140;,
  3;141,142,143;,
  3;141,144,142;,
  3;141,145,144;,
  3;141,146,145;,
  3;141,147,146;,
  3;141,143,147;,
  3;148,143,142;,
  3;143,148,149;,
  3;150,142,144;,
  3;142,150,148;,
  3;151,144,145;,
  3;144,151,150;,
  3;152,145,146;,
  3;145,152,151;,
  3;153,146,147;,
  3;146,153,152;,
  3;149,147,143;,
  3;147,149,153;,
  3;154,149,148;,
  3;154,148,150;,
  3;154,150,151;,
  3;154,151,152;,
  3;154,152,153;,
  3;154,153,149;,
  3;155,156,157;,
  3;155,157,158;,
  3;155,158,159;,
  3;155,159,160;,
  3;155,160,161;,
  3;155,161,156;,
  3;162,156,163;,
  3;156,162,157;,
  3;164,157,162;,
  3;157,164,158;,
  3;165,158,164;,
  3;158,165,159;,
  3;166,159,165;,
  3;159,166,160;,
  3;167,160,166;,
  3;160,167,161;,
  3;163,161,167;,
  3;161,163,156;,
  3;168,162,163;,
  3;168,164,162;,
  3;168,165,164;,
  3;168,166,165;,
  3;168,167,166;,
  3;168,163,167;,
  3;169,170,171;,
  3;171,170,172;,
  3;173,174,175;,
  3;175,174,176;,
  3;177,178,179;,
  3;177,179,180;,
  3;177,180,181;,
  3;177,181,182;,
  3;177,182,183;,
  3;177,183,184;,
  3;177,184,185;,
  3;177,185,178;,
  3;186,178,187;,
  3;178,186,179;,
  3;188,179,186;,
  3;179,188,180;,
  3;189,180,188;,
  3;180,189,181;,
  3;190,181,189;,
  3;181,190,182;,
  3;191,182,190;,
  3;182,191,183;,
  3;192,183,191;,
  3;183,192,184;,
  3;193,184,192;,
  3;184,193,185;,
  3;187,185,193;,
  3;185,187,178;,
  3;194,195,196;,
  3;195,194,197;,
  3;197,198,195;,
  3;198,197,199;,
  3;200,201,202;,
  3;201,200,203;,
  3;204,205,206;,
  3;205,204,207;,
  3;208,209,210;,
  3;209,208,211;,
  3;210,209,212;,
  3;212,213,210;,
  3;213,212,214;,
  3;213,214,215;,
  3;213,216,217;,
  3;216,213,215;,
  3;218,219,220;,
  3;219,218,221;,
  3;222,223,224;,
  3;223,222,225;,
  3;223,225,226;,
  3;223,227,228;,
  3;227,223,226;,
  3;228,227,229;,
  3;228,230,231;,
  3;230,228,229;,
  3;224,232,222;,
  3;203,233,201;,
  3;233,203,234;,
  3;216,235,217;,
  3;232,224,236;,
  3;234,237,233;,
  3;237,234,238;,
  3;235,239,217;,
  3;224,240,236;,
  3;238,241,237;,
  3;241,238,242;,
  3;239,243,217;,
  3;244,240,224;,
  3;240,244,245;,
  3;242,246,241;,
  3;246,242,247;,
  3;243,248,217;,
  3;248,243,249;,
  3;244,250,245;,
  3;247,251,246;,
  3;251,247,252;,
  3;249,253,248;,
  3;250,244,254;,
  3;252,221,251;,
  3;221,252,219;,
  3;253,255,248;,
  3;207,256,205;,
  3;211,257,209;,
  3;196,256,194;,
  3;229,257,230;,
  3;199,258,198;,
  3;214,259,215;,
  3;202,258,200;,
  3;225,259,226;,
  3;55,54,260;,
  3;122,261,65;,
  3;262,105,106;,
  3;105,262,263;;

  MeshNormals {
   264;
   -0.543204;0.028701;-0.839110;,
   -0.402056;0.598146;-0.693233;,
   -0.602311;0.442991;-0.664063;,
   -0.540267;0.019728;-0.841263;,
   -0.419607;0.860388;-0.289244;,
   -0.602818;0.756820;-0.252653;,
   -0.231269;0.968493;-0.092391;,
   -0.221590;-0.970886;-0.090984;,
   -0.393017;-0.904731;-0.164317;,
   -0.431768;-0.831212;-0.350233;,
   -0.545262;-0.558711;-0.624925;,
   -0.514831;-0.387997;-0.764466;,
   0.692255;-0.507101;0.513451;,
   0.998169;-0.000033;0.060485;,
   0.807784;0.000103;0.589479;,
   0.845049;-0.531312;0.059991;,
   0.413976;-0.906950;0.077884;,
   0.360486;-0.834399;0.416927;,
   -0.214193;0.973368;-0.081705;,
   -0.075345;0.997114;-0.009334;,
   -0.063307;0.981475;-0.180831;,
   0.016723;0.999302;0.033421;,
   0.000838;0.962521;-0.271206;,
   -0.024414;-0.968839;-0.246486;,
   -0.077429;-0.996152;-0.041059;,
   -0.071409;-0.982437;-0.172389;,
   0.009073;-0.999695;0.022960;,
   -0.202941;-0.971680;-0.121048;,
   0.385568;0.820091;0.422833;,
   0.838993;0.539512;0.070841;,
   0.427561;0.900385;0.080614;,
   0.686919;0.526977;0.500437;,
   0.721943;-0.492374;-0.486175;,
   0.864214;0.000000;-0.503125;,
   0.337282;-0.815035;-0.471125;,
   0.022846;-0.900776;-0.433683;,
   0.054808;-0.994545;0.088752;,
   0.003547;-0.999269;0.038055;,
   -0.085746;-0.884078;-0.459407;,
   0.010185;0.789785;0.613300;,
   0.037891;0.651299;0.757875;,
   0.018211;-0.781147;0.624082;,
   0.040086;-0.653423;0.755931;,
   -0.019059;0.999029;0.039720;,
   0.018913;0.902116;-0.431078;,
   -0.090318;0.885325;-0.456117;,
   0.051279;0.996032;0.072744;,
   0.335687;0.817281;-0.468365;,
   0.721943;0.492374;-0.486175;,
   0.286535;-0.328798;-0.899883;,
   0.438183;0.000000;-0.898886;,
   -0.005921;-0.482614;-0.875813;,
   0.062491;0.204133;0.976947;,
   -0.006819;0.004617;0.999966;,
   -0.166788;0.077530;0.982940;,
   -0.278081;0.296585;0.913624;,
   -0.006819;0.004617;0.999966;,
   -0.188220;-0.258930;0.947380;,
   -0.166788;0.077530;0.982940;,
   0.062503;-0.204137;0.976945;,
   -0.007528;0.483743;-0.875178;,
   0.286534;0.328798;-0.899883;,
   0.438183;0.000000;-0.898886;,
   0.009275;-0.000000;-0.999957;,
   -0.215712;-0.224481;-0.950303;,
   -0.221388;-0.000000;-0.975186;,
   0.009275;-0.000000;-0.999957;,
   -0.221388;-0.000000;-0.975186;,
   -0.215712;0.224484;-0.950303;,
   -0.789052;-0.023730;0.613868;,
   -0.722311;-0.037158;0.690569;,
   -0.788267;-0.014124;0.615171;,
   -0.713728;-0.037636;0.699411;,
   -0.610177;0.118174;0.783402;,
   -0.603533;0.137340;0.785421;,
   -0.366266;0.401626;0.839372;,
   -0.283678;0.467968;0.836978;,
   -0.297747;-0.444861;0.844657;,
   -0.621417;-0.118081;0.774531;,
   -0.372316;-0.413998;0.830654;,
   -0.610990;-0.117243;0.782908;,
   -0.720803;0.054128;0.691023;,
   -0.730531;0.054689;0.680686;,
   -0.058159;0.636302;0.769244;,
   -0.018297;0.649777;0.759904;,
   -0.968060;-0.158946;0.193896;,
   -0.987497;-0.124327;-0.096920;,
   -0.964954;-0.170243;0.199704;,
   -0.976611;-0.122634;-0.176611;,
   0.111253;0.594631;0.796264;,
   0.113161;0.586162;0.802252;,
   0.089379;-0.595608;0.798287;,
   -0.029929;-0.675169;0.737056;,
   0.087391;-0.580963;0.809225;,
   0.004886;-0.677687;0.735334;,
   -0.973898;0.135032;-0.182454;,
   -0.970305;0.165137;0.176745;,
   -0.989592;0.107731;-0.095399;,
   -0.966516;0.184829;0.178002;,
   -0.872740;-0.045591;-0.486051;,
   -0.812805;-0.016121;-0.582313;,
   -0.830437;0.022643;-0.556652;,
   -0.879126;0.046459;-0.474320;,
   -0.697335;-0.014413;-0.716601;,
   -0.692552;-0.026402;-0.720885;,
   -0.697154;0.011437;-0.716830;,
   -0.692955;0.009471;-0.720919;,
   0.555372;0.000192;0.831602;,
   0.506159;-0.333178;0.795485;,
   0.307425;-0.737864;0.600872;,
   0.109087;-0.953409;0.281269;,
   0.102463;0.943958;0.313759;,
   0.300797;0.714534;0.631635;,
   0.501652;0.343067;0.794135;,
   0.026295;-0.972295;0.232275;,
   -0.020150;-0.999745;0.010197;,
   -0.016781;-0.950798;0.309357;,
   0.028246;0.961701;0.272642;,
   -0.016894;0.972804;0.231014;,
   0.010518;0.999640;0.024689;,
   -0.161658;-0.728869;-0.665295;,
   -0.155481;0.732375;-0.662913;,
   -0.197652;-0.183545;-0.962936;,
   -0.197653;0.183548;-0.962935;,
   0.540011;-0.838867;0.068484;,
   -0.064702;-0.870785;-0.487389;,
   0.387325;-0.599309;-0.700577;,
   -0.271234;-0.961877;0.035010;,
   -0.109403;-0.814976;0.569074;,
   0.328575;-0.512877;0.793092;,
   0.779682;-0.238779;0.578862;,
   0.987021;-0.150506;0.056018;,
   0.826105;-0.300027;-0.477006;,
   -0.314380;-0.708686;-0.631608;,
   0.244864;-0.374296;-0.894396;,
   -0.570018;-0.821515;0.013881;,
   -0.370812;-0.640753;0.672261;,
   0.168509;-0.267377;0.948743;,
   0.726396;0.072049;0.683489;,
   0.983101;0.179338;0.036738;,
   0.785233;-0.006524;-0.619166;,
   0.425329;0.521292;-0.739831;,
   -0.161908;-0.679228;-0.715846;,
   -0.816630;0.055603;-0.574477;,
   0.700090;-0.679227;-0.220283;,
   0.907365;0.055604;0.416649;,
   0.252644;0.790435;0.558018;,
   -0.609355;0.790434;0.062454;,
   -0.417273;-0.904371;-0.089423;,
   -0.952381;-0.303789;0.026119;,
   0.287243;-0.904371;0.315603;,
   0.456650;-0.303789;0.836171;,
   -0.078457;0.296793;0.951713;,
   -0.782974;0.296794;0.546686;,
   -0.425329;-0.521292;0.739831;,
   0.425329;-0.521292;-0.739831;,
   -0.816630;-0.055604;-0.574477;,
   -0.161909;0.679227;-0.715847;,
   0.700091;0.679226;-0.220283;,
   0.907366;-0.055605;0.416648;,
   0.252646;-0.790434;0.558018;,
   -0.609354;-0.790435;0.062455;,
   -0.417273;0.904371;-0.089425;,
   -0.952382;0.303788;0.026118;,
   0.287242;0.904372;0.315601;,
   0.456653;0.303788;0.836171;,
   -0.078457;-0.296794;0.951713;,
   -0.782974;-0.296794;0.546686;,
   -0.425329;0.521293;0.739830;,
   -0.169799;-0.532502;0.829222;,
   -0.200607;0.000000;0.979672;,
   -0.200607;0.000000;0.979672;,
   -0.169799;0.532502;0.829222;,
   0.867430;0.485859;-0.107265;,
   0.992441;0.000000;-0.122724;,
   0.992441;0.000000;-0.122724;,
   0.867430;-0.485859;-0.107265;,
   0.464211;0.880604;0.095100;,
   0.397622;0.614522;-0.681366;,
   -0.057002;0.880378;-0.470835;,
   -0.271886;0.961115;0.048340;,
   -0.118722;0.803318;0.583597;,
   0.316518;0.495198;0.809070;,
   0.719427;0.192920;0.667238;,
   0.928989;0.363776;0.068169;,
   0.761705;0.318196;-0.564408;,
   -0.304077;0.720991;-0.622663;,
   0.258949;0.393797;-0.881969;,
   -0.570371;0.821164;0.019157;,
   -0.381997;0.627184;0.678763;,
   0.153552;0.246204;0.956977;,
   0.714647;-0.087761;0.693958;,
   0.972013;-0.226130;0.063689;,
   0.779671;0.005248;-0.626168;,
   0.599780;-0.000020;-0.800165;,
   0.980298;0.000011;-0.197524;,
   0.599825;-0.000010;-0.800131;,
   0.980298;-0.000000;-0.197525;,
   0.712507;-0.000000;0.701665;,
   0.712510;-0.000000;0.701662;,
   0.298964;0.000082;-0.954264;,
   0.815206;0.000035;-0.579171;,
   0.299015;0.000090;-0.954248;,
   0.815257;0.000042;-0.579099;,
   0.273945;0.000001;0.961745;,
   0.505862;-0.000018;0.862615;,
   0.273945;-0.000000;0.961745;,
   0.505846;-0.000018;0.862624;,
   0.080614;0.996005;0.038421;,
   0.164064;0.984079;0.068347;,
   0.053122;0.997492;0.046782;,
   0.132461;0.990833;0.026544;,
   0.083250;0.993014;0.083620;,
   0.066750;0.997510;-0.022763;,
   0.162978;0.984508;-0.064666;,
   0.175132;0.984356;-0.019279;,
   0.116738;0.993019;-0.016891;,
   0.069219;0.997168;-0.029397;,
   -0.887946;0.000002;-0.459949;,
   -0.686958;0.000002;-0.726697;,
   -0.887946;0.000001;-0.459948;,
   -0.686958;0.000003;-0.726697;,
   0.116742;-0.993019;-0.016895;,
   0.066749;-0.997510;-0.022761;,
   0.069217;-0.997168;-0.029397;,
   0.175115;-0.984359;-0.019273;,
   0.162964;-0.984511;-0.064667;,
   0.083251;-0.993014;0.083624;,
   0.047201;-0.998012;0.041775;,
   0.173414;-0.982978;0.060670;,
   0.149519;-0.987909;0.040996;,
   0.070840;-0.996268;0.049314;,
   0.121238;-0.985729;-0.116792;,
   0.999396;-0.000023;0.034746;,
   0.999396;-0.000013;0.034762;,
   0.121238;0.985731;-0.116774;,
   0.161346;-0.986498;-0.028080;,
   0.334459;0.000139;-0.942410;,
   0.334255;0.000038;-0.942483;,
   0.161337;0.986500;-0.028079;,
   0.160257;-0.986983;-0.013481;,
   0.417718;-0.000017;-0.908577;,
   0.417673;-0.000068;-0.908597;,
   0.160212;0.986990;-0.013536;,
   0.080917;-0.991183;-0.104922;,
   0.050645;-0.956783;-0.286357;,
   0.832125;-0.000009;-0.554588;,
   0.832126;-0.000003;-0.554587;,
   0.080922;0.991182;-0.104924;,
   0.050648;0.956775;-0.286384;,
   0.101332;-0.989966;-0.098480;,
   0.115601;0.000003;-0.993296;,
   0.115600;0.000002;-0.993296;,
   0.101340;0.989966;-0.098481;,
   0.219157;-0.974211;0.053690;,
   0.219165;0.974209;0.053690;,
   0.978546;-0.000077;0.206029;,
   0.978114;-0.000189;0.208071;,
   0.984218;0.000022;-0.176960;,
   0.980463;-0.000059;-0.196703;,
   -0.188220;-0.258930;0.947380;,
   -0.197653;0.183548;-0.962935;,
   -0.697335;-0.014413;-0.716601;,
   -0.692552;-0.026402;-0.720885;;
   306;
   3;0,1,2;,
   3;1,0,3;,
   3;2,4,5;,
   3;4,2,1;,
   3;5,4,6;,
   3;7,8,9;,
   3;9,10,11;,
   3;10,9,8;,
   3;11,3,0;,
   3;3,11,10;,
   3;12,13,14;,
   3;13,12,15;,
   3;12,16,15;,
   3;16,12,17;,
   3;18,6,4;,
   3;6,19,20;,
   3;19,6,18;,
   3;20,21,22;,
   3;21,20,19;,
   3;23,24,25;,
   3;24,23,26;,
   3;25,27,7;,
   3;27,25,24;,
   3;27,8,7;,
   3;28,29,30;,
   3;29,28,31;,
   3;31,13,29;,
   3;13,31,14;,
   3;13,32,33;,
   3;32,13,15;,
   3;16,32,15;,
   3;32,16,34;,
   3;16,35,34;,
   3;35,16,36;,
   3;37,35,36;,
   3;35,37,38;,
   3;21,39,40;,
   3;39,21,19;,
   3;26,41,24;,
   3;41,26,42;,
   3;43,44,45;,
   3;44,43,46;,
   3;46,47,44;,
   3;47,46,30;,
   3;30,48,47;,
   3;48,30,29;,
   3;13,48,29;,
   3;48,13,33;,
   3;33,49,50;,
   3;49,33,32;,
   3;32,34,49;,
   3;34,51,49;,
   3;51,34,35;,
   3;35,38,51;,
   3;39,52,40;,
   3;53,40,52;,
   3;40,54,55;,
   3;53,54,40;,
   3;56,57,58;,
   3;56,42,57;,
   3;56,59,42;,
   3;42,59,41;,
   3;45,44,60;,
   3;47,60,44;,
   3;60,47,61;,
   3;47,48,61;,
   3;33,61,48;,
   3;61,33,62;,
   3;63,50,49;,
   3;63,49,51;,
   3;63,51,64;,
   3;63,64,65;,
   3;66,67,68;,
   3;66,68,60;,
   3;66,60,61;,
   3;66,61,62;,
   3;69,70,71;,
   3;70,69,72;,
   3;72,73,70;,
   3;73,72,74;,
   3;74,75,73;,
   3;75,74,76;,
   3;77,78,79;,
   3;78,77,80;,
   3;80,81,78;,
   3;81,80,82;,
   3;82,71,81;,
   3;71,82,69;,
   3;76,83,75;,
   3;83,76,84;,
   3;85,86,87;,
   3;86,85,88;,
   3;84,89,83;,
   3;89,84,90;,
   3;91,92,93;,
   3;92,91,94;,
   3;95,96,97;,
   3;96,95,98;,
   3;94,79,92;,
   3;79,94,77;,
   3;88,99,86;,
   3;99,88,100;,
   3;101,97,102;,
   3;97,101,95;,
   3;100,103,99;,
   3;103,100,104;,
   3;105,102,106;,
   3;102,105,101;,
   3;12,107,108;,
   3;107,12,14;,
   3;12,109,17;,
   3;109,12,108;,
   3;109,110,17;,
   3;111,112,28;,
   3;112,31,28;,
   3;31,112,113;,
   3;31,107,14;,
   3;107,31,113;,
   3;36,17,110;,
   3;17,36,16;,
   3;37,110,114;,
   3;110,37,36;,
   3;115,114,116;,
   3;114,115,37;,
   3;43,117,118;,
   3;117,43,119;,
   3;46,118,111;,
   3;118,46,43;,
   3;30,111,28;,
   3;111,30,46;,
   3;38,115,120;,
   3;115,38,37;,
   3;45,119,43;,
   3;119,45,121;,
   3;51,120,64;,
   3;120,51,38;,
   3;120,65,64;,
   3;65,120,122;,
   3;67,121,68;,
   3;121,67,123;,
   3;121,60,68;,
   3;60,121,45;,
   3;124,125,126;,
   3;124,127,125;,
   3;124,128,127;,
   3;124,129,128;,
   3;124,130,129;,
   3;124,131,130;,
   3;124,132,131;,
   3;124,126,132;,
   3;133,126,125;,
   3;126,133,134;,
   3;135,125,127;,
   3;125,135,133;,
   3;136,127,128;,
   3;127,136,135;,
   3;137,128,129;,
   3;128,137,136;,
   3;138,129,130;,
   3;129,138,137;,
   3;139,130,131;,
   3;130,139,138;,
   3;140,131,132;,
   3;131,140,139;,
   3;134,132,126;,
   3;132,134,140;,
   3;141,142,143;,
   3;141,144,142;,
   3;141,145,144;,
   3;141,146,145;,
   3;141,147,146;,
   3;141,143,147;,
   3;148,143,142;,
   3;143,148,149;,
   3;150,142,144;,
   3;142,150,148;,
   3;151,144,145;,
   3;144,151,150;,
   3;152,145,146;,
   3;145,152,151;,
   3;153,146,147;,
   3;146,153,152;,
   3;149,147,143;,
   3;147,149,153;,
   3;154,149,148;,
   3;154,148,150;,
   3;154,150,151;,
   3;154,151,152;,
   3;154,152,153;,
   3;154,153,149;,
   3;155,156,157;,
   3;155,157,158;,
   3;155,158,159;,
   3;155,159,160;,
   3;155,160,161;,
   3;155,161,156;,
   3;162,156,163;,
   3;156,162,157;,
   3;164,157,162;,
   3;157,164,158;,
   3;165,158,164;,
   3;158,165,159;,
   3;166,159,165;,
   3;159,166,160;,
   3;167,160,166;,
   3;160,167,161;,
   3;163,161,167;,
   3;161,163,156;,
   3;168,162,163;,
   3;168,164,162;,
   3;168,165,164;,
   3;168,166,165;,
   3;168,167,166;,
   3;168,163,167;,
   3;169,170,171;,
   3;171,170,172;,
   3;173,174,175;,
   3;175,174,176;,
   3;177,178,179;,
   3;177,179,180;,
   3;177,180,181;,
   3;177,181,182;,
   3;177,182,183;,
   3;177,183,184;,
   3;177,184,185;,
   3;177,185,178;,
   3;186,178,187;,
   3;178,186,179;,
   3;188,179,186;,
   3;179,188,180;,
   3;189,180,188;,
   3;180,189,181;,
   3;190,181,189;,
   3;181,190,182;,
   3;191,182,190;,
   3;182,191,183;,
   3;192,183,191;,
   3;183,192,184;,
   3;193,184,192;,
   3;184,193,185;,
   3;187,185,193;,
   3;185,187,178;,
   3;194,195,196;,
   3;195,194,197;,
   3;197,198,195;,
   3;198,197,199;,
   3;200,201,202;,
   3;201,200,203;,
   3;204,205,206;,
   3;205,204,207;,
   3;208,209,210;,
   3;209,208,211;,
   3;210,209,212;,
   3;212,213,210;,
   3;213,212,214;,
   3;213,214,215;,
   3;213,216,217;,
   3;216,213,215;,
   3;218,219,220;,
   3;219,218,221;,
   3;222,223,224;,
   3;223,222,225;,
   3;223,225,226;,
   3;223,227,228;,
   3;227,223,226;,
   3;228,227,229;,
   3;228,230,231;,
   3;230,228,229;,
   3;224,232,222;,
   3;203,233,201;,
   3;233,203,234;,
   3;216,235,217;,
   3;232,224,236;,
   3;234,237,233;,
   3;237,234,238;,
   3;235,239,217;,
   3;224,240,236;,
   3;238,241,237;,
   3;241,238,242;,
   3;239,243,217;,
   3;244,240,224;,
   3;240,244,245;,
   3;242,246,241;,
   3;246,242,247;,
   3;243,248,217;,
   3;248,243,249;,
   3;244,250,245;,
   3;247,251,246;,
   3;251,247,252;,
   3;249,253,248;,
   3;250,244,254;,
   3;252,221,251;,
   3;221,252,219;,
   3;253,255,248;,
   3;207,256,205;,
   3;211,257,209;,
   3;196,256,194;,
   3;229,257,230;,
   3;199,258,198;,
   3;214,259,215;,
   3;202,258,200;,
   3;225,259,226;,
   3;55,54,260;,
   3;122,261,65;,
   3;262,105,106;,
   3;105,262,263;;
  }

  MeshMaterialList {
   1;
   306;
   0,
   0,
   0,
   0,
   0,
   0,
   0,
   0,
   0,
   0,
   0,
   0,
   0,
   0,
   0,
   0,
   0,
   0,
   0,
   0,
   0,
   0,
   0,
   0,
   0,
   0,
   0,
   0,
   0,
   0,
   0,
   0,
   0,
   0,
   0,
   0,
   0,
   0,
   0,
   0,
   0,
   0,
   0,
   0,
   0,
   0,
   0,
   0,
   0,
   0,
   0,
   0,
   0,
   0,
   0,
   0,
   0,
   0,
   0,
   0,
   0,
   0,
   0,
   0,
   0,
   0,
   0,
   0,
   0,
   0,
   0,
   0,
   0,
   0,
   0,
   0,
   0,
   0,
   0,
   0,
   0,
   0,
   0,
   0,
   0,
   0,
   0,
   0,
   0,
   0,
   0,
   0,
   0,
   0,
   0,
   0,
   0,
   0,
   0,
   0,
   0,
   0,
   0,
   0,
   0,
   0,
   0,
   0,
   0,
   0,
   0,
   0,
   0,
   0,
   0,
   0,
   0,
   0,
   0,
   0,
   0,
   0,
   0,
   0,
   0,
   0,
   0,
   0,
   0,
   0,
   0,
   0,
   0,
   0,
   0,
   0,
   0,
   0,
   0,
   0,
   0,
   0,
   0,
   0,
   0,
   0,
   0,
   0,
   0,
   0,
   0,
   0,
   0,
   0,
   0,
   0,
   0,
   0,
   0,
   0,
   0,
   0,
   0,
   0,
   0,
   0,
   0,
   0,
   0,
   0,
   0,
   0,
   0,
   0,
   0,
   0,
   0,
   0,
   0,
   0,
   0,
   0,
   0,
   0,
   0,
   0,
   0,
   0,
   0,
   0,
   0,
   0,
   0,
   0,
   0,
   0,
   0,
   0,
   0,
   0,
   0,
   0,
   0,
   0,
   0,
   0,
   0,
   0,
   0,
   0,
   0,
   0,
   0,
   0,
   0,
   0,
   0,
   0,
   0,
   0,
   0,
   0,
   0,
   0,
   0,
   0,
   0,
   0,
   0,
   0,
   0,
   0,
   0,
   0,
   0,
   0,
   0,
   0,
   0,
   0,
   0,
   0,
   0,
   0,
   0,
   0,
   0,
   0,
   0,
   0,
   0,
   0,
   0,
   0,
   0,
   0,
   0,
   0,
   0,
   0,
   0,
   0,
   0,
   0,
   0,
   0,
   0,
   0,
   0,
   0,
   0,
   0,
   0,
   0,
   0,
   0,
   0,
   0,
   0,
   0,
   0,
   0,
   0,
   0,
   0,
   0,
   0,
   0,
   0,
   0,
   0,
   0,
   0,
   0,
   0,
   0,
   0,
   0,
   0,
   0,
   0,
   0,
   0,
   0,
   0,
   0;
   { _01_-_Defaultuuuu }
  }

  MeshTextureCoords c1 {
   264;
   0.486605;0.937103;,
   0.412625;0.899925;,
   0.410317;0.931118;,
   0.485831;0.905487;,
   0.357982;0.901665;,
   0.350104;0.921695;,
   0.253254;0.839727;,
   0.742771;0.831648;,
   0.633633;0.886564;,
   0.639190;0.916339;,
   0.577024;0.892549;,
   0.580378;0.929455;,
   0.412625;0.899925;,
   0.483910;0.791422;,
   0.485831;0.905487;,
   0.414065;0.799646;,
   0.348810;0.802857;,
   0.357982;0.901665;,
   0.251329;0.788321;,
   0.171935;0.764621;,
   0.165242;0.815946;,
   0.100000;0.700000;,
   0.112645;0.747865;,
   0.860562;0.800000;,
   0.825570;0.760266;,
   0.832170;0.811139;,
   0.911844;0.735893;,
   0.747429;0.782845;,
   0.633633;0.886564;,
   0.565473;0.794809;,
   0.640789;0.793982;,
   0.577024;0.892549;,
   0.410497;0.693261;,
   0.484305;0.680812;,
   0.348751;0.696370;,
   0.271007;0.679482;,
   0.251329;0.788321;,
   0.171935;0.764621;,
   0.208202;0.653837;,
   0.208202;0.653837;,
   0.168632;0.566787;,
   0.786838;0.649055;,
   0.827576;0.566057;,
   0.825570;0.760266;,
   0.721673;0.674969;,
   0.786838;0.649055;,
   0.747429;0.782845;,
   0.637598;0.693524;,
   0.567855;0.698162;,
   0.377911;0.608499;,
   0.447382;0.593092;,
   0.285996;0.591881;,
   0.233402;0.540404;,
   0.248288;0.480218;,
   0.230358;0.478318;,
   0.205009;0.498600;,
   0.767865;0.484768;,
   0.805660;0.501188;,
   0.785049;0.481958;,
   0.773345;0.543507;,
   0.711791;0.590137;,
   0.615314;0.603220;,
   0.559554;0.576637;,
   0.350365;0.517948;,
   0.233402;0.540404;,
   0.248288;0.480218;,
   0.667260;0.511301;,
   0.767865;0.484768;,
   0.773345;0.543507;,
   0.486605;0.937103;,
   0.406859;0.977876;,
   0.487935;0.991362;,
   0.410317;0.931118;,
   0.339408;0.948889;,
   0.350104;0.921695;,
   0.255297;0.894305;,
   0.253254;0.839727;,
   0.742771;0.831648;,
   0.643126;0.937425;,
   0.736873;0.893432;,
   0.639190;0.916339;,
   0.584068;0.970072;,
   0.580378;0.929455;,
   0.160050;0.855765;,
   0.165242;0.815946;,
   0.112645;0.747865;,
   0.019881;0.721650;,
   0.014450;0.834958;,
   0.100000;0.700000;,
   0.014450;0.834958;,
   0.112645;0.747865;,
   0.860562;0.800000;,
   0.838381;0.859009;,
   0.985550;0.829292;,
   0.832170;0.811139;,
   0.911844;0.735893;,
   0.985550;0.829292;,
   0.975669;0.717863;,
   0.860562;0.800000;,
   0.111051;0.590242;,
   0.168632;0.566787;,
   0.827576;0.566057;,
   0.890420;0.592188;,
   0.166801;0.495452;,
   0.205009;0.498600;,
   0.805660;0.501188;,
   0.840774;0.495963;,
   0.487935;0.991362;,
   0.406859;0.977876;,
   0.339408;0.948889;,
   0.255297;0.894305;,
   0.736873;0.893432;,
   0.643126;0.937425;,
   0.584068;0.970072;,
   0.160050;0.855765;,
   0.019881;0.721650;,
   0.014450;0.834958;,
   0.985550;0.829292;,
   0.838381;0.859009;,
   0.975669;0.717863;,
   0.111051;0.590242;,
   0.890420;0.592188;,
   0.173352;0.495883;,
   0.835313;0.497467;,
   0.603583;0.088323;,
   0.566944;0.128370;,
   0.552380;0.097199;,
   0.602106;0.142780;,
   0.637268;0.131989;,
   0.651832;0.102318;,
   0.637268;0.071148;,
   0.602106;0.056737;,
   0.566944;0.067528;,
   0.548812;0.167829;,
   0.528215;0.123747;,
   0.598539;0.188208;,
   0.648265;0.172948;,
   0.668862;0.130987;,
   0.648265;0.086905;,
   0.598539;0.066525;,
   0.548812;0.081786;,
   0.834058;0.059273;,
   0.737379;0.110904;,
   0.777331;0.121428;,
   0.737379;0.135401;,
   0.777331;0.170422;,
   0.817283;0.180945;,
   0.817283;0.156448;,
   0.724487;0.145536;,
   0.758225;0.154422;,
   0.724487;0.166222;,
   0.758225;0.195795;,
   0.791963;0.204682;,
   0.791963;0.183995;,
   0.748513;0.189943;,
   0.830336;0.059273;,
   0.887064;0.121428;,
   0.927016;0.110904;,
   0.927016;0.135401;,
   0.887064;0.170422;,
   0.847112;0.180945;,
   0.847112;0.156448;,
   0.939908;0.145536;,
   0.906170;0.154422;,
   0.939908;0.166222;,
   0.906170;0.195795;,
   0.872432;0.204682;,
   0.872432;0.183995;,
   0.915881;0.189943;,
   0.610621;0.344034;,
   0.800421;0.351955;,
   0.800421;0.421391;,
   0.990221;0.344034;,
   0.990221;0.344034;,
   0.800421;0.351955;,
   0.800421;0.263831;,
   0.610621;0.344034;,
   0.603583;0.088323;,
   0.551927;0.096191;,
   0.566460;0.127647;,
   0.601544;0.142746;,
   0.636628;0.132643;,
   0.651160;0.103258;,
   0.636628;0.071802;,
   0.601544;0.056703;,
   0.566460;0.066805;,
   0.547003;0.166737;,
   0.526451;0.122252;,
   0.596619;0.188090;,
   0.646236;0.173804;,
   0.666787;0.132246;,
   0.646236;0.087761;,
   0.596619;0.066408;,
   0.547003;0.080694;,
   0.355026;0.041594;,
   0.334386;0.161998;,
   0.355028;0.041591;,
   0.334386;0.161998;,
   0.283663;0.073343;,
   0.283663;0.073343;,
   0.190273;0.091173;,
   0.194723;0.180898;,
   0.190276;0.091172;,
   0.194719;0.180899;,
   0.505568;0.247790;,
   0.454536;0.063889;,
   0.505568;0.247790;,
   0.454537;0.063892;,
   0.505568;0.247790;,
   0.355028;0.041591;,
   0.358839;0.246850;,
   0.454536;0.063889;,
   0.334386;0.161998;,
   0.267151;0.263615;,
   0.283663;0.073343;,
   0.190276;0.091172;,
   0.194723;0.180898;,
   0.158050;0.283194;,
   0.084441;0.389950;,
   0.046834;0.369954;,
   0.084441;0.389950;,
   0.046834;0.369954;,
   0.194719;0.180899;,
   0.267151;0.263615;,
   0.158050;0.283194;,
   0.190273;0.091173;,
   0.283663;0.073343;,
   0.334386;0.161998;,
   0.358839;0.246850;,
   0.355026;0.041594;,
   0.454537;0.063892;,
   0.505568;0.247790;,
   0.145186;0.155363;,
   0.145186;0.155363;,
   0.145186;0.155363;,
   0.145186;0.155363;,
   0.085534;0.185711;,
   0.085538;0.185707;,
   0.085534;0.185711;,
   0.085538;0.185707;,
   0.105983;0.250828;,
   0.105979;0.250828;,
   0.105983;0.250828;,
   0.105979;0.250828;,
   0.084441;0.389950;,
   0.064263;0.264948;,
   0.064263;0.264948;,
   0.064263;0.264948;,
   0.084441;0.389950;,
   0.064263;0.264948;,
   0.026864;0.315428;,
   0.026864;0.315428;,
   0.026864;0.315428;,
   0.026864;0.315428;,
   0.046834;0.369954;,
   0.046834;0.369954;,
   0.410366;0.022881;,
   0.410366;0.022881;,
   0.230315;0.047723;,
   0.230315;0.047723;,
   0.248271;0.498105;,
   0.182601;0.446147;,
   0.732680;0.480229;,
   0.703075;0.484878;;
  }
 }
}