xof 0303txt 0032
template ColorRGBA {
 <35ff44e0-6c7c-11cf-8f52-0040333594a3>
 FLOAT red;
 FLOAT green;
 FLOAT blue;
 FLOAT alpha;
}

template ColorRGB {
 <d3e16e81-7835-11cf-8f52-0040333594a3>
 FLOAT red;
 FLOAT green;
 FLOAT blue;
}

template Material {
 <3d82ab4d-62da-11cf-ab39-0020af71e433>
 ColorRGBA faceColor;
 FLOAT power;
 ColorRGB specularColor;
 ColorRGB emissiveColor;
 [...]
}

template TextureFilename {
 <a42790e1-7810-11cf-8f52-0040333594a3>
 STRING filename;
}

template Frame {
 <3d82ab46-62da-11cf-ab39-0020af71e433>
 [...]
}

template Matrix4x4 {
 <f6f23f45-7686-11cf-8f52-0040333594a3>
 array FLOAT matrix[16];
}

template FrameTransformMatrix {
 <f6f23f41-7686-11cf-8f52-0040333594a3>
 Matrix4x4 frameMatrix;
}

template Vector {
 <3d82ab5e-62da-11cf-ab39-0020af71e433>
 FLOAT x;
 FLOAT y;
 FLOAT z;
}

template MeshFace {
 <3d82ab5f-62da-11cf-ab39-0020af71e433>
 DWORD nFaceVertexIndices;
 array DWORD faceVertexIndices[nFaceVertexIndices];
}

template Mesh {
 <3d82ab44-62da-11cf-ab39-0020af71e433>
 DWORD nVertices;
 array Vector vertices[nVertices];
 DWORD nFaces;
 array MeshFace faces[nFaces];
 [...]
}

template MeshNormals {
 <f6f23f43-7686-11cf-8f52-0040333594a3>
 DWORD nNormals;
 array Vector normals[nNormals];
 DWORD nFaceNormals;
 array MeshFace faceNormals[nFaceNormals];
}

template MeshMaterialList {
 <f6f23f42-7686-11cf-8f52-0040333594a3>
 DWORD nMaterials;
 DWORD nFaceIndexes;
 array DWORD faceIndexes[nFaceIndexes];
 [Material <3d82ab4d-62da-11cf-ab39-0020af71e433>]
}

template Coords2d {
 <f6f23f44-7686-11cf-8f52-0040333594a3>
 FLOAT u;
 FLOAT v;
}

template MeshTextureCoords {
 <f6f23f40-7686-11cf-8f52-0040333594a3>
 DWORD nTextureCoords;
 array Coords2d textureCoords[nTextureCoords];
}


Material _23_-_Default {
 1.000000;1.000000;1.000000;1.000000;;
 9.999999;
 0.000000;0.000000;0.000000;;
 0.000000;0.000000;0.000000;;

 TextureFilename {
  "SurgicalMask.png";
 }
}

Frame F_SurgicalMask {
 

 FrameTransformMatrix {
  1.000000,0.000000,0.000000,0.000000,0.000000,1.000000,-0.000001,0.000000,0.000000,0.000001,1.000000,0.000000,0.000000,0.000000,0.000000,1.000000;;
 }

 Mesh F_SurgicalMask {
  128;
  -0.014778;-0.000103;0.056991;,
  -0.009779;0.035480;0.036096;,
  -0.016452;-0.000103;0.061667;,
  -0.007448;0.032711;0.032700;,
  0.068530;-0.000103;0.072130;,
  0.057853;0.047360;0.049967;,
  0.057407;0.045260;0.045210;,
  0.069170;-0.000103;0.076887;,
  0.069170;-0.000103;0.076887;,
  0.039128;0.045527;0.056820;,
  0.057853;0.047360;0.049967;,
  0.046562;-0.000103;0.085504;,
  0.057407;0.045260;0.045210;,
  0.045922;-0.000103;0.080747;,
  0.068530;-0.000103;0.072130;,
  0.045922;-0.000103;0.080747;,
  0.057407;0.045260;0.045210;,
  0.038682;0.043401;0.052063;,
  0.057853;0.047360;0.049967;,
  0.038682;0.043401;0.052063;,
  0.057407;0.045260;0.045210;,
  0.039128;0.045527;0.056820;,
  0.021749;0.042995;0.055143;,
  0.021377;0.044922;0.060053;,
  0.027101;-0.000103;0.080206;,
  0.038682;0.043401;0.052063;,
  0.021749;0.042995;0.055143;,
  0.038682;0.043401;0.052063;,
  0.027101;-0.000103;0.080206;,
  0.045922;-0.000103;0.080747;,
  0.021377;0.044922;0.060053;,
  0.046562;-0.000103;0.085504;,
  0.026571;-0.000103;0.085115;,
  0.039128;0.045527;0.056820;,
  0.005533;0.038118;0.050452;,
  0.003898;0.042162;0.054003;,
  0.005215;-0.000103;0.074220;,
  0.021749;0.042995;0.055143;,
  0.005533;0.038118;0.050452;,
  0.021749;0.042995;0.055143;,
  0.005215;-0.000103;0.074220;,
  0.027101;-0.000103;0.080206;,
  0.003898;0.042162;0.054003;,
  0.026571;-0.000103;0.085115;,
  0.004802;-0.000103;0.079092;,
  0.021377;0.044922;0.060053;,
  -0.007448;0.032711;0.032700;,
  -0.009779;0.035480;0.036096;,
  -0.007448;0.032711;0.032700;,
  0.005215;-0.000103;0.074220;,
  0.005533;0.038118;0.050452;,
  0.005215;-0.000103;0.074220;,
  -0.007448;0.032711;0.032700;,
  -0.014778;-0.000103;0.056991;,
  -0.016452;-0.000103;0.061667;,
  0.003898;0.042162;0.054003;,
  0.004802;-0.000103;0.079092;,
  -0.009779;0.035480;0.036096;,
  -0.009779;-0.035686;0.036096;,
  -0.007448;-0.032918;0.032700;,
  0.057853;-0.046326;0.049967;,
  0.057407;-0.044226;0.045210;,
  0.039128;-0.045694;0.056820;,
  0.057853;-0.046326;0.049967;,
  0.057407;-0.044226;0.045210;,
  0.045922;-0.000103;0.080747;,
  0.038682;-0.040620;0.052063;,
  0.045922;-0.000103;0.080747;,
  0.057407;-0.044226;0.045210;,
  0.068530;-0.000103;0.072130;,
  0.057853;-0.046326;0.049967;,
  0.038682;-0.040620;0.052063;,
  0.039128;-0.045694;0.056820;,
  0.057407;-0.044226;0.045210;,
  0.021749;-0.043201;0.055143;,
  0.021377;-0.045129;0.060053;,
  0.027101;-0.000103;0.080206;,
  0.038682;-0.040620;0.052063;,
  0.045922;-0.000103;0.080747;,
  0.038682;-0.040620;0.052063;,
  0.027101;-0.000103;0.080206;,
  0.021749;-0.043201;0.055143;,
  0.021377;-0.045129;0.060053;,
  0.039128;-0.045694;0.056820;,
  0.005533;-0.038325;0.050452;,
  0.003898;-0.042368;0.054003;,
  0.005215;-0.000103;0.074220;,
  0.021749;-0.043201;0.055143;,
  0.027101;-0.000103;0.080206;,
  0.021749;-0.043201;0.055143;,
  0.005215;-0.000103;0.074220;,
  0.005533;-0.038325;0.050452;,
  0.021377;-0.045129;0.060053;,
  0.003898;-0.042368;0.054003;,
  -0.007448;-0.032918;0.032700;,
  -0.009779;-0.035686;0.036096;,
  -0.014778;-0.000103;0.056991;,
  0.005533;-0.038325;0.050452;,
  0.005215;-0.000103;0.074220;,
  0.005533;-0.038325;0.050452;,
  -0.014778;-0.000103;0.056991;,
  -0.007448;-0.032918;0.032700;,
  0.003898;-0.042368;0.054003;,
  -0.009779;-0.035686;0.036096;,
  0.088900;-0.052951;0.003051;,
  0.051684;-0.045429;0.048534;,
  0.083921;-0.054373;0.002304;,
  0.056386;-0.044984;0.051361;,
  0.084552;-0.053993;-0.011541;,
  0.089930;-0.052346;-0.013636;,
  -0.008443;-0.035528;0.037611;,
  0.024443;-0.046467;0.011698;,
  -0.005001;-0.037079;0.042363;,
  0.020831;-0.045184;0.007845;,
  0.071333;-0.051736;-0.024002;,
  0.071059;-0.053287;-0.018728;,
  0.088900;0.052947;0.003051;,
  0.051684;0.045424;0.048534;,
  0.056386;0.044980;0.051361;,
  0.083921;0.054368;0.002304;,
  0.084552;0.053989;-0.011541;,
  0.089930;0.052342;-0.013636;,
  -0.008443;0.035523;0.037611;,
  0.024443;0.046463;0.011698;,
  0.020831;0.045180;0.007845;,
  -0.005001;0.037075;0.042363;,
  0.071333;0.051731;-0.024002;,
  0.071059;0.053282;-0.018728;;
  76;
  3;0,1,2;,
  3;1,0,3;,
  3;4,5,6;,
  3;5,4,7;,
  3;8,9,10;,
  3;9,8,11;,
  3;12,13,14;,
  3;15,16,17;,
  3;18,19,20;,
  3;19,18,21;,
  3;22,21,23;,
  3;21,22,19;,
  3;24,25,26;,
  3;27,28,29;,
  3;30,31,32;,
  3;31,30,33;,
  3;34,23,35;,
  3;23,34,22;,
  3;36,37,38;,
  3;39,40,41;,
  3;42,43,44;,
  3;43,42,45;,
  3;46,35,47;,
  3;35,46,34;,
  3;48,49,50;,
  3;51,52,53;,
  3;54,55,56;,
  3;55,54,57;,
  3;0,58,59;,
  3;58,0,2;,
  3;4,60,7;,
  3;60,4,61;,
  3;8,62,11;,
  3;62,8,63;,
  3;64,65,66;,
  3;67,68,69;,
  3;70,71,72;,
  3;71,70,73;,
  3;74,72,71;,
  3;72,74,75;,
  3;76,77,78;,
  3;79,80,81;,
  3;82,31,83;,
  3;31,82,32;,
  3;84,75,74;,
  3;75,84,85;,
  3;86,87,88;,
  3;89,90,91;,
  3;92,44,43;,
  3;44,92,93;,
  3;94,85,84;,
  3;85,94,95;,
  3;96,97,98;,
  3;99,100,101;,
  3;102,54,56;,
  3;54,102,103;,
  3;104,105,106;,
  3;105,104,107;,
  3;104,108,109;,
  3;108,104,106;,
  3;110,111,112;,
  3;111,110,113;,
  3;114,111,113;,
  3;111,114,115;,
  3;109,115,114;,
  3;115,109,108;,
  3;116,117,118;,
  3;117,116,119;,
  3;116,120,119;,
  3;120,116,121;,
  3;122,123,124;,
  3;123,122,125;,
  3;126,123,127;,
  3;123,126,124;,
  3;121,127,120;,
  3;127,121,126;;

  MeshNormals {
   128;
   0.938735;-0.000000;0.344640;,
   0.873813;0.149055;0.462854;,
   0.941490;-0.000000;0.337042;,
   0.868762;0.154300;0.470578;,
   -0.990912;0.002534;0.134486;,
   -0.976836;-0.147206;0.155315;,
   -0.976737;-0.146651;0.156455;,
   -0.991074;0.001209;0.133306;,
   -0.345180;0.001493;-0.938535;,
   -0.260712;-0.527293;-0.808697;,
   -0.247632;-0.521988;-0.816215;,
   -0.356159;0.000194;-0.934425;,
   0.299729;0.540165;0.786374;,
   0.299729;0.540165;0.786374;,
   0.299729;0.540165;0.786374;,
   0.234498;0.562018;0.793188;,
   0.234498;0.562018;0.793188;,
   0.234498;0.562018;0.793188;,
   0.226633;-0.898437;0.376096;,
   0.166292;-0.906094;0.389026;,
   0.226619;-0.898702;0.375471;,
   0.155635;-0.908363;0.388143;,
   0.133336;-0.918066;0.373331;,
   0.100561;-0.905038;0.413272;,
   0.142026;0.510723;0.847933;,
   0.142026;0.510723;0.847933;,
   0.142026;0.510723;0.847933;,
   -0.024068;0.547510;0.836453;,
   -0.024068;0.547510;0.836453;,
   -0.024068;0.547510;0.836453;,
   -0.099661;-0.531299;-0.841302;,
   -0.019157;0.000044;-0.999817;,
   0.019451;0.000000;-0.999811;,
   -0.132549;-0.542896;-0.829274;,
   -0.322688;-0.719414;0.615074;,
   -0.260644;-0.704494;0.660116;,
   -0.375194;0.491738;0.785763;,
   -0.375194;0.491738;0.785763;,
   -0.375194;0.491738;0.785763;,
   -0.233281;0.467020;0.852920;,
   -0.233281;0.467020;0.852920;,
   -0.233281;0.467020;0.852920;,
   0.323403;-0.442293;-0.836533;,
   0.282701;-0.014341;-0.959101;,
   0.281365;-0.020668;-0.959378;,
   0.355323;-0.422984;-0.833565;,
   -0.290164;-0.807905;0.512927;,
   -0.252301;-0.827563;0.501481;,
   -0.809268;0.315045;0.495814;,
   -0.809268;0.315045;0.495814;,
   -0.809268;0.315045;0.495814;,
   -0.533149;0.577054;0.618677;,
   -0.533149;0.577054;0.618677;,
   -0.533149;0.577054;0.618677;,
   0.710436;0.000000;-0.703762;,
   0.725099;-0.444494;-0.525982;,
   0.634003;0.000000;-0.773331;,
   0.781709;-0.453919;-0.427655;,
   0.873814;-0.149054;0.462853;,
   0.868763;-0.154299;0.470577;,
   -0.976150;0.150399;0.156564;,
   -0.976047;0.149794;0.157776;,
   -0.281145;0.535729;-0.796211;,
   -0.274800;0.533251;-0.800081;,
   0.175051;-0.589546;0.788538;,
   0.175051;-0.589546;0.788538;,
   0.175051;-0.589546;0.788538;,
   0.297267;-0.550788;0.779914;,
   0.297267;-0.550788;0.779914;,
   0.297267;-0.550788;0.779914;,
   0.300430;0.851729;0.429301;,
   0.165461;0.705478;0.689147;,
   0.151692;0.712095;0.685500;,
   0.302059;0.882244;0.361118;,
   0.125531;0.902109;0.412845;,
   0.099485;0.905164;0.413257;,
   -0.023534;-0.574856;0.817916;,
   -0.023534;-0.574856;0.817916;,
   -0.023534;-0.574856;0.817916;,
   0.228646;-0.510445;0.828956;,
   0.228646;-0.510445;0.828956;,
   0.228646;-0.510445;0.828956;,
   -0.100515;0.531609;-0.841005;,
   -0.133690;0.543286;-0.828835;,
   -0.322689;0.719412;0.615075;,
   -0.260645;0.704492;0.660118;,
   -0.233281;-0.467021;0.852920;,
   -0.233281;-0.467021;0.852920;,
   -0.233281;-0.467021;0.852920;,
   -0.375193;-0.491739;0.785763;,
   -0.375193;-0.491739;0.785763;,
   -0.375193;-0.491739;0.785763;,
   0.324412;0.467203;-0.822483;,
   0.354017;0.471777;-0.807526;,
   -0.290167;0.807903;0.512929;,
   -0.252303;0.827561;0.501483;,
   -0.589323;-0.430152;0.683862;,
   -0.589323;-0.430152;0.683862;,
   -0.589323;-0.430152;0.683862;,
   -0.771006;-0.481084;0.417262;,
   -0.771006;-0.481084;0.417262;,
   -0.771006;-0.481084;0.417262;,
   0.725099;0.444494;-0.525982;,
   0.781709;0.453920;-0.427654;,
   0.246386;-0.959958;0.133319;,
   0.008447;-0.985427;0.169888;,
   0.246251;-0.953585;0.173309;,
   -0.003245;-0.987017;0.160583;,
   0.213306;-0.956012;-0.201347;,
   0.223411;-0.961239;-0.161576;,
   -0.349064;-0.935873;-0.047919;,
   -0.266703;-0.960514;-0.079264;,
   -0.351097;-0.934955;-0.050887;,
   -0.270783;-0.960384;-0.065879;,
   -0.085120;-0.956628;-0.278599;,
   -0.105549;-0.950912;-0.290906;,
   0.246388;0.959958;0.133320;,
   0.008444;0.985428;0.169886;,
   -0.003249;0.987017;0.160581;,
   0.246252;0.953585;0.173310;,
   0.213308;0.956012;-0.201347;,
   0.223413;0.961239;-0.161577;,
   -0.349063;0.935873;-0.047918;,
   -0.266703;0.960514;-0.079263;,
   -0.270783;0.960384;-0.065879;,
   -0.351096;0.934956;-0.050886;,
   -0.085120;0.956628;-0.278598;,
   -0.105549;0.950912;-0.290905;;
   76;
   3;0,1,2;,
   3;1,0,3;,
   3;4,5,6;,
   3;5,4,7;,
   3;8,9,10;,
   3;9,8,11;,
   3;12,13,14;,
   3;15,16,17;,
   3;18,19,20;,
   3;19,18,21;,
   3;22,21,23;,
   3;21,22,19;,
   3;24,25,26;,
   3;27,28,29;,
   3;30,31,32;,
   3;31,30,33;,
   3;34,23,35;,
   3;23,34,22;,
   3;36,37,38;,
   3;39,40,41;,
   3;42,43,44;,
   3;43,42,45;,
   3;46,35,47;,
   3;35,46,34;,
   3;48,49,50;,
   3;51,52,53;,
   3;54,55,56;,
   3;55,54,57;,
   3;0,58,59;,
   3;58,0,2;,
   3;4,60,7;,
   3;60,4,61;,
   3;8,62,11;,
   3;62,8,63;,
   3;64,65,66;,
   3;67,68,69;,
   3;70,71,72;,
   3;71,70,73;,
   3;74,72,71;,
   3;72,74,75;,
   3;76,77,78;,
   3;79,80,81;,
   3;82,31,83;,
   3;31,82,32;,
   3;84,75,74;,
   3;75,84,85;,
   3;86,87,88;,
   3;89,90,91;,
   3;92,44,43;,
   3;44,92,93;,
   3;94,85,84;,
   3;85,94,95;,
   3;96,97,98;,
   3;99,100,101;,
   3;102,54,56;,
   3;54,102,103;,
   3;104,105,106;,
   3;105,104,107;,
   3;104,108,109;,
   3;108,104,106;,
   3;110,111,112;,
   3;111,110,113;,
   3;114,111,113;,
   3;111,114,115;,
   3;109,115,114;,
   3;115,109,108;,
   3;116,117,118;,
   3;117,116,119;,
   3;116,120,119;,
   3;120,116,121;,
   3;122,123,124;,
   3;123,122,125;,
   3;126,123,127;,
   3;123,126,124;,
   3;121,127,120;,
   3;127,121,126;;
  }

  MeshMaterialList {
   1;
   76;
   0,
   0,
   0,
   0,
   0,
   0,
   0,
   0,
   0,
   0,
   0,
   0,
   0,
   0,
   0,
   0,
   0,
   0,
   0,
   0,
   0,
   0,
   0,
   0,
   0,
   0,
   0,
   0,
   0,
   0,
   0,
   0,
   0,
   0,
   0,
   0,
   0,
   0,
   0,
   0,
   0,
   0,
   0,
   0,
   0,
   0,
   0,
   0,
   0,
   0,
   0,
   0,
   0,
   0,
   0,
   0,
   0,
   0,
   0,
   0,
   0,
   0,
   0,
   0,
   0,
   0,
   0,
   0,
   0,
   0,
   0,
   0,
   0,
   0,
   0,
   0;
   { _23_-_Default }
  }

  MeshTextureCoords c1 {
   128;
   0.694594;0.065461;,
   0.924027;0.180034;,
   0.692177;0.044162;,
   0.912062;0.200337;,
   0.692948;0.067124;,
   0.923966;0.178977;,
   0.912536;0.201776;,
   0.692948;0.043117;,
   0.398438;0.242188;,
   0.757813;0.414063;,
   0.757813;0.242188;,
   0.400246;0.416858;,
   0.757813;0.953125;,
   0.399889;0.765769;,
   0.398438;0.953125;,
   0.399889;0.765769;,
   0.757813;0.953125;,
   0.757813;0.765625;,
   0.829086;0.260684;,
   0.884277;0.453161;,
   0.787571;0.273146;,
   0.925792;0.440699;,
   0.943972;0.621111;,
   0.988407;0.616771;,
   0.399889;0.608793;,
   0.757813;0.765625;,
   0.757813;0.610629;,
   0.757813;0.765625;,
   0.399889;0.608793;,
   0.399889;0.765769;,
   0.757813;0.610629;,
   0.400246;0.416858;,
   0.400246;0.609028;,
   0.757813;0.414063;,
   0.933084;0.794648;,
   0.967829;0.805465;,
   0.399889;0.415545;,
   0.757813;0.610629;,
   0.757813;0.414063;,
   0.757813;0.610629;,
   0.399889;0.415545;,
   0.399889;0.608793;,
   0.757813;0.765625;,
   0.400246;0.609028;,
   0.400246;0.765060;,
   0.757813;0.610629;,
   0.799718;0.956794;,
   0.834401;0.974983;,
   0.757813;0.242188;,
   0.399889;0.415545;,
   0.757813;0.414063;,
   0.399889;0.415545;,
   0.757813;0.242188;,
   0.398438;0.242188;,
   0.398438;0.953125;,
   0.757813;0.765625;,
   0.400246;0.765060;,
   0.757813;0.953125;,
   0.467710;0.177936;,
   0.478236;0.202468;,
   0.467966;0.178977;,
   0.478188;0.202984;,
   0.046875;0.414063;,
   0.046875;0.242188;,
   0.046875;0.953125;,
   0.399889;0.765769;,
   0.046875;0.765625;,
   0.399889;0.765769;,
   0.046875;0.953125;,
   0.398438;0.953125;,
   0.829696;0.260135;,
   0.884743;0.451103;,
   0.926659;0.442604;,
   0.787780;0.274355;,
   0.945935;0.620368;,
   0.988840;0.616600;,
   0.399889;0.608793;,
   0.046875;0.765625;,
   0.399889;0.765769;,
   0.046875;0.765625;,
   0.399889;0.608793;,
   0.046875;0.610629;,
   0.046875;0.610629;,
   0.046875;0.414063;,
   0.933390;0.794171;,
   0.967786;0.806338;,
   0.399889;0.415545;,
   0.046875;0.610629;,
   0.399889;0.608793;,
   0.046875;0.610629;,
   0.399889;0.415545;,
   0.046875;0.414063;,
   0.046875;0.610629;,
   0.046875;0.765625;,
   0.799537;0.957334;,
   0.834992;0.975464;,
   0.398438;0.242188;,
   0.046875;0.414063;,
   0.399889;0.415545;,
   0.046875;0.414063;,
   0.398438;0.242188;,
   0.046875;0.242188;,
   0.046875;0.765625;,
   0.046875;0.953125;,
   0.073865;0.059410;,
   0.266948;0.035524;,
   0.086077;0.072595;,
   0.259646;0.017987;,
   0.056738;0.104346;,
   0.037761;0.097063;,
   0.410611;0.199289;,
   0.268459;0.186166;,
   0.410615;0.180021;,
   0.270717;0.203669;,
   0.066932;0.166690;,
   0.079534;0.152451;,
   0.073096;0.059874;,
   0.267191;0.035283;,
   0.259082;0.017727;,
   0.085221;0.072565;,
   0.056390;0.103988;,
   0.039007;0.097027;,
   0.412833;0.199135;,
   0.267925;0.183656;,
   0.270732;0.203785;,
   0.409005;0.182060;,
   0.066487;0.167410;,
   0.078872;0.152277;;
  }
 }
}