xof 0303txt 0032
template ColorRGBA {
 <35ff44e0-6c7c-11cf-8f52-0040333594a3>
 FLOAT red;
 FLOAT green;
 FLOAT blue;
 FLOAT alpha;
}

template ColorRGB {
 <d3e16e81-7835-11cf-8f52-0040333594a3>
 FLOAT red;
 FLOAT green;
 FLOAT blue;
}

template Material {
 <3d82ab4d-62da-11cf-ab39-0020af71e433>
 ColorRGBA faceColor;
 FLOAT power;
 ColorRGB specularColor;
 ColorRGB emissiveColor;
 [...]
}

template TextureFilename {
 <a42790e1-7810-11cf-8f52-0040333594a3>
 STRING filename;
}

template Frame {
 <3d82ab46-62da-11cf-ab39-0020af71e433>
 [...]
}

template Matrix4x4 {
 <f6f23f45-7686-11cf-8f52-0040333594a3>
 array FLOAT matrix[16];
}

template FrameTransformMatrix {
 <f6f23f41-7686-11cf-8f52-0040333594a3>
 Matrix4x4 frameMatrix;
}

template Vector {
 <3d82ab5e-62da-11cf-ab39-0020af71e433>
 FLOAT x;
 FLOAT y;
 FLOAT z;
}

template MeshFace {
 <3d82ab5f-62da-11cf-ab39-0020af71e433>
 DWORD nFaceVertexIndices;
 array DWORD faceVertexIndices[nFaceVertexIndices];
}

template Mesh {
 <3d82ab44-62da-11cf-ab39-0020af71e433>
 DWORD nVertices;
 array Vector vertices[nVertices];
 DWORD nFaces;
 array MeshFace faces[nFaces];
 [...]
}

template MeshNormals {
 <f6f23f43-7686-11cf-8f52-0040333594a3>
 DWORD nNormals;
 array Vector normals[nNormals];
 DWORD nFaceNormals;
 array MeshFace faceNormals[nFaceNormals];
}

template MeshMaterialList {
 <f6f23f42-7686-11cf-8f52-0040333594a3>
 DWORD nMaterials;
 DWORD nFaceIndexes;
 array DWORD faceIndexes[nFaceIndexes];
 [Material <3d82ab4d-62da-11cf-ab39-0020af71e433>]
}

template Coords2d {
 <f6f23f44-7686-11cf-8f52-0040333594a3>
 FLOAT u;
 FLOAT v;
}

template MeshTextureCoords {
 <f6f23f40-7686-11cf-8f52-0040333594a3>
 DWORD nTextureCoords;
 array Coords2d textureCoords[nTextureCoords];
}


Material Material__105 {
 1.000000;1.000000;1.000000;1.000000;;
 9.999999;
 0.000000;0.000000;0.000000;;
 0.000000;0.000000;0.000000;;

 TextureFilename {
  "BandanaMask.png";
 }
}

Frame M_BandanaMask {
 

 FrameTransformMatrix {
  1.000000,0.000000,0.000000,0.000000,0.000000,1.000000,-0.000000,0.000000,-0.000000,0.000000,1.000000,0.000000,0.000000,0.000000,0.000000,1.000000;;
 }

 Mesh M_BandanaMask {
  120;
  0.019737;-0.056953;0.009391;,
  -0.020774;-0.031270;0.047012;,
  0.018315;-0.051139;0.009391;,
  -0.022381;-0.035190;0.051463;,
  -0.036501;0.000000;0.071433;,
  -0.038108;0.000000;0.077728;,
  -0.020774;0.031270;0.047012;,
  -0.022381;0.035190;0.051463;,
  0.018315;0.051278;0.009391;,
  0.019737;0.057092;0.009391;,
  0.041583;-0.057746;0.009391;,
  0.048202;-0.035507;0.050184;,
  0.045514;-0.039958;0.054635;,
  0.044271;-0.051851;0.009391;,
  0.062000;0.000000;0.073781;,
  0.059312;0.000000;0.080075;,
  0.059312;0.000000;0.080075;,
  0.048202;0.035507;0.050184;,
  0.045514;0.039958;0.054635;,
  0.062000;0.000000;0.073781;,
  0.044271;0.051990;0.009391;,
  0.041583;0.057885;0.009391;,
  -0.022381;-0.035190;0.051463;,
  -0.038108;0.000000;0.077728;,
  -0.022381;0.035190;0.051463;,
  -0.038108;0.000000;0.077728;,
  0.018315;0.051278;0.009391;,
  0.048202;0.035507;0.050184;,
  -0.020774;0.031270;0.047012;,
  0.044271;0.051990;0.009391;,
  0.062000;0.000000;0.073781;,
  -0.036501;0.000000;0.071433;,
  0.048202;-0.035507;0.050184;,
  -0.020774;-0.031270;0.047012;,
  0.044271;-0.051851;0.009391;,
  0.018315;-0.051139;0.009391;,
  0.035627;0.046221;-0.028215;,
  0.036853;0.049865;-0.031860;,
  0.046756;0.046221;-0.028215;,
  0.035627;0.046221;-0.028215;,
  0.045443;0.049865;-0.031860;,
  0.046756;0.046221;-0.028215;,
  0.036853;-0.049731;-0.031860;,
  0.035627;-0.046086;-0.028215;,
  0.045443;-0.049731;-0.031860;,
  0.046756;-0.046086;-0.028215;,
  0.035627;-0.046086;-0.028215;,
  0.046756;-0.046086;-0.028215;,
  0.039399;0.026722;-0.051746;,
  0.040626;0.030318;-0.055342;,
  0.050528;0.026722;-0.051746;,
  0.039399;0.026722;-0.051746;,
  0.049216;0.030318;-0.055342;,
  0.050528;0.026722;-0.051746;,
  0.040626;-0.030188;-0.055342;,
  0.039399;-0.026592;-0.051746;,
  0.049216;-0.030188;-0.055342;,
  0.050529;-0.026592;-0.051746;,
  0.039399;-0.026592;-0.051746;,
  0.050529;-0.026592;-0.051746;,
  0.041376;0.000065;-0.059326;,
  0.042602;0.000065;-0.064412;,
  0.052505;0.000065;-0.059326;,
  0.041376;0.000065;-0.059326;,
  0.051192;0.000065;-0.064412;,
  0.052505;0.000065;-0.059326;,
  0.042602;0.000065;-0.064412;,
  0.041376;0.000065;-0.059326;,
  0.051192;0.000065;-0.064412;,
  0.052505;0.000065;-0.059326;,
  0.041376;0.000065;-0.059326;,
  0.052505;0.000065;-0.059326;,
  0.055055;-0.006838;-0.061746;,
  0.045061;-0.010530;-0.059938;,
  0.046975;-0.008187;-0.068794;,
  0.048956;-0.005762;-0.052889;,
  0.054767;0.001349;-0.054698;,
  0.056681;0.003692;-0.063554;,
  0.052785;-0.001076;-0.070602;,
  0.036692;-0.003692;-0.059938;,
  0.038606;-0.001349;-0.068794;,
  0.040588;0.001076;-0.052889;,
  0.046398;0.008187;-0.054698;,
  0.048312;0.010530;-0.063554;,
  0.044417;0.005762;-0.070602;,
  0.038318;0.006838;-0.061746;,
  0.046833;0.001367;-0.068582;,
  0.044302;0.005241;-0.060796;,
  0.042987;-0.000293;-0.063738;,
  0.048148;0.006902;-0.065640;,
  0.046833;0.001367;-0.068582;,
  0.033580;0.015309;-0.074941;,
  0.048148;0.006902;-0.065640;,
  0.032265;0.009775;-0.077883;,
  0.019733;0.012321;-0.070099;,
  0.036123;0.011198;-0.068345;,
  0.044302;0.005241;-0.060796;,
  0.044302;0.005241;-0.060796;,
  0.034807;0.005664;-0.071287;,
  0.042987;-0.000293;-0.063738;,
  0.036123;0.011198;-0.068345;,
  0.042987;-0.000293;-0.063738;,
  0.034807;0.005664;-0.071287;,
  0.051976;-0.003374;-0.065648;,
  0.044078;0.000979;-0.064812;,
  0.046910;-0.003890;-0.061764;,
  0.049144;0.001495;-0.068696;,
  0.051976;-0.003374;-0.065648;,
  0.041392;-0.010856;-0.081219;,
  0.049144;0.001495;-0.068696;,
  0.044224;-0.015724;-0.078171;,
  0.029695;-0.018931;-0.076520;,
  0.040688;-0.006830;-0.074135;,
  0.044078;0.000979;-0.064812;,
  0.044078;0.000979;-0.064812;,
  0.043520;-0.011699;-0.071087;,
  0.046910;-0.003890;-0.061764;,
  0.040688;-0.006830;-0.074135;,
  0.046910;-0.003890;-0.061764;,
  0.043520;-0.011699;-0.071087;;
  132;
  3;0,1,2;,
  3;1,0,3;,
  3;3,4,1;,
  3;4,3,5;,
  3;5,6,4;,
  3;6,5,7;,
  3;7,8,6;,
  3;8,7,9;,
  3;10,11,12;,
  3;11,10,13;,
  3;12,14,15;,
  3;14,12,11;,
  3;16,17,18;,
  3;17,16,19;,
  3;18,20,21;,
  3;20,18,17;,
  3;22,10,12;,
  3;10,22,0;,
  3;15,22,12;,
  3;22,15,23;,
  3;24,16,18;,
  3;16,24,25;,
  3;21,24,18;,
  3;24,21,9;,
  3;26,27,28;,
  3;27,26,29;,
  3;28,30,31;,
  3;30,28,27;,
  3;31,32,33;,
  3;32,31,30;,
  3;33,34,35;,
  3;34,33,32;,
  3;9,36,8;,
  3;36,9,37;,
  3;26,38,29;,
  3;38,26,39;,
  3;20,40,21;,
  3;40,20,41;,
  3;40,9,21;,
  3;9,40,37;,
  3;2,42,0;,
  3;42,2,43;,
  3;42,10,0;,
  3;10,42,44;,
  3;10,45,13;,
  3;45,10,44;,
  3;34,46,35;,
  3;46,34,47;,
  3;37,48,36;,
  3;48,37,49;,
  3;39,50,38;,
  3;50,39,51;,
  3;41,52,40;,
  3;52,41,53;,
  3;40,49,37;,
  3;49,40,52;,
  3;43,54,42;,
  3;54,43,55;,
  3;42,56,44;,
  3;56,42,54;,
  3;44,57,45;,
  3;57,44,56;,
  3;47,58,46;,
  3;58,47,59;,
  3;49,60,48;,
  3;60,49,61;,
  3;51,62,50;,
  3;62,51,63;,
  3;53,64,52;,
  3;64,53,65;,
  3;52,61,49;,
  3;61,52,64;,
  3;55,66,54;,
  3;66,55,67;,
  3;54,68,56;,
  3;68,54,66;,
  3;56,69,57;,
  3;69,56,68;,
  3;59,70,58;,
  3;70,59,71;,
  3;72,73,74;,
  3;72,75,73;,
  3;72,76,75;,
  3;72,77,76;,
  3;72,78,77;,
  3;72,74,78;,
  3;79,74,73;,
  3;74,79,80;,
  3;81,73,75;,
  3;73,81,79;,
  3;82,75,76;,
  3;75,82,81;,
  3;83,76,77;,
  3;76,83,82;,
  3;84,77,78;,
  3;77,84,83;,
  3;80,78,74;,
  3;78,80,84;,
  3;85,80,79;,
  3;85,79,81;,
  3;85,81,82;,
  3;85,82,83;,
  3;85,83,84;,
  3;85,84,80;,
  3;86,87,88;,
  3;87,86,89;,
  3;90,91,92;,
  3;91,90,93;,
  3;93,94,91;,
  3;92,95,96;,
  3;95,92,91;,
  3;91,94,95;,
  3;97,98,99;,
  3;98,97,100;,
  3;100,94,98;,
  3;101,93,90;,
  3;93,101,102;,
  3;102,94,93;,
  3;103,104,105;,
  3;104,103,106;,
  3;107,108,109;,
  3;108,107,110;,
  3;110,111,108;,
  3;109,112,113;,
  3;112,109,108;,
  3;108,111,112;,
  3;114,115,116;,
  3;115,114,117;,
  3;117,111,115;,
  3;118,110,107;,
  3;110,118,119;,
  3;119,111,110;;

  MeshNormals {
   120;
   -0.503776;-0.855655;-0.118596;,
   -0.820449;-0.244025;-0.517025;,
   -0.595023;0.527448;-0.606420;,
   -0.847165;-0.218367;-0.484384;,
   -0.967048;0.025087;-0.253356;,
   -0.965521;0.007802;-0.260210;,
   -0.823187;0.252111;-0.508728;,
   -0.848173;0.200839;-0.490169;,
   -0.595986;-0.540770;-0.593606;,
   -0.507089;0.852740;-0.125282;,
   0.458036;-0.884248;0.091154;,
   0.886560;0.193662;-0.420127;,
   0.427082;-0.739015;0.521016;,
   0.906984;0.414963;-0.072012;,
   0.808452;-0.489879;0.326226;,
   0.413198;-0.601479;0.683733;,
   0.414382;0.615160;0.670720;,
   0.891727;-0.177388;-0.416362;,
   0.433526;0.733254;0.523827;,
   0.782148;0.525963;0.334078;,
   0.904286;-0.423835;-0.051293;,
   0.456373;0.884952;0.092654;,
   -0.047401;-0.707057;0.705567;,
   -0.019211;-0.603524;0.797114;,
   -0.047399;0.706552;0.706072;,
   -0.019211;0.603523;0.797114;,
   -0.595986;-0.540770;-0.593606;,
   0.891727;-0.177388;-0.416362;,
   0.045785;-0.712401;-0.700277;,
   0.904286;-0.423835;-0.051293;,
   0.043713;-0.010478;-0.998989;,
   0.045657;-0.011022;-0.998896;,
   0.886560;0.193662;-0.420127;,
   0.071633;0.737170;-0.671900;,
   0.906984;0.414963;-0.072012;,
   -0.595023;0.527448;-0.606420;,
   -0.752097;-0.659053;-0.000043;,
   -0.555035;0.701705;-0.446706;,
   0.864794;-0.404455;0.297568;,
   -0.752097;-0.659053;-0.000043;,
   0.544971;0.776071;-0.317364;,
   0.864794;-0.404455;0.297568;,
   -0.552170;-0.696640;-0.458041;,
   -0.734173;0.678933;-0.006325;,
   0.547653;-0.773869;-0.318124;,
   0.863553;0.399359;0.307878;,
   -0.734173;0.678933;-0.006325;,
   0.863553;0.399359;0.307878;,
   -0.858943;-0.364575;0.359586;,
   -0.552899;0.423933;-0.717345;,
   0.862900;-0.203686;0.462511;,
   -0.858943;-0.364575;0.359586;,
   0.573678;0.492291;-0.654633;,
   0.862900;-0.203686;0.462511;,
   -0.552031;-0.426343;-0.716584;,
   -0.858501;0.359595;0.365605;,
   0.573103;-0.493094;-0.654532;,
   0.862113;0.202072;0.464681;,
   -0.858501;0.359595;0.365605;,
   0.862113;0.202072;0.464681;,
   -0.845582;0.005671;0.533815;,
   -0.551929;0.002314;-0.833888;,
   0.868936;0.002166;0.494919;,
   -0.845582;0.005671;0.533815;,
   0.578551;0.000952;-0.815646;,
   0.868936;0.002166;0.494919;,
   -0.551929;0.002314;-0.833888;,
   -0.845582;0.005671;0.533815;,
   0.578551;0.000952;-0.815646;,
   0.868936;0.002166;0.494919;,
   -0.845582;0.005671;0.533815;,
   0.868936;0.002166;0.494919;,
   0.774372;-0.632730;0.000003;,
   -0.215323;-0.961032;0.173361;,
   -0.031781;-0.736399;-0.675801;,
   0.158206;-0.503877;0.849164;,
   0.715289;0.177909;0.675803;,
   0.898836;0.402542;-0.173359;,
   0.525301;-0.054611;-0.849162;,
   -0.898835;-0.402544;0.173361;,
   -0.715292;-0.177910;-0.675800;,
   -0.525301;0.054611;0.849162;,
   0.031781;0.736398;0.675802;,
   0.215328;0.961031;-0.173361;,
   -0.158211;0.503877;-0.849163;,
   -0.774371;0.632731;0.000000;,
   0.674298;-0.603989;-0.424876;,
   0.141996;0.100197;0.984783;,
   -0.091391;-0.881769;0.462744;,
   0.911988;0.396075;0.106785;,
   0.674298;-0.603989;-0.424876;,
   0.184647;0.907958;-0.376189;,
   0.911988;0.396075;0.106785;,
   -0.082247;-0.214950;-0.973156;,
   -0.969189;0.114378;0.218153;,
   -0.156957;0.504796;0.848850;,
   0.141996;0.100197;0.984783;,
   0.141996;0.100197;0.984783;,
   -0.483096;-0.867394;0.119358;,
   -0.091391;-0.881769;0.462744;,
   -0.156957;0.504796;0.848850;,
   -0.091391;-0.881769;0.462744;,
   -0.483096;-0.867394;0.119358;,
   0.953229;-0.017697;0.301732;,
   -0.530533;0.719412;0.448308;,
   -0.027970;-0.144419;0.989121;,
   0.441403;0.862055;-0.249047;,
   0.953229;-0.017697;0.301732;,
   0.032509;0.271359;-0.961929;,
   0.441403;0.862055;-0.249047;,
   0.607205;-0.716459;-0.343494;,
   -0.861940;-0.506935;-0.008743;,
   -0.806211;0.591095;0.025121;,
   -0.530533;0.719412;0.448308;,
   -0.530533;0.719412;0.448308;,
   -0.103930;-0.616017;0.780847;,
   -0.027970;-0.144419;0.989121;,
   -0.806211;0.591095;0.025121;,
   -0.027970;-0.144419;0.989121;,
   -0.103930;-0.616017;0.780847;;
   132;
   3;0,1,2;,
   3;1,0,3;,
   3;3,4,1;,
   3;4,3,5;,
   3;5,6,4;,
   3;6,5,7;,
   3;7,8,6;,
   3;8,7,9;,
   3;10,11,12;,
   3;11,10,13;,
   3;12,14,15;,
   3;14,12,11;,
   3;16,17,18;,
   3;17,16,19;,
   3;18,20,21;,
   3;20,18,17;,
   3;22,10,12;,
   3;10,22,0;,
   3;15,22,12;,
   3;22,15,23;,
   3;24,16,18;,
   3;16,24,25;,
   3;21,24,18;,
   3;24,21,9;,
   3;26,27,28;,
   3;27,26,29;,
   3;28,30,31;,
   3;30,28,27;,
   3;31,32,33;,
   3;32,31,30;,
   3;33,34,35;,
   3;34,33,32;,
   3;9,36,8;,
   3;36,9,37;,
   3;26,38,29;,
   3;38,26,39;,
   3;20,40,21;,
   3;40,20,41;,
   3;40,9,21;,
   3;9,40,37;,
   3;2,42,0;,
   3;42,2,43;,
   3;42,10,0;,
   3;10,42,44;,
   3;10,45,13;,
   3;45,10,44;,
   3;34,46,35;,
   3;46,34,47;,
   3;37,48,36;,
   3;48,37,49;,
   3;39,50,38;,
   3;50,39,51;,
   3;41,52,40;,
   3;52,41,53;,
   3;40,49,37;,
   3;49,40,52;,
   3;43,54,42;,
   3;54,43,55;,
   3;42,56,44;,
   3;56,42,54;,
   3;44,57,45;,
   3;57,44,56;,
   3;47,58,46;,
   3;58,47,59;,
   3;49,60,48;,
   3;60,49,61;,
   3;51,62,50;,
   3;62,51,63;,
   3;53,64,52;,
   3;64,53,65;,
   3;52,61,49;,
   3;61,52,64;,
   3;55,66,54;,
   3;66,55,67;,
   3;54,68,56;,
   3;68,54,66;,
   3;56,69,57;,
   3;69,56,68;,
   3;59,70,58;,
   3;70,59,71;,
   3;72,73,74;,
   3;72,75,73;,
   3;72,76,75;,
   3;72,77,76;,
   3;72,78,77;,
   3;72,74,78;,
   3;79,74,73;,
   3;74,79,80;,
   3;81,73,75;,
   3;73,81,79;,
   3;82,75,76;,
   3;75,82,81;,
   3;83,76,77;,
   3;76,83,82;,
   3;84,77,78;,
   3;77,84,83;,
   3;80,78,74;,
   3;78,80,84;,
   3;85,80,79;,
   3;85,79,81;,
   3;85,81,82;,
   3;85,82,83;,
   3;85,83,84;,
   3;85,84,80;,
   3;86,87,88;,
   3;87,86,89;,
   3;90,91,92;,
   3;91,90,93;,
   3;93,94,91;,
   3;92,95,96;,
   3;95,92,91;,
   3;91,94,95;,
   3;97,98,99;,
   3;98,97,100;,
   3;100,94,98;,
   3;101,93,90;,
   3;93,101,102;,
   3;102,94,93;,
   3;103,104,105;,
   3;104,103,106;,
   3;107,108,109;,
   3;108,107,110;,
   3;110,111,108;,
   3;109,112,113;,
   3;112,109,108;,
   3;108,111,112;,
   3;114,115,116;,
   3;115,114,117;,
   3;117,111,115;,
   3;118,110,107;,
   3;110,118,119;,
   3;119,111,110;;
  }

  MeshMaterialList {
   1;
   132;
   0,
   0,
   0,
   0,
   0,
   0,
   0,
   0,
   0,
   0,
   0,
   0,
   0,
   0,
   0,
   0,
   0,
   0,
   0,
   0,
   0,
   0,
   0,
   0,
   0,
   0,
   0,
   0,
   0,
   0,
   0,
   0,
   0,
   0,
   0,
   0,
   0,
   0,
   0,
   0,
   0,
   0,
   0,
   0,
   0,
   0,
   0,
   0,
   0,
   0,
   0,
   0,
   0,
   0,
   0,
   0,
   0,
   0,
   0,
   0,
   0,
   0,
   0,
   0,
   0,
   0,
   0,
   0,
   0,
   0,
   0,
   0,
   0,
   0,
   0,
   0,
   0,
   0,
   0,
   0,
   0,
   0,
   0,
   0,
   0,
   0,
   0,
   0,
   0,
   0,
   0,
   0,
   0,
   0,
   0,
   0,
   0,
   0,
   0,
   0,
   0,
   0,
   0,
   0,
   0,
   0,
   0,
   0,
   0,
   0,
   0,
   0,
   0,
   0,
   0,
   0,
   0,
   0,
   0,
   0,
   0,
   0,
   0,
   0,
   0,
   0,
   0,
   0,
   0,
   0,
   0,
   0;
   { Material__105 }
  }

  MeshTextureCoords c1 {
   120;
   0.263208;0.135213;,
   0.382470;0.245668;,
   0.257817;0.149669;,
   0.391712;0.234639;,
   0.500653;0.279896;,
   0.500661;0.271920;,
   0.618901;0.245910;,
   0.609685;0.234848;,
   0.743893;0.150120;,
   0.738539;0.135661;,
   0.260095;0.077838;,
   0.378547;0.040059;,
   0.382109;0.057082;,
   0.258947;0.061265;,
   0.500899;0.007331;,
   0.500889;0.020292;,
   0.500889;0.020292;,
   0.623175;0.040280;,
   0.619605;0.057310;,
   0.500899;0.007331;,
   0.742849;0.061725;,
   0.741703;0.078295;,
   0.391712;0.234639;,
   0.500661;0.271920;,
   0.609685;0.234848;,
   0.500661;0.271920;,
   0.738539;0.135661;,
   0.619605;0.057310;,
   0.609685;0.234848;,
   0.741703;0.078295;,
   0.500889;0.020292;,
   0.500661;0.271920;,
   0.382109;0.057082;,
   0.391712;0.234639;,
   0.260095;0.077838;,
   0.263208;0.135213;,
   0.840856;0.110501;,
   0.844010;0.097728;,
   0.846895;0.076462;,
   0.844010;0.097728;,
   0.846895;0.076462;,
   0.843597;0.064190;,
   0.157776;0.097173;,
   0.160920;0.109946;,
   0.154906;0.075908;,
   0.158212;0.063641;,
   0.157776;0.097173;,
   0.154906;0.075908;,
   0.918969;0.113705;,
   0.918573;0.100898;,
   0.923130;0.080185;,
   0.918573;0.100898;,
   0.923130;0.080185;,
   0.927212;0.068900;,
   0.083223;0.100295;,
   0.082822;0.113102;,
   0.078676;0.079583;,
   0.074600;0.068298;,
   0.083223;0.100295;,
   0.078676;0.079583;,
   0.986436;0.134148;,
   0.993342;0.122985;,
   0.998700;0.102529;,
   0.993342;0.122985;,
   0.998700;0.102529;,
   0.997618;0.089422;,
   0.008457;0.122377;,
   0.015360;0.133540;,
   0.003107;0.101923;,
   0.004192;0.088818;,
   0.008457;0.122377;,
   0.003107;0.101923;,
   0.908976;0.156750;,
   0.933560;0.233623;,
   0.917959;0.218899;,
   0.901810;0.203658;,
   0.854458;0.158968;,
   0.838857;0.144243;,
   0.870608;0.174209;,
   0.888027;0.297991;,
   0.872425;0.283267;,
   0.856276;0.268025;,
   0.808925;0.223335;,
   0.793323;0.208611;,
   0.825074;0.238577;,
   0.817908;0.285485;,
   -0.562668;1.486973;,
   -0.382038;1.613350;,
   -0.540917;1.614949;,
   -0.403788;1.485375;,
   0.239659;0.198703;,
   0.198431;0.282026;,
   0.198431;0.200211;,
   0.240295;0.278725;,
   0.219814;0.341804;,
   0.157018;0.280943;,
   0.159622;0.199570;,
   0.198431;0.200211;,
   0.240295;0.278725;,
   0.239659;0.198703;,
   0.198431;0.282026;,
   0.278931;0.199152;,
   0.278931;0.280656;,
   -0.066223;0.295398;,
   -0.061043;0.374297;,
   -0.042146;0.346005;,
   -0.085120;0.323691;,
   0.095809;0.198417;,
   0.054814;0.278867;,
   0.056569;0.197956;,
   0.095809;0.277067;,
   0.078436;0.341112;,
   0.015309;0.279512;,
   0.015309;0.199137;,
   0.056569;0.197956;,
   0.095809;0.277067;,
   0.095809;0.198417;,
   0.054814;0.278867;,
   0.136569;0.201568;,
   0.135340;0.277120;;
  }
 }
}