xof 0303txt 0032
template ColorRGBA {
 <35ff44e0-6c7c-11cf-8f52-0040333594a3>
 FLOAT red;
 FLOAT green;
 FLOAT blue;
 FLOAT alpha;
}

template ColorRGB {
 <d3e16e81-7835-11cf-8f52-0040333594a3>
 FLOAT red;
 FLOAT green;
 FLOAT blue;
}

template Material {
 <3d82ab4d-62da-11cf-ab39-0020af71e433>
 ColorRGBA faceColor;
 FLOAT power;
 ColorRGB specularColor;
 ColorRGB emissiveColor;
 [...]
}

template TextureFilename {
 <a42790e1-7810-11cf-8f52-0040333594a3>
 STRING filename;
}

template Frame {
 <3d82ab46-62da-11cf-ab39-0020af71e433>
 [...]
}

template Matrix4x4 {
 <f6f23f45-7686-11cf-8f52-0040333594a3>
 array FLOAT matrix[16];
}

template FrameTransformMatrix {
 <f6f23f41-7686-11cf-8f52-0040333594a3>
 Matrix4x4 frameMatrix;
}

template Vector {
 <3d82ab5e-62da-11cf-ab39-0020af71e433>
 FLOAT x;
 FLOAT y;
 FLOAT z;
}

template MeshFace {
 <3d82ab5f-62da-11cf-ab39-0020af71e433>
 DWORD nFaceVertexIndices;
 array DWORD faceVertexIndices[nFaceVertexIndices];
}

template Mesh {
 <3d82ab44-62da-11cf-ab39-0020af71e433>
 DWORD nVertices;
 array Vector vertices[nVertices];
 DWORD nFaces;
 array MeshFace faces[nFaces];
 [...]
}

template MeshNormals {
 <f6f23f43-7686-11cf-8f52-0040333594a3>
 DWORD nNormals;
 array Vector normals[nNormals];
 DWORD nFaceNormals;
 array MeshFace faceNormals[nFaceNormals];
}

template MeshMaterialList {
 <f6f23f42-7686-11cf-8f52-0040333594a3>
 DWORD nMaterials;
 DWORD nFaceIndexes;
 array DWORD faceIndexes[nFaceIndexes];
 [Material <3d82ab4d-62da-11cf-ab39-0020af71e433>]
}

template Coords2d {
 <f6f23f44-7686-11cf-8f52-0040333594a3>
 FLOAT u;
 FLOAT v;
}

template MeshTextureCoords {
 <f6f23f40-7686-11cf-8f52-0040333594a3>
 DWORD nTextureCoords;
 array Coords2d textureCoords[nTextureCoords];
}


Material Material__63 {
 1.000000;1.000000;1.000000;1.000000;;
 9.999999;
 0.000000;0.000000;0.000000;;
 0.000000;0.000000;0.000000;;

 TextureFilename {
  "BandanaBlack.png";
 }
}

Frame M_Bandana {
 

 FrameTransformMatrix {
  1.000000,0.000000,0.000000,0.000000,0.000000,1.000000,0.000000,0.000000,0.000000,0.000000,1.000000,0.000000,0.000000,0.000000,0.000000,1.000000;;
 }

 Mesh M_Bandana {
  73;
  0.155450;-0.037363;0.031113;,
  0.139063;-0.044560;0.038128;,
  0.119513;-0.064433;-0.001979;,
  0.139156;-0.029713;0.060218;,
  0.159590;-0.020148;0.038109;,
  0.140101;0.000003;0.068303;,
  0.161389;0.000017;0.040175;,
  0.141447;0.029718;0.060218;,
  0.159590;0.020181;0.038109;,
  0.156937;0.037396;0.029470;,
  0.139063;0.044565;0.038128;,
  0.129986;0.061294;0.002716;,
  0.083338;0.000098;-0.078229;,
  0.078250;-0.031218;-0.071405;,
  0.075834;0.000098;-0.077432;,
  0.087214;-0.029206;-0.073045;,
  0.086858;-0.059720;-0.044737;,
  0.101210;-0.056750;-0.047200;,
  0.094236;-0.065021;0.006634;,
  0.100200;-0.056310;0.042796;,
  0.100200;-0.034310;0.068303;,
  0.100200;0.000003;0.077640;,
  0.100200;0.034315;0.068303;,
  0.100200;0.056315;0.042796;,
  0.094236;0.065026;0.006634;,
  0.087432;0.060764;-0.042328;,
  0.101784;0.061098;-0.044791;,
  0.078250;0.031214;-0.071405;,
  0.087214;0.031373;-0.073045;,
  0.075834;0.000098;-0.077432;,
  0.083338;0.000098;-0.078229;,
  0.119513;-0.064433;-0.001979;,
  0.154942;-0.030256;0.027299;,
  0.155450;-0.037363;0.031113;,
  0.123063;-0.053857;-0.001782;,
  0.159372;0.000017;0.033217;,
  0.159590;-0.020148;0.038109;,
  0.161389;0.000017;0.040175;,
  0.159590;0.020181;0.038109;,
  0.156110;0.029806;0.025772;,
  0.156937;0.037396;0.029470;,
  0.133973;0.050759;0.001437;,
  0.129986;0.061294;0.002716;,
  0.103619;-0.047899;-0.042769;,
  0.101210;-0.056750;-0.047200;,
  0.087214;-0.029206;-0.073045;,
  0.104810;0.052132;-0.043862;,
  0.101784;0.061098;-0.044791;,
  0.087214;0.031373;-0.073045;,
  0.083830;0.000038;-0.065562;,
  0.083971;-0.021708;-0.061637;,
  0.088949;-0.040855;-0.035069;,
  0.093406;-0.043944;0.005319;,
  0.097761;-0.037829;0.033324;,
  0.097506;-0.000001;0.056789;,
  0.096133;0.038087;0.033681;,
  0.093195;0.044507;0.006000;,
  0.088227;0.040766;-0.035148;,
  0.084217;0.021423;-0.062001;,
  0.083830;0.000038;-0.065562;,
  0.097761;-0.037829;0.033324;,
  0.093406;-0.043944;0.005319;,
  0.097506;-0.000001;0.056789;,
  0.096133;0.038087;0.033681;,
  0.093195;0.044507;0.006000;,
  0.083338;0.000098;-0.078229;,
  0.083971;-0.021708;-0.061637;,
  0.083830;0.000038;-0.065562;,
  0.088949;-0.040855;-0.035069;,
  0.088227;0.040766;-0.035148;,
  0.084217;0.021423;-0.062001;,
  0.083338;0.000098;-0.078229;,
  0.083830;0.000038;-0.065562;;
  92;
  3;0,1,2;,
  3;0,3,1;,
  3;3,0,4;,
  3;4,5,3;,
  3;5,4,6;,
  3;6,7,5;,
  3;7,6,8;,
  3;9,7,8;,
  3;7,9,10;,
  3;9,11,10;,
  3;12,13,14;,
  3;13,12,15;,
  3;15,16,13;,
  3;16,15,17;,
  3;16,2,18;,
  3;2,16,17;,
  3;2,19,18;,
  3;19,2,1;,
  3;1,20,19;,
  3;20,1,3;,
  3;3,21,20;,
  3;21,3,5;,
  3;5,22,21;,
  3;22,5,7;,
  3;7,23,22;,
  3;23,7,10;,
  3;10,24,23;,
  3;24,10,11;,
  3;11,25,24;,
  3;25,11,26;,
  3;26,27,25;,
  3;27,26,28;,
  3;28,29,27;,
  3;29,28,30;,
  3;31,32,33;,
  3;32,31,34;,
  3;33,35,36;,
  3;35,33,32;,
  3;35,37,36;,
  3;35,38,37;,
  3;38,39,40;,
  3;39,38,35;,
  3;40,41,42;,
  3;41,40,39;,
  3;43,44,45;,
  3;44,34,31;,
  3;34,44,43;,
  3;42,46,47;,
  3;46,42,41;,
  3;46,48,47;,
  3;13,49,14;,
  3;49,13,50;,
  3;16,50,13;,
  3;50,16,51;,
  3;18,51,16;,
  3;51,18,52;,
  3;19,52,18;,
  3;52,19,53;,
  3;20,53,19;,
  3;53,20,54;,
  3;54,20,21;,
  3;54,21,22;,
  3;23,54,22;,
  3;54,23,55;,
  3;24,55,23;,
  3;55,24,56;,
  3;25,56,24;,
  3;56,25,57;,
  3;27,57,25;,
  3;57,27,58;,
  3;29,58,27;,
  3;58,29,59;,
  3;34,60,32;,
  3;60,34,61;,
  3;32,62,35;,
  3;62,32,60;,
  3;62,39,35;,
  3;39,62,63;,
  3;63,41,39;,
  3;41,63,64;,
  3;65,66,45;,
  3;66,65,67;,
  3;45,68,43;,
  3;68,45,66;,
  3;43,61,34;,
  3;61,43,68;,
  3;64,46,41;,
  3;46,64,69;,
  3;46,70,48;,
  3;70,46,69;,
  3;70,71,48;,
  3;71,70,72;;

  MeshNormals {
   73;
   0.844197;-0.535874;-0.013052;,
   0.400581;-0.823871;0.400963;,
   0.519422;-0.837651;-0.168941;,
   0.470906;-0.499921;0.726861;,
   0.965818;-0.199630;0.165358;,
   0.514224;-0.011825;0.857575;,
   0.979035;-0.000719;0.203691;,
   0.508960;0.469321;0.721594;,
   0.963177;0.166729;0.210929;,
   0.868352;0.495929;-0.004474;,
   0.388029;0.834712;0.390755;,
   0.534532;0.838345;-0.107021;,
   0.605729;-0.009693;-0.795612;,
   -0.804105;-0.374661;-0.461567;,
   -0.874664;-0.016485;-0.484450;,
   0.641957;-0.166482;-0.748448;,
   -0.632436;-0.727124;-0.267048;,
   0.556802;-0.602234;-0.572089;,
   -0.637174;-0.754859;0.155557;,
   -0.479287;-0.750552;0.454924;,
   -0.510423;-0.472257;0.718638;,
   -0.517583;-0.001042;0.855633;,
   -0.529950;0.455170;0.715523;,
   -0.454616;0.782738;0.425024;,
   -0.583141;0.794808;0.168006;,
   -0.655903;0.730205;-0.191293;,
   0.389402;0.773173;-0.500569;,
   -0.824445;0.326697;-0.462124;,
   0.534497;0.221119;-0.815732;,
   -0.874664;-0.016485;-0.484450;,
   0.605729;-0.009693;-0.795612;,
   0.519422;-0.837651;-0.168941;,
   0.594155;0.165333;-0.787176;,
   0.844197;-0.535874;-0.013052;,
   0.695820;0.415151;-0.586075;,
   0.538196;-0.017467;-0.842639;,
   0.965818;-0.199630;0.165358;,
   0.979035;-0.000719;0.203691;,
   0.963177;0.166729;0.210929;,
   0.600388;-0.241703;-0.762308;,
   0.868352;0.495929;-0.004474;,
   0.661353;-0.359237;-0.658453;,
   0.534532;0.838345;-0.107021;,
   0.843774;0.480686;-0.238718;,
   0.556802;-0.602234;-0.572089;,
   0.641957;-0.166482;-0.748448;,
   0.884772;-0.293491;-0.361998;,
   0.389402;0.773173;-0.500569;,
   0.534497;0.221119;-0.815732;,
   0.329664;-0.035841;0.943418;,
   0.074984;0.515295;0.853726;,
   -0.503632;0.821599;0.267076;,
   -0.648315;0.761266;0.012697;,
   -0.850535;0.427462;-0.306377;,
   -0.927566;-0.002045;-0.373653;,
   -0.888595;-0.397732;-0.228492;,
   -0.691672;-0.721828;-0.023557;,
   -0.452612;-0.792146;0.409447;,
   0.068999;-0.686769;0.723594;,
   0.329664;-0.035841;0.943418;,
   -0.850535;0.427462;-0.306377;,
   -0.648315;0.761266;0.012697;,
   -0.927566;-0.002045;-0.373653;,
   -0.888595;-0.397732;-0.228492;,
   -0.691672;-0.721828;-0.023557;,
   0.605729;-0.009693;-0.795612;,
   0.074984;0.515295;0.853726;,
   0.329664;-0.035841;0.943418;,
   -0.503632;0.821599;0.267076;,
   -0.452612;-0.792146;0.409447;,
   0.068999;-0.686769;0.723594;,
   0.605729;-0.009693;-0.795612;,
   0.329664;-0.035841;0.943418;;
   92;
   3;0,1,2;,
   3;0,3,1;,
   3;3,0,4;,
   3;4,5,3;,
   3;5,4,6;,
   3;6,7,5;,
   3;7,6,8;,
   3;9,7,8;,
   3;7,9,10;,
   3;9,11,10;,
   3;12,13,14;,
   3;13,12,15;,
   3;15,16,13;,
   3;16,15,17;,
   3;16,2,18;,
   3;2,16,17;,
   3;2,19,18;,
   3;19,2,1;,
   3;1,20,19;,
   3;20,1,3;,
   3;3,21,20;,
   3;21,3,5;,
   3;5,22,21;,
   3;22,5,7;,
   3;7,23,22;,
   3;23,7,10;,
   3;10,24,23;,
   3;24,10,11;,
   3;11,25,24;,
   3;25,11,26;,
   3;26,27,25;,
   3;27,26,28;,
   3;28,29,27;,
   3;29,28,30;,
   3;31,32,33;,
   3;32,31,34;,
   3;33,35,36;,
   3;35,33,32;,
   3;35,37,36;,
   3;35,38,37;,
   3;38,39,40;,
   3;39,38,35;,
   3;40,41,42;,
   3;41,40,39;,
   3;43,44,45;,
   3;44,34,31;,
   3;34,44,43;,
   3;42,46,47;,
   3;46,42,41;,
   3;46,48,47;,
   3;13,49,14;,
   3;49,13,50;,
   3;16,50,13;,
   3;50,16,51;,
   3;18,51,16;,
   3;51,18,52;,
   3;19,52,18;,
   3;52,19,53;,
   3;20,53,19;,
   3;53,20,54;,
   3;54,20,21;,
   3;54,21,22;,
   3;23,54,22;,
   3;54,23,55;,
   3;24,55,23;,
   3;55,24,56;,
   3;25,56,24;,
   3;56,25,57;,
   3;27,57,25;,
   3;57,27,58;,
   3;29,58,27;,
   3;58,29,59;,
   3;34,60,32;,
   3;60,34,61;,
   3;32,62,35;,
   3;62,32,60;,
   3;62,39,35;,
   3;39,62,63;,
   3;63,41,39;,
   3;41,63,64;,
   3;65,66,45;,
   3;66,65,67;,
   3;45,68,43;,
   3;68,45,66;,
   3;43,61,34;,
   3;61,43,68;,
   3;64,46,41;,
   3;46,64,69;,
   3;46,70,48;,
   3;70,46,69;,
   3;70,71,48;,
   3;71,70,72;;
  }

  MeshMaterialList {
   1;
   92;
   0,
   0,
   0,
   0,
   0,
   0,
   0,
   0,
   0,
   0,
   0,
   0,
   0,
   0,
   0,
   0,
   0,
   0,
   0,
   0,
   0,
   0,
   0,
   0,
   0,
   0,
   0,
   0,
   0,
   0,
   0,
   0,
   0,
   0,
   0,
   0,
   0,
   0,
   0,
   0,
   0,
   0,
   0,
   0,
   0,
   0,
   0,
   0,
   0,
   0,
   0,
   0,
   0,
   0,
   0,
   0,
   0,
   0,
   0,
   0,
   0,
   0,
   0,
   0,
   0,
   0,
   0,
   0,
   0,
   0,
   0,
   0,
   0,
   0,
   0,
   0,
   0,
   0,
   0,
   0,
   0,
   0,
   0,
   0,
   0,
   0,
   0,
   0,
   0,
   0,
   0,
   0;
   { Material__63 }
  }

  MeshTextureCoords c1 {
   73;
   0.031526;0.602362;,
   0.099706;0.602362;,
   0.099705;0.682619;,
   0.099706;0.548935;,
   0.031526;0.548935;,
   0.099706;0.499619;,
   0.031526;0.499619;,
   0.099706;0.450304;,
   0.031526;0.450304;,
   0.031526;0.396812;,
   0.099706;0.396812;,
   0.099706;0.316256;,
   0.099705;0.987840;,
   0.167885;0.901072;,
   0.167885;0.987840;,
   0.099705;0.901072;,
   0.167885;0.795474;,
   0.099705;0.795474;,
   0.167885;0.682619;,
   0.167885;0.602362;,
   0.167885;0.548935;,
   0.167885;0.499619;,
   0.167885;0.450304;,
   0.167885;0.396812;,
   0.167885;0.316256;,
   0.167885;0.202999;,
   0.099706;0.202999;,
   0.167885;0.097205;,
   0.099706;0.097205;,
   0.167885;0.010405;,
   0.099706;0.010405;,
   0.444198;0.714163;,
   0.469404;0.589175;,
   0.484533;0.599256;,
   0.424673;0.699113;,
   0.470900;0.512557;,
   0.486823;0.558125;,
   0.489557;0.512899;,
   0.492128;0.467225;,
   0.473582;0.435278;,
   0.490068;0.425047;,
   0.449289;0.342171;,
   0.471273;0.326418;,
   0.392348;0.805095;,
   0.412369;0.817333;,
   0.352935;0.889740;,
   0.409711;0.213579;,
   0.431069;0.204550;,
   0.362226;0.126642;,
   0.209032;0.990359;,
   0.208780;0.899650;,
   0.207773;0.792633;,
   0.209124;0.682207;,
   0.209285;0.602509;,
   0.206535;0.448697;,
   0.207890;0.395393;,
   0.207172;0.317413;,
   0.206694;0.201009;,
   0.207302;0.092048;,
   0.208602;0.010568;,
   0.338447;0.627427;,
   0.348208;0.695682;,
   0.320780;0.454387;,
   0.331684;0.399754;,
   0.348710;0.331095;,
   0.294347;0.935543;,
   0.324167;0.869737;,
   0.279169;0.903730;,
   0.351200;0.792943;,
   0.357203;0.227780;,
   0.328059;0.148424;,
   0.290602;0.088452;,
   0.279320;0.119543;;
  }
 }
}