xof 0303txt 0032
template ColorRGBA {
 <35ff44e0-6c7c-11cf-8f52-0040333594a3>
 FLOAT red;
 FLOAT green;
 FLOAT blue;
 FLOAT alpha;
}

template ColorRGB {
 <d3e16e81-7835-11cf-8f52-0040333594a3>
 FLOAT red;
 FLOAT green;
 FLOAT blue;
}

template Material {
 <3d82ab4d-62da-11cf-ab39-0020af71e433>
 ColorRGBA faceColor;
 FLOAT power;
 ColorRGB specularColor;
 ColorRGB emissiveColor;
 [...]
}

template TextureFilename {
 <a42790e1-7810-11cf-8f52-0040333594a3>
 STRING filename;
}

template Frame {
 <3d82ab46-62da-11cf-ab39-0020af71e433>
 [...]
}

template Matrix4x4 {
 <f6f23f45-7686-11cf-8f52-0040333594a3>
 array FLOAT matrix[16];
}

template FrameTransformMatrix {
 <f6f23f41-7686-11cf-8f52-0040333594a3>
 Matrix4x4 frameMatrix;
}

template Vector {
 <3d82ab5e-62da-11cf-ab39-0020af71e433>
 FLOAT x;
 FLOAT y;
 FLOAT z;
}

template MeshFace {
 <3d82ab5f-62da-11cf-ab39-0020af71e433>
 DWORD nFaceVertexIndices;
 array DWORD faceVertexIndices[nFaceVertexIndices];
}

template Mesh {
 <3d82ab44-62da-11cf-ab39-0020af71e433>
 DWORD nVertices;
 array Vector vertices[nVertices];
 DWORD nFaces;
 array MeshFace faces[nFaces];
 [...]
}

template MeshNormals {
 <f6f23f43-7686-11cf-8f52-0040333594a3>
 DWORD nNormals;
 array Vector normals[nNormals];
 DWORD nFaceNormals;
 array MeshFace faceNormals[nFaceNormals];
}

template MeshMaterialList {
 <f6f23f42-7686-11cf-8f52-0040333594a3>
 DWORD nMaterials;
 DWORD nFaceIndexes;
 array DWORD faceIndexes[nFaceIndexes];
 [Material <3d82ab4d-62da-11cf-ab39-0020af71e433>]
}

template Coords2d {
 <f6f23f44-7686-11cf-8f52-0040333594a3>
 FLOAT u;
 FLOAT v;
}

template MeshTextureCoords {
 <f6f23f40-7686-11cf-8f52-0040333594a3>
 DWORD nTextureCoords;
 array Coords2d textureCoords[nTextureCoords];
}


Material _20_-_Defaulthhhh {
 1.000000;1.000000;1.000000;1.000000;;
 9.999999;
 0.000000;0.000000;0.000000;;
 0.000000;0.000000;0.000000;;

 TextureFilename {
  "BeretArmy.png";
 }
}

Frame Dummy005 {
 

 FrameTransformMatrix {
  1.000001,0.000000,-0.000000,0.000000,0.000000,1.000001,0.000000,0.000000,-0.000001,-0.000001,1.000000,0.000000,-0.000000,0.000000,0.000000,1.000000;;
 }

 Frame M_BeretArmy {
  

  FrameTransformMatrix {
   1.000000,0.000000,-0.000000,0.000000,0.000000,1.000000,0.000000,0.000000,-0.000000,0.000000,1.000000,0.000000,-0.000000,-0.000000,0.000000,1.000000;;
  }

  Mesh M_BeretArmy {
   80;
   0.144845;-0.050820;0.000788;,
   0.117637;-0.068103;-0.019891;,
   0.141904;-0.044298;-0.030995;,
   0.144845;-0.050820;0.000788;,
   0.111022;-0.073946;0.000788;,
   0.144845;-0.050820;0.000788;,
   0.112731;-0.072349;0.023269;,
   0.144845;-0.050820;0.000788;,
   0.128788;-0.058506;0.034573;,
   0.144845;-0.050820;0.000788;,
   0.152627;-0.028261;0.037657;,
   0.144845;-0.050820;0.000788;,
   0.164981;-0.009627;0.025631;,
   0.144845;-0.050820;0.000788;,
   0.165919;-0.003842;0.000963;,
   0.144845;-0.050820;0.000788;,
   0.162156;-0.011315;-0.019461;,
   0.144845;-0.050820;0.000788;,
   0.157438;-0.021080;-0.029524;,
   0.144845;-0.050820;0.000788;,
   0.141904;-0.044298;-0.030995;,
   0.111856;-0.057868;-0.043931;,
   0.133136;-0.032431;-0.055054;,
   0.096025;-0.073197;-0.024014;,
   0.093155;-0.076394;0.000788;,
   0.096025;-0.073197;0.031741;,
   0.116966;-0.056652;0.058303;,
   0.144989;-0.015560;0.062174;,
   0.158391;0.019071;0.048154;,
   0.161637;0.022547;0.026739;,
   0.160741;0.026795;0.000963;,
   0.157139;0.017852;-0.031056;,
   0.151881;0.002356;-0.049430;,
   0.133136;-0.032431;-0.055054;,
   0.114981;-0.030401;-0.065954;,
   0.126389;-0.004342;-0.070174;,
   0.100208;-0.051796;-0.049430;,
   0.088743;-0.062519;-0.029524;,
   0.086277;-0.067460;0.000788;,
   0.088743;-0.062519;0.034385;,
   0.097492;-0.053509;0.062676;,
   0.109993;-0.031493;0.071727;,
   0.125067;-0.006024;0.074906;,
   0.137782;0.017914;0.071727;,
   0.138046;0.041729;0.055932;,
   0.142392;0.052923;0.033800;,
   0.143389;0.056065;0.000842;,
   0.142159;0.046202;-0.040173;,
   0.136947;0.020408;-0.066695;,
   0.126389;-0.004342;-0.070174;,
   0.099338;-0.022528;-0.067896;,
   0.099338;0.000543;-0.072889;,
   0.104807;-0.042260;-0.054512;,
   0.104807;-0.055329;-0.030884;,
   0.099724;-0.056394;0.000963;,
   0.102090;-0.050225;0.038168;,
   0.100564;-0.048322;0.052843;,
   0.103256;-0.042260;0.056988;,
   0.110049;-0.030464;0.064790;,
   0.099338;-0.022528;0.067569;,
   0.099338;0.000543;0.070967;,
   0.123173;-0.006298;0.069474;,
   0.135057;0.016340;0.067503;,
   0.099338;0.024255;0.067569;,
   0.099338;0.043814;0.057892;,
   0.099338;0.055172;0.035002;,
   0.099338;0.061558;0.001950;,
   0.099338;0.058302;-0.029980;,
   0.099338;0.045714;-0.057097;,
   0.099338;0.026156;-0.071243;,
   0.099338;0.000543;-0.072889;,
   0.099338;-0.042086;-0.055249;,
   0.099338;-0.055155;-0.029980;,
   0.094255;-0.056220;0.001868;,
   0.096621;-0.050051;0.039073;,
   0.097786;-0.042086;0.057892;,
   0.104199;0.009164;0.071714;,
   0.133229;0.030736;0.064068;,
   0.103807;0.030736;0.066130;,
   0.133620;0.009164;0.069652;;
   110;
   3;0,1,2;,
   3;3,4,1;,
   3;5,6,4;,
   3;7,8,6;,
   3;9,10,8;,
   3;11,12,10;,
   3;13,14,12;,
   3;15,16,14;,
   3;17,18,16;,
   3;19,20,18;,
   3;2,21,22;,
   3;21,2,1;,
   3;23,21,1;,
   3;1,24,23;,
   3;24,1,4;,
   3;6,24,4;,
   3;24,6,25;,
   3;26,6,8;,
   3;6,26,25;,
   3;10,26,8;,
   3;26,10,27;,
   3;12,27,10;,
   3;27,12,28;,
   3;28,12,29;,
   3;12,30,29;,
   3;30,12,14;,
   3;14,31,30;,
   3;31,14,16;,
   3;16,32,31;,
   3;32,16,18;,
   3;18,33,32;,
   3;33,18,20;,
   3;34,35,22;,
   3;34,21,36;,
   3;21,34,22;,
   3;23,36,21;,
   3;36,23,37;,
   3;23,38,37;,
   3;38,23,24;,
   3;24,39,38;,
   3;39,24,25;,
   3;25,40,39;,
   3;40,25,26;,
   3;41,40,26;,
   3;26,42,41;,
   3;42,26,27;,
   3;43,42,27;,
   3;27,44,43;,
   3;44,27,28;,
   3;28,45,44;,
   3;45,28,29;,
   3;29,46,45;,
   3;46,29,30;,
   3;30,47,46;,
   3;47,30,31;,
   3;31,48,47;,
   3;48,31,32;,
   3;32,49,48;,
   3;49,32,33;,
   3;35,50,51;,
   3;50,35,34;,
   3;52,34,36;,
   3;34,52,50;,
   3;37,52,36;,
   3;52,37,53;,
   3;37,54,53;,
   3;54,37,38;,
   3;38,55,54;,
   3;55,38,39;,
   3;55,56,57;,
   3;56,55,39;,
   3;57,58,59;,
   3;58,57,56;,
   3;58,60,59;,
   3;60,58,61;,
   3;62,60,61;,
   3;60,62,63;,
   3;63,44,64;,
   3;44,63,62;,
   3;44,65,64;,
   3;65,44,45;,
   3;45,66,65;,
   3;66,45,46;,
   3;46,67,66;,
   3;67,46,47;,
   3;68,67,47;,
   3;48,68,47;,
   3;68,48,69;,
   3;48,70,69;,
   3;70,48,49;,
   3;39,40,56;,
   3;41,56,40;,
   3;56,41,58;,
   3;42,58,41;,
   3;58,42,61;,
   3;43,61,42;,
   3;61,43,62;,
   3;62,43,44;,
   3;50,52,71;,
   3;53,71,52;,
   3;71,53,72;,
   3;54,72,53;,
   3;72,54,73;,
   3;55,73,54;,
   3;73,55,74;,
   3;57,74,55;,
   3;74,57,75;,
   3;75,57,59;,
   3;76,77,78;,
   3;77,76,79;;

   MeshNormals {
    80;
    0.758517;-0.651504;-0.013943;,
    0.438905;-0.860717;-0.257932;,
    0.690481;-0.623981;-0.365902;,
    0.758517;-0.651504;-0.013943;,
    0.327745;-0.942666;-0.062967;,
    0.758517;-0.651504;-0.013943;,
    0.361198;-0.917324;0.167489;,
    0.758517;-0.651504;-0.013943;,
    0.638728;-0.720913;0.268906;,
    0.758517;-0.651504;-0.013943;,
    0.812872;-0.480796;0.328745;,
    0.758517;-0.651504;-0.013943;,
    0.965314;-0.199406;0.168541;,
    0.758517;-0.651504;-0.013943;,
    0.995055;-0.084342;-0.052459;,
    0.758517;-0.651504;-0.013943;,
    0.969716;-0.172726;-0.172673;,
    0.758517;-0.651504;-0.013943;,
    0.881650;-0.344889;-0.322095;,
    0.758517;-0.651504;-0.013943;,
    0.690481;-0.623981;-0.365902;,
    0.241295;-0.749145;-0.616895;,
    0.576360;-0.469480;-0.668878;,
    -0.262548;-0.901529;-0.343968;,
    -0.386531;-0.921739;-0.031474;,
    -0.335140;-0.890718;0.307087;,
    0.359797;-0.678963;0.639965;,
    0.682881;-0.262518;0.681732;,
    0.825162;0.207954;0.525227;,
    0.946653;0.305871;0.101448;,
    0.936754;0.344156;-0.063626;,
    0.924914;0.232609;-0.300712;,
    0.834132;-0.040749;-0.550057;,
    0.576360;-0.469480;-0.668878;,
    0.137011;-0.453270;-0.880780;,
    0.357465;-0.139290;-0.923481;,
    -0.581080;-0.337980;-0.740348;,
    -0.936345;0.108279;-0.333968;,
    -0.999120;0.040819;-0.009623;,
    -0.984064;0.061208;0.166949;,
    -0.684897;-0.223396;0.693549;,
    -0.484006;0.092104;0.870204;,
    -0.315924;0.161016;0.935022;,
    0.177140;0.456529;0.871896;,
    0.392352;0.616815;0.682349;,
    0.496491;0.822719;0.276821;,
    0.543473;0.838214;-0.045098;,
    0.577691;0.697449;-0.424074;,
    0.519244;0.269031;-0.811177;,
    0.357465;-0.139290;-0.923481;,
    -0.020051;-0.338564;-0.940730;,
    0.096767;-0.052660;-0.993913;,
    -0.481430;-0.386132;-0.786847;,
    -0.999539;-0.010074;-0.028630;,
    -0.962742;-0.267924;0.036661;,
    -0.947045;-0.264070;0.182683;,
    -0.833271;0.550806;-0.047678;,
    0.001164;-0.647983;0.761654;,
    -0.709854;0.107455;0.696104;,
    0.081406;-0.252533;0.964158;,
    0.046896;-0.012229;0.998825;,
    -0.540240;0.259257;0.800579;,
    -0.519863;0.396123;0.756854;,
    0.059083;0.306926;0.949898;,
    0.073707;0.705087;0.705280;,
    0.062086;0.944275;0.323250;,
    0.103628;0.994244;0.027213;,
    0.161547;0.949524;-0.268900;,
    0.200380;0.748857;-0.631712;,
    0.164965;0.349582;-0.922268;,
    0.096767;-0.052660;-0.993913;,
    0.061604;-0.718303;-0.692997;,
    -0.068212;-0.971906;-0.225270;,
    -0.018941;-0.996825;0.077343;,
    0.016679;-0.958312;0.285238;,
    0.091216;-0.718391;0.689633;,
    0.067666;0.251145;0.965582;,
    0.067666;0.251145;0.965582;,
    0.067666;0.251145;0.965582;,
    0.067666;0.251145;0.965582;;
    110;
    3;0,1,2;,
    3;3,4,1;,
    3;5,6,4;,
    3;7,8,6;,
    3;9,10,8;,
    3;11,12,10;,
    3;13,14,12;,
    3;15,16,14;,
    3;17,18,16;,
    3;19,20,18;,
    3;2,21,22;,
    3;21,2,1;,
    3;23,21,1;,
    3;1,24,23;,
    3;24,1,4;,
    3;6,24,4;,
    3;24,6,25;,
    3;26,6,8;,
    3;6,26,25;,
    3;10,26,8;,
    3;26,10,27;,
    3;12,27,10;,
    3;27,12,28;,
    3;28,12,29;,
    3;12,30,29;,
    3;30,12,14;,
    3;14,31,30;,
    3;31,14,16;,
    3;16,32,31;,
    3;32,16,18;,
    3;18,33,32;,
    3;33,18,20;,
    3;34,35,22;,
    3;34,21,36;,
    3;21,34,22;,
    3;23,36,21;,
    3;36,23,37;,
    3;23,38,37;,
    3;38,23,24;,
    3;24,39,38;,
    3;39,24,25;,
    3;25,40,39;,
    3;40,25,26;,
    3;41,40,26;,
    3;26,42,41;,
    3;42,26,27;,
    3;43,42,27;,
    3;27,44,43;,
    3;44,27,28;,
    3;28,45,44;,
    3;45,28,29;,
    3;29,46,45;,
    3;46,29,30;,
    3;30,47,46;,
    3;47,30,31;,
    3;31,48,47;,
    3;48,31,32;,
    3;32,49,48;,
    3;49,32,33;,
    3;35,50,51;,
    3;50,35,34;,
    3;52,34,36;,
    3;34,52,50;,
    3;37,52,36;,
    3;52,37,53;,
    3;37,54,53;,
    3;54,37,38;,
    3;38,55,54;,
    3;55,38,39;,
    3;55,56,57;,
    3;56,55,39;,
    3;57,58,59;,
    3;58,57,56;,
    3;58,60,59;,
    3;60,58,61;,
    3;62,60,61;,
    3;60,62,63;,
    3;63,44,64;,
    3;44,63,62;,
    3;44,65,64;,
    3;65,44,45;,
    3;45,66,65;,
    3;66,45,46;,
    3;46,67,66;,
    3;67,46,47;,
    3;68,67,47;,
    3;48,68,47;,
    3;68,48,69;,
    3;48,70,69;,
    3;70,48,49;,
    3;39,40,56;,
    3;41,56,40;,
    3;56,41,58;,
    3;42,58,41;,
    3;58,42,61;,
    3;43,61,42;,
    3;61,43,62;,
    3;62,43,44;,
    3;50,52,71;,
    3;53,71,52;,
    3;71,53,72;,
    3;54,72,53;,
    3;72,54,73;,
    3;55,73,54;,
    3;73,55,74;,
    3;57,74,55;,
    3;74,57,75;,
    3;75,57,59;,
    3;76,77,78;,
    3;77,76,79;;
   }

   MeshMaterialList {
    1;
    110;
    0,
    0,
    0,
    0,
    0,
    0,
    0,
    0,
    0,
    0,
    0,
    0,
    0,
    0,
    0,
    0,
    0,
    0,
    0,
    0,
    0,
    0,
    0,
    0,
    0,
    0,
    0,
    0,
    0,
    0,
    0,
    0,
    0,
    0,
    0,
    0,
    0,
    0,
    0,
    0,
    0,
    0,
    0,
    0,
    0,
    0,
    0,
    0,
    0,
    0,
    0,
    0,
    0,
    0,
    0,
    0,
    0,
    0,
    0,
    0,
    0,
    0,
    0,
    0,
    0,
    0,
    0,
    0,
    0,
    0,
    0,
    0,
    0,
    0,
    0,
    0,
    0,
    0,
    0,
    0,
    0,
    0,
    0,
    0,
    0,
    0,
    0,
    0,
    0,
    0,
    0,
    0,
    0,
    0,
    0,
    0,
    0,
    0,
    0,
    0,
    0,
    0,
    0,
    0,
    0,
    0,
    0,
    0,
    0,
    0;
    { _20_-_Defaulthhhh }
   }

   MeshTextureCoords c1 {
    80;
    0.064364;-0.000149;,
    0.158182;0.184927;,
    0.032549;0.184315;,
    0.188010;0.001957;,
    0.250246;0.187290;,
    0.249781;0.001921;,
    0.310833;0.186390;,
    0.310903;0.001345;,
    0.404129;0.184542;,
    0.435378;0.000073;,
    0.530535;0.184034;,
    0.560405;-0.002290;,
    0.656910;0.185344;,
    0.686795;-0.002451;,
    0.750315;0.186336;,
    0.750289;-0.002533;,
    0.843730;0.185613;,
    0.877763;-0.001944;,
    0.937845;0.184794;,
    0.938847;-0.001920;,
    1.001053;0.183804;,
    0.126390;0.365704;,
    0.031831;0.367300;,
    0.188268;0.366174;,
    0.249953;0.364469;,
    0.311643;0.364909;,
    0.404611;0.334932;,
    0.531447;0.336684;,
    0.626119;0.370525;,
    0.688314;0.371226;,
    0.750016;0.371918;,
    0.842666;0.370830;,
    0.936681;0.369119;,
    1.000452;0.367043;,
    0.062933;0.451611;,
    -0.000730;0.452456;,
    0.125661;0.442640;,
    0.188013;0.448245;,
    0.249876;0.446559;,
    0.312155;0.448661;,
    0.374458;0.451043;,
    0.437193;0.451572;,
    0.500258;0.452309;,
    0.563378;0.453049;,
    0.626748;0.453369;,
    0.688624;0.453905;,
    0.749802;0.454218;,
    0.836660;0.458560;,
    0.936627;0.454011;,
    0.999495;0.452787;,
    0.064084;0.569074;,
    -0.001226;0.564161;,
    0.121784;0.556680;,
    0.187515;0.556310;,
    0.249826;0.556240;,
    0.312177;0.556344;,
    0.377560;0.444601;,
    0.374698;0.556296;,
    0.437213;0.451333;,
    0.430778;0.582320;,
    0.500745;0.565552;,
    0.500329;0.452310;,
    0.563427;0.452503;,
    0.566178;0.563353;,
    0.628769;0.562406;,
    0.688964;0.562033;,
    0.749159;0.562236;,
    0.809469;0.562114;,
    0.874405;0.562537;,
    0.933569;0.563258;,
    0.998169;0.564605;,
    0.119255;0.557940;,
    0.187357;0.557795;,
    0.249870;0.557803;,
    0.312343;0.557808;,
    0.374862;0.557510;,
    0.515625;0.960938;,
    0.679688;0.726563;,
    0.679688;0.960938;,
    0.515625;0.726563;;
   }
  }
 }
}