xof 0303txt 0032
template ColorRGBA {
 <35ff44e0-6c7c-11cf-8f52-0040333594a3>
 FLOAT red;
 FLOAT green;
 FLOAT blue;
 FLOAT alpha;
}

template ColorRGB {
 <d3e16e81-7835-11cf-8f52-0040333594a3>
 FLOAT red;
 FLOAT green;
 FLOAT blue;
}

template Material {
 <3d82ab4d-62da-11cf-ab39-0020af71e433>
 ColorRGBA faceColor;
 FLOAT power;
 ColorRGB specularColor;
 ColorRGB emissiveColor;
 [...]
}

template TextureFilename {
 <a42790e1-7810-11cf-8f52-0040333594a3>
 STRING filename;
}

template Frame {
 <3d82ab46-62da-11cf-ab39-0020af71e433>
 [...]
}

template Matrix4x4 {
 <f6f23f45-7686-11cf-8f52-0040333594a3>
 array FLOAT matrix[16];
}

template FrameTransformMatrix {
 <f6f23f41-7686-11cf-8f52-0040333594a3>
 Matrix4x4 frameMatrix;
}

template Vector {
 <3d82ab5e-62da-11cf-ab39-0020af71e433>
 FLOAT x;
 FLOAT y;
 FLOAT z;
}

template MeshFace {
 <3d82ab5f-62da-11cf-ab39-0020af71e433>
 DWORD nFaceVertexIndices;
 array DWORD faceVertexIndices[nFaceVertexIndices];
}

template Mesh {
 <3d82ab44-62da-11cf-ab39-0020af71e433>
 DWORD nVertices;
 array Vector vertices[nVertices];
 DWORD nFaces;
 array MeshFace faces[nFaces];
 [...]
}

template MeshNormals {
 <f6f23f43-7686-11cf-8f52-0040333594a3>
 DWORD nNormals;
 array Vector normals[nNormals];
 DWORD nFaceNormals;
 array MeshFace faceNormals[nFaceNormals];
}

template MeshMaterialList {
 <f6f23f42-7686-11cf-8f52-0040333594a3>
 DWORD nMaterials;
 DWORD nFaceIndexes;
 array DWORD faceIndexes[nFaceIndexes];
 [Material <3d82ab4d-62da-11cf-ab39-0020af71e433>]
}

template Coords2d {
 <f6f23f44-7686-11cf-8f52-0040333594a3>
 FLOAT u;
 FLOAT v;
}

template MeshTextureCoords {
 <f6f23f40-7686-11cf-8f52-0040333594a3>
 DWORD nTextureCoords;
 array Coords2d textureCoords[nTextureCoords];
}


Material Material__95 {
 1.000000;1.000000;1.000000;1.000000;;
 9.999999;
 0.000000;0.000000;0.000000;;
 0.000000;0.000000;0.000000;;

 TextureFilename {
  "ChefHat_Spiffo.png";
 }
}

Frame Dummy005 {
 

 FrameTransformMatrix {
  1.000001,0.000000,-0.000000,0.000000,0.000000,1.000001,0.000000,0.000000,-0.000001,-0.000001,1.000000,0.000000,-0.000000,0.000000,0.000000,1.000000;;
 }

 Frame M_ChefHat {
  

  FrameTransformMatrix {
   1.000000,0.000000,-0.000000,0.000000,0.000000,1.000000,0.000000,0.000000,-0.000000,0.000000,1.000000,0.000000,0.000000,0.000000,0.000000,1.000000;;
  }

  Mesh M_ChefHat {
   85;
   0.097401;0.063989;-0.003532;,
   0.142907;0.053252;-0.049072;,
   0.090597;0.055416;-0.041872;,
   0.149758;0.061491;-0.010740;,
   0.137891;0.030745;-0.077132;,
   0.085615;0.030745;-0.069938;,
   0.135584;0.000000;-0.090703;,
   0.083792;0.000000;-0.080211;,
   0.083792;0.000000;-0.080211;,
   0.137891;-0.030745;-0.077132;,
   0.085615;-0.030745;-0.069938;,
   0.135584;0.000000;-0.090703;,
   0.142907;-0.053252;-0.049072;,
   0.090597;-0.055416;-0.041872;,
   0.149758;-0.061491;-0.010740;,
   0.097401;-0.063989;-0.003532;,
   0.156608;-0.053252;0.027591;,
   0.104206;-0.053252;0.034807;,
   0.161624;-0.030745;0.055652;,
   0.109187;-0.030745;0.062874;,
   0.163931;-0.000000;0.069617;,
   0.111011;-0.000000;0.073147;,
   0.111011;-0.000000;0.073147;,
   0.161624;0.030745;0.055652;,
   0.109187;0.030745;0.062874;,
   0.163931;-0.000000;0.069617;,
   0.156608;0.053252;0.027591;,
   0.104206;0.053252;0.034807;,
   0.155683;0.044006;-0.051843;,
   0.162836;0.050759;-0.013200;,
   0.151067;0.025470;-0.080514;,
   0.148685;0.000000;-0.095279;,
   0.151067;-0.025470;-0.080514;,
   0.148685;0.000000;-0.095279;,
   0.155683;-0.044006;-0.051844;,
   0.162836;-0.050759;-0.013200;,
   0.169640;-0.044005;0.025274;,
   0.174591;-0.025468;0.051444;,
   0.178099;-0.000000;0.069071;,
   0.174591;0.025468;0.051444;,
   0.178099;-0.000000;0.069071;,
   0.169640;0.044005;0.025274;,
   0.090597;0.055416;-0.041872;,
   0.097401;0.000000;-0.003532;,
   0.097401;0.063989;-0.003532;,
   0.085615;0.030745;-0.069938;,
   0.090597;0.055416;-0.041872;,
   0.083792;0.000000;-0.080211;,
   0.085615;0.030745;-0.069938;,
   0.085615;-0.030745;-0.069938;,
   0.083792;0.000000;-0.080211;,
   0.090597;-0.055416;-0.041872;,
   0.085615;-0.030745;-0.069938;,
   0.097401;-0.063989;-0.003532;,
   0.097401;0.000000;-0.003532;,
   0.090597;-0.055416;-0.041872;,
   0.104206;-0.053252;0.034807;,
   0.097401;-0.063989;-0.003532;,
   0.109187;-0.030745;0.062874;,
   0.097401;0.000000;-0.003532;,
   0.104206;-0.053252;0.034807;,
   0.111011;-0.000000;0.073147;,
   0.109187;-0.030745;0.062874;,
   0.109187;0.030745;0.062874;,
   0.111011;-0.000000;0.073147;,
   0.104206;0.053252;0.034807;,
   0.109187;0.030745;0.062874;,
   0.097401;0.063989;-0.003532;,
   0.104206;0.053252;0.034807;,
   0.162836;0.050759;-0.013200;,
   0.158042;0.000000;-0.013176;,
   0.155683;0.044006;-0.051843;,
   0.151067;0.025470;-0.080514;,
   0.148685;0.000000;-0.095279;,
   0.148685;0.000000;-0.095279;,
   0.158042;0.000000;-0.013176;,
   0.151067;-0.025470;-0.080514;,
   0.155683;-0.044006;-0.051844;,
   0.162836;-0.050759;-0.013200;,
   0.169640;-0.044005;0.025274;,
   0.174591;-0.025468;0.051444;,
   0.178099;-0.000000;0.069071;,
   0.178099;-0.000000;0.069071;,
   0.174591;0.025468;0.051444;,
   0.169640;0.044005;0.025274;;
   72;
   3;0,1,2;,
   3;1,0,3;,
   3;2,4,5;,
   3;4,2,1;,
   3;5,6,7;,
   3;6,5,4;,
   3;8,9,10;,
   3;9,8,11;,
   3;10,12,13;,
   3;12,10,9;,
   3;13,14,15;,
   3;14,13,12;,
   3;15,16,17;,
   3;16,15,14;,
   3;17,18,19;,
   3;18,17,16;,
   3;19,20,21;,
   3;20,19,18;,
   3;22,23,24;,
   3;23,22,25;,
   3;24,26,27;,
   3;26,24,23;,
   3;27,3,0;,
   3;3,27,26;,
   3;3,28,1;,
   3;28,3,29;,
   3;1,30,4;,
   3;30,1,28;,
   3;4,31,6;,
   3;31,4,30;,
   3;11,32,9;,
   3;32,11,33;,
   3;9,34,12;,
   3;34,9,32;,
   3;12,35,14;,
   3;35,12,34;,
   3;14,36,16;,
   3;36,14,35;,
   3;16,37,18;,
   3;37,16,36;,
   3;18,38,20;,
   3;38,18,37;,
   3;25,39,23;,
   3;39,25,40;,
   3;23,41,26;,
   3;41,23,39;,
   3;26,29,3;,
   3;29,26,41;,
   3;42,43,44;,
   3;45,43,46;,
   3;47,43,48;,
   3;49,43,50;,
   3;51,43,52;,
   3;53,54,55;,
   3;56,54,57;,
   3;58,59,60;,
   3;61,59,62;,
   3;63,43,64;,
   3;65,43,66;,
   3;67,43,68;,
   3;69,70,71;,
   3;71,70,72;,
   3;72,70,73;,
   3;74,75,76;,
   3;76,75,77;,
   3;77,75,78;,
   3;78,75,79;,
   3;79,75,80;,
   3;80,75,81;,
   3;82,70,83;,
   3;83,70,84;,
   3;84,70,69;;

   MeshNormals {
    85;
    0.047605;0.998773;0.013658;,
    0.216487;0.878735;-0.425392;,
    -0.034020;0.895634;-0.443489;,
    0.329145;0.943263;-0.043812;,
    -0.028385;0.638475;-0.769119;,
    -0.131866;0.569304;-0.811483;,
    -0.227027;0.392751;-0.891182;,
    -0.188028;0.321271;-0.928133;,
    -0.148151;-0.353185;-0.923749;,
    -0.008416;-0.639571;-0.768686;,
    -0.103118;-0.561784;-0.820832;,
    -0.205886;-0.444809;-0.871640;,
    0.223377;-0.871875;-0.435818;,
    -0.023387;-0.892002;-0.451427;,
    0.331746;-0.941344;-0.061777;,
    0.034410;-0.999406;0.002051;,
    0.329744;-0.878304;0.346196;,
    0.061132;-0.893994;0.443889;,
    0.262663;-0.642761;0.719630;,
    0.088111;-0.594618;0.799166;,
    0.067897;-0.400533;0.913763;,
    0.063067;-0.319642;0.945437;,
    0.104650;0.356111;0.928565;,
    0.284448;0.621697;0.729782;,
    0.111162;0.579824;0.807123;,
    0.101133;0.479778;0.871542;,
    0.333610;0.879070;0.340499;,
    0.073437;0.899736;0.430213;,
    0.474613;0.770349;-0.425800;,
    0.613348;0.783545;-0.099302;,
    0.077004;0.619761;-0.781003;,
    -0.233236;0.432236;-0.871076;,
    0.000832;-0.610762;-0.791814;,
    -0.285433;-0.500486;-0.817339;,
    0.425807;-0.778166;-0.461678;,
    0.609629;-0.783312;-0.121550;,
    0.595890;-0.762355;0.252450;,
    0.474833;-0.635858;0.608456;,
    0.145208;-0.460128;0.875898;,
    0.404200;0.608842;0.682593;,
    0.031544;0.571753;0.819819;,
    0.574018;0.769906;0.278834;,
    -0.984612;-0.000000;0.174755;,
    -0.984612;-0.000000;0.174755;,
    -0.984612;-0.000000;0.174755;,
    -0.984612;0.000000;0.174755;,
    -0.984612;-0.000000;0.174755;,
    -0.984612;0.000000;0.174756;,
    -0.984612;0.000000;0.174755;,
    -0.984612;-0.000000;0.174755;,
    -0.984612;0.000000;0.174756;,
    -0.984612;0.000000;0.174755;,
    -0.984612;-0.000000;0.174755;,
    -0.984612;0.000000;0.174755;,
    -0.984612;-0.000000;0.174755;,
    -0.984612;0.000000;0.174755;,
    -0.984612;0.000000;0.174755;,
    -0.984612;0.000000;0.174755;,
    -0.984612;0.000000;0.174755;,
    -0.984612;-0.000000;0.174755;,
    -0.984612;0.000000;0.174755;,
    -0.984612;-0.000000;0.174755;,
    -0.984612;0.000000;0.174755;,
    -0.984612;-0.000001;0.174755;,
    -0.984612;-0.000000;0.174755;,
    -0.984612;-0.000000;0.174755;,
    -0.984612;-0.000001;0.174755;,
    -0.984612;-0.000000;0.174755;,
    -0.984612;-0.000000;0.174755;,
    0.979760;-0.092616;-0.177464;,
    0.982124;-0.067093;-0.175872;,
    0.987810;-0.069458;-0.139311;,
    0.992457;-0.037111;-0.116840;,
    0.993198;-0.027277;-0.113197;,
    0.993198;0.027280;-0.113197;,
    0.982124;0.067097;-0.175872;,
    0.992457;0.037113;-0.116839;,
    0.987810;0.069460;-0.139311;,
    0.979759;0.092621;-0.177465;,
    0.974612;0.071479;-0.212187;,
    0.971648;0.040235;-0.232984;,
    0.971088;0.030164;-0.236810;,
    0.971088;-0.030160;-0.236810;,
    0.971648;-0.040231;-0.232984;,
    0.974612;-0.071475;-0.212187;;
    72;
    3;0,1,2;,
    3;1,0,3;,
    3;2,4,5;,
    3;4,2,1;,
    3;5,6,7;,
    3;6,5,4;,
    3;8,9,10;,
    3;9,8,11;,
    3;10,12,13;,
    3;12,10,9;,
    3;13,14,15;,
    3;14,13,12;,
    3;15,16,17;,
    3;16,15,14;,
    3;17,18,19;,
    3;18,17,16;,
    3;19,20,21;,
    3;20,19,18;,
    3;22,23,24;,
    3;23,22,25;,
    3;24,26,27;,
    3;26,24,23;,
    3;27,3,0;,
    3;3,27,26;,
    3;3,28,1;,
    3;28,3,29;,
    3;1,30,4;,
    3;30,1,28;,
    3;4,31,6;,
    3;31,4,30;,
    3;11,32,9;,
    3;32,11,33;,
    3;9,34,12;,
    3;34,9,32;,
    3;12,35,14;,
    3;35,12,34;,
    3;14,36,16;,
    3;36,14,35;,
    3;16,37,18;,
    3;37,16,36;,
    3;18,38,20;,
    3;38,18,37;,
    3;25,39,23;,
    3;39,25,40;,
    3;23,41,26;,
    3;41,23,39;,
    3;26,29,3;,
    3;29,26,41;,
    3;42,43,44;,
    3;45,43,46;,
    3;47,43,48;,
    3;49,43,50;,
    3;51,43,52;,
    3;53,54,55;,
    3;56,54,57;,
    3;58,59,60;,
    3;61,59,62;,
    3;63,43,64;,
    3;65,43,66;,
    3;67,43,68;,
    3;69,70,71;,
    3;71,70,72;,
    3;72,70,73;,
    3;74,75,76;,
    3;76,75,77;,
    3;77,75,78;,
    3;78,75,79;,
    3;79,75,80;,
    3;80,75,81;,
    3;82,70,83;,
    3;83,70,84;,
    3;84,70,69;;
   }

   MeshMaterialList {
    1;
    72;
    0,
    0,
    0,
    0,
    0,
    0,
    0,
    0,
    0,
    0,
    0,
    0,
    0,
    0,
    0,
    0,
    0,
    0,
    0,
    0,
    0,
    0,
    0,
    0,
    0,
    0,
    0,
    0,
    0,
    0,
    0,
    0,
    0,
    0,
    0,
    0,
    0,
    0,
    0,
    0,
    0,
    0,
    0,
    0,
    0,
    0,
    0,
    0,
    0,
    0,
    0,
    0,
    0,
    0,
    0,
    0,
    0,
    0,
    0,
    0,
    0,
    0,
    0,
    0,
    0,
    0,
    0,
    0,
    0,
    0,
    0,
    0;
    { Material__95 }
   }

   MeshTextureCoords c1 {
    85;
    0.653873;0.503719;,
    0.416683;0.330557;,
    0.652538;0.337313;,
    0.417529;0.504635;,
    0.414357;0.174242;,
    0.651663;0.177804;,
    0.412913;0.046092;,
    0.651110;0.047668;,
    0.302796;0.977418;,
    0.071980;0.824720;,
    0.302956;0.826919;,
    0.069262;0.977431;,
    0.073719;0.669471;,
    0.301271;0.671254;,
    0.074274;0.503436;,
    0.301828;0.503074;,
    0.072947;0.336273;,
    0.301705;0.341813;,
    0.070409;0.187553;,
    0.301870;0.183445;,
    0.070752;0.050413;,
    0.300581;0.049288;,
    0.651580;0.976845;,
    0.414606;0.835349;,
    0.653347;0.833298;,
    0.413422;0.982915;,
    0.416794;0.678934;,
    0.652848;0.677133;,
    0.358701;0.330391;,
    0.360975;0.507697;,
    0.356847;0.173015;,
    0.353715;0.046887;,
    0.003241;0.828403;,
    0.001314;0.977714;,
    0.007632;0.672394;,
    0.010332;0.503439;,
    0.007211;0.336201;,
    0.002573;0.182457;,
    0.002533;0.051260;,
    0.352682;0.834413;,
    0.349543;0.977248;,
    0.357017;0.683311;,
    0.755730;0.637800;,
    0.806922;0.751382;,
    0.830517;0.615720;,
    0.704096;0.697702;,
    0.759195;0.638356;,
    0.685384;0.772715;,
    0.705242;0.696757;,
    0.704494;0.848170;,
    0.685407;0.772629;,
    0.754381;0.907526;,
    0.706134;0.848454;,
    0.828111;0.924191;,
    0.846004;0.839089;,
    0.753551;0.904212;,
    0.899384;0.900603;,
    0.826241;0.923491;,
    0.951583;0.847441;,
    0.895244;0.790371;,
    0.896963;0.900039;,
    0.971574;0.772806;,
    0.950215;0.847150;,
    0.951817;0.696107;,
    0.970765;0.772211;,
    0.900563;0.641278;,
    0.951862;0.696614;,
    0.829396;0.615626;,
    0.900444;0.641739;,
    0.985525;0.316341;,
    0.826870;0.317233;,
    0.964458;0.195449;,
    0.906519;0.105837;,
    0.826873;0.059669;,
    0.826873;0.059669;,
    0.826870;0.317233;,
    0.747204;0.105840;,
    0.689267;0.195520;,
    0.668241;0.316377;,
    0.689353;0.436716;,
    0.747203;0.518686;,
    0.826888;0.573890;,
    0.826888;0.573890;,
    0.906512;0.518688;,
    0.964379;0.436708;;
   }
  }
 }
}