xof 0303txt 0032
template ColorRGBA {
 <35ff44e0-6c7c-11cf-8f52-0040333594a3>
 FLOAT red;
 FLOAT green;
 FLOAT blue;
 FLOAT alpha;
}

template ColorRGB {
 <d3e16e81-7835-11cf-8f52-0040333594a3>
 FLOAT red;
 FLOAT green;
 FLOAT blue;
}

template Material {
 <3d82ab4d-62da-11cf-ab39-0020af71e433>
 ColorRGBA faceColor;
 FLOAT power;
 ColorRGB specularColor;
 ColorRGB emissiveColor;
 [...]
}

template TextureFilename {
 <a42790e1-7810-11cf-8f52-0040333594a3>
 STRING filename;
}

template Frame {
 <3d82ab46-62da-11cf-ab39-0020af71e433>
 [...]
}

template Matrix4x4 {
 <f6f23f45-7686-11cf-8f52-0040333594a3>
 array FLOAT matrix[16];
}

template FrameTransformMatrix {
 <f6f23f41-7686-11cf-8f52-0040333594a3>
 Matrix4x4 frameMatrix;
}

template Vector {
 <3d82ab5e-62da-11cf-ab39-0020af71e433>
 FLOAT x;
 FLOAT y;
 FLOAT z;
}

template MeshFace {
 <3d82ab5f-62da-11cf-ab39-0020af71e433>
 DWORD nFaceVertexIndices;
 array DWORD faceVertexIndices[nFaceVertexIndices];
}

template Mesh {
 <3d82ab44-62da-11cf-ab39-0020af71e433>
 DWORD nVertices;
 array Vector vertices[nVertices];
 DWORD nFaces;
 array MeshFace faces[nFaces];
 [...]
}

template MeshNormals {
 <f6f23f43-7686-11cf-8f52-0040333594a3>
 DWORD nNormals;
 array Vector normals[nNormals];
 DWORD nFaceNormals;
 array MeshFace faceNormals[nFaceNormals];
}

template MeshMaterialList {
 <f6f23f42-7686-11cf-8f52-0040333594a3>
 DWORD nMaterials;
 DWORD nFaceIndexes;
 array DWORD faceIndexes[nFaceIndexes];
 [Material <3d82ab4d-62da-11cf-ab39-0020af71e433>]
}

template Coords2d {
 <f6f23f44-7686-11cf-8f52-0040333594a3>
 FLOAT u;
 FLOAT v;
}

template MeshTextureCoords {
 <f6f23f40-7686-11cf-8f52-0040333594a3>
 DWORD nTextureCoords;
 array Coords2d textureCoords[nTextureCoords];
}


Material Material__96 {
 1.000000;1.000000;1.000000;1.000000;;
 9.999999;
 0.000000;0.000000;0.000000;;
 0.000000;0.000000;0.000000;;

 TextureFilename {
  "EarMuff.png";
 }
}

Frame M_EarMuffs {
 

 FrameTransformMatrix {
  1.000000,0.000000,0.000000,0.000000,0.000000,1.000000,0.000000,0.000000,0.000000,0.000000,1.000000,0.000000,-0.101067,0.101067,-0.002196,1.000000;;
 }

 Mesh M_EarMuffs {
  140;
  0.065602;-0.083280;-0.007439;,
  0.050657;-0.074228;-0.021966;,
  0.065580;-0.073850;-0.028112;,
  0.044458;-0.074965;-0.007077;,
  0.050616;-0.075628;0.007832;,
  0.065522;-0.075830;0.014028;,
  0.080446;-0.075452;0.007881;,
  0.086644;-0.074715;-0.007007;,
  0.080487;-0.074051;-0.021916;,
  0.044385;-0.056936;-0.027347;,
  0.065490;-0.056401;-0.036039;,
  0.035619;-0.057978;-0.006291;,
  0.044327;-0.058916;0.014793;,
  0.065408;-0.059201;0.023556;,
  0.086513;-0.058666;0.014863;,
  0.095279;-0.057624;-0.006192;,
  0.086571;-0.056686;-0.027277;,
  0.043897;-0.050546;-0.027498;,
  0.065490;-0.056401;-0.036039;,
  0.044385;-0.056936;-0.027347;,
  0.065453;-0.049999;-0.036376;,
  0.034944;-0.051610;-0.005993;,
  0.035619;-0.057978;-0.006291;,
  0.043837;-0.052568;0.015542;,
  0.044327;-0.058916;0.014793;,
  0.065369;-0.052860;0.024492;,
  0.065408;-0.059201;0.023556;,
  0.086924;-0.052313;0.015613;,
  0.086513;-0.058666;0.014863;,
  0.095878;-0.051249;-0.005892;,
  0.095279;-0.057624;-0.006192;,
  0.086984;-0.050291;-0.027427;,
  0.086571;-0.056686;-0.027277;,
  0.065439;-0.056153;-0.006164;,
  0.065453;-0.049999;-0.036376;,
  0.043897;-0.050546;-0.027498;,
  0.034944;-0.051610;-0.005993;,
  0.043837;-0.052568;0.015542;,
  0.065369;-0.052860;0.024492;,
  0.086924;-0.052313;0.015613;,
  0.095878;-0.051249;-0.005892;,
  0.086984;-0.050291;-0.027427;,
  0.065602;0.083087;-0.007439;,
  0.065580;0.073656;-0.028112;,
  0.050657;0.074035;-0.021966;,
  0.044458;0.074771;-0.007077;,
  0.050616;0.075435;0.007832;,
  0.065522;0.075637;0.014028;,
  0.080446;0.075258;0.007881;,
  0.086644;0.074521;-0.007007;,
  0.080487;0.073858;-0.021916;,
  0.044385;0.056743;-0.027347;,
  0.065490;0.056207;-0.036039;,
  0.035619;0.057784;-0.006291;,
  0.044327;0.058723;0.014793;,
  0.065408;0.059008;0.023556;,
  0.086513;0.058473;0.014863;,
  0.095279;0.057431;-0.006192;,
  0.086571;0.056493;-0.027277;,
  0.043897;0.050352;-0.027498;,
  0.065490;0.056207;-0.036039;,
  0.065453;0.049806;-0.036376;,
  0.044385;0.056743;-0.027347;,
  0.034944;0.051417;-0.005993;,
  0.035619;0.057784;-0.006291;,
  0.043837;0.052375;0.015542;,
  0.044327;0.058723;0.014793;,
  0.065369;0.052666;0.024492;,
  0.065408;0.059008;0.023556;,
  0.086924;0.052120;0.015613;,
  0.086513;0.058473;0.014863;,
  0.095878;0.051055;-0.005892;,
  0.095279;0.057431;-0.006192;,
  0.086984;0.050097;-0.027427;,
  0.086571;0.056493;-0.027277;,
  0.065439;0.055960;-0.006164;,
  0.043897;0.050352;-0.027498;,
  0.065453;0.049806;-0.036376;,
  0.034944;0.051417;-0.005993;,
  0.043837;0.052375;0.015542;,
  0.065369;0.052666;0.024492;,
  0.086924;0.052120;0.015613;,
  0.095878;0.051055;-0.005892;,
  0.086984;0.050097;-0.027427;,
  0.150943;-0.038258;0.002158;,
  0.121954;-0.061847;0.002158;,
  0.157617;-0.041520;0.002158;,
  0.118991;-0.054445;0.002158;,
  0.150943;-0.038258;-0.014410;,
  0.118991;-0.054445;0.002158;,
  0.150943;-0.038258;0.002158;,
  0.118991;-0.054445;-0.014410;,
  0.157616;-0.041520;-0.014410;,
  0.118991;-0.054445;-0.014410;,
  0.150943;-0.038258;-0.014410;,
  0.121954;-0.061847;-0.014410;,
  0.157617;-0.041520;0.002158;,
  0.121954;-0.061847;-0.014410;,
  0.157616;-0.041520;-0.014410;,
  0.121954;-0.061847;0.002158;,
  0.159640;0.000020;0.002158;,
  0.168076;-0.000008;0.002158;,
  0.159640;0.000000;-0.014410;,
  0.159640;0.000020;0.002158;,
  0.168076;0.000000;-0.014410;,
  0.159640;0.000000;-0.014410;,
  0.168076;-0.000008;0.002158;,
  0.168076;0.000000;-0.014410;,
  0.085641;-0.065004;-0.014410;,
  0.085641;-0.065004;0.002158;,
  0.082678;-0.057601;-0.014410;,
  0.085641;-0.065004;-0.014410;,
  0.082678;-0.057601;0.002158;,
  0.082678;-0.057601;-0.014410;,
  0.085641;-0.065004;0.002158;,
  0.082678;-0.057601;0.002158;,
  0.121954;0.062867;0.002158;,
  0.150943;0.036800;0.002158;,
  0.157616;0.040062;0.002158;,
  0.118409;0.055465;0.002158;,
  0.118409;0.055465;0.002158;,
  0.150943;0.036800;-0.014410;,
  0.150943;0.036800;0.002158;,
  0.118409;0.055465;-0.014410;,
  0.118409;0.055465;-0.014410;,
  0.157617;0.040062;-0.014410;,
  0.150943;0.036800;-0.014410;,
  0.121954;0.062867;-0.014410;,
  0.121954;0.062867;-0.014410;,
  0.157616;0.040062;0.002158;,
  0.157617;0.040062;-0.014410;,
  0.121954;0.062867;0.002158;,
  0.085641;0.063546;-0.014410;,
  0.085641;0.063546;0.002158;,
  0.082095;0.056143;-0.014410;,
  0.085641;0.063546;-0.014410;,
  0.082095;0.056143;0.002158;,
  0.082095;0.056143;-0.014410;,
  0.085641;0.063546;0.002158;,
  0.082095;0.056143;0.002158;;
  144;
  3;0,1,2;,
  3;0,3,1;,
  3;0,4,3;,
  3;0,5,4;,
  3;0,6,5;,
  3;0,7,6;,
  3;0,8,7;,
  3;0,2,8;,
  3;9,2,1;,
  3;2,9,10;,
  3;11,1,3;,
  3;1,11,9;,
  3;12,3,4;,
  3;3,12,11;,
  3;13,4,5;,
  3;4,13,12;,
  3;14,5,6;,
  3;5,14,13;,
  3;15,6,7;,
  3;6,15,14;,
  3;16,7,8;,
  3;7,16,15;,
  3;10,8,2;,
  3;8,10,16;,
  3;17,18,19;,
  3;18,17,20;,
  3;21,19,22;,
  3;19,21,17;,
  3;23,22,24;,
  3;22,23,21;,
  3;25,24,26;,
  3;24,25,23;,
  3;27,26,28;,
  3;26,27,25;,
  3;29,28,30;,
  3;28,29,27;,
  3;31,30,32;,
  3;30,31,29;,
  3;20,32,18;,
  3;32,20,31;,
  3;33,34,35;,
  3;33,35,36;,
  3;33,36,37;,
  3;33,37,38;,
  3;33,38,39;,
  3;33,39,40;,
  3;33,40,41;,
  3;33,41,34;,
  3;42,43,44;,
  3;42,44,45;,
  3;42,45,46;,
  3;42,46,47;,
  3;42,47,48;,
  3;42,48,49;,
  3;42,49,50;,
  3;42,50,43;,
  3;51,43,52;,
  3;43,51,44;,
  3;53,44,51;,
  3;44,53,45;,
  3;54,45,53;,
  3;45,54,46;,
  3;55,46,54;,
  3;46,55,47;,
  3;56,47,55;,
  3;47,56,48;,
  3;57,48,56;,
  3;48,57,49;,
  3;58,49,57;,
  3;49,58,50;,
  3;52,50,58;,
  3;50,52,43;,
  3;59,60,61;,
  3;60,59,62;,
  3;63,62,59;,
  3;62,63,64;,
  3;65,64,63;,
  3;64,65,66;,
  3;67,66,65;,
  3;66,67,68;,
  3;69,68,67;,
  3;68,69,70;,
  3;71,70,69;,
  3;70,71,72;,
  3;73,72,71;,
  3;72,73,74;,
  3;61,74,73;,
  3;74,61,60;,
  3;75,76,77;,
  3;75,78,76;,
  3;75,79,78;,
  3;75,80,79;,
  3;75,81,80;,
  3;75,82,81;,
  3;75,83,82;,
  3;75,77,83;,
  3;84,85,86;,
  3;85,84,87;,
  3;88,89,90;,
  3;89,88,91;,
  3;92,93,94;,
  3;93,92,95;,
  3;96,97,98;,
  3;97,96,99;,
  3;100,86,101;,
  3;86,100,84;,
  3;102,90,103;,
  3;90,102,88;,
  3;104,94,105;,
  3;94,104,92;,
  3;106,98,107;,
  3;98,106,96;,
  3;108,99,109;,
  3;99,108,97;,
  3;110,95,111;,
  3;95,110,93;,
  3;112,91,113;,
  3;91,112,89;,
  3;114,87,115;,
  3;87,114,85;,
  3;116,117,118;,
  3;117,116,119;,
  3;120,121,122;,
  3;121,120,123;,
  3;124,125,126;,
  3;125,124,127;,
  3;128,129,130;,
  3;129,128,131;,
  3;118,100,101;,
  3;100,118,117;,
  3;122,102,103;,
  3;102,122,121;,
  3;126,104,105;,
  3;104,126,125;,
  3;130,106,107;,
  3;106,130,129;,
  3;131,132,133;,
  3;132,131,128;,
  3;127,134,135;,
  3;134,127,124;,
  3;123,136,137;,
  3;136,123,120;,
  3;119,138,139;,
  3;138,119,116;;

  MeshNormals {
   140;
   0.005998;-0.998880;-0.046931;,
   -0.501346;-0.676625;-0.539288;,
   0.005175;-0.663781;-0.747909;,
   -0.711733;-0.701629;-0.033952;,
   -0.502742;-0.724149;0.472079;,
   0.003201;-0.730992;0.682378;,
   0.509722;-0.718149;0.473757;,
   0.720107;-0.693144;-0.031579;,
   0.511116;-0.670624;-0.537609;,
   -0.625739;-0.429564;-0.651096;,
   0.003960;-0.413597;-0.910452;,
   -0.887288;-0.460649;-0.022870;,
   -0.627473;-0.488645;0.606221;,
   0.001508;-0.497152;0.867662;,
   0.631208;-0.481185;0.608307;,
   0.892757;-0.450098;-0.019919;,
   0.632942;-0.422103;-0.649010;,
   -0.702028;-0.070415;-0.708660;,
   0.001967;-0.052566;-0.998616;,
   -0.702027;-0.070415;-0.708661;,
   0.001967;-0.052566;-0.998616;,
   -0.994434;-0.105171;-0.006313;,
   -0.994434;-0.105171;-0.006313;,
   -0.703966;-0.136473;0.696998;,
   -0.703964;-0.136474;0.697001;,
   -0.000775;-0.145978;0.989288;,
   -0.000775;-0.145978;0.989288;,
   0.703220;-0.128128;0.699332;,
   0.703219;-0.128128;0.699332;,
   0.995626;-0.093375;-0.003015;,
   0.995626;-0.093375;-0.003015;,
   0.705158;-0.062073;-0.706328;,
   0.705159;-0.062073;-0.706327;,
   -0.005998;0.998880;0.046930;,
   -0.006138;0.979862;0.199583;,
   0.102376;0.982613;0.154889;,
   0.147447;0.987970;0.046629;,
   0.102674;0.992795;-0.061779;,
   -0.005716;0.994261;-0.106832;,
   -0.114229;0.991509;-0.062139;,
   -0.159301;0.986152;0.046121;,
   -0.114528;0.981328;0.154530;,
   0.005998;0.998880;-0.046932;,
   0.005175;0.663780;-0.747910;,
   -0.501346;0.676624;-0.539288;,
   -0.711733;0.701629;-0.033954;,
   -0.502742;0.724150;0.472078;,
   0.003201;0.730993;0.682377;,
   0.509722;0.718150;0.473756;,
   0.720107;0.693144;-0.031580;,
   0.511116;0.670623;-0.537610;,
   -0.625739;0.429563;-0.651096;,
   0.003960;0.413595;-0.910452;,
   -0.887288;0.460649;-0.022870;,
   -0.627473;0.488645;0.606220;,
   0.001508;0.497153;0.867661;,
   0.631208;0.481186;0.608306;,
   0.892757;0.450098;-0.019920;,
   0.632942;0.422102;-0.649010;,
   -0.702028;0.070414;-0.708660;,
   0.001967;0.052564;-0.998616;,
   0.001967;0.052564;-0.998616;,
   -0.702027;0.070414;-0.708661;,
   -0.994434;0.105171;-0.006313;,
   -0.994434;0.105171;-0.006313;,
   -0.703966;0.136474;0.696998;,
   -0.703963;0.136475;0.697001;,
   -0.000775;0.145979;0.989287;,
   -0.000775;0.145979;0.989287;,
   0.703220;0.128129;0.699332;,
   0.703219;0.128129;0.699332;,
   0.995626;0.093375;-0.003015;,
   0.995626;0.093375;-0.003015;,
   0.705158;0.062072;-0.706328;,
   0.705159;0.062072;-0.706327;,
   -0.005998;-0.998880;0.046932;,
   0.102375;-0.982613;0.154890;,
   -0.006138;-0.979862;0.199584;,
   0.147447;-0.987970;0.046631;,
   0.102674;-0.992795;-0.061778;,
   -0.005716;-0.994261;-0.106831;,
   -0.114229;-0.991509;-0.062137;,
   -0.159301;-0.986152;0.046122;,
   -0.114528;-0.981328;0.154531;,
   -0.000000;-0.000001;1.000000;,
   -0.000000;-0.000001;1.000000;,
   -0.000000;-0.000001;1.000000;,
   -0.000000;-0.000001;1.000000;,
   -0.788336;0.615246;0.000001;,
   -0.274250;0.961659;0.000001;,
   -0.788345;0.615234;-0.000037;,
   -0.274250;0.961659;0.000001;,
   0.000000;0.000001;-1.000000;,
   0.000000;0.000000;-1.000000;,
   0.000000;0.000001;-1.000000;,
   0.000000;0.000000;-1.000000;,
   0.796219;-0.605009;-0.000004;,
   0.297795;-0.954630;-0.000002;,
   0.796221;-0.605005;-0.000019;,
   0.297795;-0.954630;-0.000001;,
   0.000002;-0.000001;1.000000;,
   0.000002;-0.000001;1.000000;,
   -0.999991;-0.004186;0.000003;,
   -0.999990;-0.004566;0.000006;,
   -0.000002;0.000001;-1.000000;,
   -0.000002;0.000001;-1.000000;,
   0.999991;0.004210;0.000001;,
   0.999990;0.004378;0.000002;,
   0.086598;-0.996243;-0.000001;,
   0.086598;-0.996243;-0.000001;,
   0.000000;0.000000;-1.000000;,
   0.000000;0.000000;-1.000000;,
   -0.086598;0.996243;0.000001;,
   -0.086598;0.996243;0.000001;,
   -0.000000;-0.000001;1.000000;,
   -0.000000;-0.000001;1.000000;,
   -0.000000;-0.000001;1.000000;,
   -0.000000;-0.000000;1.000000;,
   0.000000;-0.000000;1.000000;,
   -0.000000;-0.000001;1.000000;,
   -0.266509;-0.963833;-0.000000;,
   -0.801497;-0.597998;-0.000001;,
   -0.801488;-0.598011;0.000039;,
   -0.266509;-0.963833;-0.000000;,
   -0.000000;0.000000;-1.000000;,
   0.000000;0.000001;-1.000000;,
   -0.000000;0.000001;-1.000000;,
   -0.000000;0.000000;-1.000000;,
   0.289601;0.957147;-0.000000;,
   0.808856;0.588007;0.000004;,
   0.808853;0.588011;0.000020;,
   0.289603;0.957147;-0.000001;,
   0.018685;0.999825;0.000001;,
   0.018685;0.999825;0.000001;,
   0.000000;0.000000;-1.000000;,
   0.000000;0.000000;-1.000000;,
   -0.018686;-0.999825;-0.000000;,
   -0.018686;-0.999825;-0.000000;,
   -0.000000;-0.000001;1.000000;,
   -0.000000;-0.000001;1.000000;;
   144;
   3;0,1,2;,
   3;0,3,1;,
   3;0,4,3;,
   3;0,5,4;,
   3;0,6,5;,
   3;0,7,6;,
   3;0,8,7;,
   3;0,2,8;,
   3;9,2,1;,
   3;2,9,10;,
   3;11,1,3;,
   3;1,11,9;,
   3;12,3,4;,
   3;3,12,11;,
   3;13,4,5;,
   3;4,13,12;,
   3;14,5,6;,
   3;5,14,13;,
   3;15,6,7;,
   3;6,15,14;,
   3;16,7,8;,
   3;7,16,15;,
   3;10,8,2;,
   3;8,10,16;,
   3;17,18,19;,
   3;18,17,20;,
   3;21,19,22;,
   3;19,21,17;,
   3;23,22,24;,
   3;22,23,21;,
   3;25,24,26;,
   3;24,25,23;,
   3;27,26,28;,
   3;26,27,25;,
   3;29,28,30;,
   3;28,29,27;,
   3;31,30,32;,
   3;30,31,29;,
   3;20,32,18;,
   3;32,20,31;,
   3;33,34,35;,
   3;33,35,36;,
   3;33,36,37;,
   3;33,37,38;,
   3;33,38,39;,
   3;33,39,40;,
   3;33,40,41;,
   3;33,41,34;,
   3;42,43,44;,
   3;42,44,45;,
   3;42,45,46;,
   3;42,46,47;,
   3;42,47,48;,
   3;42,48,49;,
   3;42,49,50;,
   3;42,50,43;,
   3;51,43,52;,
   3;43,51,44;,
   3;53,44,51;,
   3;44,53,45;,
   3;54,45,53;,
   3;45,54,46;,
   3;55,46,54;,
   3;46,55,47;,
   3;56,47,55;,
   3;47,56,48;,
   3;57,48,56;,
   3;48,57,49;,
   3;58,49,57;,
   3;49,58,50;,
   3;52,50,58;,
   3;50,52,43;,
   3;59,60,61;,
   3;60,59,62;,
   3;63,62,59;,
   3;62,63,64;,
   3;65,64,63;,
   3;64,65,66;,
   3;67,66,65;,
   3;66,67,68;,
   3;69,68,67;,
   3;68,69,70;,
   3;71,70,69;,
   3;70,71,72;,
   3;73,72,71;,
   3;72,73,74;,
   3;61,74,73;,
   3;74,61,60;,
   3;75,76,77;,
   3;75,78,76;,
   3;75,79,78;,
   3;75,80,79;,
   3;75,81,80;,
   3;75,82,81;,
   3;75,83,82;,
   3;75,77,83;,
   3;84,85,86;,
   3;85,84,87;,
   3;88,89,90;,
   3;89,88,91;,
   3;92,93,94;,
   3;93,92,95;,
   3;96,97,98;,
   3;97,96,99;,
   3;100,86,101;,
   3;86,100,84;,
   3;102,90,103;,
   3;90,102,88;,
   3;104,94,105;,
   3;94,104,92;,
   3;106,98,107;,
   3;98,106,96;,
   3;108,99,109;,
   3;99,108,97;,
   3;110,95,111;,
   3;95,110,93;,
   3;112,91,113;,
   3;91,112,89;,
   3;114,87,115;,
   3;87,114,85;,
   3;116,117,118;,
   3;117,116,119;,
   3;120,121,122;,
   3;121,120,123;,
   3;124,125,126;,
   3;125,124,127;,
   3;128,129,130;,
   3;129,128,131;,
   3;118,100,101;,
   3;100,118,117;,
   3;122,102,103;,
   3;102,122,121;,
   3;126,104,105;,
   3;104,126,125;,
   3;130,106,107;,
   3;106,130,129;,
   3;131,132,133;,
   3;132,131,128;,
   3;127,134,135;,
   3;134,127,124;,
   3;123,136,137;,
   3;136,123,120;,
   3;119,138,139;,
   3;138,119,116;;
  }

  MeshMaterialList {
   1;
   144;
   0,
   0,
   0,
   0,
   0,
   0,
   0,
   0,
   0,
   0,
   0,
   0,
   0,
   0,
   0,
   0,
   0,
   0,
   0,
   0,
   0,
   0,
   0,
   0,
   0,
   0,
   0,
   0,
   0,
   0,
   0,
   0,
   0,
   0,
   0,
   0,
   0,
   0,
   0,
   0,
   0,
   0,
   0,
   0,
   0,
   0,
   0,
   0,
   0,
   0,
   0,
   0,
   0,
   0,
   0,
   0,
   0,
   0,
   0,
   0,
   0,
   0,
   0,
   0,
   0,
   0,
   0,
   0,
   0,
   0,
   0,
   0,
   0,
   0,
   0,
   0,
   0,
   0,
   0,
   0,
   0,
   0,
   0,
   0,
   0,
   0,
   0,
   0,
   0,
   0,
   0,
   0,
   0,
   0,
   0,
   0,
   0,
   0,
   0,
   0,
   0,
   0,
   0,
   0,
   0,
   0,
   0,
   0,
   0,
   0,
   0,
   0,
   0,
   0,
   0,
   0,
   0,
   0,
   0,
   0,
   0,
   0,
   0,
   0,
   0,
   0,
   0,
   0,
   0,
   0,
   0,
   0,
   0,
   0,
   0,
   0,
   0,
   0,
   0,
   0,
   0,
   0,
   0,
   0;
   { Material__96 }
  }

  MeshTextureCoords c1 {
   140;
   0.695345;0.284620;,
   0.591591;0.390471;,
   0.548294;0.282384;,
   0.700732;0.432934;,
   0.802800;0.392016;,
   0.847710;0.282861;,
   0.803206;0.177187;,
   0.698893;0.133518;,
   0.591998;0.176849;,
   0.531659;0.458879;,
   0.460187;0.285539;,
   0.704781;0.530876;,
   0.878141;0.459356;,
   0.950187;0.286214;,
   0.878716;0.112874;,
   0.705594;0.040876;,
   0.532234;0.112396;,
   0.328417;0.858216;,
   0.226527;0.734795;,
   0.290851;0.895237;,
   0.276996;0.735401;,
   0.451401;0.909362;,
   0.452325;0.963155;,
   0.574554;0.858555;,
   0.610158;0.895222;,
   0.625735;0.735557;,
   0.678035;0.734634;,
   0.574963;0.612418;,
   0.611443;0.577178;,
   0.451979;0.561271;,
   0.451879;0.510112;,
   0.328826;0.612078;,
   0.292869;0.575981;,
   0.450421;0.735155;,
   0.276996;0.735401;,
   0.328417;0.858216;,
   0.451401;0.909362;,
   0.574554;0.858555;,
   0.625735;0.735557;,
   0.574963;0.612418;,
   0.451979;0.561271;,
   0.328826;0.612078;,
   0.696091;0.283360;,
   0.848248;0.284456;,
   0.802247;0.392401;,
   0.700083;0.432139;,
   0.589303;0.388931;,
   0.548593;0.282050;,
   0.589889;0.174105;,
   0.699581;0.133425;,
   0.803774;0.177575;,
   0.877157;0.460071;,
   0.948838;0.285557;,
   0.706505;0.529919;,
   0.534382;0.460598;,
   0.462066;0.285095;,
   0.528920;0.112995;,
   0.705607;0.041940;,
   0.877729;0.111261;,
   0.328791;0.858363;,
   0.225610;0.735355;,
   0.276514;0.735969;,
   0.291431;0.894992;,
   0.451031;0.908741;,
   0.451839;0.963242;,
   0.574735;0.858051;,
   0.610521;0.895431;,
   0.625471;0.736120;,
   0.677196;0.734356;,
   0.575140;0.614051;,
   0.611051;0.576341;,
   0.451927;0.561404;,
   0.451615;0.510035;,
   0.328547;0.612094;,
   0.291960;0.575901;,
   0.451680;0.735722;,
   0.328791;0.858363;,
   0.276514;0.735969;,
   0.451031;0.908741;,
   0.574735;0.858051;,
   0.625471;0.736120;,
   0.575140;0.614051;,
   0.451927;0.561404;,
   0.328547;0.612094;,
   0.035584;0.677964;,
   0.056211;0.760358;,
   0.056211;0.596815;,
   0.035584;0.842280;,
   0.196746;0.679009;,
   0.157760;0.844485;,
   0.157760;0.679009;,
   0.196746;0.844485;,
   0.097884;0.679741;,
   0.113651;0.842773;,
   0.113651;0.679741;,
   0.097884;0.842773;,
   0.056211;0.596815;,
   0.097884;0.842773;,
   0.097884;0.679741;,
   0.056211;0.760358;,
   0.035584;0.519476;,
   0.056211;0.519476;,
   0.196746;0.522410;,
   0.157760;0.522410;,
   0.097884;0.520573;,
   0.113651;0.520573;,
   0.056211;0.519476;,
   0.097884;0.520573;,
   0.097884;0.986276;,
   0.056211;0.985783;,
   0.113651;0.986276;,
   0.097884;0.986276;,
   0.157760;0.984087;,
   0.196746;0.984087;,
   0.056211;0.985783;,
   0.035584;0.985783;,
   0.056211;0.169056;,
   0.035584;0.440483;,
   0.056211;0.354845;,
   0.035584;0.276586;,
   0.157760;0.277034;,
   0.196746;0.445701;,
   0.157760;0.445701;,
   0.196746;0.277034;,
   0.113651;0.277080;,
   0.096264;0.442260;,
   0.113651;0.442260;,
   0.097884;0.277080;,
   0.097884;0.277080;,
   0.056211;0.354845;,
   0.096264;0.442260;,
   0.056211;0.169056;,
   0.097884;0.023400;,
   0.056211;0.025553;,
   0.113651;0.023400;,
   0.097884;0.023400;,
   0.157760;0.026124;,
   0.196746;0.026124;,
   0.056211;0.025553;,
   0.035584;0.025553;;
  }
 }
}