xof 0303txt 0032
template ColorRGBA {
 <35ff44e0-6c7c-11cf-8f52-0040333594a3>
 FLOAT red;
 FLOAT green;
 FLOAT blue;
 FLOAT alpha;
}

template ColorRGB {
 <d3e16e81-7835-11cf-8f52-0040333594a3>
 FLOAT red;
 FLOAT green;
 FLOAT blue;
}

template Material {
 <3d82ab4d-62da-11cf-ab39-0020af71e433>
 ColorRGBA faceColor;
 FLOAT power;
 ColorRGB specularColor;
 ColorRGB emissiveColor;
 [...]
}

template TextureFilename {
 <a42790e1-7810-11cf-8f52-0040333594a3>
 STRING filename;
}

template Frame {
 <3d82ab46-62da-11cf-ab39-0020af71e433>
 [...]
}

template Matrix4x4 {
 <f6f23f45-7686-11cf-8f52-0040333594a3>
 array FLOAT matrix[16];
}

template FrameTransformMatrix {
 <f6f23f41-7686-11cf-8f52-0040333594a3>
 Matrix4x4 frameMatrix;
}

template Vector {
 <3d82ab5e-62da-11cf-ab39-0020af71e433>
 FLOAT x;
 FLOAT y;
 FLOAT z;
}

template MeshFace {
 <3d82ab5f-62da-11cf-ab39-0020af71e433>
 DWORD nFaceVertexIndices;
 array DWORD faceVertexIndices[nFaceVertexIndices];
}

template Mesh {
 <3d82ab44-62da-11cf-ab39-0020af71e433>
 DWORD nVertices;
 array Vector vertices[nVertices];
 DWORD nFaces;
 array MeshFace faces[nFaces];
 [...]
}

template MeshNormals {
 <f6f23f43-7686-11cf-8f52-0040333594a3>
 DWORD nNormals;
 array Vector normals[nNormals];
 DWORD nFaceNormals;
 array MeshFace faceNormals[nFaceNormals];
}

template MeshMaterialList {
 <f6f23f42-7686-11cf-8f52-0040333594a3>
 DWORD nMaterials;
 DWORD nFaceIndexes;
 array DWORD faceIndexes[nFaceIndexes];
 [Material <3d82ab4d-62da-11cf-ab39-0020af71e433>]
}

template Coords2d {
 <f6f23f44-7686-11cf-8f52-0040333594a3>
 FLOAT u;
 FLOAT v;
}

template MeshTextureCoords {
 <f6f23f40-7686-11cf-8f52-0040333594a3>
 DWORD nTextureCoords;
 array Coords2d textureCoords[nTextureCoords];
}


Material _03_-_Defaultgggg {
 1.000000;1.000000;1.000000;1.000000;;
 9.999999;
 0.000000;0.000000;0.000000;;
 0.000000;0.000000;0.000000;;

 TextureFilename {
  "HockeyMask.png";
 }
}

Frame M_HockeyMask {
 

 FrameTransformMatrix {
  1.000000,0.000000,0.000000,0.000000,0.000000,1.000000,0.000000,0.000000,0.000000,-0.000000,1.000000,0.000000,0.000000,0.000000,0.000000,1.000000;;
 }

 Mesh M_HockeyMask {
  210;
  -0.010561;0.030168;0.045360;,
  0.006111;0.047237;0.019229;,
  -0.011227;0.028776;0.030205;,
  0.004010;0.043327;0.037506;,
  0.157025;0.019439;0.020151;,
  0.154487;0.000000;0.037268;,
  0.160520;0.000000;0.020950;,
  0.092178;0.035791;0.063611;,
  0.091627;0.017896;0.071907;,
  0.120580;0.029877;0.055163;,
  0.036750;0.058795;0.014540;,
  0.031113;0.048864;0.035207;,
  0.085294;0.051500;0.036004;,
  0.127325;0.050252;0.015767;,
  0.087681;0.062274;0.012031;,
  0.124552;0.043116;0.037082;,
  0.059758;0.052000;0.035417;,
  0.056236;0.036767;0.064769;,
  -0.001744;0.025032;0.058664;,
  -0.007397;0.000000;0.068421;,
  -0.018199;0.000000;0.051937;,
  0.142311;0.025441;0.041737;,
  0.147114;0.035039;0.018127;,
  0.061124;0.062608;0.012254;,
  -0.019219;0.000000;0.036562;,
  0.143948;0.000000;0.051142;,
  0.119194;0.000000;0.066200;,
  0.086270;0.036463;0.066126;,
  0.085735;0.011949;0.073873;,
  0.021955;0.015067;0.071767;,
  0.027031;0.031911;0.062841;,
  0.091075;0.000000;0.078226;,
  0.080132;0.000000;0.078851;,
  0.066841;0.014563;0.072647;,
  0.069199;0.000000;0.080865;,
  -0.010561;-0.030168;0.045360;,
  0.006111;-0.047373;0.019229;,
  0.004010;-0.043326;0.037506;,
  -0.011227;-0.028775;0.030205;,
  0.157025;-0.019438;0.020151;,
  0.092178;-0.035790;0.063611;,
  0.120580;-0.029876;0.055163;,
  0.091627;-0.017895;0.071907;,
  0.036750;-0.058883;0.014540;,
  0.031113;-0.048863;0.035207;,
  0.127325;-0.050251;0.015767;,
  0.085294;-0.051499;0.036004;,
  0.087681;-0.062498;0.012031;,
  0.124552;-0.043116;0.037082;,
  0.059758;-0.051999;0.035417;,
  0.056236;-0.036766;0.064769;,
  -0.001744;-0.025031;0.058664;,
  0.142311;-0.025440;0.041737;,
  0.147033;-0.035748;0.018127;,
  0.061124;-0.062566;0.012254;,
  0.086270;-0.036462;0.066126;,
  0.085735;-0.011949;0.073873;,
  0.027031;-0.031911;0.062841;,
  0.021955;-0.015066;0.071767;,
  0.067074;-0.014583;0.072583;,
  -0.006877;0.024308;0.027294;,
  0.006111;0.047237;0.019229;,
  0.006138;0.040551;0.019514;,
  -0.011227;0.028776;0.030205;,
  0.006138;0.040551;0.019514;,
  0.036750;0.058795;0.014540;,
  0.039195;0.052053;0.014723;,
  0.039195;0.052053;0.014723;,
  0.061124;0.062608;0.012254;,
  0.060845;0.055590;0.012401;,
  0.060845;0.055590;0.012401;,
  0.087681;0.062274;0.012031;,
  0.087167;0.055322;0.012064;,
  0.087167;0.055322;0.012064;,
  0.127325;0.050252;0.015767;,
  0.123709;0.045902;0.015460;,
  0.123709;0.045902;0.015460;,
  0.147114;0.035039;0.018127;,
  0.137975;0.033965;0.017587;,
  0.137975;0.033965;0.017587;,
  0.157025;0.019439;0.020151;,
  0.148062;0.017267;0.019384;,
  0.148062;0.017267;0.019384;,
  0.160520;0.000000;0.020950;,
  0.151618;0.000000;0.019770;,
  0.151618;0.000000;0.019770;,
  0.157025;-0.019438;0.020151;,
  0.148062;-0.017266;0.019384;,
  0.148062;-0.017266;0.019384;,
  0.147033;-0.035748;0.018127;,
  0.137893;-0.033975;0.017587;,
  0.137893;-0.033975;0.017587;,
  0.127325;-0.050251;0.015767;,
  0.123709;-0.045901;0.015459;,
  0.123709;-0.045901;0.015459;,
  0.087681;-0.062498;0.012031;,
  0.087319;-0.055546;0.012064;,
  0.087319;-0.055546;0.012064;,
  0.061124;-0.062566;0.012254;,
  0.060845;-0.055548;0.012401;,
  0.060845;-0.055548;0.012401;,
  0.036750;-0.058883;0.014540;,
  0.039195;-0.052141;0.014723;,
  0.039195;-0.052141;0.014723;,
  0.006111;-0.047373;0.019229;,
  0.006138;-0.040407;0.019514;,
  0.006138;-0.040407;0.019514;,
  -0.011227;-0.028775;0.030205;,
  -0.006877;-0.024307;0.027294;,
  -0.006877;-0.024307;0.027294;,
  -0.019219;0.000000;0.036562;,
  -0.012652;0.000000;0.031033;,
  -0.012652;0.000000;0.031033;,
  -0.006877;0.024308;0.027294;,
  0.055242;-0.015231;0.073501;,
  0.070035;-0.037198;0.063982;,
  0.052421;0.000000;0.087195;,
  0.055242;0.015232;0.073501;,
  0.069440;0.037206;0.064033;,
  0.032307;-0.014510;0.073700;,
  0.032307;0.014511;0.073700;,
  0.021955;0.015067;0.071767;,
  0.032909;0.014511;0.066051;,
  0.032307;0.014511;0.073700;,
  0.023249;0.016521;0.062488;,
  0.032909;-0.014510;0.066051;,
  0.032307;-0.014510;0.073700;,
  0.023249;-0.016520;0.062488;,
  0.021955;-0.015066;0.071767;,
  0.078189;0.040691;0.060285;,
  0.086397;0.034363;0.058460;,
  0.086270;0.036463;0.066126;,
  0.078202;0.038580;0.052604;,
  0.085862;0.011972;0.066207;,
  0.085735;0.011949;0.073873;,
  0.067704;0.014504;0.064981;,
  0.066841;0.014563;0.072647;,
  0.069567;0.035073;0.056367;,
  0.069440;0.037206;0.064033;,
  0.085735;-0.011949;0.073873;,
  0.086423;-0.034362;0.058461;,
  0.086270;-0.036462;0.066126;,
  0.085888;-0.011809;0.066207;,
  0.070035;-0.037198;0.063982;,
  0.077944;-0.037128;0.054534;,
  0.070188;-0.035065;0.056317;,
  0.078280;-0.039222;0.062264;,
  0.067963;-0.014524;0.064918;,
  0.067074;-0.014583;0.072583;,
  0.042435;-0.013479;0.074244;,
  0.041864;0.000000;0.077592;,
  0.042435;0.013480;0.074244;,
  0.078280;-0.039222;0.062264;,
  0.078189;0.040691;0.060285;,
  0.158870;-0.005122;0.021543;,
  0.157288;0.005123;0.004772;,
  0.158870;0.005123;0.021543;,
  0.157288;-0.005122;0.004772;,
  0.153721;0.005123;-0.032829;,
  0.153721;-0.005122;-0.032829;,
  0.130241;0.005123;-0.060697;,
  0.130241;-0.005122;-0.060697;,
  0.081091;0.005123;-0.070104;,
  0.081091;-0.005122;-0.070104;,
  0.043774;-0.005122;-0.055363;,
  0.043774;0.005123;-0.055363;,
  0.088465;0.059224;0.013748;,
  0.098592;0.057276;-0.000700;,
  0.088367;0.057912;-0.000700;,
  0.098690;0.058588;0.013748;,
  0.097111;0.049444;-0.038301;,
  0.086886;0.050080;-0.038301;,
  0.095152;0.037739;-0.058579;,
  0.084927;0.038375;-0.058579;,
  0.093786;0.005138;-0.067528;,
  0.083706;0.004947;-0.069290;,
  0.083706;-0.004947;-0.069290;,
  0.093786;-0.005138;-0.067528;,
  0.017785;0.051212;0.018482;,
  0.029681;0.052566;0.003413;,
  0.019779;0.049937;0.003413;,
  0.027687;0.053842;0.018482;,
  0.038069;0.042409;-0.026704;,
  0.028167;0.039780;-0.026704;,
  0.046309;0.032370;-0.047189;,
  0.036726;0.029741;-0.044697;,
  0.053454;0.005294;-0.058793;,
  0.043994;0.005177;-0.055236;,
  0.088465;-0.059224;0.013748;,
  0.098592;-0.057276;-0.000700;,
  0.098690;-0.058588;0.013748;,
  0.088367;-0.057912;-0.000700;,
  0.097111;-0.049443;-0.038301;,
  0.086886;-0.050080;-0.038301;,
  0.095152;-0.037739;-0.058579;,
  0.084927;-0.038375;-0.058579;,
  0.093786;-0.005138;-0.067528;,
  0.083706;-0.004947;-0.069290;,
  0.017785;-0.051212;0.018482;,
  0.029681;-0.052566;0.003413;,
  0.027687;-0.053842;0.018482;,
  0.019779;-0.049937;0.003412;,
  0.038069;-0.042409;-0.026704;,
  0.028167;-0.039779;-0.026704;,
  0.046309;-0.032370;-0.047189;,
  0.036726;-0.029741;-0.044697;,
  0.053454;-0.005294;-0.058793;,
  0.043870;-0.004908;-0.055224;,
  0.043994;0.005177;-0.055236;,
  0.053454;0.005294;-0.058793;;
  226;
  3;0,1,2;,
  3;1,0,3;,
  3;4,5,6;,
  3;7,8,9;,
  3;3,10,1;,
  3;10,3,11;,
  3;12,13,14;,
  3;13,12,15;,
  3;15,7,9;,
  3;16,11,17;,
  3;3,0,18;,
  3;0,19,18;,
  3;19,0,20;,
  3;21,15,9;,
  3;15,22,13;,
  3;12,23,16;,
  3;23,12,14;,
  3;0,24,20;,
  3;24,0,2;,
  3;25,5,21;,
  3;25,9,26;,
  3;9,25,21;,
  3;8,27,28;,
  3;27,8,7;,
  3;7,15,12;,
  3;18,29,30;,
  3;11,23,10;,
  3;23,11,16;,
  3;17,11,30;,
  3;26,8,31;,
  3;8,26,9;,
  3;28,31,8;,
  3;31,28,32;,
  3;32,33,34;,
  3;33,32,28;,
  3;21,4,22;,
  3;22,15,21;,
  3;29,18,19;,
  3;4,21,5;,
  3;35,36,37;,
  3;36,35,38;,
  3;39,6,5;,
  3;40,41,42;,
  3;43,37,36;,
  3;37,43,44;,
  3;45,46,47;,
  3;46,45,48;,
  3;48,41,40;,
  3;49,50,44;,
  3;37,51,35;,
  3;19,35,51;,
  3;35,19,20;,
  3;52,41,48;,
  3;48,45,53;,
  3;54,46,49;,
  3;46,54,47;,
  3;35,24,38;,
  3;24,35,20;,
  3;25,52,5;,
  3;25,41,52;,
  3;41,25,26;,
  3;55,42,56;,
  3;42,55,40;,
  3;40,46,48;,
  3;51,57,58;,
  3;54,44,43;,
  3;44,54,49;,
  3;50,57,44;,
  3;26,42,41;,
  3;42,26,31;,
  3;31,56,42;,
  3;56,31,32;,
  3;32,59,56;,
  3;59,32,34;,
  3;58,29,19;,
  3;52,53,39;,
  3;53,52,48;,
  3;58,19,51;,
  3;39,5,52;,
  3;60,61,62;,
  3;61,60,63;,
  3;64,65,66;,
  3;65,64,61;,
  3;67,68,69;,
  3;68,67,65;,
  3;70,71,72;,
  3;71,70,68;,
  3;73,74,75;,
  3;74,73,71;,
  3;76,77,78;,
  3;77,76,74;,
  3;79,80,81;,
  3;80,79,77;,
  3;82,83,84;,
  3;83,82,80;,
  3;85,86,87;,
  3;86,85,83;,
  3;88,89,90;,
  3;89,88,86;,
  3;91,92,93;,
  3;92,91,89;,
  3;94,95,96;,
  3;95,94,92;,
  3;97,98,99;,
  3;98,97,95;,
  3;100,101,102;,
  3;101,100,98;,
  3;103,104,105;,
  3;104,103,101;,
  3;106,107,108;,
  3;107,106,104;,
  3;109,110,111;,
  3;110,109,107;,
  3;112,63,113;,
  3;63,112,110;,
  3;50,59,114;,
  3;59,50,115;,
  3;59,116,114;,
  3;116,59,34;,
  3;33,116,34;,
  3;116,33,117;,
  3;33,17,117;,
  3;17,33,118;,
  3;57,119,58;,
  3;120,30,29;,
  3;121,122,123;,
  3;122,121,124;,
  3;123,125,126;,
  3;125,123,122;,
  3;126,127,128;,
  3;127,126,125;,
  3;128,124,121;,
  3;124,128,127;,
  3;129,130,131;,
  3;130,129,132;,
  3;131,133,134;,
  3;133,131,130;,
  3;135,134,133;,
  3;134,135,136;,
  3;136,137,138;,
  3;137,136,135;,
  3;139,140,141;,
  3;140,139,142;,
  3;143,144,145;,
  3;144,143,146;,
  3;143,147,148;,
  3;147,143,145;,
  3;147,139,148;,
  3;139,147,142;,
  3;116,149,114;,
  3;149,116,150;,
  3;151,116,117;,
  3;116,151,150;,
  3;50,119,57;,
  3;50,149,119;,
  3;114,149,50;,
  3;120,17,30;,
  3;151,17,120;,
  3;117,17,151;,
  3;57,37,44;,
  3;37,57,51;,
  3;30,3,18;,
  3;3,30,11;,
  3;150,119,149;,
  3;150,120,119;,
  3;150,151,120;,
  3;132,138,137;,
  3;138,132,129;,
  3;140,146,141;,
  3;146,140,144;,
  3;55,46,40;,
  3;46,55,152;,
  3;49,115,50;,
  3;49,152,115;,
  3;46,152,49;,
  3;27,12,153;,
  3;12,27,7;,
  3;118,16,17;,
  3;153,16,118;,
  3;153,12,16;,
  3;154,155,156;,
  3;155,154,157;,
  3;158,157,159;,
  3;157,158,155;,
  3;160,159,161;,
  3;159,160,158;,
  3;162,161,163;,
  3;161,162,160;,
  3;164,162,163;,
  3;162,164,165;,
  3;166,167,168;,
  3;167,166,169;,
  3;170,168,167;,
  3;168,170,171;,
  3;172,171,170;,
  3;171,172,173;,
  3;174,173,172;,
  3;173,174,175;,
  3;176,174,177;,
  3;174,176,175;,
  3;178,179,180;,
  3;179,178,181;,
  3;182,180,179;,
  3;180,182,183;,
  3;184,183,182;,
  3;183,184,185;,
  3;186,185,184;,
  3;185,186,187;,
  3;188,189,190;,
  3;189,188,191;,
  3;192,191,193;,
  3;191,192,189;,
  3;194,193,195;,
  3;193,194,192;,
  3;196,195,197;,
  3;195,196,194;,
  3;198,199,200;,
  3;199,198,201;,
  3;202,201,203;,
  3;201,202,199;,
  3;204,203,205;,
  3;203,204,202;,
  3;206,205,207;,
  3;205,206,204;,
  3;208,206,207;,
  3;206,208,209;;

  MeshNormals {
   210;
   -0.759706;0.567872;0.316808;,
   -0.405931;0.890783;0.204269;,
   -0.842291;0.538032;0.032681;,
   -0.428256;0.845031;0.320188;,
   0.834852;0.369089;0.408405;,
   0.866138;-0.000000;0.499805;,
   0.937951;-0.000000;0.346767;,
   0.234155;0.647315;0.725365;,
   0.230824;0.322956;0.917834;,
   0.441306;0.502232;0.743648;,
   -0.151763;0.918237;0.365798;,
   -0.175757;0.891542;0.417448;,
   0.097998;0.902189;0.420062;,
   0.372884;0.854089;0.362615;,
   0.110595;0.910195;0.399142;,
   0.394364;0.796714;0.457957;,
   -0.054480;0.901734;0.428845;,
   -0.047803;0.681173;0.730561;,
   -0.461720;0.564154;0.684504;,
   -0.557623;-0.000000;0.830094;,
   -0.936343;-0.000000;0.351087;,
   0.657378;0.477933;0.582610;,
   0.657680;0.654215;0.373443;,
   -0.040737;0.910227;0.412101;,
   -0.999090;0.000000;0.042662;,
   0.665132;0.000000;0.746726;,
   0.462302;-0.000000;0.886723;,
   0.146522;0.692295;0.706583;,
   0.044057;0.370580;0.927755;,
   -0.196384;0.376749;0.905259;,
   -0.173364;0.675015;0.717147;,
   0.201600;-0.000000;0.979468;,
   0.051383;-0.000406;0.998679;,
   0.119536;0.466226;0.876553;,
   0.161091;-0.000625;0.986939;,
   -0.759685;-0.567562;0.317414;,
   -0.404521;-0.890253;0.209315;,
   -0.428277;-0.844242;0.322234;,
   -0.842611;-0.537427;0.034346;,
   0.836161;-0.363110;0.411079;,
   0.225862;-0.648799;0.726668;,
   0.441305;-0.502233;0.743648;,
   0.230823;-0.322957;0.917834;,
   -0.149653;-0.917543;0.368400;,
   -0.174680;-0.890895;0.419277;,
   0.365315;-0.856471;0.364696;,
   0.096376;-0.901004;0.422969;,
   0.109144;-0.908876;0.402533;,
   0.390794;-0.796426;0.461505;,
   -0.052518;-0.900755;0.431140;,
   -0.044960;-0.680288;0.731565;,
   -0.461720;-0.564154;0.684503;,
   0.656595;-0.474477;0.586306;,
   0.653177;-0.653159;0.383072;,
   -0.042188;-0.909289;0.414022;,
   0.128695;-0.705595;0.696831;,
   0.043788;-0.370962;0.927615;,
   -0.173364;-0.675015;0.717147;,
   -0.196384;-0.376750;0.905259;,
   0.119079;-0.465267;0.877124;,
   -0.571473;0.002253;-0.820618;,
   -0.249121;-0.042620;-0.967534;,
   -0.395904;-0.022814;-0.918008;,
   -0.562890;0.001122;-0.826531;,
   -0.395904;-0.022814;-0.918008;,
   -0.110940;-0.048793;-0.992629;,
   -0.109012;-0.047672;-0.992897;,
   -0.109012;-0.047672;-0.992897;,
   -0.049012;-0.024499;-0.998498;,
   -0.055024;-0.026411;-0.998136;,
   -0.055024;-0.026411;-0.998136;,
   0.037220;-0.010733;-0.999250;,
   0.041759;-0.010582;-0.999072;,
   0.041759;-0.010582;-0.999072;,
   0.089577;-0.034557;-0.995380;,
   0.089857;-0.028269;-0.995553;,
   0.089857;-0.028269;-0.995553;,
   0.085021;-0.062348;-0.994427;,
   0.087046;-0.057297;-0.994555;,
   0.087046;-0.057297;-0.994555;,
   0.097983;-0.035683;-0.994548;,
   0.095624;-0.040654;-0.994587;,
   0.095624;-0.040654;-0.994587;,
   0.109642;0.000000;-0.993971;,
   0.109642;0.000000;-0.993971;,
   0.109642;0.000000;-0.993971;,
   0.098748;0.034502;-0.994514;,
   0.096630;0.039053;-0.994554;,
   0.096630;0.039053;-0.994554;,
   0.087175;0.059626;-0.994407;,
   0.089145;0.055813;-0.994454;,
   0.089145;0.055813;-0.994454;,
   0.091137;0.033575;-0.995272;,
   0.091140;0.027251;-0.995465;,
   0.091140;0.027251;-0.995465;,
   0.036801;0.010328;-0.999269;,
   0.042647;0.010066;-0.999040;,
   0.042647;0.010066;-0.999040;,
   -0.048976;0.024566;-0.998498;,
   -0.055133;0.026509;-0.998127;,
   -0.055133;0.026509;-0.998127;,
   -0.111211;0.048227;-0.992626;,
   -0.109247;0.047157;-0.992895;,
   -0.109247;0.047157;-0.992895;,
   -0.249067;0.041815;-0.967583;,
   -0.396271;0.022337;-0.917862;,
   -0.396271;0.022337;-0.917862;,
   -0.562866;-0.001153;-0.826547;,
   -0.571440;-0.002277;-0.820641;,
   -0.571440;-0.002277;-0.820641;,
   -0.609751;0.000000;-0.792593;,
   -0.609751;0.000000;-0.792593;,
   -0.609751;0.000000;-0.792593;,
   -0.571473;0.002253;-0.820618;,
   -0.016733;-0.483769;0.875036;,
   0.009500;-0.764556;0.644488;,
   -0.081529;0.000062;0.996671;,
   -0.017244;0.483820;0.874998;,
   0.003890;0.757607;0.652700;,
   -0.138170;-0.322153;0.936550;,
   -0.138170;0.322153;0.936550;,
   0.692274;-0.720704;0.036642;,
   -0.687957;-0.716079;-0.118096;,
   -0.757917;-0.641779;-0.116969;,
   0.692801;-0.720192;0.036758;,
   -0.687957;0.716079;-0.118096;,
   -0.757917;0.641779;-0.116969;,
   0.692801;0.720192;0.036758;,
   0.692274;0.720704;0.036642;,
   -0.091783;-0.960243;0.263646;,
   -0.853450;-0.505143;0.128270;,
   -0.926701;-0.365269;0.088340;,
   -0.030437;-0.963695;0.265265;,
   -0.716866;0.697127;-0.010810;,
   -0.566892;0.823758;-0.007472;,
   0.829439;0.555371;0.059948;,
   0.703336;0.709102;0.049932;,
   0.785670;-0.587952;0.192444;,
   0.863693;-0.475037;0.168449;,
   -0.570239;-0.821287;-0.017760;,
   -0.805009;0.574001;0.149944;,
   -0.885442;0.450746;0.113228;,
   -0.710682;-0.703225;-0.020133;,
   0.801842;0.566593;0.189794;,
   -0.028333;0.964087;0.264069;,
   0.730632;0.650681;0.206861;,
   -0.092656;0.960175;0.263588;,
   0.836279;-0.545191;0.058348;,
   0.710187;-0.702506;0.046050;,
   -0.190682;-0.355718;0.914935;,
   -0.309348;-0.000000;0.950949;,
   -0.190683;0.355717;0.914935;,
   0.052860;-0.893627;0.445688;,
   0.060931;0.894700;0.442492;,
   0.995582;0.000000;-0.093892;,
   0.995556;0.000000;-0.094170;,
   0.995582;0.000000;-0.093892;,
   0.995556;0.000000;-0.094170;,
   0.922082;0.000000;-0.386995;,
   0.922082;0.000000;-0.386996;,
   0.505428;0.000000;-0.862869;,
   0.505428;0.000000;-0.862869;,
   -0.093419;0.000000;-0.995627;,
   -0.093419;0.000000;-0.995627;,
   -0.367409;0.000000;-0.930060;,
   -0.367409;0.000000;-0.930059;,
   0.061863;0.993957;-0.090674;,
   0.061435;0.987075;-0.148013;,
   0.061426;0.986927;-0.149003;,
   0.061863;0.993957;-0.090674;,
   0.058068;0.932962;-0.355261;,
   0.057889;0.930089;-0.362744;,
   0.076616;0.618358;-0.782153;,
   0.076984;0.612330;-0.786845;,
   0.130510;0.147432;-0.980424;,
   0.133795;0.136324;-0.981588;,
   0.133795;-0.136324;-0.981588;,
   0.130510;-0.147432;-0.980424;,
   -0.254958;0.960088;-0.115013;,
   -0.248162;0.934498;-0.255205;,
   -0.249604;0.939926;-0.232889;,
   -0.254958;0.960088;-0.115013;,
   -0.264897;0.844008;-0.466348;,
   -0.259012;0.857716;-0.444114;,
   -0.324812;0.522468;-0.788368;,
   -0.316848;0.613661;-0.723207;,
   -0.344170;0.131085;-0.929712;,
   -0.341617;0.163980;-0.925424;,
   0.061863;-0.993957;-0.090675;,
   0.061435;-0.987075;-0.148014;,
   0.061863;-0.993957;-0.090675;,
   0.061426;-0.986927;-0.149003;,
   0.058068;-0.932962;-0.355261;,
   0.057889;-0.930089;-0.362745;,
   0.076616;-0.618358;-0.782153;,
   0.076984;-0.612329;-0.786846;,
   0.130510;-0.147432;-0.980424;,
   0.133795;-0.136324;-0.981588;,
   -0.254958;-0.960088;-0.115014;,
   -0.248162;-0.934498;-0.255205;,
   -0.254958;-0.960088;-0.115014;,
   -0.249604;-0.939926;-0.232889;,
   -0.264897;-0.844008;-0.466349;,
   -0.259012;-0.857716;-0.444114;,
   -0.326284;-0.521533;-0.788379;,
   -0.317986;-0.612419;-0.723760;,
   -0.345020;-0.131404;-0.929351;,
   -0.343003;-0.160289;-0.925558;,
   -0.341617;0.163980;-0.925424;,
   -0.344170;0.131085;-0.929712;;
   226;
   3;0,1,2;,
   3;1,0,3;,
   3;4,5,6;,
   3;7,8,9;,
   3;3,10,1;,
   3;10,3,11;,
   3;12,13,14;,
   3;13,12,15;,
   3;15,7,9;,
   3;16,11,17;,
   3;3,0,18;,
   3;0,19,18;,
   3;19,0,20;,
   3;21,15,9;,
   3;15,22,13;,
   3;12,23,16;,
   3;23,12,14;,
   3;0,24,20;,
   3;24,0,2;,
   3;25,5,21;,
   3;25,9,26;,
   3;9,25,21;,
   3;8,27,28;,
   3;27,8,7;,
   3;7,15,12;,
   3;18,29,30;,
   3;11,23,10;,
   3;23,11,16;,
   3;17,11,30;,
   3;26,8,31;,
   3;8,26,9;,
   3;28,31,8;,
   3;31,28,32;,
   3;32,33,34;,
   3;33,32,28;,
   3;21,4,22;,
   3;22,15,21;,
   3;29,18,19;,
   3;4,21,5;,
   3;35,36,37;,
   3;36,35,38;,
   3;39,6,5;,
   3;40,41,42;,
   3;43,37,36;,
   3;37,43,44;,
   3;45,46,47;,
   3;46,45,48;,
   3;48,41,40;,
   3;49,50,44;,
   3;37,51,35;,
   3;19,35,51;,
   3;35,19,20;,
   3;52,41,48;,
   3;48,45,53;,
   3;54,46,49;,
   3;46,54,47;,
   3;35,24,38;,
   3;24,35,20;,
   3;25,52,5;,
   3;25,41,52;,
   3;41,25,26;,
   3;55,42,56;,
   3;42,55,40;,
   3;40,46,48;,
   3;51,57,58;,
   3;54,44,43;,
   3;44,54,49;,
   3;50,57,44;,
   3;26,42,41;,
   3;42,26,31;,
   3;31,56,42;,
   3;56,31,32;,
   3;32,59,56;,
   3;59,32,34;,
   3;58,29,19;,
   3;52,53,39;,
   3;53,52,48;,
   3;58,19,51;,
   3;39,5,52;,
   3;60,61,62;,
   3;61,60,63;,
   3;64,65,66;,
   3;65,64,61;,
   3;67,68,69;,
   3;68,67,65;,
   3;70,71,72;,
   3;71,70,68;,
   3;73,74,75;,
   3;74,73,71;,
   3;76,77,78;,
   3;77,76,74;,
   3;79,80,81;,
   3;80,79,77;,
   3;82,83,84;,
   3;83,82,80;,
   3;85,86,87;,
   3;86,85,83;,
   3;88,89,90;,
   3;89,88,86;,
   3;91,92,93;,
   3;92,91,89;,
   3;94,95,96;,
   3;95,94,92;,
   3;97,98,99;,
   3;98,97,95;,
   3;100,101,102;,
   3;101,100,98;,
   3;103,104,105;,
   3;104,103,101;,
   3;106,107,108;,
   3;107,106,104;,
   3;109,110,111;,
   3;110,109,107;,
   3;112,63,113;,
   3;63,112,110;,
   3;50,59,114;,
   3;59,50,115;,
   3;59,116,114;,
   3;116,59,34;,
   3;33,116,34;,
   3;116,33,117;,
   3;33,17,117;,
   3;17,33,118;,
   3;57,119,58;,
   3;120,30,29;,
   3;121,122,123;,
   3;122,121,124;,
   3;123,125,126;,
   3;125,123,122;,
   3;126,127,128;,
   3;127,126,125;,
   3;128,124,121;,
   3;124,128,127;,
   3;129,130,131;,
   3;130,129,132;,
   3;131,133,134;,
   3;133,131,130;,
   3;135,134,133;,
   3;134,135,136;,
   3;136,137,138;,
   3;137,136,135;,
   3;139,140,141;,
   3;140,139,142;,
   3;143,144,145;,
   3;144,143,146;,
   3;143,147,148;,
   3;147,143,145;,
   3;147,139,148;,
   3;139,147,142;,
   3;116,149,114;,
   3;149,116,150;,
   3;151,116,117;,
   3;116,151,150;,
   3;50,119,57;,
   3;50,149,119;,
   3;114,149,50;,
   3;120,17,30;,
   3;151,17,120;,
   3;117,17,151;,
   3;57,37,44;,
   3;37,57,51;,
   3;30,3,18;,
   3;3,30,11;,
   3;150,119,149;,
   3;150,120,119;,
   3;150,151,120;,
   3;132,138,137;,
   3;138,132,129;,
   3;140,146,141;,
   3;146,140,144;,
   3;55,46,40;,
   3;46,55,152;,
   3;49,115,50;,
   3;49,152,115;,
   3;46,152,49;,
   3;27,12,153;,
   3;12,27,7;,
   3;118,16,17;,
   3;153,16,118;,
   3;153,12,16;,
   3;154,155,156;,
   3;155,154,157;,
   3;158,157,159;,
   3;157,158,155;,
   3;160,159,161;,
   3;159,160,158;,
   3;162,161,163;,
   3;161,162,160;,
   3;164,162,163;,
   3;162,164,165;,
   3;166,167,168;,
   3;167,166,169;,
   3;170,168,167;,
   3;168,170,171;,
   3;172,171,170;,
   3;171,172,173;,
   3;174,173,172;,
   3;173,174,175;,
   3;176,174,177;,
   3;174,176,175;,
   3;178,179,180;,
   3;179,178,181;,
   3;182,180,179;,
   3;180,182,183;,
   3;184,183,182;,
   3;183,184,185;,
   3;186,185,184;,
   3;185,186,187;,
   3;188,189,190;,
   3;189,188,191;,
   3;192,191,193;,
   3;191,192,189;,
   3;194,193,195;,
   3;193,194,192;,
   3;196,195,197;,
   3;195,196,194;,
   3;198,199,200;,
   3;199,198,201;,
   3;202,201,203;,
   3;201,202,199;,
   3;204,203,205;,
   3;203,204,202;,
   3;206,205,207;,
   3;205,206,204;,
   3;208,206,207;,
   3;206,208,209;;
  }

  MeshMaterialList {
   1;
   226;
   0,
   0,
   0,
   0,
   0,
   0,
   0,
   0,
   0,
   0,
   0,
   0,
   0,
   0,
   0,
   0,
   0,
   0,
   0,
   0,
   0,
   0,
   0,
   0,
   0,
   0,
   0,
   0,
   0,
   0,
   0,
   0,
   0,
   0,
   0,
   0,
   0,
   0,
   0,
   0,
   0,
   0,
   0,
   0,
   0,
   0,
   0,
   0,
   0,
   0,
   0,
   0,
   0,
   0,
   0,
   0,
   0,
   0,
   0,
   0,
   0,
   0,
   0,
   0,
   0,
   0,
   0,
   0,
   0,
   0,
   0,
   0,
   0,
   0,
   0,
   0,
   0,
   0,
   0,
   0,
   0,
   0,
   0,
   0,
   0,
   0,
   0,
   0,
   0,
   0,
   0,
   0,
   0,
   0,
   0,
   0,
   0,
   0,
   0,
   0,
   0,
   0,
   0,
   0,
   0,
   0,
   0,
   0,
   0,
   0,
   0,
   0,
   0,
   0,
   0,
   0,
   0,
   0,
   0,
   0,
   0,
   0,
   0,
   0,
   0,
   0,
   0,
   0,
   0,
   0,
   0,
   0,
   0,
   0,
   0,
   0,
   0,
   0,
   0,
   0,
   0,
   0,
   0,
   0,
   0,
   0,
   0,
   0,
   0,
   0,
   0,
   0,
   0,
   0,
   0,
   0,
   0,
   0,
   0,
   0,
   0,
   0,
   0,
   0,
   0,
   0,
   0,
   0,
   0,
   0,
   0,
   0,
   0,
   0,
   0,
   0,
   0,
   0,
   0,
   0,
   0,
   0,
   0,
   0,
   0,
   0,
   0,
   0,
   0,
   0,
   0,
   0,
   0,
   0,
   0,
   0,
   0,
   0,
   0,
   0,
   0,
   0,
   0,
   0,
   0,
   0,
   0,
   0,
   0,
   0,
   0,
   0,
   0,
   0,
   0,
   0,
   0,
   0,
   0,
   0,
   0,
   0,
   0,
   0,
   0,
   0;
   { _03_-_Defaultgggg }
  }

  MeshTextureCoords c1 {
   210;
   0.676040;0.846892;,
   0.834623;0.832013;,
   0.700441;0.899917;,
   0.763814;0.803149;,
   0.643009;0.075252;,
   0.532944;0.144595;,
   0.532849;0.063465;,
   0.688738;0.435938;,
   0.607109;0.439959;,
   0.671329;0.305862;,
   0.928305;0.684538;,
   0.827584;0.688407;,
   0.837908;0.431999;,
   0.850168;0.214983;,
   0.946359;0.403880;,
   0.756487;0.263265;,
   0.847973;0.552587;,
   0.705258;0.558231;,
   0.643305;0.792370;,
   0.533652;0.793989;,
   0.533786;0.865754;,
   0.654454;0.199758;,
   0.754756;0.121267;,
   0.958932;0.549886;,
   0.533887;0.923832;,
   0.533043;0.218137;,
   0.533185;0.334170;,
   0.691715;0.458718;,
   0.581530;0.457983;,
   0.601738;0.675988;,
   0.687383;0.678044;,
   0.533313;0.456518;,
   0.533281;0.493594;,
   0.607061;0.521372;,
   0.533299;0.525633;,
   0.391490;0.847269;,
   0.232605;0.832700;,
   0.303587;0.803800;,
   0.367285;0.900405;,
   0.422703;0.075462;,
   0.377897;0.435646;,
   0.394994;0.305881;,
   0.459550;0.439741;,
   0.138663;0.685559;,
   0.239557;0.689208;,
   0.215800;0.215717;,
   0.228748;0.433060;,
   0.119817;0.405047;,
   0.309574;0.263631;,
   0.218915;0.553545;,
   0.361650;0.558698;,
   0.424058;0.792609;,
   0.411544;0.199920;,
   0.310838;0.121944;,
   0.107965;0.551056;,
   0.375086;0.458090;,
   0.485165;0.457767;,
   0.379646;0.678386;,
   0.465350;0.676062;,
   0.459504;0.520243;,
   0.729312;0.920410;,
   0.834623;0.832013;,
   0.815153;0.866640;,
   0.700441;0.899917;,
   0.859552;0.846323;,
   0.928305;0.684538;,
   0.949119;0.712488;,
   0.963771;0.673401;,
   0.958932;0.549886;,
   0.985383;0.575188;,
   0.989861;0.535291;,
   0.946359;0.403880;,
   0.979163;0.415761;,
   0.966044;0.373670;,
   0.850168;0.214983;,
   0.886256;0.220483;,
   0.862790;0.183159;,
   0.754756;0.121267;,
   0.806725;0.118812;,
   0.764081;0.075614;,
   0.643009;0.075252;,
   0.679589;0.046684;,
   0.634724;0.031860;,
   0.532849;0.063465;,
   0.554602;0.025444;,
   0.511021;0.025486;,
   0.422703;0.075462;,
   0.430912;0.032054;,
   0.385906;0.047107;,
   0.310838;0.121944;,
   0.301276;0.076361;,
   0.258846;0.119574;,
   0.215800;0.215717;,
   0.203179;0.183849;,
   0.179736;0.221131;,
   0.119817;0.405047;,
   0.100654;0.374224;,
   0.087126;0.416693;,
   0.107965;0.551056;,
   0.076946;0.536955;,
   0.081455;0.576212;,
   0.138663;0.685559;,
   0.103193;0.674302;,
   0.117874;0.713485;,
   0.232605;0.832700;,
   0.206912;0.848089;,
   0.252582;0.868448;,
   0.367285;0.900405;,
   0.338576;0.921066;,
   0.388721;0.932979;,
   0.533887;0.923832;,
   0.501453;0.956455;,
   0.566424;0.956359;,
   0.679088;0.932555;,
   0.457841;0.566841;,
   0.359511;0.502471;,
   0.533405;0.585014;,
   0.609021;0.566729;,
   0.707214;0.504612;,
   0.467006;0.655481;,
   0.599914;0.655381;,
   0.601738;0.675988;,
   0.599914;0.655381;,
   0.599914;0.655381;,
   0.601738;0.675988;,
   0.467006;0.655481;,
   0.467006;0.655481;,
   0.465350;0.676062;,
   0.465350;0.676062;,
   0.726494;0.477254;,
   0.691715;0.458718;,
   0.691715;0.458718;,
   0.726494;0.477254;,
   0.581530;0.457983;,
   0.581530;0.457983;,
   0.607061;0.521372;,
   0.607061;0.521372;,
   0.707214;0.504612;,
   0.707214;0.504612;,
   0.485165;0.457767;,
   0.375086;0.458090;,
   0.375086;0.458090;,
   0.485165;0.457767;,
   0.359511;0.502471;,
   0.351634;0.478135;,
   0.359511;0.502471;,
   0.351634;0.478135;,
   0.459504;0.520243;,
   0.459504;0.520243;,
   0.470139;0.619310;,
   0.533456;0.626368;,
   0.596776;0.619205;,
   0.351634;0.478135;,
   0.726494;0.477254;,
   0.070595;0.017956;,
   0.023633;0.114365;,
   0.022590;0.017956;,
   0.070595;0.114365;,
   0.024038;0.307183;,
   0.070595;0.307183;,
   0.024533;0.500000;,
   0.070595;0.500000;,
   0.022744;0.768030;,
   0.070595;0.768325;,
   0.070595;0.982044;,
   0.023020;0.982044;,
   0.022590;0.017956;,
   0.070595;0.114365;,
   0.023633;0.114365;,
   0.070595;0.017956;,
   0.070595;0.307183;,
   0.024038;0.307183;,
   0.070595;0.500000;,
   0.024533;0.500000;,
   0.070595;0.821044;,
   0.022962;0.821925;,
   0.023020;0.982044;,
   0.070595;0.982044;,
   0.022590;0.017956;,
   0.070595;0.114365;,
   0.023633;0.114365;,
   0.070595;0.017956;,
   0.070595;0.500000;,
   0.024533;0.500000;,
   0.070595;0.768325;,
   0.022744;0.768030;,
   0.070595;0.982044;,
   0.023020;0.982044;,
   0.023020;0.982044;,
   0.070595;0.768325;,
   0.070595;0.982044;,
   0.022744;0.768030;,
   0.070595;0.370552;,
   0.024038;0.370552;,
   0.070595;0.187266;,
   0.023633;0.187266;,
   0.070595;0.017956;,
   0.022590;0.017956;,
   0.070595;0.017956;,
   0.023633;0.114365;,
   0.022590;0.017956;,
   0.070595;0.114365;,
   0.024038;0.307183;,
   0.070595;0.307183;,
   0.024533;0.500000;,
   0.070595;0.500000;,
   0.022744;0.768030;,
   0.070595;0.768325;,
   0.070595;0.982044;,
   0.023020;0.982044;;
  }
 }
}