xof 0303txt 0032
template ColorRGBA {
 <35ff44e0-6c7c-11cf-8f52-0040333594a3>
 FLOAT red;
 FLOAT green;
 FLOAT blue;
 FLOAT alpha;
}

template ColorRGB {
 <d3e16e81-7835-11cf-8f52-0040333594a3>
 FLOAT red;
 FLOAT green;
 FLOAT blue;
}

template Material {
 <3d82ab4d-62da-11cf-ab39-0020af71e433>
 ColorRGBA faceColor;
 FLOAT power;
 ColorRGB specularColor;
 ColorRGB emissiveColor;
 [...]
}

template TextureFilename {
 <a42790e1-7810-11cf-8f52-0040333594a3>
 STRING filename;
}

template Frame {
 <3d82ab46-62da-11cf-ab39-0020af71e433>
 [...]
}

template Matrix4x4 {
 <f6f23f45-7686-11cf-8f52-0040333594a3>
 array FLOAT matrix[16];
}

template FrameTransformMatrix {
 <f6f23f41-7686-11cf-8f52-0040333594a3>
 Matrix4x4 frameMatrix;
}

template Vector {
 <3d82ab5e-62da-11cf-ab39-0020af71e433>
 FLOAT x;
 FLOAT y;
 FLOAT z;
}

template MeshFace {
 <3d82ab5f-62da-11cf-ab39-0020af71e433>
 DWORD nFaceVertexIndices;
 array DWORD faceVertexIndices[nFaceVertexIndices];
}

template Mesh {
 <3d82ab44-62da-11cf-ab39-0020af71e433>
 DWORD nVertices;
 array Vector vertices[nVertices];
 DWORD nFaces;
 array MeshFace faces[nFaces];
 [...]
}

template MeshNormals {
 <f6f23f43-7686-11cf-8f52-0040333594a3>
 DWORD nNormals;
 array Vector normals[nNormals];
 DWORD nFaceNormals;
 array MeshFace faceNormals[nFaceNormals];
}

template MeshMaterialList {
 <f6f23f42-7686-11cf-8f52-0040333594a3>
 DWORD nMaterials;
 DWORD nFaceIndexes;
 array DWORD faceIndexes[nFaceIndexes];
 [Material <3d82ab4d-62da-11cf-ab39-0020af71e433>]
}

template Coords2d {
 <f6f23f44-7686-11cf-8f52-0040333594a3>
 FLOAT u;
 FLOAT v;
}

template MeshTextureCoords {
 <f6f23f40-7686-11cf-8f52-0040333594a3>
 DWORD nTextureCoords;
 array Coords2d textureCoords[nTextureCoords];
}


Material Material__78 {
 1.000000;1.000000;1.000000;1.000000;;
 9.999999;
 0.000000;0.000000;0.000000;;
 0.000000;0.000000;0.000000;;

 TextureFilename {
  "IceHockeyHelmet.png";
 }
}

Frame Dummy005 {
 

 FrameTransformMatrix {
  1.000001,0.000000,-0.000000,0.000000,0.000000,1.000001,0.000000,0.000000,-0.000001,-0.000001,1.000000,0.000000,-0.000000,0.000000,0.000000,1.000000;;
 }

 Frame M_HockeyHelmet {
  

  FrameTransformMatrix {
   1.000000,0.000000,-0.000000,0.000000,0.000000,1.000000,0.000000,0.000000,-0.000000,0.000000,1.000000,0.000000,0.000000,0.000000,0.000000,1.000000;;
  }

  Mesh M_HockeyHelmet {
   304;
   0.160021;-0.000007;-0.001310;,
   0.154479;-0.026353;-0.040524;,
   0.154479;-0.000007;-0.045314;,
   0.154479;-0.037956;-0.017183;,
   0.154479;-0.037956;0.024788;,
   0.154479;-0.023301;0.046317;,
   0.154479;-0.000007;0.055626;,
   0.134519;-0.000006;-0.069024;,
   0.154479;-0.026353;-0.040524;,
   0.134519;-0.035541;-0.057827;,
   0.154479;-0.000007;-0.045314;,
   0.134519;-0.047767;-0.033073;,
   0.154479;-0.026353;-0.040524;,
   0.154479;-0.037956;-0.017183;,
   0.134519;-0.035541;-0.057827;,
   0.154479;-0.037956;-0.017183;,
   0.136195;-0.053534;-0.001798;,
   0.134519;-0.047767;-0.033073;,
   0.154479;-0.037956;0.024788;,
   0.136084;-0.046337;0.030001;,
   0.136084;-0.027726;0.053886;,
   0.154479;-0.037956;0.024788;,
   0.154479;-0.023301;0.046317;,
   0.136084;-0.046337;0.030001;,
   0.136654;-0.000007;0.062449;,
   0.154479;-0.000007;0.055626;,
   0.069472;-0.000007;-0.076230;,
   0.070116;-0.043581;-0.061535;,
   0.102728;-0.057571;-0.041321;,
   0.070116;-0.043581;-0.061535;,
   0.132830;-0.061495;-0.001341;,
   0.105434;-0.069015;-0.001027;,
   0.105374;-0.063812;0.037062;,
   0.132830;-0.058398;0.034969;,
   0.107101;-0.040603;0.070386;,
   0.132830;-0.058398;0.034969;,
   0.132830;-0.034943;0.068695;,
   0.105374;-0.063812;0.037062;,
   0.106943;-0.000007;0.082793;,
   0.132830;-0.000007;0.079323;,
   0.075752;-0.062596;-0.023714;,
   0.102908;-0.067289;-0.001448;,
   0.089945;-0.063553;-0.011742;,
   0.085650;-0.061812;0.021882;,
   0.102818;-0.062166;0.035099;,
   0.154479;0.026341;-0.040524;,
   0.154479;0.037943;-0.017183;,
   0.154479;0.037943;0.024788;,
   0.154479;0.023293;0.046317;,
   0.154479;0.026341;-0.040524;,
   0.134519;0.035529;-0.057827;,
   0.154479;0.026341;-0.040524;,
   0.134519;0.047754;-0.033073;,
   0.154479;0.037943;-0.017183;,
   0.134519;0.035529;-0.057827;,
   0.136195;0.053521;-0.001798;,
   0.154479;0.037943;-0.017183;,
   0.134519;0.047754;-0.033073;,
   0.154479;0.037943;0.024788;,
   0.136084;0.046325;0.030001;,
   0.154479;0.037943;0.024788;,
   0.136084;0.027717;0.053886;,
   0.154479;0.023293;0.046317;,
   0.136084;0.046325;0.030001;,
   0.070116;0.043569;-0.061535;,
   0.102728;0.057558;-0.041321;,
   0.070116;0.043569;-0.061535;,
   0.105434;0.069002;-0.001027;,
   0.132830;0.061482;-0.001341;,
   0.105374;0.063800;0.037062;,
   0.132830;0.058386;0.034969;,
   0.132830;0.058386;0.034969;,
   0.107101;0.040608;0.070422;,
   0.132830;0.034934;0.068695;,
   0.105374;0.063800;0.037062;,
   0.075752;0.062582;-0.023714;,
   0.102908;0.067276;-0.001448;,
   0.089945;0.063538;-0.011742;,
   0.085651;0.061798;0.021882;,
   0.102818;0.062154;0.035099;,
   0.111174;0.001475;-0.038825;,
   0.045626;0.000014;-0.070469;,
   0.045448;-0.035734;-0.056026;,
   0.075580;-0.054934;-0.021621;,
   0.083975;-0.051871;0.021860;,
   0.089380;-0.034293;0.060855;,
   0.089212;0.000013;0.074838;,
   0.045448;0.034638;-0.055771;,
   0.075580;0.054956;-0.021621;,
   0.089380;0.034323;0.060887;,
   0.083974;0.051892;0.021860;,
   0.045626;0.000014;-0.070469;,
   0.047169;-0.040084;-0.058608;,
   0.045448;-0.035734;-0.056026;,
   0.047376;-0.000006;-0.074155;,
   0.039968;-0.053370;-0.016010;,
   0.041117;-0.060846;-0.017106;,
   0.075580;-0.054934;-0.021621;,
   0.089945;-0.063553;-0.011742;,
   0.088471;-0.059461;-0.010739;,
   0.075752;-0.062596;-0.023714;,
   0.045448;0.034638;-0.055771;,
   0.047458;0.039030;-0.058608;,
   0.039966;0.052186;-0.016021;,
   0.041114;0.059626;-0.017117;,
   0.088471;0.059483;-0.010739;,
   0.075752;0.062582;-0.023714;,
   0.075580;0.054956;-0.021621;,
   0.089945;0.063538;-0.011742;,
   0.089380;0.034323;0.060887;,
   0.085651;0.061798;0.021882;,
   0.083974;0.051892;0.021860;,
   0.092440;0.040017;0.068541;,
   0.089212;0.000013;0.074838;,
   0.092260;-0.000007;0.082844;,
   0.089380;-0.034293;0.060855;,
   0.092440;-0.040013;0.068505;,
   0.083975;-0.051871;0.021860;,
   0.085650;-0.061812;0.021882;,
   0.047169;-0.040084;-0.058608;,
   0.047376;-0.000006;-0.074155;,
   0.047458;0.039030;-0.058608;,
   0.045448;-0.035734;-0.056026;,
   0.039968;-0.053370;-0.016010;,
   0.075580;-0.054934;-0.021621;,
   0.075580;0.054956;-0.021621;,
   0.039966;0.052186;-0.016021;,
   0.045448;0.034638;-0.055771;,
   0.088471;0.059483;-0.010739;,
   0.088471;-0.059461;-0.010739;,
   0.076696;-0.058786;0.007763;,
   0.089945;-0.063553;-0.011742;,
   0.085650;-0.061812;0.021882;,
   0.076700;0.058014;0.007762;,
   0.085651;0.061798;0.021882;,
   0.089945;0.063538;-0.011742;,
   0.089945;-0.063553;-0.011742;,
   0.075363;-0.051408;0.008159;,
   0.088471;-0.059461;-0.010739;,
   0.076696;-0.058786;0.007763;,
   0.075580;-0.054934;-0.021621;,
   0.045631;-0.063169;-0.012308;,
   0.075752;-0.062596;-0.023714;,
   0.045459;-0.054886;-0.010215;,
   0.083975;-0.051871;0.021860;,
   0.088471;-0.059461;-0.010739;,
   0.075363;-0.051408;0.008159;,
   0.075752;0.062582;-0.023714;,
   0.045456;0.054537;-0.010226;,
   0.075580;0.054956;-0.021621;,
   0.045628;0.062780;-0.012319;,
   0.088471;0.059483;-0.010739;,
   0.076700;0.058014;0.007762;,
   0.089945;0.063538;-0.011742;,
   0.075367;0.049343;0.008158;,
   0.075367;0.049343;0.008158;,
   0.088471;0.059483;-0.010739;,
   0.083974;0.051892;0.021860;,
   0.041117;-0.060846;-0.017106;,
   0.075752;-0.062596;-0.023714;,
   0.045631;-0.063169;-0.012308;,
   0.045628;0.062780;-0.012319;,
   0.075752;0.062582;-0.023714;,
   0.041114;0.059626;-0.017117;,
   0.045459;-0.054886;-0.010215;,
   0.075580;-0.054934;-0.021621;,
   0.039968;-0.053370;-0.016010;,
   0.039966;0.052186;-0.016021;,
   0.075580;0.054956;-0.021621;,
   0.045456;0.054537;-0.010226;,
   0.025722;-0.050936;0.013786;,
   0.030668;-0.053936;0.003996;,
   0.023313;-0.058419;0.013796;,
   0.083975;-0.051871;0.021860;,
   0.025722;-0.050936;0.013786;,
   0.085650;-0.061812;0.021882;,
   0.030504;-0.060709;0.004006;,
   0.023313;-0.058419;0.013796;,
   0.030668;-0.053936;0.003996;,
   0.030504;-0.060709;0.004006;,
   0.030657;0.052113;0.003949;,
   0.026023;0.051085;0.013882;,
   0.030493;0.060356;0.003959;,
   0.030657;0.052113;0.003949;,
   0.023407;0.059664;0.013891;,
   0.030493;0.060356;0.003959;,
   0.026023;0.051085;0.013882;,
   0.085651;0.061798;0.021882;,
   0.023407;0.059664;0.013891;,
   0.083974;0.051892;0.021860;,
   0.021922;-0.050392;0.002161;,
   0.041117;-0.060846;-0.017106;,
   0.019400;-0.056693;0.002083;,
   0.039968;-0.053370;-0.016010;,
   0.021922;-0.050392;0.002161;,
   0.019400;-0.056693;0.002083;,
   0.019388;0.057736;0.002036;,
   0.039966;0.052186;-0.016021;,
   0.022119;0.050337;0.002114;,
   0.041114;0.059626;-0.017117;,
   0.019388;0.057736;0.002036;,
   0.022119;0.050337;0.002114;,
   0.000240;-0.044616;0.028625;,
   0.005817;-0.037726;0.028615;,
   0.001250;-0.037999;0.015455;,
   -0.003874;-0.042890;0.018668;,
   -0.003874;-0.042890;0.018668;,
   0.000240;-0.044616;0.028625;,
   0.005817;-0.037726;0.028615;,
   0.001250;-0.037999;0.015455;,
   0.004910;0.032677;0.028367;,
   0.000115;0.039973;0.028376;,
   -0.004097;0.038044;0.018760;,
   0.000246;0.031113;0.015547;,
   0.000115;0.039973;0.028376;,
   -0.004097;0.038044;0.018760;,
   0.000246;0.031113;0.015547;,
   0.004910;0.032677;0.028367;,
   -0.015474;-0.016644;0.038649;,
   -0.009487;-0.012659;0.038639;,
   -0.012198;-0.012115;0.029313;,
   -0.018038;-0.014918;0.029234;,
   -0.018038;-0.014918;0.029234;,
   -0.015474;-0.016644;0.038649;,
   -0.009487;-0.012659;0.038639;,
   -0.012198;-0.012115;0.029313;,
   -0.009387;0.012790;0.038389;,
   -0.015010;0.016754;0.038398;,
   -0.017672;0.014826;0.029324;,
   -0.012197;0.012043;0.029403;,
   -0.015010;0.016754;0.038398;,
   -0.017672;0.014826;0.029324;,
   -0.012197;0.012043;0.029403;,
   -0.009387;0.012790;0.038389;,
   -0.015010;0.016754;0.038398;,
   -0.009487;-0.012659;0.038639;,
   -0.009387;0.012790;0.038389;,
   -0.015474;-0.016644;0.038649;,
   -0.015474;-0.016644;0.038649;,
   -0.017672;0.014826;0.029324;,
   -0.018038;-0.014918;0.029234;,
   -0.015010;0.016754;0.038398;,
   -0.018038;-0.014918;0.029234;,
   -0.012197;0.012043;0.029403;,
   -0.012198;-0.012115;0.029313;,
   -0.017672;0.014826;0.029324;,
   -0.012197;0.012043;0.029403;,
   -0.009487;-0.012659;0.038639;,
   -0.012198;-0.012115;0.029313;,
   -0.009387;0.012790;0.038389;,
   0.092440;-0.040013;0.068505;,
   0.102818;-0.062166;0.035099;,
   0.104545;-0.037509;0.063810;,
   0.085650;-0.061812;0.021882;,
   0.092440;0.040017;0.068541;,
   0.102818;0.062154;0.035099;,
   0.085651;0.061798;0.021882;,
   0.104545;0.037513;0.063847;,
   0.092260;-0.000007;0.082844;,
   0.104387;-0.000007;0.081774;,
   0.136195;-0.053534;-0.001798;,
   0.132830;-0.061495;-0.001341;,
   0.134519;-0.047767;-0.033073;,
   0.102728;-0.057571;-0.041321;,
   0.105434;-0.069015;-0.001027;,
   0.102908;-0.067289;-0.001448;,
   0.105374;-0.063812;0.037062;,
   0.102818;-0.062166;0.035099;,
   0.102818;-0.062166;0.035099;,
   0.107101;-0.040603;0.070386;,
   0.104545;-0.037509;0.063810;,
   0.105374;-0.063812;0.037062;,
   0.106943;-0.000007;0.082793;,
   0.104387;-0.000007;0.081774;,
   0.107101;0.040608;0.070422;,
   0.104545;0.037513;0.063847;,
   0.105374;0.063800;0.037062;,
   0.102818;0.062154;0.035099;,
   0.102818;0.062154;0.035099;,
   0.105434;0.069002;-0.001027;,
   0.102908;0.067276;-0.001448;,
   0.105374;0.063800;0.037062;,
   0.102728;0.057558;-0.041321;,
   0.134519;0.047754;-0.033073;,
   0.132830;0.061482;-0.001341;,
   0.136195;0.053521;-0.001798;,
   0.132830;0.058386;0.034969;,
   0.136084;0.046325;0.030001;,
   0.136084;0.046325;0.030001;,
   0.132830;0.034934;0.068695;,
   0.136084;0.027717;0.053886;,
   0.132830;0.058386;0.034969;,
   0.132830;-0.000007;0.079323;,
   0.136654;-0.000007;0.062449;,
   0.132830;-0.034943;0.068695;,
   0.136084;-0.027726;0.053886;,
   0.132830;-0.058398;0.034969;,
   0.136084;-0.046337;0.030001;,
   0.136084;-0.046337;0.030001;,
   0.132830;-0.058398;0.034969;,
   0.041117;-0.060846;-0.017106;,
   0.047169;-0.040084;-0.058608;,
   0.041114;0.059626;-0.017117;,
   0.047458;0.039030;-0.058608;;
   236;
   3;0,1,2;,
   3;0,3,1;,
   3;0,4,3;,
   3;0,5,4;,
   3;0,6,5;,
   3;7,8,9;,
   3;8,7,10;,
   3;11,12,13;,
   3;12,11,14;,
   3;15,16,17;,
   3;16,18,19;,
   3;18,16,15;,
   3;20,21,22;,
   3;21,20,23;,
   3;24,22,25;,
   3;22,24,20;,
   3;26,9,27;,
   3;9,26,7;,
   3;14,28,29;,
   3;28,14,11;,
   3;28,30,31;,
   3;30,28,11;,
   3;32,30,33;,
   3;30,32,31;,
   3;34,35,36;,
   3;35,34,37;,
   3;38,36,39;,
   3;36,38,34;,
   3;40,41,42;,
   3;41,40,28;,
   3;43,41,44;,
   3;41,43,42;,
   3;0,2,45;,
   3;0,45,46;,
   3;0,46,47;,
   3;0,47,48;,
   3;0,48,6;,
   3;7,49,10;,
   3;49,7,50;,
   3;51,52,53;,
   3;52,51,54;,
   3;55,56,57;,
   3;55,58,56;,
   3;58,55,59;,
   3;60,61,62;,
   3;61,60,63;,
   3;62,24,25;,
   3;24,62,61;,
   3;26,50,7;,
   3;50,26,64;,
   3;65,54,66;,
   3;54,65,52;,
   3;52,67,68;,
   3;67,52,65;,
   3;68,69,70;,
   3;69,68,67;,
   3;71,72,73;,
   3;72,71,74;,
   3;73,38,39;,
   3;38,73,72;,
   3;75,76,65;,
   3;76,75,77;,
   3;76,78,79;,
   3;78,76,77;,
   3;80,81,82;,
   3;80,82,83;,
   3;80,84,85;,
   3;80,85,86;,
   3;80,87,81;,
   3;80,88,87;,
   3;80,89,90;,
   3;80,86,89;,
   3;91,92,93;,
   3;92,91,94;,
   3;95,92,96;,
   3;92,95,93;,
   3;97,98,99;,
   3;98,97,100;,
   3;101,94,91;,
   3;94,101,102;,
   3;103,102,101;,
   3;102,103,104;,
   3;105,106,107;,
   3;106,105,108;,
   3;109,110,111;,
   3;110,109,112;,
   3;113,112,109;,
   3;112,113,114;,
   3;115,114,113;,
   3;114,115,116;,
   3;117,116,115;,
   3;116,117,118;,
   3;119,26,27;,
   3;26,119,120;,
   3;121,26,120;,
   3;26,121,64;,
   3;122,123,124;,
   3;125,126,127;,
   3;88,80,128;,
   3;129,80,83;,
   3;130,131,132;,
   3;133,134,135;,
   3;136,137,138;,
   3;137,136,139;,
   3;140,141,142;,
   3;141,140,143;,
   3;144,145,146;,
   3;147,148,149;,
   3;148,147,150;,
   3;151,152,153;,
   3;152,151,154;,
   3;155,156,157;,
   3;158,159,160;,
   3;161,162,163;,
   3;164,165,166;,
   3;167,168,169;,
   3;170,146,171;,
   3;146,170,144;,
   3;172,173,174;,
   3;173,172,175;,
   3;176,132,177;,
   3;132,176,130;,
   3;178,139,179;,
   3;139,178,137;,
   3;180,157,181;,
   3;157,180,155;,
   3;182,154,183;,
   3;154,182,152;,
   3;184,133,185;,
   3;133,184,134;,
   3;186,187,188;,
   3;187,186,189;,
   3;190,191,192;,
   3;191,190,193;,
   3;171,166,194;,
   3;166,171,164;,
   3;179,143,178;,
   3;143,179,141;,
   3;195,160,176;,
   3;160,195,158;,
   3;196,197,198;,
   3;197,196,199;,
   3;185,163,200;,
   3;163,185,161;,
   3;183,150,182;,
   3;150,183,148;,
   3;201,169,180;,
   3;169,201,167;,
   3;195,176,177;,
   3;170,171,194;,
   3;174,202,172;,
   3;202,174,203;,
   3;192,204,190;,
   3;204,192,205;,
   3;177,206,195;,
   3;206,177,207;,
   3;194,208,170;,
   3;208,194,209;,
   3;184,185,200;,
   3;201,180,181;,
   3;188,210,186;,
   3;210,188,211;,
   3;198,212,196;,
   3;212,198,213;,
   3;200,214,184;,
   3;214,200,215;,
   3;181,216,201;,
   3;216,181,217;,
   3;203,218,202;,
   3;218,203,219;,
   3;205,220,204;,
   3;220,205,221;,
   3;207,222,206;,
   3;222,207,223;,
   3;209,224,208;,
   3;224,209,225;,
   3;211,226,210;,
   3;226,211,227;,
   3;213,228,212;,
   3;228,213,229;,
   3;215,230,214;,
   3;230,215,231;,
   3;217,232,216;,
   3;232,217,233;,
   3;234,235,236;,
   3;235,234,237;,
   3;238,239,240;,
   3;239,238,241;,
   3;242,243,244;,
   3;243,242,245;,
   3;246,247,248;,
   3;247,246,249;,
   3;128,80,90;,
   3;84,80,129;,
   3;250,251,252;,
   3;251,250,253;,
   3;254,255,256;,
   3;255,254,257;,
   3;257,258,259;,
   3;258,257,254;,
   3;259,250,252;,
   3;250,259,258;,
   3;260,261,262;,
   3;263,264,265;,
   3;265,266,267;,
   3;266,265,264;,
   3;268,269,270;,
   3;269,268,271;,
   3;270,272,273;,
   3;272,270,269;,
   3;273,274,275;,
   3;274,273,272;,
   3;275,276,277;,
   3;276,275,274;,
   3;278,279,280;,
   3;279,278,281;,
   3;280,279,282;,
   3;283,284,285;,
   3;285,286,287;,
   3;286,285,284;,
   3;288,289,290;,
   3;289,288,291;,
   3;290,292,293;,
   3;292,290,289;,
   3;293,294,295;,
   3;294,293,292;,
   3;295,296,297;,
   3;296,295,294;,
   3;298,261,260;,
   3;261,298,299;,
   3;29,300,301;,
   3;300,29,28;,
   3;300,28,40;,
   3;302,66,303;,
   3;66,302,65;,
   3;75,65,302;;

   MeshNormals {
    304;
    0.999954;-0.000001;-0.009600;,
    0.860855;-0.337920;-0.380445;,
    0.904065;-0.000002;-0.427396;,
    0.934535;-0.327381;-0.139520;,
    0.992342;-0.116308;0.041583;,
    0.994385;-0.063562;0.084609;,
    0.995297;-0.000003;0.096870;,
    0.428321;-0.000001;-0.903627;,
    0.860855;-0.337920;-0.380445;,
    0.435584;-0.542521;-0.718288;,
    0.904065;-0.000002;-0.427396;,
    0.466850;-0.801851;-0.372943;,
    0.860855;-0.337920;-0.380445;,
    0.934535;-0.327381;-0.139520;,
    0.435584;-0.542521;-0.718288;,
    0.595614;-0.797116;-0.099248;,
    0.582889;-0.812395;-0.015990;,
    0.545679;-0.818403;-0.180142;,
    0.505101;-0.801359;0.320464;,
    0.470714;-0.794386;0.383900;,
    0.443440;-0.521882;0.728698;,
    0.505101;-0.801359;0.320464;,
    0.410379;-0.563287;0.717145;,
    0.470714;-0.794386;0.383900;,
    0.393859;-0.000024;0.919171;,
    0.357506;-0.000043;0.933911;,
    -0.010670;0.001567;-0.999942;,
    -0.067677;-0.637725;-0.767285;,
    0.134701;-0.873465;-0.467883;,
    -0.067677;-0.637725;-0.767285;,
    0.275993;-0.954499;-0.112957;,
    0.263116;-0.961738;-0.076357;,
    0.220625;-0.916134;0.334698;,
    0.209005;-0.920986;0.328787;,
    0.181230;-0.604648;0.775601;,
    0.209005;-0.920986;0.328787;,
    0.175863;-0.555437;0.812750;,
    0.220625;-0.916134;0.334698;,
    0.132657;-0.000195;0.991162;,
    0.132867;-0.000020;0.991134;,
    -0.095083;-0.924256;-0.369743;,
    -0.185734;-0.982544;-0.010463;,
    -0.622378;-0.517055;0.587622;,
    -0.195637;-0.974955;0.105776;,
    -0.219327;-0.898615;0.379984;,
    0.860854;0.337929;-0.380440;,
    0.934536;0.327383;-0.139508;,
    0.992342;0.116314;0.041574;,
    0.994386;0.063562;0.084601;,
    0.860854;0.337929;-0.380440;,
    0.435582;0.542527;-0.718284;,
    0.860854;0.337929;-0.380440;,
    0.452012;0.815605;-0.361212;,
    0.934536;0.327383;-0.139508;,
    0.435582;0.542527;-0.718284;,
    0.582902;0.812385;-0.015995;,
    0.595623;0.797110;-0.099247;,
    0.545689;0.818397;-0.180141;,
    0.505110;0.801375;0.320410;,
    0.470750;0.794389;0.383850;,
    0.505110;0.801375;0.320410;,
    0.443429;0.521906;0.728687;,
    0.410351;0.563351;0.717111;,
    0.470750;0.794389;0.383850;,
    -0.081677;0.642237;-0.762142;,
    0.140227;0.877293;-0.459014;,
    -0.081677;0.642237;-0.762142;,
    0.287196;0.952497;-0.101331;,
    0.247382;0.957728;-0.146828;,
    0.220625;0.916275;0.334313;,
    0.209222;0.921046;0.328482;,
    0.209222;0.921046;0.328482;,
    0.182302;0.604283;0.775634;,
    0.176945;0.555127;0.812726;,
    0.220625;0.916275;0.334313;,
    -0.121616;0.905722;-0.406051;,
    -0.185827;0.982527;-0.010476;,
    -0.628066;0.514177;0.584085;,
    -0.212749;0.973470;0.084231;,
    -0.219205;0.898829;0.379546;,
    -0.870614;-0.012961;0.491797;,
    -0.434691;-0.003333;0.900574;,
    -0.447858;0.428258;0.784869;,
    -0.461378;0.512090;0.724496;,
    -0.927944;0.358948;-0.100376;,
    -0.971501;0.187379;-0.145172;,
    -0.981840;0.000465;-0.189709;,
    -0.426195;-0.441071;0.789819;,
    -0.442986;-0.527911;0.724620;,
    -0.970509;-0.188754;-0.149945;,
    -0.922294;-0.372188;-0.104162;,
    -0.904062;0.009457;-0.427296;,
    -0.938196;-0.192914;-0.287354;,
    -0.932642;-0.185049;-0.309736;,
    -0.904065;0.006144;-0.427352;,
    -0.970707;-0.127283;-0.203781;,
    -0.972098;-0.119796;-0.201681;,
    -0.644496;-0.243331;0.724855;,
    -0.663443;-0.344329;0.664290;,
    -0.669614;-0.395378;0.628724;,
    -0.637991;-0.216195;0.739072;,
    -0.920611;0.209454;-0.329553;,
    -0.927584;0.213628;-0.306516;,
    -0.969016;0.129338;-0.210430;,
    -0.970897;0.119313;-0.207664;,
    -0.625233;0.351502;0.696800;,
    -0.663931;0.240217;0.708161;,
    -0.672692;0.209931;0.709517;,
    -0.608459;0.391978;0.690023;,
    -0.952619;0.162126;0.257355;,
    -0.962864;0.168633;0.210847;,
    -0.964727;0.162774;0.206898;,
    -0.950062;0.158191;0.268994;,
    -0.936043;-0.009208;0.351765;,
    -0.936569;-0.005500;0.350440;,
    -0.950927;-0.164724;0.261924;,
    -0.952572;-0.151079;0.264164;,
    -0.961987;-0.166061;0.216808;,
    -0.962905;-0.161861;0.215907;,
    -0.180420;-0.647417;-0.740473;,
    -0.093463;0.004048;-0.995615;,
    -0.207653;0.637161;-0.742230;,
    0.104801;0.904657;0.413053;,
    0.138505;0.960596;0.240980;,
    0.099780;0.920973;0.376634;,
    0.132451;-0.910365;0.392037;,
    0.179183;-0.944373;0.275777;,
    0.135318;-0.899376;0.415707;,
    -0.861265;-0.450710;0.234700;,
    -0.867777;0.434490;0.241208;,
    -0.125422;-0.983389;-0.131210;,
    -0.622378;-0.517055;0.587622;,
    -0.195637;-0.974955;0.105776;,
    -0.182840;0.975037;-0.125985;,
    -0.212749;0.973470;0.084231;,
    -0.628066;0.514177;0.584085;,
    -0.840775;-0.164085;-0.515921;,
    -0.319772;-0.009745;-0.947444;,
    -0.842492;-0.178912;-0.508131;,
    -0.512667;-0.050316;-0.857112;,
    0.347342;-0.237148;0.907256;,
    0.516380;-0.201143;0.832402;,
    0.347790;-0.239744;0.906402;,
    0.559480;-0.177598;0.809593;,
    0.157913;0.985246;-0.065977;,
    0.323632;0.930421;-0.171986;,
    0.158099;0.983780;-0.084742;,
    0.341360;0.238707;0.909116;,
    0.535795;0.198484;0.820687;,
    0.340371;0.241720;0.908691;,
    0.503038;0.186706;0.843857;,
    -0.837968;0.165567;-0.519998;,
    -0.517962;0.044662;-0.854237;,
    -0.836815;0.175954;-0.518440;,
    -0.318590;0.010512;-0.947834;,
    0.184466;-0.980583;0.066552;,
    0.475227;-0.869157;-0.136844;,
    0.203778;-0.978738;0.023374;,
    -0.210605;-0.929768;-0.301955;,
    -0.095083;-0.924256;-0.369743;,
    -0.206682;-0.942904;-0.261178;,
    -0.264195;0.901115;-0.343792;,
    -0.121616;0.905722;-0.406051;,
    -0.241160;0.906507;-0.346536;,
    0.112625;0.982200;0.150330;,
    0.099780;0.920973;0.376634;,
    0.138505;0.960596;0.240980;,
    0.179183;-0.944373;0.275777;,
    0.132451;-0.910365;0.392037;,
    0.173089;-0.961767;0.212238;,
    0.313766;0.936813;-0.154700;,
    0.213864;0.974772;-0.063890;,
    0.183026;-0.061580;0.981178;,
    -0.130157;-0.015155;0.991378;,
    0.166546;-0.069519;0.983580;,
    -0.129665;-0.019695;0.991362;,
    -0.221869;-0.974958;-0.015177;,
    -0.339758;-0.938562;0.060553;,
    0.914454;-0.013843;-0.404453;,
    0.969658;-0.065639;-0.235488;,
    0.134336;-0.990925;-0.004642;,
    0.342496;-0.933992;-0.101766;,
    0.966659;0.011418;-0.255813;,
    0.886893;0.057231;-0.458416;,
    -0.337858;0.940990;0.019741;,
    -0.123097;0.991595;-0.039822;,
    0.189719;0.059669;0.980024;,
    -0.135550;0.014677;0.990662;,
    0.158103;0.060153;0.985589;,
    -0.136642;0.020950;0.990399;,
    -0.542286;0.205270;-0.814733;,
    -0.695793;0.043774;-0.716907;,
    -0.543303;0.211543;-0.812448;,
    -0.710037;-0.005911;-0.704139;,
    0.409752;0.911806;-0.026715;,
    -0.396709;-0.917302;-0.034334;,
    -0.580492;-0.198008;-0.789824;,
    -0.665894;-0.046266;-0.744611;,
    -0.578401;-0.203136;-0.790056;,
    -0.660848;-0.008484;-0.750472;,
    -0.390056;0.920357;-0.028272;,
    0.380199;-0.923898;-0.043143;,
    0.345830;-0.256246;0.902629;,
    0.322503;-0.267812;0.907893;,
    -0.573374;0.084297;-0.814945;,
    -0.554798;0.097162;-0.826292;,
    -0.673132;-0.724026;0.150601;,
    -0.684345;-0.714245;0.146717;,
    0.645309;0.728269;-0.230652;,
    0.589936;0.778845;-0.213017;,
    0.355129;0.220593;0.908417;,
    0.340207;0.234292;0.910696;,
    -0.569623;0.000487;-0.821906;,
    -0.560049;-0.015535;-0.828314;,
    -0.692325;0.703946;0.158575;,
    -0.696124;0.701739;0.151568;,
    0.671920;-0.723200;-0.159706;,
    0.686346;-0.709099;-0.161576;,
    0.120690;-0.161218;0.979511;,
    0.074469;-0.108360;0.991319;,
    -0.082810;0.123984;-0.988823;,
    -0.070363;0.174709;-0.982103;,
    -0.941267;-0.254742;0.221637;,
    -0.937575;-0.280639;0.205414;,
    0.922332;0.279522;-0.266780;,
    0.921756;0.295773;-0.250768;,
    0.099467;0.119948;0.987785;,
    0.126832;0.178761;0.975683;,
    -0.178952;-0.233472;-0.955755;,
    -0.097023;-0.217800;-0.971159;,
    -0.923357;0.315473;0.218836;,
    -0.936304;0.278353;0.214138;,
    0.898964;-0.358989;-0.250981;,
    0.908008;-0.331388;-0.256327;,
    0.126832;0.178761;0.975683;,
    0.074469;-0.108360;0.991319;,
    0.099467;0.119948;0.987785;,
    0.120690;-0.161218;0.979511;,
    -0.937575;-0.280639;0.205414;,
    -0.936304;0.278353;0.214138;,
    -0.941267;-0.254742;0.221637;,
    -0.923357;0.315473;0.218836;,
    -0.070363;0.174709;-0.982103;,
    -0.097023;-0.217800;-0.971159;,
    -0.082810;0.123984;-0.988823;,
    -0.178952;-0.233472;-0.955755;,
    0.898964;-0.358989;-0.250981;,
    0.922332;0.279522;-0.266780;,
    0.921756;0.295773;-0.250768;,
    0.908008;-0.331388;-0.256327;,
    0.280923;-0.604095;0.745756;,
    -0.219327;-0.898615;0.379984;,
    0.396953;-0.569832;0.719528;,
    -0.195637;-0.974955;0.105776;,
    0.312308;0.569806;0.760122;,
    -0.219205;0.898829;0.379546;,
    -0.212749;0.973470;0.084231;,
    0.372333;0.544009;0.751946;,
    0.122127;0.039826;0.991715;,
    0.121497;0.042832;0.991667;,
    0.920598;-0.390135;-0.017164;,
    0.928606;-0.370970;-0.008508;,
    0.911785;-0.392372;-0.121212;,
    -0.530000;-0.824427;-0.198544;,
    -0.561230;-0.827343;-0.022903;,
    -0.556734;-0.828521;-0.060004;,
    -0.673145;-0.667779;0.317721;,
    -0.667920;-0.704351;0.240361;,
    -0.667920;-0.704351;0.240361;,
    -0.938792;-0.169700;0.299788;,
    -0.937870;-0.180973;0.296054;,
    -0.673145;-0.667779;0.317721;,
    -0.415551;-0.060483;0.907557;,
    -0.409129;-0.072867;0.909563;,
    -0.934895;0.204087;0.290378;,
    -0.936294;0.223171;0.271199;,
    -0.701734;0.626200;0.339769;,
    -0.658638;0.702489;0.269639;,
    -0.658638;0.702489;0.269639;,
    -0.562059;0.826813;-0.021693;,
    -0.556256;0.828918;-0.058945;,
    -0.701734;0.626200;0.339769;,
    -0.529963;0.824449;-0.198550;,
    0.911777;0.392390;-0.121215;,
    0.919948;0.390731;-0.032010;,
    0.925597;0.376091;-0.042722;,
    0.967242;0.233892;0.098684;,
    0.971145;0.216717;0.099555;,
    0.971145;0.216717;0.099555;,
    0.980067;0.110234;0.165278;,
    0.979277;0.121627;0.161935;,
    0.967242;0.233892;0.098684;,
    0.976563;0.004997;0.215176;,
    0.976434;0.009389;0.215614;,
    0.979095;-0.119617;0.164515;,
    0.979002;-0.134286;0.153373;,
    0.971289;-0.221939;0.085682;,
    0.967611;-0.234044;0.094612;,
    0.967611;-0.234044;0.094612;,
    0.971289;-0.221939;0.085682;,
    -0.210605;-0.929768;-0.301955;,
    -0.180420;-0.647417;-0.740473;,
    -0.241160;0.906507;-0.346536;,
    -0.207653;0.637161;-0.742230;;
    236;
    3;0,1,2;,
    3;0,3,1;,
    3;0,4,3;,
    3;0,5,4;,
    3;0,6,5;,
    3;7,8,9;,
    3;8,7,10;,
    3;11,12,13;,
    3;12,11,14;,
    3;15,16,17;,
    3;16,18,19;,
    3;18,16,15;,
    3;20,21,22;,
    3;21,20,23;,
    3;24,22,25;,
    3;22,24,20;,
    3;26,9,27;,
    3;9,26,7;,
    3;14,28,29;,
    3;28,14,11;,
    3;28,30,31;,
    3;30,28,11;,
    3;32,30,33;,
    3;30,32,31;,
    3;34,35,36;,
    3;35,34,37;,
    3;38,36,39;,
    3;36,38,34;,
    3;40,41,42;,
    3;41,40,28;,
    3;43,41,44;,
    3;41,43,42;,
    3;0,2,45;,
    3;0,45,46;,
    3;0,46,47;,
    3;0,47,48;,
    3;0,48,6;,
    3;7,49,10;,
    3;49,7,50;,
    3;51,52,53;,
    3;52,51,54;,
    3;55,56,57;,
    3;55,58,56;,
    3;58,55,59;,
    3;60,61,62;,
    3;61,60,63;,
    3;62,24,25;,
    3;24,62,61;,
    3;26,50,7;,
    3;50,26,64;,
    3;65,54,66;,
    3;54,65,52;,
    3;52,67,68;,
    3;67,52,65;,
    3;68,69,70;,
    3;69,68,67;,
    3;71,72,73;,
    3;72,71,74;,
    3;73,38,39;,
    3;38,73,72;,
    3;75,76,65;,
    3;76,75,77;,
    3;76,78,79;,
    3;78,76,77;,
    3;80,81,82;,
    3;80,82,83;,
    3;80,84,85;,
    3;80,85,86;,
    3;80,87,81;,
    3;80,88,87;,
    3;80,89,90;,
    3;80,86,89;,
    3;91,92,93;,
    3;92,91,94;,
    3;95,92,96;,
    3;92,95,93;,
    3;97,98,99;,
    3;98,97,100;,
    3;101,94,91;,
    3;94,101,102;,
    3;103,102,101;,
    3;102,103,104;,
    3;105,106,107;,
    3;106,105,108;,
    3;109,110,111;,
    3;110,109,112;,
    3;113,112,109;,
    3;112,113,114;,
    3;115,114,113;,
    3;114,115,116;,
    3;117,116,115;,
    3;116,117,118;,
    3;119,26,27;,
    3;26,119,120;,
    3;121,26,120;,
    3;26,121,64;,
    3;122,123,124;,
    3;125,126,127;,
    3;88,80,128;,
    3;129,80,83;,
    3;130,131,132;,
    3;133,134,135;,
    3;136,137,138;,
    3;137,136,139;,
    3;140,141,142;,
    3;141,140,143;,
    3;144,145,146;,
    3;147,148,149;,
    3;148,147,150;,
    3;151,152,153;,
    3;152,151,154;,
    3;155,156,157;,
    3;158,159,160;,
    3;161,162,163;,
    3;164,165,166;,
    3;167,168,169;,
    3;170,146,171;,
    3;146,170,144;,
    3;172,173,174;,
    3;173,172,175;,
    3;176,132,177;,
    3;132,176,130;,
    3;178,139,179;,
    3;139,178,137;,
    3;180,157,181;,
    3;157,180,155;,
    3;182,154,183;,
    3;154,182,152;,
    3;184,133,185;,
    3;133,184,134;,
    3;186,187,188;,
    3;187,186,189;,
    3;190,191,192;,
    3;191,190,193;,
    3;171,166,194;,
    3;166,171,164;,
    3;179,143,178;,
    3;143,179,141;,
    3;195,160,176;,
    3;160,195,158;,
    3;196,197,198;,
    3;197,196,199;,
    3;185,163,200;,
    3;163,185,161;,
    3;183,150,182;,
    3;150,183,148;,
    3;201,169,180;,
    3;169,201,167;,
    3;195,176,177;,
    3;170,171,194;,
    3;174,202,172;,
    3;202,174,203;,
    3;192,204,190;,
    3;204,192,205;,
    3;177,206,195;,
    3;206,177,207;,
    3;194,208,170;,
    3;208,194,209;,
    3;184,185,200;,
    3;201,180,181;,
    3;188,210,186;,
    3;210,188,211;,
    3;198,212,196;,
    3;212,198,213;,
    3;200,214,184;,
    3;214,200,215;,
    3;181,216,201;,
    3;216,181,217;,
    3;203,218,202;,
    3;218,203,219;,
    3;205,220,204;,
    3;220,205,221;,
    3;207,222,206;,
    3;222,207,223;,
    3;209,224,208;,
    3;224,209,225;,
    3;211,226,210;,
    3;226,211,227;,
    3;213,228,212;,
    3;228,213,229;,
    3;215,230,214;,
    3;230,215,231;,
    3;217,232,216;,
    3;232,217,233;,
    3;234,235,236;,
    3;235,234,237;,
    3;238,239,240;,
    3;239,238,241;,
    3;242,243,244;,
    3;243,242,245;,
    3;246,247,248;,
    3;247,246,249;,
    3;128,80,90;,
    3;84,80,129;,
    3;250,251,252;,
    3;251,250,253;,
    3;254,255,256;,
    3;255,254,257;,
    3;257,258,259;,
    3;258,257,254;,
    3;259,250,252;,
    3;250,259,258;,
    3;260,261,262;,
    3;263,264,265;,
    3;265,266,267;,
    3;266,265,264;,
    3;268,269,270;,
    3;269,268,271;,
    3;270,272,273;,
    3;272,270,269;,
    3;273,274,275;,
    3;274,273,272;,
    3;275,276,277;,
    3;276,275,274;,
    3;278,279,280;,
    3;279,278,281;,
    3;280,279,282;,
    3;283,284,285;,
    3;285,286,287;,
    3;286,285,284;,
    3;288,289,290;,
    3;289,288,291;,
    3;290,292,293;,
    3;292,290,289;,
    3;293,294,295;,
    3;294,293,292;,
    3;295,296,297;,
    3;296,295,294;,
    3;298,261,260;,
    3;261,298,299;,
    3;29,300,301;,
    3;300,29,28;,
    3;300,28,40;,
    3;302,66,303;,
    3;66,302,65;,
    3;75,65,302;;
   }

   MeshMaterialList {
    1;
    236;
    0,
    0,
    0,
    0,
    0,
    0,
    0,
    0,
    0,
    0,
    0,
    0,
    0,
    0,
    0,
    0,
    0,
    0,
    0,
    0,
    0,
    0,
    0,
    0,
    0,
    0,
    0,
    0,
    0,
    0,
    0,
    0,
    0,
    0,
    0,
    0,
    0,
    0,
    0,
    0,
    0,
    0,
    0,
    0,
    0,
    0,
    0,
    0,
    0,
    0,
    0,
    0,
    0,
    0,
    0,
    0,
    0,
    0,
    0,
    0,
    0,
    0,
    0,
    0,
    0,
    0,
    0,
    0,
    0,
    0,
    0,
    0,
    0,
    0,
    0,
    0,
    0,
    0,
    0,
    0,
    0,
    0,
    0,
    0,
    0,
    0,
    0,
    0,
    0,
    0,
    0,
    0,
    0,
    0,
    0,
    0,
    0,
    0,
    0,
    0,
    0,
    0,
    0,
    0,
    0,
    0,
    0,
    0,
    0,
    0,
    0,
    0,
    0,
    0,
    0,
    0,
    0,
    0,
    0,
    0,
    0,
    0,
    0,
    0,
    0,
    0,
    0,
    0,
    0,
    0,
    0,
    0,
    0,
    0,
    0,
    0,
    0,
    0,
    0,
    0,
    0,
    0,
    0,
    0,
    0,
    0,
    0,
    0,
    0,
    0,
    0,
    0,
    0,
    0,
    0,
    0,
    0,
    0,
    0,
    0,
    0,
    0,
    0,
    0,
    0,
    0,
    0,
    0,
    0,
    0,
    0,
    0,
    0,
    0,
    0,
    0,
    0,
    0,
    0,
    0,
    0,
    0,
    0,
    0,
    0,
    0,
    0,
    0,
    0,
    0,
    0,
    0,
    0,
    0,
    0,
    0,
    0,
    0,
    0,
    0,
    0,
    0,
    0,
    0,
    0,
    0,
    0,
    0,
    0,
    0,
    0,
    0,
    0,
    0,
    0,
    0,
    0,
    0,
    0,
    0,
    0,
    0,
    0,
    0,
    0,
    0,
    0,
    0,
    0,
    0,
    0,
    0,
    0,
    0,
    0,
    0;
    { Material__78 }
   }

   MeshTextureCoords c1 {
    304;
    0.361333;0.476852;,
    0.268977;0.364975;,
    0.361333;0.351311;,
    0.228303;0.431567;,
    0.228303;0.551309;,
    0.279675;0.612733;,
    0.361333;0.639290;,
    0.804777;0.590588;,
    0.692863;0.500582;,
    0.658032;0.593308;,
    0.804604;0.500582;,
    0.159451;0.114058;,
    0.121943;0.025492;,
    0.227445;0.025492;,
    0.055255;0.116031;,
    0.227445;0.025492;,
    0.296989;0.092612;,
    0.159451;0.114058;,
    0.417155;0.025492;,
    0.440720;0.093081;,
    0.214809;0.752764;,
    0.136244;0.684889;,
    0.231125;0.684889;,
    0.096321;0.752764;,
    0.317022;0.750660;,
    0.317021;0.684889;,
    0.805824;0.874845;,
    0.623284;0.872297;,
    0.118341;0.242865;,
    0.040359;0.377068;,
    0.299051;0.123083;,
    0.300470;0.231498;,
    0.472636;0.231750;,
    0.463175;0.123688;,
    0.167327;0.892846;,
    0.038864;0.797916;,
    0.188199;0.797916;,
    0.013075;0.899218;,
    0.317022;0.893430;,
    0.317021;0.797916;,
    0.213053;0.356174;,
    0.298569;0.242110;,
    0.272240;0.302691;,
    0.403956;0.313703;,
    0.463761;0.242488;,
    0.453693;0.364975;,
    0.494411;0.431574;,
    0.494362;0.551309;,
    0.443010;0.612733;,
    0.916349;0.500582;,
    0.950304;0.594568;,
    0.122155;0.023553;,
    0.159535;0.113285;,
    0.228101;0.019902;,
    0.054154;0.115280;,
    0.296337;0.092143;,
    0.228101;0.019902;,
    0.159535;0.113285;,
    0.415910;0.023553;,
    0.439359;0.092910;,
    0.497797;0.684889;,
    0.419249;0.752764;,
    0.402938;0.684889;,
    0.537726;0.752764;,
    0.982835;0.873350;,
    0.118571;0.243332;,
    0.033060;0.380112;,
    0.299801;0.231839;,
    0.298389;0.123627;,
    0.471117;0.232094;,
    0.461703;0.123627;,
    0.595182;0.797916;,
    0.466783;0.892847;,
    0.445862;0.797916;,
    0.620972;0.899218;,
    0.212816;0.357895;,
    0.297910;0.242568;,
    0.271710;0.303820;,
    0.401992;0.313740;,
    0.464102;0.242950;,
    0.631435;0.316143;,
    0.629032;0.276432;,
    0.576573;0.294565;,
    0.538625;0.341933;,
    0.536246;0.385319;,
    0.576120;0.437582;,
    0.629030;0.454861;,
    0.686000;0.294876;,
    0.719431;0.341933;,
    0.681948;0.437622;,
    0.723012;0.385603;,
    0.572626;0.027061;,
    0.531594;0.036318;,
    0.536045;0.038333;,
    0.572606;0.024184;,
    0.512801;0.069891;,
    0.509336;0.070621;,
    0.518834;0.069699;,
    0.510119;0.084741;,
    0.514257;0.085488;,
    0.511086;0.068141;,
    0.608057;0.038532;,
    0.612552;0.036318;,
    0.630791;0.068608;,
    0.631385;0.069242;,
    0.634525;0.085488;,
    0.637658;0.068140;,
    0.629948;0.069699;,
    0.638625;0.084741;,
    0.607735;0.129584;,
    0.635463;0.098114;,
    0.624949;0.098724;,
    0.613340;0.135321;,
    0.572625;0.140473;,
    0.572605;0.146722;,
    0.537520;0.129560;,
    0.531647;0.135661;,
    0.520324;0.098422;,
    0.509867;0.098454;,
    0.634627;0.977047;,
    0.804605;0.976126;,
    0.970167;0.975763;,
    0.576573;0.294565;,
    0.524946;0.338555;,
    0.538625;0.341933;,
    0.719431;0.341933;,
    0.721002;0.319783;,
    0.686000;0.294876;,
    0.726879;0.356998;,
    0.531177;0.356998;,
    0.826082;0.103082;,
    0.746141;0.063459;,
    0.896141;0.077288;,
    0.826075;0.103070;,
    0.901783;0.071988;,
    0.746141;0.063459;,
    0.746141;0.063459;,
    0.828186;0.107564;,
    0.751475;0.068413;,
    0.826082;0.103082;,
    0.687650;0.106834;,
    0.719373;0.207498;,
    0.676523;0.106256;,
    0.730500;0.208076;,
    0.896542;0.080134;,
    0.751475;0.068413;,
    0.828186;0.107564;,
    0.676523;0.106256;,
    0.730440;0.208084;,
    0.687650;0.106835;,
    0.719313;0.207505;,
    0.751475;0.068413;,
    0.826075;0.103070;,
    0.746141;0.063459;,
    0.828183;0.107552;,
    0.828183;0.107552;,
    0.751475;0.068413;,
    0.897917;0.079407;,
    0.673597;0.209236;,
    0.676523;0.106256;,
    0.719373;0.207498;,
    0.719313;0.207505;,
    0.676523;0.106256;,
    0.688062;0.229206;,
    0.730500;0.208076;,
    0.687650;0.106834;,
    0.693889;0.232951;,
    0.693901;0.224825;,
    0.687650;0.106835;,
    0.730440;0.208084;,
    0.858103;0.274413;,
    0.806053;0.257787;,
    0.858155;0.282509;,
    0.896542;0.080134;,
    0.858103;0.274413;,
    0.896141;0.077288;,
    0.806106;0.258340;,
    0.858155;0.282509;,
    0.806053;0.257787;,
    0.806106;0.258340;,
    0.805803;0.257826;,
    0.858613;0.273401;,
    0.805856;0.258378;,
    0.805803;0.257826;,
    0.858662;0.282195;,
    0.805856;0.258378;,
    0.858613;0.273401;,
    0.901783;0.071988;,
    0.858662;0.282195;,
    0.897917;0.079407;,
    0.796301;0.287184;,
    0.673597;0.209236;,
    0.795883;0.295664;,
    0.693889;0.232951;,
    0.796301;0.287184;,
    0.795883;0.295664;,
    0.795633;0.295702;,
    0.693901;0.224825;,
    0.796051;0.286524;,
    0.688062;0.229206;,
    0.795633;0.295702;,
    0.796051;0.286524;,
    0.936996;0.360061;,
    0.936944;0.341317;,
    0.866979;0.356665;,
    0.884060;0.373889;,
    0.884060;0.373889;,
    0.936996;0.360061;,
    0.936944;0.341317;,
    0.866979;0.356665;,
    0.935626;0.344364;,
    0.935675;0.360482;,
    0.884548;0.374639;,
    0.867466;0.360041;,
    0.935675;0.360482;,
    0.884548;0.374639;,
    0.867466;0.360041;,
    0.935626;0.344364;,
    0.990291;0.412876;,
    0.990238;0.392753;,
    0.940656;0.401867;,
    0.940238;0.421496;,
    0.940238;0.421496;,
    0.990291;0.412876;,
    0.990238;0.392753;,
    0.940656;0.401867;,
    0.988910;0.392418;,
    0.988960;0.411317;,
    0.940715;0.420267;,
    0.941133;0.401862;,
    0.988960;0.411317;,
    0.940715;0.420267;,
    0.941133;0.401862;,
    0.988910;0.392418;,
    0.817336;0.391835;,
    0.788522;0.364434;,
    0.813453;0.363915;,
    0.784618;0.394251;,
    0.784618;0.394251;,
    0.815447;0.413769;,
    0.786308;0.415674;,
    0.817336;0.391835;,
    0.786308;0.415674;,
    0.812720;0.385255;,
    0.789055;0.385263;,
    0.815447;0.413769;,
    0.812720;0.385255;,
    0.788522;0.364434;,
    0.789055;0.385263;,
    0.813453;0.363915;,
    0.172408;0.951134;,
    0.020918;0.913954;,
    0.178736;0.907581;,
    -0.023470;0.972465;,
    0.462055;0.951211;,
    0.613129;0.913954;,
    0.660603;0.968583;,
    0.455370;0.907582;,
    0.317021;0.952909;,
    0.317022;0.908165;,
    0.296989;0.092612;,
    0.299051;0.123083;,
    0.159451;0.114058;,
    0.118341;0.242865;,
    0.300470;0.231498;,
    0.298569;0.242110;,
    0.472636;0.231750;,
    0.463761;0.242488;,
    0.020918;0.913954;,
    0.167327;0.892846;,
    0.178736;0.907581;,
    0.013075;0.899218;,
    0.317022;0.893430;,
    0.317022;0.908165;,
    0.466783;0.892847;,
    0.455370;0.907582;,
    0.620972;0.899218;,
    0.613129;0.913954;,
    0.464102;0.242950;,
    0.299801;0.231839;,
    0.297910;0.242568;,
    0.471117;0.232094;,
    0.118571;0.243332;,
    0.159535;0.113285;,
    0.298389;0.123627;,
    0.296337;0.092143;,
    0.461703;0.123627;,
    0.439359;0.092910;,
    0.537726;0.752764;,
    0.445862;0.797916;,
    0.419249;0.752764;,
    0.595182;0.797916;,
    0.317021;0.797916;,
    0.317022;0.750660;,
    0.188199;0.797916;,
    0.214809;0.752764;,
    0.038864;0.797916;,
    0.096321;0.752764;,
    0.440720;0.093081;,
    0.463175;0.123688;,
    0.215524;0.505030;,
    0.040260;0.477656;,
    0.211895;0.506235;,
    0.040017;0.477914;;
   }
  }
 }
}