xof 0303txt 0032
template ColorRGBA {
 <35ff44e0-6c7c-11cf-8f52-0040333594a3>
 FLOAT red;
 FLOAT green;
 FLOAT blue;
 FLOAT alpha;
}

template ColorRGB {
 <d3e16e81-7835-11cf-8f52-0040333594a3>
 FLOAT red;
 FLOAT green;
 FLOAT blue;
}

template Material {
 <3d82ab4d-62da-11cf-ab39-0020af71e433>
 ColorRGBA faceColor;
 FLOAT power;
 ColorRGB specularColor;
 ColorRGB emissiveColor;
 [...]
}

template TextureFilename {
 <a42790e1-7810-11cf-8f52-0040333594a3>
 STRING filename;
}

template Frame {
 <3d82ab46-62da-11cf-ab39-0020af71e433>
 [...]
}

template Matrix4x4 {
 <f6f23f45-7686-11cf-8f52-0040333594a3>
 array FLOAT matrix[16];
}

template FrameTransformMatrix {
 <f6f23f41-7686-11cf-8f52-0040333594a3>
 Matrix4x4 frameMatrix;
}

template Vector {
 <3d82ab5e-62da-11cf-ab39-0020af71e433>
 FLOAT x;
 FLOAT y;
 FLOAT z;
}

template MeshFace {
 <3d82ab5f-62da-11cf-ab39-0020af71e433>
 DWORD nFaceVertexIndices;
 array DWORD faceVertexIndices[nFaceVertexIndices];
}

template Mesh {
 <3d82ab44-62da-11cf-ab39-0020af71e433>
 DWORD nVertices;
 array Vector vertices[nVertices];
 DWORD nFaces;
 array MeshFace faces[nFaces];
 [...]
}

template MeshNormals {
 <f6f23f43-7686-11cf-8f52-0040333594a3>
 DWORD nNormals;
 array Vector normals[nNormals];
 DWORD nFaceNormals;
 array MeshFace faceNormals[nFaceNormals];
}

template MeshMaterialList {
 <f6f23f42-7686-11cf-8f52-0040333594a3>
 DWORD nMaterials;
 DWORD nFaceIndexes;
 array DWORD faceIndexes[nFaceIndexes];
 [Material <3d82ab4d-62da-11cf-ab39-0020af71e433>]
}

template Coords2d {
 <f6f23f44-7686-11cf-8f52-0040333594a3>
 FLOAT u;
 FLOAT v;
}

template MeshTextureCoords {
 <f6f23f40-7686-11cf-8f52-0040333594a3>
 DWORD nTextureCoords;
 array Coords2d textureCoords[nTextureCoords];
}


Material _06_-_Defaultssss {
 1.000000;1.000000;1.000000;1.000000;;
 9.999999;
 0.000000;0.000000;0.000000;;
 0.000000;0.000000;0.000000;;

 TextureFilename {
  "SantaHat_Red.png";
 }
}

Frame M_SantaHat {
 

 FrameTransformMatrix {
  1.000000,0.000000,-0.000000,0.000000,-0.000000,1.000000,0.000000,0.000000,0.000000,-0.000000,1.000000,0.000000,0.000000,0.000000,0.000000,1.000000;;
 }

 Mesh M_SantaHat {
  148;
  0.127179;-0.031005;-0.070427;,
  0.151283;0.000104;-0.071513;,
  0.158163;-0.017672;-0.064443;,
  0.125904;-0.000000;-0.079833;,
  0.130664;-0.053703;-0.044728;,
  0.165330;-0.035486;-0.043548;,
  0.135423;-0.062011;-0.009623;,
  0.170865;-0.042006;-0.014428;,
  0.140183;-0.053703;0.025482;,
  0.173284;-0.035486;0.015114;,
  0.143667;-0.031005;0.051181;,
  0.171939;-0.017672;0.037163;,
  0.144943;-0.000000;0.060587;,
  0.167190;0.000104;0.045810;,
  0.143667;0.031005;0.051181;,
  0.163826;0.025031;0.038263;,
  0.140183;0.053703;0.025482;,
  0.160914;0.043355;0.016791;,
  0.135423;0.062011;-0.009623;,
  0.156938;0.050062;-0.012540;,
  0.130664;0.053703;-0.044728;,
  0.156938;0.050062;-0.012540;,
  0.152961;0.043355;-0.041871;,
  0.135423;0.062011;-0.009623;,
  0.127179;0.031006;-0.070427;,
  0.150050;0.025031;-0.063342;,
  0.082442;-0.035181;-0.071725;,
  0.123651;-0.000000;-0.085944;,
  0.124466;-0.034192;-0.076416;,
  0.084176;-0.000000;-0.082410;,
  0.086035;-0.060935;-0.042536;,
  0.129450;-0.059222;-0.047780;,
  0.093569;-0.070362;-0.002663;,
  0.135759;-0.068384;-0.009363;,
  0.095850;-0.060935;0.037211;,
  0.138794;-0.059222;0.029350;,
  0.100583;-0.035181;0.066400;,
  0.144003;-0.034192;0.057689;,
  0.104704;-0.000000;0.077084;,
  0.145279;-0.000000;0.068063;,
  0.099442;0.035181;0.066400;,
  0.141781;0.034192;0.057689;,
  0.095850;0.060935;0.037211;,
  0.140519;0.059222;0.029350;,
  0.092656;0.070362;-0.002663;,
  0.134045;0.068384;-0.009363;,
  0.087768;0.060935;-0.042536;,
  0.134045;0.068384;-0.009363;,
  0.129267;0.059222;-0.048076;,
  0.092656;0.070362;-0.002663;,
  0.082442;0.035181;-0.071725;,
  0.123749;0.034192;-0.076416;,
  0.200515;0.000716;-0.018187;,
  0.191157;0.002393;-0.043735;,
  0.196298;0.002393;0.007931;,
  0.179522;0.019489;0.017841;,
  0.171902;0.028564;0.004739;,
  0.169020;0.032346;-0.014550;,
  0.166761;0.028153;-0.033180;,
  0.169020;0.032346;-0.014550;,
  0.170617;0.019489;-0.047837;,
  0.178194;0.033898;-0.040794;,
  0.188282;0.035203;-0.031280;,
  0.193040;0.036008;-0.017170;,
  0.191363;0.035203;-0.002717;,
  0.184950;0.033898;0.009034;,
  0.174991;0.033133;0.006183;,
  0.169020;0.032346;-0.014550;,
  0.169866;0.033133;-0.036971;,
  0.169020;0.032346;-0.014550;,
  0.165450;0.059047;-0.028190;,
  0.172525;0.064087;-0.016636;,
  0.165457;0.059047;-0.005640;,
  0.158382;0.054006;-0.017194;,
  0.158382;0.054006;-0.017194;,
  0.145645;0.082897;-0.017288;,
  0.142339;0.077474;-0.023212;,
  0.141151;0.077760;-0.011376;,
  0.138484;0.072548;-0.017187;,
  0.138484;0.072548;-0.017187;,
  0.082442;-0.035181;-0.071725;,
  0.082442;0.035181;-0.071725;,
  0.084176;-0.000000;-0.082410;,
  0.087768;0.060935;-0.042536;,
  0.086035;-0.060935;-0.042536;,
  0.092656;0.070362;-0.002663;,
  0.093569;-0.070362;-0.002663;,
  0.095850;-0.060935;0.037211;,
  0.099442;0.035181;0.066400;,
  0.100583;-0.035181;0.066400;,
  0.104704;-0.000000;0.077084;,
  0.095850;0.060935;0.037211;,
  0.127179;-0.031005;-0.070427;,
  0.125904;-0.000000;-0.079833;,
  0.127179;0.031006;-0.070427;,
  0.130664;0.053703;-0.044728;,
  0.135423;0.062011;-0.009623;,
  0.135423;0.062011;-0.009623;,
  0.140183;0.053703;0.025482;,
  0.143667;0.031005;0.051181;,
  0.144943;-0.000000;0.060587;,
  0.143667;-0.031005;0.051181;,
  0.140183;-0.053703;0.025482;,
  0.135423;-0.062011;-0.009623;,
  0.130664;-0.053703;-0.044728;,
  0.145480;0.075754;-0.018089;,
  0.132353;0.068191;-0.031838;,
  0.138531;0.080300;-0.036786;,
  0.145480;0.075754;-0.018089;,
  0.129798;0.062630;-0.018730;,
  0.145480;0.075754;-0.018089;,
  0.132363;0.066875;-0.005140;,
  0.145480;0.075754;-0.018089;,
  0.138545;0.078439;0.000971;,
  0.145480;0.075754;-0.018089;,
  0.144722;0.090548;-0.003978;,
  0.145480;0.075754;-0.018089;,
  0.147277;0.096109;-0.017086;,
  0.145480;0.075754;-0.018089;,
  0.144712;0.091864;-0.030675;,
  0.145480;0.075754;-0.018089;,
  0.138531;0.080300;-0.036786;,
  0.113032;0.072289;-0.037171;,
  0.121768;0.089414;-0.044169;,
  0.109419;0.064425;-0.018634;,
  0.113046;0.070428;0.000585;,
  0.121788;0.086782;0.009227;,
  0.130524;0.103907;0.002229;,
  0.134137;0.111771;-0.016309;,
  0.130510;0.105768;-0.035527;,
  0.121768;0.089414;-0.044169;,
  0.098834;0.085648;-0.030965;,
  0.105012;0.097757;-0.035913;,
  0.096279;0.080087;-0.017857;,
  0.098844;0.084332;-0.004267;,
  0.105026;0.095896;0.001844;,
  0.111203;0.108005;-0.003104;,
  0.113758;0.113566;-0.016213;,
  0.111193;0.109321;-0.029802;,
  0.105012;0.097757;-0.035913;,
  0.098077;0.100442;-0.016854;,
  0.098077;0.100442;-0.016854;,
  0.098077;0.100442;-0.016854;,
  0.098077;0.100442;-0.016854;,
  0.098077;0.100442;-0.016854;,
  0.098077;0.100442;-0.016854;,
  0.098077;0.100442;-0.016854;,
  0.098077;0.100442;-0.016854;;
  184;
  3;0,1,2;,
  3;1,0,3;,
  3;4,2,5;,
  3;2,4,0;,
  3;6,5,7;,
  3;5,6,4;,
  3;8,7,9;,
  3;7,8,6;,
  3;10,9,11;,
  3;9,10,8;,
  3;12,11,13;,
  3;11,12,10;,
  3;14,13,15;,
  3;13,14,12;,
  3;16,15,17;,
  3;15,16,14;,
  3;18,17,19;,
  3;17,18,16;,
  3;20,21,22;,
  3;21,20,23;,
  3;24,22,25;,
  3;22,24,20;,
  3;3,25,1;,
  3;25,3,24;,
  3;26,27,28;,
  3;27,26,29;,
  3;30,28,31;,
  3;28,30,26;,
  3;32,31,33;,
  3;31,32,30;,
  3;34,33,35;,
  3;33,34,32;,
  3;36,35,37;,
  3;35,36,34;,
  3;38,37,39;,
  3;37,38,36;,
  3;40,39,41;,
  3;39,40,38;,
  3;42,41,43;,
  3;41,42,40;,
  3;44,43,45;,
  3;43,44,42;,
  3;46,47,48;,
  3;47,46,49;,
  3;50,48,51;,
  3;48,50,46;,
  3;29,51,27;,
  3;51,29,50;,
  3;5,52,7;,
  3;52,5,53;,
  3;7,54,9;,
  3;54,7,52;,
  3;13,55,15;,
  3;56,15,55;,
  3;15,56,17;,
  3;17,57,19;,
  3;57,17,56;,
  3;21,58,22;,
  3;58,21,59;,
  3;25,58,60;,
  3;58,25,22;,
  3;25,60,1;,
  3;61,53,60;,
  3;53,61,62;,
  3;53,63,52;,
  3;63,53,62;,
  3;54,63,64;,
  3;63,54,52;,
  3;54,65,55;,
  3;65,54,64;,
  3;55,65,66;,
  3;56,66,67;,
  3;66,56,55;,
  3;58,68,60;,
  3;68,58,69;,
  3;60,68,61;,
  3;62,61,70;,
  3;62,71,63;,
  3;71,62,70;,
  3;64,71,72;,
  3;71,64,63;,
  3;65,64,72;,
  3;66,65,72;,
  3;67,66,72;,
  3;67,72,73;,
  3;69,74,70;,
  3;68,69,70;,
  3;61,68,70;,
  3;75,70,76;,
  3;70,75,71;,
  3;75,72,71;,
  3;72,75,77;,
  3;72,78,73;,
  3;78,72,77;,
  3;74,76,70;,
  3;76,74,79;,
  3;80,81,82;,
  3;80,83,81;,
  3;84,83,80;,
  3;84,85,83;,
  3;86,85,84;,
  3;87,85,86;,
  3;88,89,90;,
  3;91,89,88;,
  3;85,89,91;,
  3;87,89,85;,
  3;92,27,93;,
  3;27,92,28;,
  3;93,51,94;,
  3;51,93,27;,
  3;94,48,95;,
  3;48,94,51;,
  3;95,47,96;,
  3;47,95,48;,
  3;97,43,98;,
  3;43,97,45;,
  3;98,41,99;,
  3;41,98,43;,
  3;99,39,100;,
  3;39,99,41;,
  3;100,37,101;,
  3;37,100,39;,
  3;101,35,102;,
  3;35,101,37;,
  3;102,33,103;,
  3;33,102,35;,
  3;103,31,104;,
  3;31,103,33;,
  3;104,28,92;,
  3;28,104,31;,
  3;105,106,107;,
  3;108,109,106;,
  3;110,111,109;,
  3;112,113,111;,
  3;114,115,113;,
  3;116,117,115;,
  3;118,119,117;,
  3;120,121,119;,
  3;122,107,106;,
  3;107,122,123;,
  3;124,106,109;,
  3;106,124,122;,
  3;125,109,111;,
  3;109,125,124;,
  3;126,111,113;,
  3;111,126,125;,
  3;127,113,115;,
  3;113,127,126;,
  3;128,115,117;,
  3;115,128,127;,
  3;129,117,119;,
  3;117,129,128;,
  3;130,119,121;,
  3;119,130,129;,
  3;131,123,122;,
  3;123,131,132;,
  3;133,122,124;,
  3;122,133,131;,
  3;134,124,125;,
  3;124,134,133;,
  3;135,125,126;,
  3;125,135,134;,
  3;136,126,127;,
  3;126,136,135;,
  3;137,127,128;,
  3;127,137,136;,
  3;138,128,129;,
  3;128,138,137;,
  3;139,129,130;,
  3;129,139,138;,
  3;140,132,131;,
  3;141,131,133;,
  3;142,133,134;,
  3;143,134,135;,
  3;144,135,136;,
  3;145,136,137;,
  3;146,137,138;,
  3;147,138,139;,
  3;53,1,60;,
  3;53,2,1;,
  3;53,5,2;,
  3;54,11,9;,
  3;54,13,11;,
  3;54,55,13;;

  MeshNormals {
   148;
   0.368319;-0.496989;-0.785712;,
   0.430114;0.056955;-0.900976;,
   0.486325;-0.381537;-0.786077;,
   0.323236;0.010082;-0.946265;,
   0.433612;-0.775629;-0.458673;,
   0.579840;-0.667599;-0.467009;,
   0.485946;-0.871315;-0.068314;,
   0.663003;-0.743868;-0.084185;,
   0.529404;-0.783188;0.326110;,
   0.704972;-0.651616;0.280020;,
   0.551831;-0.495200;0.671014;,
   0.697186;-0.364034;0.617585;,
   0.550510;0.001858;0.834826;,
   0.669327;0.051200;0.741201;,
   0.558279;0.488798;0.670374;,
   0.679632;0.474928;0.559057;,
   0.525531;0.782876;0.333051;,
   0.693148;0.676864;0.247791;,
   0.475989;0.876954;-0.066230;,
   0.646997;0.757479;-0.087290;,
   0.422965;0.779427;-0.462163;,
   0.646997;0.757479;-0.087290;,
   0.600512;0.676174;-0.426818;,
   0.475989;0.876954;-0.066230;,
   0.375232;0.477935;-0.794216;,
   0.498503;0.472780;-0.726618;,
   -0.076489;-0.545429;-0.834659;,
   0.486402;0.002934;-0.873730;,
   0.473095;-0.437982;-0.764429;,
   -0.093760;-0.004538;-0.995584;,
   -0.022040;-0.888194;-0.458940;,
   0.581271;-0.683470;-0.441580;,
   0.047416;-0.998875;0.001056;,
   0.686215;-0.720492;-0.100000;,
   0.118427;-0.883890;0.452453;,
   0.624176;-0.721001;0.300934;,
   0.176244;-0.554662;0.813197;,
   0.733109;-0.421966;0.533382;,
   0.213293;0.009760;0.976939;,
   0.744324;0.009398;0.667753;,
   0.182392;0.553262;0.812795;,
   0.631743;0.466603;0.619017;,
   0.116315;0.882513;0.455677;,
   0.716924;0.646317;0.261334;,
   0.046489;0.998914;0.002963;,
   0.593933;0.799374;-0.090801;,
   -0.024172;0.889813;-0.455685;,
   0.593933;0.799374;-0.090801;,
   0.571471;0.693840;-0.438186;,
   0.046489;0.998914;0.002963;,
   -0.081613;0.546041;-0.833774;,
   0.436357;0.444484;-0.782321;,
   0.976230;-0.196648;-0.091128;,
   0.794254;-0.071618;-0.603351;,
   0.922721;-0.085036;0.375971;,
   0.601290;0.506117;0.618301;,
   0.059596;0.891550;0.448985;,
   0.810781;0.574941;-0.109894;,
   -0.054582;0.894744;-0.443231;,
   0.810781;0.574941;-0.109894;,
   0.382587;0.528035;-0.758160;,
   0.199616;0.465763;-0.862101;,
   0.756885;0.423223;-0.498004;,
   0.911561;0.401126;-0.090303;,
   0.840337;0.447186;0.306362;,
   0.394871;0.522362;0.755788;,
   -0.643915;0.336811;0.686973;,
   -0.983491;-0.144190;0.109339;,
   -0.783511;0.310033;-0.538507;,
   -0.983491;-0.144190;0.109339;,
   -0.111547;0.278016;-0.954078;,
   0.645567;0.763686;0.005178;,
   -0.139501;0.282954;0.948934;,
   -0.806511;-0.589610;-0.043604;,
   -0.806511;-0.589610;-0.043604;,
   0.489843;0.870727;0.043457;,
   -0.109135;0.078282;-0.990940;,
   -0.158858;0.094853;0.982735;,
   -0.705037;-0.709170;-0.000811;,
   -0.705037;-0.709170;-0.000811;,
   -0.994292;0.010888;0.106138;,
   -0.989997;0.000000;0.141086;,
   -0.987086;0.000000;-0.160192;,
   -0.991051;0.011162;0.133017;,
   -0.986974;0.002511;0.160860;,
   -0.994013;-0.001418;0.109253;,
   -0.992545;-0.006434;0.121709;,
   -0.995432;0.004747;0.095356;,
   -0.989330;-0.016035;0.144809;,
   -0.986392;0.006171;0.164294;,
   -0.915513;-0.014839;0.402014;,
   -0.996433;-0.024545;0.080744;,
   0.928789;-0.148281;-0.339652;,
   0.935714;0.014101;-0.352477;,
   0.896256;0.167901;-0.410530;,
   0.972400;0.134021;-0.190988;,
   0.967250;0.206676;-0.147351;,
   0.967250;0.206676;-0.147351;,
   0.995939;0.023235;-0.086987;,
   0.962813;0.223663;0.151544;,
   0.998945;0.001998;-0.045886;,
   0.995025;-0.067112;-0.073635;,
   0.975448;-0.219983;0.010393;,
   0.988125;0.038488;-0.148754;,
   0.972857;-0.110182;-0.203494;,
   0.886692;-0.461784;-0.023098;,
   0.342930;-0.748905;-0.567045;,
   0.587601;-0.269303;-0.763021;,
   0.886692;-0.461784;-0.023098;,
   0.241748;-0.969157;-0.047872;,
   0.886692;-0.461784;-0.023098;,
   0.343326;-0.801037;0.490374;,
   0.886692;-0.461784;-0.023098;,
   0.588160;-0.343028;0.732393;,
   0.886692;-0.461784;-0.023098;,
   0.832829;0.136575;0.536417;,
   0.886692;-0.461784;-0.023098;,
   0.934011;0.356828;0.017243;,
   0.886692;-0.461784;-0.023098;,
   0.832434;0.188707;-0.521002;,
   0.886692;-0.461784;-0.023098;,
   0.587601;-0.269303;-0.763021;,
   -0.327203;-0.591411;-0.737001;,
   -0.000373;0.049243;-0.998787;,
   -0.462362;-0.885624;-0.043490;,
   -0.326676;-0.661050;0.675497;,
   0.000373;-0.049243;0.998787;,
   0.327203;0.591412;0.737001;,
   0.462362;0.885624;0.043490;,
   0.326675;0.661051;-0.675496;,
   -0.000373;0.049243;-0.998787;,
   -0.832830;-0.136576;-0.536416;,
   -0.588160;0.343027;-0.732393;,
   -0.934011;-0.356827;-0.017243;,
   -0.832434;-0.188708;0.521001;,
   -0.587601;0.269302;0.763021;,
   -0.342931;0.748905;0.567045;,
   -0.241748;0.969158;0.047870;,
   -0.343326;0.801037;-0.490374;,
   -0.588160;0.343027;-0.732393;,
   -0.886692;0.461784;0.023097;,
   -0.886692;0.461784;0.023097;,
   -0.886692;0.461784;0.023097;,
   -0.886692;0.461784;0.023097;,
   -0.886692;0.461784;0.023097;,
   -0.886692;0.461784;0.023097;,
   -0.886692;0.461784;0.023097;,
   -0.886692;0.461784;0.023097;;
   184;
   3;0,1,2;,
   3;1,0,3;,
   3;4,2,5;,
   3;2,4,0;,
   3;6,5,7;,
   3;5,6,4;,
   3;8,7,9;,
   3;7,8,6;,
   3;10,9,11;,
   3;9,10,8;,
   3;12,11,13;,
   3;11,12,10;,
   3;14,13,15;,
   3;13,14,12;,
   3;16,15,17;,
   3;15,16,14;,
   3;18,17,19;,
   3;17,18,16;,
   3;20,21,22;,
   3;21,20,23;,
   3;24,22,25;,
   3;22,24,20;,
   3;3,25,1;,
   3;25,3,24;,
   3;26,27,28;,
   3;27,26,29;,
   3;30,28,31;,
   3;28,30,26;,
   3;32,31,33;,
   3;31,32,30;,
   3;34,33,35;,
   3;33,34,32;,
   3;36,35,37;,
   3;35,36,34;,
   3;38,37,39;,
   3;37,38,36;,
   3;40,39,41;,
   3;39,40,38;,
   3;42,41,43;,
   3;41,42,40;,
   3;44,43,45;,
   3;43,44,42;,
   3;46,47,48;,
   3;47,46,49;,
   3;50,48,51;,
   3;48,50,46;,
   3;29,51,27;,
   3;51,29,50;,
   3;5,52,7;,
   3;52,5,53;,
   3;7,54,9;,
   3;54,7,52;,
   3;13,55,15;,
   3;56,15,55;,
   3;15,56,17;,
   3;17,57,19;,
   3;57,17,56;,
   3;21,58,22;,
   3;58,21,59;,
   3;25,58,60;,
   3;58,25,22;,
   3;25,60,1;,
   3;61,53,60;,
   3;53,61,62;,
   3;53,63,52;,
   3;63,53,62;,
   3;54,63,64;,
   3;63,54,52;,
   3;54,65,55;,
   3;65,54,64;,
   3;55,65,66;,
   3;56,66,67;,
   3;66,56,55;,
   3;58,68,60;,
   3;68,58,69;,
   3;60,68,61;,
   3;62,61,70;,
   3;62,71,63;,
   3;71,62,70;,
   3;64,71,72;,
   3;71,64,63;,
   3;65,64,72;,
   3;66,65,72;,
   3;67,66,72;,
   3;67,72,73;,
   3;69,74,70;,
   3;68,69,70;,
   3;61,68,70;,
   3;75,70,76;,
   3;70,75,71;,
   3;75,72,71;,
   3;72,75,77;,
   3;72,78,73;,
   3;78,72,77;,
   3;74,76,70;,
   3;76,74,79;,
   3;80,81,82;,
   3;80,83,81;,
   3;84,83,80;,
   3;84,85,83;,
   3;86,85,84;,
   3;87,85,86;,
   3;88,89,90;,
   3;91,89,88;,
   3;85,89,91;,
   3;87,89,85;,
   3;92,27,93;,
   3;27,92,28;,
   3;93,51,94;,
   3;51,93,27;,
   3;94,48,95;,
   3;48,94,51;,
   3;95,47,96;,
   3;47,95,48;,
   3;97,43,98;,
   3;43,97,45;,
   3;98,41,99;,
   3;41,98,43;,
   3;99,39,100;,
   3;39,99,41;,
   3;100,37,101;,
   3;37,100,39;,
   3;101,35,102;,
   3;35,101,37;,
   3;102,33,103;,
   3;33,102,35;,
   3;103,31,104;,
   3;31,103,33;,
   3;104,28,92;,
   3;28,104,31;,
   3;105,106,107;,
   3;108,109,106;,
   3;110,111,109;,
   3;112,113,111;,
   3;114,115,113;,
   3;116,117,115;,
   3;118,119,117;,
   3;120,121,119;,
   3;122,107,106;,
   3;107,122,123;,
   3;124,106,109;,
   3;106,124,122;,
   3;125,109,111;,
   3;109,125,124;,
   3;126,111,113;,
   3;111,126,125;,
   3;127,113,115;,
   3;113,127,126;,
   3;128,115,117;,
   3;115,128,127;,
   3;129,117,119;,
   3;117,129,128;,
   3;130,119,121;,
   3;119,130,129;,
   3;131,123,122;,
   3;123,131,132;,
   3;133,122,124;,
   3;122,133,131;,
   3;134,124,125;,
   3;124,134,133;,
   3;135,125,126;,
   3;125,135,134;,
   3;136,126,127;,
   3;126,136,135;,
   3;137,127,128;,
   3;127,137,136;,
   3;138,128,129;,
   3;128,138,137;,
   3;139,129,130;,
   3;129,139,138;,
   3;140,132,131;,
   3;141,131,133;,
   3;142,133,134;,
   3;143,134,135;,
   3;144,135,136;,
   3;145,136,137;,
   3;146,137,138;,
   3;147,138,139;,
   3;53,1,60;,
   3;53,2,1;,
   3;53,5,2;,
   3;54,11,9;,
   3;54,13,11;,
   3;54,55,13;;
  }

  MeshMaterialList {
   1;
   184;
   0,
   0,
   0,
   0,
   0,
   0,
   0,
   0,
   0,
   0,
   0,
   0,
   0,
   0,
   0,
   0,
   0,
   0,
   0,
   0,
   0,
   0,
   0,
   0,
   0,
   0,
   0,
   0,
   0,
   0,
   0,
   0,
   0,
   0,
   0,
   0,
   0,
   0,
   0,
   0,
   0,
   0,
   0,
   0,
   0,
   0,
   0,
   0,
   0,
   0,
   0,
   0,
   0,
   0,
   0,
   0,
   0,
   0,
   0,
   0,
   0,
   0,
   0,
   0,
   0,
   0,
   0,
   0,
   0,
   0,
   0,
   0,
   0,
   0,
   0,
   0,
   0,
   0,
   0,
   0,
   0,
   0,
   0,
   0,
   0,
   0,
   0,
   0,
   0,
   0,
   0,
   0,
   0,
   0,
   0,
   0,
   0,
   0,
   0,
   0,
   0,
   0,
   0,
   0,
   0,
   0,
   0,
   0,
   0,
   0,
   0,
   0,
   0,
   0,
   0,
   0,
   0,
   0,
   0,
   0,
   0,
   0,
   0,
   0,
   0,
   0,
   0,
   0,
   0,
   0,
   0,
   0,
   0,
   0,
   0,
   0,
   0,
   0,
   0,
   0,
   0,
   0,
   0,
   0,
   0,
   0,
   0,
   0,
   0,
   0,
   0,
   0,
   0,
   0,
   0,
   0,
   0,
   0,
   0,
   0,
   0,
   0,
   0,
   0,
   0,
   0,
   0,
   0,
   0,
   0,
   0,
   0,
   0,
   0,
   0,
   0,
   0,
   0,
   0,
   0,
   0,
   0,
   0,
   0;
   { _06_-_Defaultssss }
  }

  MeshTextureCoords c1 {
   148;
   0.291461;0.748335;,
   0.301022;0.616009;,
   0.346958;0.653254;,
   0.228878;0.663946;,
   0.384198;0.809815;,
   0.418450;0.690505;,
   0.498994;0.835406;,
   0.500796;0.709071;,
   0.614743;0.815086;,
   0.583180;0.693841;,
   0.708428;0.754544;,
   0.655503;0.658632;,
   0.773039;0.670552;,
   0.702443;0.622299;,
   0.808884;0.571118;,
   0.729302;0.545657;,
   0.819295;0.459540;,
   0.735356;0.455055;,
   0.815710;0.340573;,
   0.727111;0.356620;,
   0.181243;0.454316;,
   0.270993;0.351660;,
   0.265153;0.449915;,
   0.184015;0.335552;,
   0.194917;0.564856;,
   0.274748;0.539585;,
   0.192951;0.867034;,
   0.214848;0.676635;,
   0.279082;0.763318;,
   0.107605;0.745607;,
   0.328486;0.953405;,
   0.379518;0.824333;,
   0.499076;0.983457;,
   0.499728;0.849298;,
   0.669789;0.962955;,
   0.621278;0.832293;,
   0.808948;0.878468;,
   0.719999;0.768953;,
   0.899299;0.758079;,
   0.788293;0.684594;,
   0.964255;0.630466;,
   0.830833;0.583331;,
   0.986991;0.490465;,
   0.840318;0.465735;,
   0.988705;0.350673;,
   0.846410;0.336632;,
   0.023922;0.478436;,
   0.154339;0.330787;,
   0.159970;0.459165;,
   0.012101;0.338971;,
   0.044740;0.619047;,
   0.173389;0.576872;,
   0.504174;0.552096;,
   0.425022;0.551470;,
   0.581414;0.556006;,
   0.646245;0.506236;,
   0.657090;0.444363;,
   0.654067;0.376126;,
   0.343524;0.438455;,
   0.339761;0.373912;,
   0.359841;0.499523;,
   0.406616;0.449197;,
   0.453637;0.450619;,
   0.505702;0.449645;,
   0.555306;0.454205;,
   0.599430;0.457464;,
   0.623105;0.437629;,
   0.654067;0.376126;,
   0.381626;0.433252;,
   0.339761;0.373912;,
   0.442218;0.348966;,
   0.502455;0.348103;,
   0.560174;0.345330;,
   0.598761;0.315724;,
   0.403072;0.322112;,
   0.497539;0.246082;,
   0.466065;0.249339;,
   0.530150;0.243502;,
   0.556433;0.237339;,
   0.439244;0.241195;,
   0.937344;0.095579;,
   0.937344;0.242862;,
   0.962575;0.169220;,
   0.868412;0.296771;,
   0.868412;0.041670;,
   0.774249;0.316503;,
   0.774249;0.021938;,
   0.680086;0.041670;,
   0.611154;0.242861;,
   0.611154;0.095579;,
   0.585923;0.169220;,
   0.680086;0.296771;,
   0.291461;0.748335;,
   0.228878;0.663946;,
   0.194917;0.564856;,
   0.181243;0.454316;,
   0.184015;0.335552;,
   0.815710;0.340573;,
   0.819295;0.459540;,
   0.808884;0.571118;,
   0.773039;0.670552;,
   0.708428;0.754544;,
   0.614743;0.815086;,
   0.498994;0.835406;,
   0.384198;0.809815;,
   0.063088;0.010339;,
   0.081431;0.072177;,
   0.034315;0.068066;,
   0.105919;0.011918;,
   0.131617;0.071670;,
   0.156774;0.011468;,
   0.182846;0.071280;,
   0.208479;0.011219;,
   0.234358;0.071174;,
   0.260238;0.011219;,
   0.285870;0.071281;,
   0.311944;0.011470;,
   0.337100;0.071673;,
   0.362801;0.011921;,
   0.387286;0.072182;,
   0.405631;0.010345;,
   0.434402;0.068074;,
   0.075648;0.134511;,
   0.016045;0.134509;,
   0.130093;0.134513;,
   0.182505;0.134514;,
   0.234357;0.134514;,
   0.286209;0.134514;,
   0.338621;0.134515;,
   0.393065;0.134516;,
   0.452669;0.134518;,
   0.081428;0.196845;,
   0.034312;0.200953;,
   0.131614;0.197355;,
   0.182844;0.197747;,
   0.234356;0.197854;,
   0.285868;0.197747;,
   0.337098;0.197357;,
   0.387283;0.196850;,
   0.434399;0.200960;,
   0.063081;0.258682;,
   0.105912;0.257106;,
   0.156769;0.257558;,
   0.208476;0.257809;,
   0.260236;0.257809;,
   0.311941;0.257559;,
   0.362796;0.257109;,
   0.405626;0.258688;;
  }
 }
}