xof 0303txt 0032
template ColorRGBA {
 <35ff44e0-6c7c-11cf-8f52-0040333594a3>
 FLOAT red;
 FLOAT green;
 FLOAT blue;
 FLOAT alpha;
}

template ColorRGB {
 <d3e16e81-7835-11cf-8f52-0040333594a3>
 FLOAT red;
 FLOAT green;
 FLOAT blue;
}

template Material {
 <3d82ab4d-62da-11cf-ab39-0020af71e433>
 ColorRGBA faceColor;
 FLOAT power;
 ColorRGB specularColor;
 ColorRGB emissiveColor;
 [...]
}

template TextureFilename {
 <a42790e1-7810-11cf-8f52-0040333594a3>
 STRING filename;
}

template Frame {
 <3d82ab46-62da-11cf-ab39-0020af71e433>
 [...]
}

template Matrix4x4 {
 <f6f23f45-7686-11cf-8f52-0040333594a3>
 array FLOAT matrix[16];
}

template FrameTransformMatrix {
 <f6f23f41-7686-11cf-8f52-0040333594a3>
 Matrix4x4 frameMatrix;
}

template Vector {
 <3d82ab5e-62da-11cf-ab39-0020af71e433>
 FLOAT x;
 FLOAT y;
 FLOAT z;
}

template MeshFace {
 <3d82ab5f-62da-11cf-ab39-0020af71e433>
 DWORD nFaceVertexIndices;
 array DWORD faceVertexIndices[nFaceVertexIndices];
}

template Mesh {
 <3d82ab44-62da-11cf-ab39-0020af71e433>
 DWORD nVertices;
 array Vector vertices[nVertices];
 DWORD nFaces;
 array MeshFace faces[nFaces];
 [...]
}

template MeshNormals {
 <f6f23f43-7686-11cf-8f52-0040333594a3>
 DWORD nNormals;
 array Vector normals[nNormals];
 DWORD nFaceNormals;
 array MeshFace faceNormals[nFaceNormals];
}

template MeshMaterialList {
 <f6f23f42-7686-11cf-8f52-0040333594a3>
 DWORD nMaterials;
 DWORD nFaceIndexes;
 array DWORD faceIndexes[nFaceIndexes];
 [Material <3d82ab4d-62da-11cf-ab39-0020af71e433>]
}

template Coords2d {
 <f6f23f44-7686-11cf-8f52-0040333594a3>
 FLOAT u;
 FLOAT v;
}

template MeshTextureCoords {
 <f6f23f40-7686-11cf-8f52-0040333594a3>
 DWORD nTextureCoords;
 array Coords2d textureCoords[nTextureCoords];
}


Material _23_-_Default {
 1.000000;1.000000;1.000000;1.000000;;
 9.999999;
 0.000000;0.000000;0.000000;;
 0.000000;0.000000;0.000000;;

 TextureFilename {
  "SurgicalMask.png";
 }
}

Frame M_SurgicalMask {
 

 FrameTransformMatrix {
  1.000000,0.000000,0.000000,0.000000,0.000000,1.000000,0.000000,0.000000,0.000000,0.000000,1.000000,0.000000,-0.000000,0.000000,0.000000,1.000000;;
 }

 Mesh M_SurgicalMask {
  128;
  -0.015773;-0.000106;0.057373;,
  -0.010677;0.036165;0.036073;,
  -0.017479;-0.000106;0.062140;,
  -0.008301;0.033344;0.032612;,
  0.069147;-0.000106;0.072805;,
  0.058264;0.048275;0.050213;,
  0.057809;0.046135;0.045364;,
  0.069799;-0.000106;0.077654;,
  0.069799;-0.000106;0.077654;,
  0.039176;0.046407;0.057198;,
  0.058264;0.048275;0.050213;,
  0.046754;-0.000106;0.086438;,
  0.057809;0.046135;0.045364;,
  0.046102;-0.000106;0.081589;,
  0.069147;-0.000106;0.072805;,
  0.046102;-0.000106;0.081589;,
  0.057809;0.046135;0.045364;,
  0.038721;0.044240;0.052349;,
  0.058264;0.048275;0.050213;,
  0.038721;0.044240;0.052349;,
  0.057809;0.046135;0.045364;,
  0.039176;0.046407;0.057198;,
  0.021461;0.043826;0.055490;,
  0.021081;0.045791;0.060494;,
  0.026916;-0.000106;0.081037;,
  0.038721;0.044240;0.052349;,
  0.021461;0.043826;0.055490;,
  0.038721;0.044240;0.052349;,
  0.026916;-0.000106;0.081037;,
  0.046102;-0.000106;0.081589;,
  0.021081;0.045791;0.060494;,
  0.046754;-0.000106;0.086438;,
  0.026376;-0.000106;0.086041;,
  0.039176;0.046407;0.057198;,
  0.004931;0.038855;0.050707;,
  0.003264;0.042977;0.054327;,
  0.004607;-0.000106;0.074935;,
  0.021461;0.043826;0.055490;,
  0.004931;0.038855;0.050707;,
  0.021461;0.043826;0.055490;,
  0.004607;-0.000106;0.074935;,
  0.026916;-0.000106;0.081037;,
  0.003264;0.042977;0.054327;,
  0.026376;-0.000106;0.086041;,
  0.004186;-0.000106;0.079902;,
  0.021081;0.045791;0.060494;,
  -0.008301;0.033344;0.032612;,
  -0.010677;0.036165;0.036073;,
  -0.008301;0.033344;0.032612;,
  0.004607;-0.000106;0.074935;,
  0.004931;0.038855;0.050707;,
  0.004607;-0.000106;0.074935;,
  -0.008301;0.033344;0.032612;,
  -0.015773;-0.000106;0.057373;,
  -0.017479;-0.000106;0.062140;,
  0.003264;0.042977;0.054327;,
  0.004186;-0.000106;0.079902;,
  -0.010677;0.036165;0.036073;,
  -0.010677;-0.036378;0.036073;,
  -0.008301;-0.033556;0.032612;,
  0.058264;-0.047223;0.050213;,
  0.057809;-0.045082;0.045364;,
  0.039176;-0.046579;0.057198;,
  0.058264;-0.047223;0.050213;,
  0.057809;-0.045082;0.045364;,
  0.046102;-0.000106;0.081589;,
  0.038721;-0.041407;0.052349;,
  0.046102;-0.000106;0.081589;,
  0.057809;-0.045082;0.045364;,
  0.069147;-0.000106;0.072805;,
  0.058264;-0.047223;0.050213;,
  0.038721;-0.041407;0.052349;,
  0.039176;-0.046579;0.057198;,
  0.057809;-0.045082;0.045364;,
  0.021461;-0.044038;0.055490;,
  0.021081;-0.046003;0.060494;,
  0.026916;-0.000106;0.081037;,
  0.038721;-0.041407;0.052349;,
  0.046102;-0.000106;0.081589;,
  0.038721;-0.041407;0.052349;,
  0.026916;-0.000106;0.081037;,
  0.021461;-0.044038;0.055490;,
  0.021081;-0.046003;0.060494;,
  0.039176;-0.046579;0.057198;,
  0.004931;-0.039067;0.050707;,
  0.003264;-0.043189;0.054327;,
  0.004607;-0.000106;0.074935;,
  0.021461;-0.044038;0.055490;,
  0.026916;-0.000106;0.081037;,
  0.021461;-0.044038;0.055490;,
  0.004607;-0.000106;0.074935;,
  0.004931;-0.039067;0.050707;,
  0.021081;-0.046003;0.060494;,
  0.003264;-0.043189;0.054327;,
  -0.008301;-0.033556;0.032612;,
  -0.010677;-0.036378;0.036073;,
  -0.015773;-0.000106;0.057373;,
  0.004931;-0.039067;0.050707;,
  0.004607;-0.000106;0.074935;,
  0.004931;-0.039067;0.050707;,
  -0.015773;-0.000106;0.057373;,
  -0.008301;-0.033556;0.032612;,
  0.003264;-0.043189;0.054327;,
  -0.010677;-0.036378;0.036073;,
  0.089912;-0.053976;0.002390;,
  0.051975;-0.046309;0.048752;,
  0.084836;-0.055426;0.001628;,
  0.056768;-0.045856;0.051634;,
  0.085479;-0.055039;-0.012485;,
  0.090961;-0.053360;-0.014621;,
  -0.009316;-0.036216;0.037618;,
  0.024207;-0.057276;0.011204;,
  -0.005807;-0.037797;0.042462;,
  0.020525;-0.055695;0.007276;,
  0.072004;-0.052738;-0.025188;,
  0.071725;-0.054319;-0.019811;,
  0.089912;0.053970;0.002390;,
  0.051975;0.046303;0.048752;,
  0.056768;0.045850;0.051634;,
  0.084836;0.055419;0.001628;,
  0.085479;0.055033;-0.012485;,
  0.090961;0.053353;-0.014621;,
  -0.009316;0.036210;0.037618;,
  0.024207;0.057270;0.011204;,
  0.020525;0.055689;0.007276;,
  -0.005807;0.037791;0.042462;,
  0.072004;0.052731;-0.025188;,
  0.071725;0.054313;-0.019811;;
  76;
  3;0,1,2;,
  3;1,0,3;,
  3;4,5,6;,
  3;5,4,7;,
  3;8,9,10;,
  3;9,8,11;,
  3;12,13,14;,
  3;15,16,17;,
  3;18,19,20;,
  3;19,18,21;,
  3;22,21,23;,
  3;21,22,19;,
  3;24,25,26;,
  3;27,28,29;,
  3;30,31,32;,
  3;31,30,33;,
  3;34,23,35;,
  3;23,34,22;,
  3;36,37,38;,
  3;39,40,41;,
  3;42,43,44;,
  3;43,42,45;,
  3;46,35,47;,
  3;35,46,34;,
  3;48,49,50;,
  3;51,52,53;,
  3;54,55,56;,
  3;55,54,57;,
  3;0,58,59;,
  3;58,0,2;,
  3;4,60,7;,
  3;60,4,61;,
  3;8,62,11;,
  3;62,8,63;,
  3;64,65,66;,
  3;67,68,69;,
  3;70,71,72;,
  3;71,70,73;,
  3;74,72,71;,
  3;72,74,75;,
  3;76,77,78;,
  3;79,80,81;,
  3;82,31,83;,
  3;31,82,32;,
  3;84,75,74;,
  3;75,84,85;,
  3;86,87,88;,
  3;89,90,91;,
  3;92,44,43;,
  3;44,92,93;,
  3;94,85,84;,
  3;85,94,95;,
  3;96,97,98;,
  3;99,100,101;,
  3;102,54,56;,
  3;54,102,103;,
  3;104,105,106;,
  3;105,104,107;,
  3;104,108,109;,
  3;108,104,106;,
  3;110,111,112;,
  3;111,110,113;,
  3;114,111,113;,
  3;111,114,115;,
  3;109,115,114;,
  3;115,109,108;,
  3;116,117,118;,
  3;117,116,119;,
  3;116,120,119;,
  3;120,116,121;,
  3;122,123,124;,
  3;123,122,125;,
  3;126,123,127;,
  3;123,126,124;,
  3;121,127,120;,
  3;127,121,126;;

  MeshNormals {
   128;
   0.938735;-0.000000;0.344639;,
   0.873813;0.149054;0.462853;,
   0.941490;-0.000000;0.337041;,
   0.868763;0.154300;0.470577;,
   -0.990912;0.002534;0.134486;,
   -0.976836;-0.147205;0.155316;,
   -0.976737;-0.146651;0.156456;,
   -0.991074;0.001209;0.133306;,
   -0.345180;0.001493;-0.938535;,
   -0.260712;-0.527293;-0.808697;,
   -0.247632;-0.521988;-0.816215;,
   -0.356159;0.000194;-0.934425;,
   0.299729;0.540165;0.786374;,
   0.299729;0.540165;0.786374;,
   0.299729;0.540165;0.786374;,
   0.234497;0.562018;0.793188;,
   0.234497;0.562018;0.793188;,
   0.234497;0.562018;0.793188;,
   0.226633;-0.898438;0.376095;,
   0.166292;-0.906094;0.389026;,
   0.226619;-0.898702;0.375470;,
   0.155635;-0.908363;0.388143;,
   0.133336;-0.918066;0.373332;,
   0.100561;-0.905038;0.413272;,
   0.142026;0.510723;0.847933;,
   0.142026;0.510723;0.847933;,
   0.142026;0.510723;0.847933;,
   -0.024068;0.547510;0.836453;,
   -0.024068;0.547510;0.836453;,
   -0.024068;0.547510;0.836453;,
   -0.099660;-0.531299;-0.841302;,
   -0.019157;0.000044;-0.999817;,
   0.019451;0.000000;-0.999811;,
   -0.132549;-0.542896;-0.829274;,
   -0.322688;-0.719414;0.615074;,
   -0.260643;-0.704494;0.660116;,
   -0.375193;0.491738;0.785763;,
   -0.375193;0.491738;0.785763;,
   -0.375193;0.491738;0.785763;,
   -0.233281;0.467020;0.852920;,
   -0.233281;0.467020;0.852920;,
   -0.233281;0.467020;0.852920;,
   0.323403;-0.442293;-0.836533;,
   0.282701;-0.014341;-0.959101;,
   0.281365;-0.020668;-0.959378;,
   0.355322;-0.422984;-0.833565;,
   -0.290164;-0.807905;0.512927;,
   -0.252301;-0.827563;0.501481;,
   -0.809268;0.315045;0.495814;,
   -0.809268;0.315045;0.495814;,
   -0.809268;0.315045;0.495814;,
   -0.533149;0.577054;0.618677;,
   -0.533149;0.577054;0.618677;,
   -0.533149;0.577054;0.618677;,
   0.710436;0.000000;-0.703762;,
   0.725099;-0.444494;-0.525982;,
   0.634003;0.000000;-0.773331;,
   0.781709;-0.453919;-0.427655;,
   0.873814;-0.149055;0.462853;,
   0.868763;-0.154300;0.470577;,
   -0.976150;0.150398;0.156565;,
   -0.976047;0.149793;0.157778;,
   -0.281145;0.535729;-0.796212;,
   -0.274799;0.533251;-0.800081;,
   0.175050;-0.589546;0.788538;,
   0.175050;-0.589546;0.788538;,
   0.175050;-0.589546;0.788538;,
   0.297267;-0.550788;0.779914;,
   0.297267;-0.550788;0.779914;,
   0.297267;-0.550788;0.779914;,
   0.300430;0.851728;0.429302;,
   0.165462;0.705477;0.689148;,
   0.151692;0.712094;0.685501;,
   0.302059;0.882243;0.361120;,
   0.125531;0.902109;0.412846;,
   0.099485;0.905164;0.413258;,
   -0.023535;-0.574856;0.817916;,
   -0.023535;-0.574856;0.817916;,
   -0.023535;-0.574856;0.817916;,
   0.228647;-0.510445;0.828955;,
   0.228647;-0.510445;0.828955;,
   0.228647;-0.510445;0.828955;,
   -0.100515;0.531609;-0.841005;,
   -0.133690;0.543286;-0.828835;,
   -0.322689;0.719413;0.615075;,
   -0.260645;0.704492;0.660117;,
   -0.233281;-0.467020;0.852920;,
   -0.233281;-0.467020;0.852920;,
   -0.233281;-0.467020;0.852920;,
   -0.375193;-0.491739;0.785763;,
   -0.375193;-0.491739;0.785763;,
   -0.375193;-0.491739;0.785763;,
   0.324412;0.467203;-0.822483;,
   0.354017;0.471777;-0.807526;,
   -0.290166;0.807903;0.512928;,
   -0.252303;0.827561;0.501483;,
   -0.589323;-0.430152;0.683862;,
   -0.589323;-0.430152;0.683862;,
   -0.589323;-0.430152;0.683862;,
   -0.771006;-0.481085;0.417262;,
   -0.771006;-0.481085;0.417262;,
   -0.771006;-0.481085;0.417262;,
   0.725099;0.444494;-0.525982;,
   0.781709;0.453920;-0.427654;,
   0.246388;-0.959958;0.133320;,
   0.008446;-0.985427;0.169887;,
   0.246252;-0.953585;0.173310;,
   -0.003247;-0.987017;0.160582;,
   0.213307;-0.956012;-0.201347;,
   0.223412;-0.961239;-0.161576;,
   -0.488788;-0.869360;0.072802;,
   -0.295250;-0.949347;-0.107554;,
   -0.489816;-0.868918;0.071146;,
   -0.322364;-0.943431;-0.077588;,
   0.006797;-0.959601;-0.281282;,
   -0.007279;-0.957718;-0.287617;,
   0.246387;0.959958;0.133320;,
   0.008444;0.985428;0.169886;,
   -0.003248;0.987017;0.160582;,
   0.246251;0.953585;0.173310;,
   0.213308;0.956012;-0.201347;,
   0.223413;0.961239;-0.161577;,
   -0.488788;0.869360;0.072803;,
   -0.295251;0.949347;-0.107555;,
   -0.322365;0.943430;-0.077589;,
   -0.489815;0.868918;0.071147;,
   0.006797;0.959601;-0.281282;,
   -0.007279;0.957718;-0.287617;;
   76;
   3;0,1,2;,
   3;1,0,3;,
   3;4,5,6;,
   3;5,4,7;,
   3;8,9,10;,
   3;9,8,11;,
   3;12,13,14;,
   3;15,16,17;,
   3;18,19,20;,
   3;19,18,21;,
   3;22,21,23;,
   3;21,22,19;,
   3;24,25,26;,
   3;27,28,29;,
   3;30,31,32;,
   3;31,30,33;,
   3;34,23,35;,
   3;23,34,22;,
   3;36,37,38;,
   3;39,40,41;,
   3;42,43,44;,
   3;43,42,45;,
   3;46,35,47;,
   3;35,46,34;,
   3;48,49,50;,
   3;51,52,53;,
   3;54,55,56;,
   3;55,54,57;,
   3;0,58,59;,
   3;58,0,2;,
   3;4,60,7;,
   3;60,4,61;,
   3;8,62,11;,
   3;62,8,63;,
   3;64,65,66;,
   3;67,68,69;,
   3;70,71,72;,
   3;71,70,73;,
   3;74,72,71;,
   3;72,74,75;,
   3;76,77,78;,
   3;79,80,81;,
   3;82,31,83;,
   3;31,82,32;,
   3;84,75,74;,
   3;75,84,85;,
   3;86,87,88;,
   3;89,90,91;,
   3;92,44,43;,
   3;44,92,93;,
   3;94,85,84;,
   3;85,94,95;,
   3;96,97,98;,
   3;99,100,101;,
   3;102,54,56;,
   3;54,102,103;,
   3;104,105,106;,
   3;105,104,107;,
   3;104,108,109;,
   3;108,104,106;,
   3;110,111,112;,
   3;111,110,113;,
   3;114,111,113;,
   3;111,114,115;,
   3;109,115,114;,
   3;115,109,108;,
   3;116,117,118;,
   3;117,116,119;,
   3;116,120,119;,
   3;120,116,121;,
   3;122,123,124;,
   3;123,122,125;,
   3;126,123,127;,
   3;123,126,124;,
   3;121,127,120;,
   3;127,121,126;;
  }

  MeshMaterialList {
   1;
   76;
   0,
   0,
   0,
   0,
   0,
   0,
   0,
   0,
   0,
   0,
   0,
   0,
   0,
   0,
   0,
   0,
   0,
   0,
   0,
   0,
   0,
   0,
   0,
   0,
   0,
   0,
   0,
   0,
   0,
   0,
   0,
   0,
   0,
   0,
   0,
   0,
   0,
   0,
   0,
   0,
   0,
   0,
   0,
   0,
   0,
   0,
   0,
   0,
   0,
   0,
   0,
   0,
   0,
   0,
   0,
   0,
   0,
   0,
   0,
   0,
   0,
   0,
   0,
   0,
   0,
   0,
   0,
   0,
   0,
   0,
   0,
   0,
   0,
   0,
   0,
   0;
   { _23_-_Default }
  }

  MeshTextureCoords c1 {
   128;
   0.694594;0.065461;,
   0.924027;0.180034;,
   0.692177;0.044162;,
   0.912062;0.200337;,
   0.692948;0.067124;,
   0.923966;0.178977;,
   0.912536;0.201776;,
   0.692948;0.043117;,
   0.398438;0.242188;,
   0.757813;0.414063;,
   0.757813;0.242188;,
   0.400246;0.416858;,
   0.757813;0.953125;,
   0.399889;0.765769;,
   0.398438;0.953125;,
   0.399889;0.765769;,
   0.757813;0.953125;,
   0.757813;0.765625;,
   0.829086;0.260684;,
   0.884277;0.453161;,
   0.787571;0.273146;,
   0.925792;0.440699;,
   0.943972;0.621111;,
   0.988407;0.616771;,
   0.399889;0.608793;,
   0.757813;0.765625;,
   0.757813;0.610629;,
   0.757813;0.765625;,
   0.399889;0.608793;,
   0.399889;0.765769;,
   0.757813;0.610629;,
   0.400246;0.416858;,
   0.400246;0.609028;,
   0.757813;0.414063;,
   0.933084;0.794648;,
   0.967829;0.805465;,
   0.399889;0.415545;,
   0.757813;0.610629;,
   0.757813;0.414063;,
   0.757813;0.610629;,
   0.399889;0.415545;,
   0.399889;0.608793;,
   0.757813;0.765625;,
   0.400246;0.609028;,
   0.400246;0.765060;,
   0.757813;0.610629;,
   0.799718;0.956794;,
   0.834401;0.974983;,
   0.757813;0.242188;,
   0.399889;0.415545;,
   0.757813;0.414063;,
   0.399889;0.415545;,
   0.757813;0.242188;,
   0.398438;0.242188;,
   0.398438;0.953125;,
   0.757813;0.765625;,
   0.400246;0.765060;,
   0.757813;0.953125;,
   0.467710;0.177936;,
   0.478236;0.202468;,
   0.467966;0.178977;,
   0.478188;0.202984;,
   0.046875;0.414063;,
   0.046875;0.242188;,
   0.046875;0.953125;,
   0.399889;0.765769;,
   0.046875;0.765625;,
   0.399889;0.765769;,
   0.046875;0.953125;,
   0.398438;0.953125;,
   0.829696;0.260135;,
   0.884743;0.451103;,
   0.926659;0.442604;,
   0.787780;0.274355;,
   0.945935;0.620368;,
   0.988840;0.616600;,
   0.399889;0.608793;,
   0.046875;0.765625;,
   0.399889;0.765769;,
   0.046875;0.765625;,
   0.399889;0.608793;,
   0.046875;0.610629;,
   0.046875;0.610629;,
   0.046875;0.414063;,
   0.933390;0.794171;,
   0.967786;0.806338;,
   0.399889;0.415545;,
   0.046875;0.610629;,
   0.399889;0.608793;,
   0.046875;0.610629;,
   0.399889;0.415545;,
   0.046875;0.414063;,
   0.046875;0.610629;,
   0.046875;0.765625;,
   0.799537;0.957334;,
   0.834992;0.975464;,
   0.398438;0.242188;,
   0.046875;0.414063;,
   0.399889;0.415545;,
   0.046875;0.414063;,
   0.398438;0.242188;,
   0.046875;0.242188;,
   0.046875;0.765625;,
   0.046875;0.953125;,
   0.073865;0.059410;,
   0.266948;0.035524;,
   0.086077;0.072595;,
   0.259646;0.017987;,
   0.056738;0.104346;,
   0.037761;0.097063;,
   0.410611;0.199289;,
   0.268459;0.186166;,
   0.410615;0.180021;,
   0.270717;0.203669;,
   0.066932;0.166690;,
   0.079534;0.152451;,
   0.073096;0.059874;,
   0.267191;0.035283;,
   0.259082;0.017727;,
   0.085221;0.072565;,
   0.056390;0.103988;,
   0.039007;0.097027;,
   0.412833;0.199135;,
   0.267925;0.183656;,
   0.270732;0.203785;,
   0.409005;0.182060;,
   0.066487;0.167410;,
   0.078872;0.152277;;
  }
 }
}