xof 0303txt 0032
template ColorRGBA {
 <35ff44e0-6c7c-11cf-8f52-0040333594a3>
 FLOAT red;
 FLOAT green;
 FLOAT blue;
 FLOAT alpha;
}

template ColorRGB {
 <d3e16e81-7835-11cf-8f52-0040333594a3>
 FLOAT red;
 FLOAT green;
 FLOAT blue;
}

template Material {
 <3d82ab4d-62da-11cf-ab39-0020af71e433>
 ColorRGBA faceColor;
 FLOAT power;
 ColorRGB specularColor;
 ColorRGB emissiveColor;
 [...]
}

template TextureFilename {
 <a42790e1-7810-11cf-8f52-0040333594a3>
 STRING filename;
}

template Frame {
 <3d82ab46-62da-11cf-ab39-0020af71e433>
 [...]
}

template Matrix4x4 {
 <f6f23f45-7686-11cf-8f52-0040333594a3>
 array FLOAT matrix[16];
}

template FrameTransformMatrix {
 <f6f23f41-7686-11cf-8f52-0040333594a3>
 Matrix4x4 frameMatrix;
}

template Vector {
 <3d82ab5e-62da-11cf-ab39-0020af71e433>
 FLOAT x;
 FLOAT y;
 FLOAT z;
}

template MeshFace {
 <3d82ab5f-62da-11cf-ab39-0020af71e433>
 DWORD nFaceVertexIndices;
 array DWORD faceVertexIndices[nFaceVertexIndices];
}

template Mesh {
 <3d82ab44-62da-11cf-ab39-0020af71e433>
 DWORD nVertices;
 array Vector vertices[nVertices];
 DWORD nFaces;
 array MeshFace faces[nFaces];
 [...]
}

template MeshNormals {
 <f6f23f43-7686-11cf-8f52-0040333594a3>
 DWORD nNormals;
 array Vector normals[nNormals];
 DWORD nFaceNormals;
 array MeshFace faceNormals[nFaceNormals];
}

template MeshMaterialList {
 <f6f23f42-7686-11cf-8f52-0040333594a3>
 DWORD nMaterials;
 DWORD nFaceIndexes;
 array DWORD faceIndexes[nFaceIndexes];
 [Material <3d82ab4d-62da-11cf-ab39-0020af71e433>]
}

template Coords2d {
 <f6f23f44-7686-11cf-8f52-0040333594a3>
 FLOAT u;
 FLOAT v;
}

template MeshTextureCoords {
 <f6f23f40-7686-11cf-8f52-0040333594a3>
 DWORD nTextureCoords;
 array Coords2d textureCoords[nTextureCoords];
}


Material Material__57 {
 1.000000;1.000000;1.000000;1.000000;;
 9.999999;
 0.000000;0.000000;0.000000;;
 0.000000;0.000000;0.000000;;

 TextureFilename {
  "WoolyHat.png";
 }
}

Frame Dummy005 {
 

 FrameTransformMatrix {
  1.000001,0.000000,-0.000000,0.000000,0.000000,1.000001,0.000000,0.000000,-0.000001,-0.000001,1.000000,0.000000,-0.000000,0.000000,0.000000,1.000000;;
 }

 Frame M_WoolyHat {
  

  FrameTransformMatrix {
   1.000000,0.000000,-0.000000,0.000000,0.000000,1.000000,0.000000,0.000000,-0.000000,0.000000,1.000000,0.000000,0.000000,0.000000,0.000000,1.000000;;
  }

  Mesh M_WoolyHat {
   91;
   0.184376;0.000000;-0.025730;,
   0.161457;-0.028060;-0.053895;,
   0.157539;0.000000;-0.068513;,
   0.169898;-0.041083;-0.022396;,
   0.178340;-0.028060;0.009102;,
   0.182257;-0.000000;0.023721;,
   0.178340;0.028060;0.009102;,
   0.169898;0.041083;-0.022396;,
   0.161457;0.028060;-0.053895;,
   0.129782;-0.040755;-0.060125;,
   0.157539;0.000000;-0.068513;,
   0.161457;-0.028060;-0.053895;,
   0.124088;0.000000;-0.081356;,
   0.142051;-0.059670;-0.014379;,
   0.169898;-0.041083;-0.022396;,
   0.154319;-0.043433;0.035145;,
   0.178340;-0.028060;0.009102;,
   0.160013;-0.000000;0.058397;,
   0.182257;-0.000000;0.023721;,
   0.157607;0.031795;0.048569;,
   0.182257;-0.000000;0.023721;,
   0.178340;0.028060;0.009102;,
   0.160013;-0.000000;0.058397;,
   0.151032;0.055070;0.021721;,
   0.142051;0.059670;-0.014378;,
   0.169898;0.041083;-0.022396;,
   0.129782;0.040755;-0.060125;,
   0.161457;0.028060;-0.053895;,
   0.124088;0.000000;-0.081356;,
   0.157539;0.000000;-0.068513;,
   0.071245;-0.035102;-0.066841;,
   0.068524;0.000000;-0.076985;,
   0.078677;-0.060798;-0.039128;,
   0.088830;-0.067452;-0.000105;,
   0.098983;-0.058415;0.037751;,
   0.106415;-0.033726;0.065464;,
   0.109135;-0.000000;0.075608;,
   0.106415;0.033726;0.065464;,
   0.109135;-0.000000;0.075608;,
   0.098983;0.058415;0.037751;,
   0.088830;0.067452;-0.000105;,
   0.078677;0.060798;-0.039128;,
   0.071245;0.035102;-0.066841;,
   0.068524;0.000000;-0.076985;,
   0.068524;0.000000;-0.076985;,
   0.071245;-0.035102;-0.066841;,
   0.095842;0.000000;-0.001986;,
   0.078677;-0.060798;-0.039128;,
   0.088830;-0.067452;-0.000105;,
   0.098983;-0.058415;0.037751;,
   0.106415;-0.033726;0.065464;,
   0.109135;-0.000000;0.075608;,
   0.106415;0.033726;0.065464;,
   0.098983;0.058415;0.037751;,
   0.088830;0.067452;-0.000105;,
   0.078677;0.060798;-0.039128;,
   0.071245;0.035102;-0.066841;,
   0.221186;0.000000;-0.035608;,
   0.213076;-0.009834;-0.043616;,
   0.212021;0.000000;-0.047551;,
   0.215621;-0.013908;-0.034117;,
   0.218166;-0.009834;-0.024617;,
   0.219221;0.000000;-0.020683;,
   0.221186;0.000000;-0.035608;,
   0.218166;0.009834;-0.024617;,
   0.219221;0.000000;-0.020683;,
   0.215621;0.013908;-0.034117;,
   0.213076;0.009834;-0.043616;,
   0.212021;0.000000;-0.047551;,
   0.198587;-0.013908;-0.043951;,
   0.197096;0.000000;-0.049516;,
   0.202187;-0.019669;-0.030517;,
   0.205787;-0.013908;-0.017083;,
   0.207278;0.000000;-0.011518;,
   0.205787;0.013908;-0.017083;,
   0.207278;0.000000;-0.011518;,
   0.202187;0.019669;-0.030517;,
   0.198587;0.013908;-0.043951;,
   0.197096;0.000000;-0.049516;,
   0.186208;-0.009834;-0.036417;,
   0.185153;0.000000;-0.040352;,
   0.188753;-0.013908;-0.026917;,
   0.191298;-0.009834;-0.017418;,
   0.192352;0.000000;-0.013483;,
   0.191298;0.009834;-0.017418;,
   0.192352;0.000000;-0.013483;,
   0.188753;0.013908;-0.026917;,
   0.186208;0.009834;-0.036417;,
   0.185153;0.000000;-0.040352;,
   0.183188;0.000000;-0.025426;,
   0.183188;0.000000;-0.025426;;
   106;
   3;0,1,2;,
   3;0,3,1;,
   3;0,4,3;,
   3;0,5,4;,
   3;0,6,5;,
   3;0,7,6;,
   3;0,8,7;,
   3;0,2,8;,
   3;9,10,11;,
   3;10,9,12;,
   3;13,11,14;,
   3;11,13,9;,
   3;15,14,16;,
   3;14,15,13;,
   3;17,16,18;,
   3;16,17,15;,
   3;19,20,21;,
   3;20,19,22;,
   3;21,23,19;,
   3;24,21,25;,
   3;21,24,23;,
   3;26,25,27;,
   3;25,26,24;,
   3;28,27,29;,
   3;27,28,26;,
   3;30,12,9;,
   3;12,30,31;,
   3;9,32,30;,
   3;32,13,33;,
   3;13,32,9;,
   3;34,13,15;,
   3;13,34,33;,
   3;15,35,34;,
   3;36,15,17;,
   3;15,36,35;,
   3;37,22,19;,
   3;22,37,38;,
   3;39,19,23;,
   3;19,39,37;,
   3;40,23,24;,
   3;23,40,39;,
   3;41,24,26;,
   3;24,41,40;,
   3;26,42,41;,
   3;43,26,28;,
   3;26,43,42;,
   3;44,45,46;,
   3;45,47,46;,
   3;47,48,46;,
   3;48,49,46;,
   3;49,50,46;,
   3;50,51,46;,
   3;51,52,46;,
   3;52,53,46;,
   3;53,54,46;,
   3;54,55,46;,
   3;55,56,46;,
   3;56,44,46;,
   3;57,58,59;,
   3;57,60,58;,
   3;57,61,60;,
   3;57,62,61;,
   3;63,64,65;,
   3;63,66,64;,
   3;63,67,66;,
   3;63,68,67;,
   3;69,59,58;,
   3;59,69,70;,
   3;71,58,60;,
   3;58,71,69;,
   3;72,60,61;,
   3;60,72,71;,
   3;73,61,62;,
   3;61,73,72;,
   3;74,65,64;,
   3;65,74,75;,
   3;76,64,66;,
   3;64,76,74;,
   3;77,66,67;,
   3;66,77,76;,
   3;78,67,68;,
   3;67,78,77;,
   3;79,70,69;,
   3;70,79,80;,
   3;81,69,71;,
   3;69,81,79;,
   3;82,71,72;,
   3;71,82,81;,
   3;83,72,73;,
   3;72,83,82;,
   3;84,75,74;,
   3;75,84,85;,
   3;86,74,76;,
   3;74,86,84;,
   3;87,76,77;,
   3;76,87,86;,
   3;88,77,78;,
   3;77,88,87;,
   3;89,80,79;,
   3;89,79,81;,
   3;89,81,82;,
   3;89,82,83;,
   3;90,85,84;,
   3;90,84,86;,
   3;90,86,87;,
   3;90,87,88;;

   MeshNormals {
    91;
    0.966836;0.000000;-0.255399;,
    0.617459;-0.492780;-0.613117;,
    0.577228;0.000012;-0.816583;,
    0.721052;-0.660875;-0.208155;,
    0.865165;-0.466393;0.184303;,
    0.938918;-0.026823;0.343093;,
    0.876870;0.459509;0.141245;,
    0.719329;0.666576;-0.195556;,
    0.617446;0.492799;-0.613115;,
    0.232035;-0.680510;-0.695030;,
    0.577228;0.000012;-0.816583;,
    0.617459;-0.492780;-0.613117;,
    0.142787;0.022854;-0.989490;,
    0.350834;-0.930211;-0.107809;,
    0.721052;-0.660875;-0.208155;,
    0.523269;-0.692362;0.496815;,
    0.865165;-0.466393;0.184303;,
    0.589865;-0.087378;0.802760;,
    0.938918;-0.026823;0.343093;,
    0.559992;0.507934;0.654532;,
    0.938918;-0.026823;0.343093;,
    0.876870;0.459509;0.141245;,
    0.589865;-0.087378;0.802760;,
    0.467812;0.843211;0.264855;,
    0.353043;0.921145;-0.163868;,
    0.719329;0.666576;-0.195556;,
    0.217717;0.672622;-0.707234;,
    0.617446;0.492799;-0.613115;,
    0.142787;0.022854;-0.989490;,
    0.577228;0.000012;-0.816583;,
    -0.752947;-0.430665;-0.497593;,
    -0.780136;0.036579;-0.624539;,
    -0.672701;-0.716342;-0.185279;,
    -0.623153;-0.758791;0.189518;,
    -0.535531;-0.692585;0.483253;,
    -0.417258;-0.396047;0.817950;,
    -0.413776;-0.038458;0.909566;,
    -0.470841;0.415628;0.778179;,
    -0.413776;-0.038458;0.909566;,
    -0.555264;0.667309;0.496367;,
    -0.634441;0.752646;0.176093;,
    -0.672701;0.716342;-0.185278;,
    -0.737917;0.405315;-0.539628;,
    -0.780136;0.036579;-0.624539;,
    -0.780136;0.036579;-0.624539;,
    -0.752947;-0.430665;-0.497593;,
    -0.966863;-0.000000;0.255297;,
    -0.672701;-0.716342;-0.185279;,
    -0.623153;-0.758791;0.189518;,
    -0.535531;-0.692585;0.483253;,
    -0.417258;-0.396047;0.817950;,
    -0.413776;-0.038458;0.909566;,
    -0.470841;0.415628;0.778179;,
    -0.555264;0.667309;0.496367;,
    -0.634441;0.752646;0.176093;,
    -0.672701;0.716342;-0.185278;,
    -0.737917;0.405315;-0.539628;,
    0.965926;0.000000;-0.258819;,
    0.503408;-0.529350;-0.682912;,
    0.446655;0.000000;-0.894706;,
    0.640413;-0.748616;-0.171597;,
    0.777418;-0.529352;0.339716;,
    0.834170;-0.000001;0.551508;,
    0.965926;0.000000;-0.258819;,
    0.777418;0.529353;0.339715;,
    0.834170;-0.000001;0.551508;,
    0.640413;0.748616;-0.171596;,
    0.503408;0.529351;-0.682912;,
    0.446655;0.000000;-0.894706;,
    -0.183013;-0.707106;-0.683013;,
    -0.258819;0.000000;-0.965926;,
    -0.000001;-1.000000;-0.000000;,
    0.183013;-0.707107;0.683012;,
    0.258818;-0.000001;0.965926;,
    0.183013;0.707107;0.683013;,
    0.258818;-0.000001;0.965926;,
    -0.000001;1.000000;0.000001;,
    -0.183013;0.707107;-0.683012;,
    -0.258819;0.000000;-0.965926;,
    -0.777419;-0.529351;-0.339717;,
    -0.834169;0.000000;-0.551509;,
    -0.640414;-0.748615;0.171599;,
    -0.503405;-0.529353;0.682912;,
    -0.446659;-0.000000;0.894704;,
    -0.503405;0.529352;0.682913;,
    -0.446659;-0.000000;0.894704;,
    -0.640414;0.748615;0.171599;,
    -0.777419;0.529351;-0.339716;,
    -0.834169;0.000000;-0.551509;,
    -0.965926;-0.000000;0.258819;,
    -0.965926;-0.000000;0.258819;;
    106;
    3;0,1,2;,
    3;0,3,1;,
    3;0,4,3;,
    3;0,5,4;,
    3;0,6,5;,
    3;0,7,6;,
    3;0,8,7;,
    3;0,2,8;,
    3;9,10,11;,
    3;10,9,12;,
    3;13,11,14;,
    3;11,13,9;,
    3;15,14,16;,
    3;14,15,13;,
    3;17,16,18;,
    3;16,17,15;,
    3;19,20,21;,
    3;20,19,22;,
    3;21,23,19;,
    3;24,21,25;,
    3;21,24,23;,
    3;26,25,27;,
    3;25,26,24;,
    3;28,27,29;,
    3;27,28,26;,
    3;30,12,9;,
    3;12,30,31;,
    3;9,32,30;,
    3;32,13,33;,
    3;13,32,9;,
    3;34,13,15;,
    3;13,34,33;,
    3;15,35,34;,
    3;36,15,17;,
    3;15,36,35;,
    3;37,22,19;,
    3;22,37,38;,
    3;39,19,23;,
    3;19,39,37;,
    3;40,23,24;,
    3;23,40,39;,
    3;41,24,26;,
    3;24,41,40;,
    3;26,42,41;,
    3;43,26,28;,
    3;26,43,42;,
    3;44,45,46;,
    3;45,47,46;,
    3;47,48,46;,
    3;48,49,46;,
    3;49,50,46;,
    3;50,51,46;,
    3;51,52,46;,
    3;52,53,46;,
    3;53,54,46;,
    3;54,55,46;,
    3;55,56,46;,
    3;56,44,46;,
    3;57,58,59;,
    3;57,60,58;,
    3;57,61,60;,
    3;57,62,61;,
    3;63,64,65;,
    3;63,66,64;,
    3;63,67,66;,
    3;63,68,67;,
    3;69,59,58;,
    3;59,69,70;,
    3;71,58,60;,
    3;58,71,69;,
    3;72,60,61;,
    3;60,72,71;,
    3;73,61,62;,
    3;61,73,72;,
    3;74,65,64;,
    3;65,74,75;,
    3;76,64,66;,
    3;64,76,74;,
    3;77,66,67;,
    3;66,77,76;,
    3;78,67,68;,
    3;67,78,77;,
    3;79,70,69;,
    3;70,79,80;,
    3;81,69,71;,
    3;69,81,79;,
    3;82,71,72;,
    3;71,82,81;,
    3;83,72,73;,
    3;72,83,82;,
    3;84,75,74;,
    3;75,84,85;,
    3;86,74,76;,
    3;74,86,84;,
    3;87,76,77;,
    3;76,87,86;,
    3;88,77,78;,
    3;77,88,87;,
    3;89,80,79;,
    3;89,79,81;,
    3;89,81,82;,
    3;89,82,83;,
    3;90,85,84;,
    3;90,84,86;,
    3;90,86,87;,
    3;90,87,88;;
   }

   MeshMaterialList {
    1;
    106;
    0,
    0,
    0,
    0,
    0,
    0,
    0,
    0,
    0,
    0,
    0,
    0,
    0,
    0,
    0,
    0,
    0,
    0,
    0,
    0,
    0,
    0,
    0,
    0,
    0,
    0,
    0,
    0,
    0,
    0,
    0,
    0,
    0,
    0,
    0,
    0,
    0,
    0,
    0,
    0,
    0,
    0,
    0,
    0,
    0,
    0,
    0,
    0,
    0,
    0,
    0,
    0,
    0,
    0,
    0,
    0,
    0,
    0,
    0,
    0,
    0,
    0,
    0,
    0,
    0,
    0,
    0,
    0,
    0,
    0,
    0,
    0,
    0,
    0,
    0,
    0,
    0,
    0,
    0,
    0,
    0,
    0,
    0,
    0,
    0,
    0,
    0,
    0,
    0,
    0,
    0,
    0,
    0,
    0,
    0,
    0,
    0,
    0,
    0,
    0,
    0,
    0,
    0,
    0,
    0,
    0;
    { Material__57 }
   }

   MeshTextureCoords c1 {
    91;
    0.387453;0.779338;,
    0.285667;0.664162;,
    0.387453;0.609474;,
    0.238428;0.781999;,
    0.285667;0.899836;,
    0.387453;0.954525;,
    0.489239;0.899836;,
    0.536478;0.781999;,
    0.489239;0.664163;,
    0.249236;0.259042;,
    0.114759;0.090159;,
    0.297122;0.072409;,
    0.040052;0.278004;,
    0.480493;0.237112;,
    0.466461;0.058657;,
    0.711750;0.215563;,
    0.635038;0.039576;,
    0.916365;0.187082;,
    0.813595;0.014972;,
    0.780555;0.206151;,
    0.812127;0.015339;,
    0.635604;0.040225;,
    0.915794;0.187189;,
    0.641287;0.222972;,
    0.480678;0.237059;,
    0.466449;0.057365;,
    0.249641;0.258486;,
    0.296498;0.073433;,
    0.038671;0.276877;,
    0.113878;0.089337;,
    0.162182;0.524139;,
    0.019015;0.535101;,
    0.321621;0.508657;,
    0.503454;0.492115;,
    0.686269;0.476238;,
    0.839491;0.458306;,
    0.984748;0.439095;,
    0.843076;0.457819;,
    0.982493;0.438793;,
    0.686530;0.476025;,
    0.503312;0.491707;,
    0.320582;0.507426;,
    0.163663;0.523060;,
    0.014923;0.535447;,
    0.790271;0.975889;,
    0.692403;0.945530;,
    0.790271;0.751128;,
    0.620759;0.862588;,
    0.594536;0.749287;,
    0.620759;0.635986;,
    0.692403;0.553044;,
    0.790271;0.522685;,
    0.888139;0.553044;,
    0.959783;0.635986;,
    0.986007;0.749287;,
    0.959783;0.862588;,
    0.888139;0.945530;,
    0.116601;0.580234;,
    0.076811;0.608470;,
    0.040950;0.609990;,
    0.118750;0.604801;,
    0.160689;0.601131;,
    0.204181;0.599612;,
    0.116825;0.580371;,
    0.160913;0.601269;,
    0.204470;0.599749;,
    0.118974;0.604938;,
    0.077036;0.608607;,
    0.041239;0.610127;,
    0.064629;0.669300;,
    0.016027;0.671449;,
    0.123939;0.664111;,
    0.183249;0.658922;,
    0.231787;0.656772;,
    0.183473;0.659059;,
    0.232075;0.656910;,
    0.124163;0.664248;,
    0.064853;0.669437;,
    0.016315;0.671587;,
    0.087189;0.727090;,
    0.048203;0.731657;,
    0.129128;0.723421;,
    0.171067;0.719752;,
    0.206864;0.718232;,
    0.171291;0.719889;,
    0.207152;0.718370;,
    0.129352;0.723559;,
    0.087414;0.727228;,
    0.048492;0.731795;,
    0.131277;0.747988;,
    0.131501;0.748126;;
   }
  }
 }
}